{
  "header": {
    "version": 4,
    "description": "Karaoke Mugen Karaoke Data File"
  },
  "medias": [
    {
      "version": "Default",
      "filename": "CHI - Wu Shan Wu Xing - OVA OP - Yuan hai wuwei.mp4",
      "audiogain": -5.1,
      "loudnorm": "-11.67,0.96,4.60,-21.94,-0.14",
      "filesize": 55695429,
      "duration": 99,
      "default": true,
      "lyrics": [
        {
          "filename": "CHI - Wu Shan Wu Xing - OVA OP - Yuan hai wuwei.ass",
          "default": true,
          "version": "Default"
        }
      ]
    }
  ],
  "data": {
    "created_at": "2023-04-29T22:37:20.159Z",
    "ignoreHooks": false,
    "kid": "01259901-0a00-4eb4-aa4f-c006e6dc3eb6",
    "modified_at": "2023-04-29T22:37:20.878Z",
    "repository": "kara.moe",
    "tags": {
      "authors": [
        "af46fa57-30b5-4241-a30a-2abaeb058a1e"
      ],
      "collections": [
        "c7db86a0-ff64-4044-9be4-66dd1ef1d1c1"
      ],
      "creators": [
        "72c1d71d-e0f2-4fde-a628-8d33377f5b0a",
        "13166810-4199-4718-be0b-4a8f2f354bd6"
      ],
      "families": [
        "0377db02-3af6-43b8-9b08-c759df3d25c3"
      ],
      "groups": [
        "df5f446f-d161-4760-8e0c-822e70ea03ae",
        "8e209ae4-4381-438f-89dc-1b21752027d2"
      ],
      "langs": [
        "ad109694-16f7-4386-b8c2-a6db05ad3530"
      ],
      "origins": [
        "2a6ef087-a000-4f8e-aeb5-9a7968756a36"
      ],
      "series": [
        "e60a084b-b3fc-4627-8a6d-84cf3d5d6c11"
      ],
      "singers": [
        "59297a35-6efd-444b-8fe1-d5b4796f4018"
      ],
      "songtypes": [
        "f02ad9b3-0bd9-4aad-85b3-9976739ba0e4"
      ]
    },
    "titles": {
      "chi": "渊海无畏",
      "qro": "Yuān hǎi wúwèi",
      "eng": "No Fear of the Deep Ocean"
    },
    "titles_default_language": "qro",
    "year": 2020
  }
}