{
  "header": {
    "version": 4,
    "description": "Karaoke Mugen Karaoke Data File"
  },
  "medias": [
    {
      "version": "Default",
      "filename": "ENG - Titanic - MOVIE MV - My Heart Will Go On.mp4",
      "audiogain": -2.33,
      "loudnorm": "-16.01,-0.92,10.40,-26.35,-1.57",
      "filesize": 56178049,
      "duration": 275,
      "default": true,
      "lyrics": [
        {
          "filename": "ENG - Titanic - MOVIE MV - My Heart Will Go On.ass",
          "default": true,
          "version": "Default"
        }
      ]
    }
  ],
  "data": {
    "created_at": "2022-05-04T20:20:50.992Z",
    "ignoreHooks": false,
    "kid": "b68bbc7b-af48-4c03-ba77-a68af83b309e",
    "modified_at": "2022-05-23T18:27:35.970Z",
    "repository": "kara.moe",
    "tags": {
      "authors": [
        "0c8e4377-ee35-4896-89ed-9d06a1b5acd5"
      ],
      "collections": [
        "efe171c0-e8a1-4d03-98c0-60ecf741ad52"
      ],
      "creators": [
        "1cd2f13e-05cb-49b5-b42f-96260f7a162b",
        "28a02f79-daaf-4037-8897-3458e80a5b41"
      ],
      "families": [
        "5391f9fe-638c-415f-8dc9-958e3a2c5787"
      ],
      "groups": [
        "24db50aa-a126-4d34-a48a-e45db79c4245"
      ],
      "langs": [
        "de5eda1c-5fb3-46a6-9606-d4554fc5a1d6"
      ],
      "origins": [
        "c8ca9dea-d8b4-48fe-8427-d911653232e9"
      ],
      "series": [
        "52e4a777-05d8-49eb-8e62-c984748f0cc9"
      ],
      "singers": [
        "84f92f09-fd9b-4235-a7ff-e0427798349e"
      ],
      "songtypes": [
        "7be1b15c-cff8-4b37-a649-5c90f3d569a9"
      ],
      "songwriters": [
        "97994e5a-c70a-4394-8b6b-81c1d8a6e107",
        "c13e8444-9d99-465a-bdf4-2944857b15ef",
        "d162769a-bfa0-4f8a-863c-42a62b076df8",
        "df9d1874-07f7-4909-a3ad-521ad152bb08"
      ]
    },
    "titles": {
      "eng": "My Heart Will Go On"
    },
    "titles_default_language": "eng",
    "title": "My Heart Will Go On",
    "year": 1997
  }
}