{
  "header": {
    "version": 4,
    "description": "Karaoke Mugen Karaoke Data File"
  },
  "medias": [
    {
      "version": "Default",
      "filename": "ENG - Tom Jones - MV - Sex Bomb.mp4",
      "audiogain": 0.92,
      "loudnorm": "-18.79,-5.65,3.20,-28.92,-0.76",
      "filesize": 26557154,
      "duration": 211,
      "default": true,
      "lyrics": [
        {
          "filename": "ENG - Tom Jones - MV - Sex Bomb.ass",
          "default": true,
          "version": "Default"
        }
      ]
    }
  ],
  "data": {
    "created_at": "2022-04-22T12:22:38.845Z",
    "ignoreHooks": false,
    "kid": "f30bd10f-9ca7-4d4d-8fb8-a2943e70f46d",
    "modified_at": "2022-04-22T12:25:06.810Z",
    "repository": "kara.moe",
    "tags": {
      "authors": [
        "9c120131-f3e2-4538-aee6-4acce47d856d"
      ],
      "collections": [
        "efe171c0-e8a1-4d03-98c0-60ecf741ad52"
      ],
      "creators": [
        "5b29bf8d-93e9-4601-9992-0b2b6d87e27d"
      ],
      "families": [
        "5391f9fe-638c-415f-8dc9-958e3a2c5787"
      ],
      "groups": [
        "3c14c864-533c-49e6-a3cc-6969f1233775"
      ],
      "langs": [
        "de5eda1c-5fb3-46a6-9606-d4554fc5a1d6"
      ],
      "singers": [
        "e8b947cd-006a-4d0f-8923-3f8cd951fc5b"
      ],
      "songtypes": [
        "7be1b15c-cff8-4b37-a649-5c90f3d569a9"
      ],
      "songwriters": [
        "27d440fd-7b19-4f3e-8715-bd65feb87ce0",
        "892523ca-8450-4770-98de-680d13a70505"
      ]
    },
    "titles": {
      "eng": "Sex Bomb"
    },
    "titles_default_language": "eng",
    "title": "Sex Bomb",
    "year": 2000
  }
}