{
  "header": {
    "description": "Karaoke Mugen Karaoke Data File",
    "version": 4
  },
  "medias": [
    {
      "version": "Default",
      "filename": "ENG - Coldplay - MV - A Sky Full of Stars.mp4",
      "audiogain": -8.9,
      "loudnorm": "-8.87,1.58,9.00,-19.05,-1.42",
      "filesize": 121507556,
      "duration": 253,
      "default": true,
      "lyrics": [
        {
          "filename": "ENG - Coldplay - MV - A Sky Full of Stars.ass",
          "default": true,
          "version": "Default"
        }
      ]
    }
  ],
  "data": {
    "created_at": "2022-08-02T14:28:44.529Z",
    "kid": "f4c25fa5-3f1e-4156-a6c6-d7914ac709b4",
    "modified_at": "2022-08-02T14:28:44.529Z",
    "tags": {
      "authors": [
        "9bea7e05-2dec-434e-92ff-fcb53f69fdb7"
      ],
      "creators": [
        "f3c0da2d-91a5-48b4-87d2-b246e8826cda",
        "45924098-30ef-4f74-a1e8-18be7d2fbb3f"
      ],
      "families": [
        "5391f9fe-638c-415f-8dc9-958e3a2c5787"
      ],
      "groups": [
        "ae613721-1fbe-480d-ba6b-d6d0702b184d"
      ],
      "langs": [
        "de5eda1c-5fb3-46a6-9606-d4554fc5a1d6"
      ],
      "singers": [
        "bbe4f73f-1463-4a07-be99-f79540aee9fb"
      ],
      "songtypes": [
        "7be1b15c-cff8-4b37-a649-5c90f3d569a9"
      ],
      "songwriters": [
        "45cc8008-fd0c-4314-a334-9d726a568b58",
        "45c72caa-b9bf-49e7-adb4-8adaadb96270",
        "41c592f5-dd71-4e85-a545-5d74806a40a3",
        "c709428e-c34e-4858-b645-2462e35607a2",
        "44d55d2e-6e12-40f5-b80e-50f29427e306"
      ],
      "collections": [
        "efe171c0-e8a1-4d03-98c0-60ecf741ad52"
      ]
    },
    "titles": {
      "eng": "A Sky Full of Stars"
    },
    "titles_default_language": "eng",
    "titles_aliases": [],
    "title": "A Sky Full of Stars",
    "year": "2014",
    "repository": "kara.moe"
  }
}