{
  "header": {
    "version": 4,
    "description": "Karaoke Mugen Karaoke Data File"
  },
  "medias": [
    {
      "version": "Default",
      "filename": "ENG - Uchuu Senkan Yamato I - OP - Star Blazers Theme.mp4",
      "audiogain": 6.4,
      "loudnorm": "-25.02,-13.02,4.50,-35.13,-0.30",
      "filesize": 8358287,
      "duration": 74,
      "default": true,
      "lyrics": [
        {
          "filename": "ENG - Uchuu Senkan Yamato I - OP - Star Blazers Theme.ass",
          "default": true,
          "version": "Default",
          "subchecksum": "dca17dfbbfbb8ad5577900a527ebca4c"
        }
      ]
    }
  ],
  "data": {
    "created_at": "2018-11-16T21:27:28.000Z",
    "kid": "c12ab921-7731-476a-8108-089d8578a8b0",
    "modified_at": "2021-02-25T10:19:31.633Z",
    "parents": [
      "9a9a4447-34a0-4abf-9fd2-8e15ab54faa2"
    ],
    "repository": "kara.moe",
    "tags": {
      "authors": [
        "3f0f8e56-946b-4091-a385-d992733b346f"
      ],
      "collections": [
        "c7db86a0-ff64-4044-9be4-66dd1ef1d1c1"
      ],
      "creators": [
        "06b98930-5c01-4bd6-9712-9d2cc1a57ea7",
        "808070cb-1ee4-4e16-8ef7-50b1e72d9248"
      ],
      "families": [
        "0377db02-3af6-43b8-9b08-c759df3d25c3"
      ],
      "groups": [
        "57e5e0c0-e02e-4871-a6cb-d48ea604ebab"
      ],
      "langs": [
        "de5eda1c-5fb3-46a6-9606-d4554fc5a1d6"
      ],
      "origins": [
        "938de218-5343-4865-94d3-fb33f2eaa152"
      ],
      "series": [
        "3eb4ff4a-d1ce-404d-8af9-5d69f2bca25b"
      ],
      "songtypes": [
        "f02ad9b3-0bd9-4aad-85b3-9976739ba0e4"
      ],
      "songwriters": [
        "3c72c3af-0a66-4f6c-9c2c-3b6dd43f9840",
        "f8f1386d-6431-4ce3-9d80-3b2915cd47ee"
      ],
      "franchises": [
        "6589bb27-390b-4475-9dee-0a4817c57f98"
      ]
    },
    "title": "Star Blazers Theme",
    "titles": {
      "eng": "Star Blazers Theme"
    },
    "year": 1979
  }
}