{
  "header": {
    "version": 4,
    "description": "Karaoke Mugen Karaoke Data File"
  },
  "medias": [
    {
      "version": "Default",
      "filename": "ENG - Ensemble Stars! - GAME MV - U.S.A. ~ Cover Short Vers.mp4",
      "audiogain": -9.49,
      "loudnorm": "-7.28,1.94,4.40,-17.51,-1.27",
      "filesize": 157495402,
      "duration": 151,
      "default": true,
      "lyrics": [
        {
          "filename": "ENG - Ensemble Stars! - GAME MV - U.S.A. ~ Cover Short Vers.ass",
          "default": true,
          "version": "Default"
        }
      ]
    }
  ],
  "data": {
    "created_at": "2023-01-07T00:17:05.777Z",
    "ignoreHooks": false,
    "kid": "637e91e9-fb93-4abe-9760-87ea0a5a5c6d",
    "modified_at": "2023-01-07T15:47:37.669Z",
    "repository": "kara.moe",
    "tags": {
      "authors": [
        "283136a4-83d7-4a21-bad3-4c00c3b8e3d4",
        "611aa6ee-ebf8-4ef5-8eed-9f1eaec5117e"
      ],
      "collections": [
        "c7db86a0-ff64-4044-9be4-66dd1ef1d1c1"
      ],
      "creators": [
        "5b938ceb-1629-4653-bbd2-27af0dd5aebf"
      ],
      "genres": [
        "caa86df2-0d59-474b-885c-f240a9e891b0"
      ],
      "groups": [
        "8e209ae4-4381-438f-89dc-1b21752027d2",
        "df5f446f-d161-4760-8e0c-822e70ea03ae"
      ],
      "langs": [
        "4dcf9614-7914-42aa-99f4-dbce2e059133",
        "de5eda1c-5fb3-46a6-9606-d4554fc5a1d6"
      ],
      "platforms": [
        "213a1a15-e73a-4a08-b3f6-b6e2745a82e5"
      ],
      "series": [
        "d1184e31-716b-4ed1-8c81-9cd0d42afdc2"
      ],
      "singers": [
        "0cb44ab2-7311-4be2-8c52-818cb8bf7a69",
        "2a739206-1ac2-4901-97fb-de06d24cf427",
        "30e8c7e4-813a-47f0-ab17-7e6704ee2ce5",
        "440e9a3f-247c-44d4-9070-c0d07eb16d78",
        "b3dd6301-b1c5-4220-b97f-d96bea688b87",
        "d182360c-21ed-4887-a15f-8640f11a934a",
        "d2f62ef5-bf39-4c23-9c99-fe3d14f2bdd2",
        "ddec1c8c-094d-491d-9362-18767e3fe59b"
      ],
      "singergroups": [
        "19166f8e-a094-44ac-917d-0d9b9fbff8c7",
        "bd3a2e2e-c05b-4ff6-9202-1bbb417e655a"
      ],
      "songtypes": [
        "7be1b15c-cff8-4b37-a649-5c90f3d569a9"
      ],
      "songwriters": [
        "0ad8a9f4-6a54-4eac-90a9-740fff6b0641",
        "2f6a7a04-4f70-41e8-815c-45c8a63046bf",
        "459f363b-5a86-4b54-9a11-501fcacce103",
        "5d040cac-b68a-4c52-b0ab-423778e6bf3e",
        "bbd81a6f-716c-459d-885c-f97468375ed8",
        "f2af0260-823b-402b-a653-ecdbbe339c80"
      ],
      "versions": [
        "03e1e1d2-8641-47b7-bbcb-39a3df9ff21c",
        "d125c80a-86c1-4321-88e9-07b7800679b6"
      ],
      "origins": [
        "dbedd6b3-d125-4cd8-aa32-c4175e4ca3a3"
      ]
    },
    "titles": {
      "eng": "U.S.A."
    },
    "titles_default_language": "eng",
    "titles_aliases": [
      "usa"
    ],
    "year": 2023
  }
}