{
  "header": {
    "version": 4,
    "description": "Karaoke Mugen Karaoke Data File"
  },
  "medias": [
    {
      "version": "Default",
      "filename": "ENG - Owl City - MV - Fireflies.mp4",
      "audiogain": 0.94,
      "loudnorm": "-18.56,-6.04,17.80,-29.57,-1.69",
      "filesize": 15648957,
      "duration": 233,
      "default": true,
      "lyrics": [
        {
          "filename": "ENG - Owl City - MV - Fireflies.ass",
          "default": true,
          "version": "Default",
          "subchecksum": "13b8b36ab2f8b53d8d2d8343942da601"
        }
      ]
    }
  ],
  "data": {
    "created_at": "2020-08-17T12:03:25.229Z",
    "kid": "6c8ecc41-012c-488e-b442-a82eaf6b44d6",
    "modified_at": "2021-02-25T14:50:23.051Z",
    "repository": "kara.moe",
    "tags": {
      "authors": [
        "732bc528-6a14-4aa4-858a-afe06900fe9a",
        "b218393d-3c25-4d7d-ad8e-c78eb2413fbb"
      ],
      "collections": [
        "efe171c0-e8a1-4d03-98c0-60ecf741ad52"
      ],
      "creators": [
        "bdf56beb-3ac3-4480-bdd9-e5bff240a3b1"
      ],
      "families": [
        "5391f9fe-638c-415f-8dc9-958e3a2c5787"
      ],
      "groups": [
        "3c14c864-533c-49e6-a3cc-6969f1233775"
      ],
      "langs": [
        "de5eda1c-5fb3-46a6-9606-d4554fc5a1d6"
      ],
      "singers": [
        "bcf9e072-8db8-4f15-a4db-a45d4102fff9"
      ],
      "songtypes": [
        "7be1b15c-cff8-4b37-a649-5c90f3d569a9"
      ],
      "songwriters": [
        "0f192f4e-f0ef-44ef-b9f1-93dfbf7cc469"
      ]
    },
    "title": "Fireflies",
    "titles": {
      "eng": "Fireflies"
    },
    "year": 2009
  }
}