{
  "header": {
    "version": 4,
    "description": "Karaoke Mugen Karaoke Data File"
  },
  "medias": [
    {
      "version": "Default",
      "filename": "ENG - Madonna - MV - Like a Virgin.mp4",
      "audiogain": 0.81,
      "loudnorm": "-19.35,-2.78,4.80,-29.68,-0.48",
      "filesize": 19119384,
      "duration": 229,
      "default": true,
      "lyrics": [
        {
          "filename": "ENG - Madonna - MV - Like a Virgin.ass",
          "default": true,
          "version": "Default"
        }
      ]
    }
  ],
  "data": {
    "created_at": "2022-04-22T12:50:52.695Z",
    "ignoreHooks": false,
    "kid": "22129af2-45c9-4e11-b136-23f2b4c0b8d1",
    "modified_at": "2022-04-22T12:50:53.316Z",
    "repository": "kara.moe",
    "tags": {
      "authors": [
        "0c8e4377-ee35-4896-89ed-9d06a1b5acd5"
      ],
      "collections": [
        "efe171c0-e8a1-4d03-98c0-60ecf741ad52"
      ],
      "creators": [
        "c5bbb946-597e-4015-8968-bfbb6b4f68a5"
      ],
      "families": [
        "5391f9fe-638c-415f-8dc9-958e3a2c5787"
      ],
      "langs": [
        "de5eda1c-5fb3-46a6-9606-d4554fc5a1d6"
      ],
      "singers": [
        "84f80b38-6b3e-447a-8ee2-5998e010f848"
      ],
      "songtypes": [
        "7be1b15c-cff8-4b37-a649-5c90f3d569a9"
      ],
      "songwriters": [
        "004e3ed4-c9c4-4606-8077-c85aa24e0c4d",
        "874c3bce-3727-4b96-85aa-3f9a89db5091"
      ],
      "groups": [
        "7792cc27-9ff9-4d47-9287-2338b7db1575"
      ]
    },
    "titles": {
      "eng": "Like a Virgin"
    },
    "titles_default_language": "eng",
    "title": "Like a Virgin",
    "year": 1984
  }
}