{
  "header": {
    "version": 4,
    "description": "Karaoke Mugen Karaoke Data File"
  },
  "medias": [
    {
      "version": "Default",
      "filename": "ENG - Shiguang Dailiren - ONA OP - Dive Back In Time ~ Off Vocal Vers.mp4",
      "audiogain": -6.89,
      "loudnorm": "-8.00,0.50,16.60,-18.79,-0.84",
      "filesize": 63542823,
      "duration": 63,
      "default": true,
      "lyrics": [
        {
          "filename": "ENG - Shiguang Dailiren - ONA OP - Dive Back In Time ~ Off Vocal Vers.ass",
          "default": true,
          "version": "Default"
        }
      ]
    }
  ],
  "data": {
    "comment": "Remplacé audio pour avoir version instru. Je ne trouve pas le bouton \"parent\".",
    "created_at": "2022-09-20T16:32:01.044Z",
    "ignoreHooks": false,
    "kid": "cd7fd85f-183d-44f0-aaa4-70dbe0c7e6eb",
    "modified_at": "2022-09-23T19:13:59.072Z",
    "parents": [
      "5ba00c92-f1eb-45d5-85f4-bd02bf011587"
    ],
    "repository": "kara.moe",
    "tags": {
      "authors": [
        "278c6742-0b75-43dd-b317-2ea112952b4a",
        "5690b59e-e9d1-4384-8a50-f0ff04996dfb"
      ],
      "collections": [
        "c7db86a0-ff64-4044-9be4-66dd1ef1d1c1"
      ],
      "creators": [
        "99f50476-605b-481f-83c5-d9208f0ac224"
      ],
      "families": [
        "0377db02-3af6-43b8-9b08-c759df3d25c3"
      ],
      "groups": [
        "8c22c899-b3ed-42da-a548-ce00f950798b",
        "8e209ae4-4381-438f-89dc-1b21752027d2"
      ],
      "langs": [
        "de5eda1c-5fb3-46a6-9606-d4554fc5a1d6"
      ],
      "origins": [
        "8db3e098-06ef-45e5-bba9-cb04a21c1e66"
      ],
      "series": [
        "78de8471-7c1a-4ba9-b10b-10c022e08a8c"
      ],
      "singers": [
        "ca054cff-32e6-40c2-b860-9e4e1c37501c"
      ],
      "songtypes": [
        "f02ad9b3-0bd9-4aad-85b3-9976739ba0e4"
      ],
      "songwriters": [
        "177d7357-5061-4b9b-8749-8c8e31b84921"
      ],
      "versions": [
        "c0cc87b9-55b9-40f0-878a-fbb9e34c151e"
      ]
    },
    "titles": {
      "eng": "Dive Back In Time"
    },
    "titles_default_language": "eng",
    "title": "Dive Back In Time",
    "year": 2021
  }
}