{
  "header": {
    "version": 4,
    "description": "Karaoke Mugen Karaoke Data File"
  },
  "medias": [
    {
      "version": "Default",
      "filename": "ENG - Gorillaz - MV - Clint Eastwood.mp4",
      "audiogain": -2.75,
      "loudnorm": "-15.72,0.13,6.90,-25.93,-0.93",
      "filesize": 53768364,
      "duration": 268,
      "default": true,
      "lyrics": [
        {
          "filename": "ENG - Gorillaz - MV - Clint Eastwood.ass",
          "default": true,
          "version": "Default",
          "subchecksum": "96c387d3bc16c490c86c20da5cb21ed5"
        }
      ]
    }
  ],
  "data": {
    "created_at": "2020-07-05T18:21:53.455Z",
    "kid": "97b14f6a-045c-4174-bd68-6caec3345b37",
    "modified_at": "2021-02-25T14:48:53.877Z",
    "repository": "kara.moe",
    "tags": {
      "authors": [
        "9bea7e05-2dec-434e-92ff-fcb53f69fdb7"
      ],
      "collections": [
        "efe171c0-e8a1-4d03-98c0-60ecf741ad52"
      ],
      "creators": [
        "f3c0da2d-91a5-48b4-87d2-b246e8826cda"
      ],
      "families": [
        "0377db02-3af6-43b8-9b08-c759df3d25c3"
      ],
      "groups": [
        "3c14c864-533c-49e6-a3cc-6969f1233775"
      ],
      "langs": [
        "de5eda1c-5fb3-46a6-9606-d4554fc5a1d6"
      ],
      "singers": [
        "2fe199dd-38cb-46d6-947b-cf09ebc7a56b"
      ],
      "songtypes": [
        "7be1b15c-cff8-4b37-a649-5c90f3d569a9"
      ],
      "songwriters": [
        "42de7ed4-fa48-4a34-ba97-d4dfcddd8de8",
        "6f0cc87c-47a2-4c06-8b9a-8e7f114ea895",
        "db410c6a-e5e3-44d9-8133-038b99122e80"
      ]
    },
    "title": "Clint Eastwood",
    "titles": {
      "eng": "Clint Eastwood"
    },
    "year": 2001
  }
}