{
  "header": {
    "version": 4,
    "description": "Karaoke Mugen Karaoke Data File"
  },
  "medias": [
    {
      "version": "Default",
      "filename": "ENG - Shoujo Kageki Revue Starlight - AMV - The Greatest Show ~ Cover Vers.mp4",
      "audiogain": -9.15,
      "loudnorm": "-7.88,2.69,10.60,-18.33,-1.06",
      "filesize": 59451801,
      "duration": 184,
      "default": true,
      "lyrics": [
        {
          "filename": "ENG - Shoujo Kageki Revue Starlight - AMV - The Greatest Show ~ Cover Vers.ass",
          "default": true,
          "version": "Default"
        }
      ]
    }
  ],
  "data": {
    "created_at": "2019-05-01T14:23:23.000Z",
    "ignoreHooks": false,
    "kid": "bfab5422-e5b6-4709-b5a0-b602b24fc112",
    "modified_at": "2023-05-18T17:12:25.297Z",
    "repository": "kara.moe",
    "tags": {
      "authors": [
        "5a629611-96b4-422c-b309-ba7a58e263a2"
      ],
      "collections": [
        "c7db86a0-ff64-4044-9be4-66dd1ef1d1c1"
      ],
      "creators": [
        "3840349f-8029-449d-98d8-dac0a99807e1"
      ],
      "families": [
        "0377db02-3af6-43b8-9b08-c759df3d25c3"
      ],
      "groups": [
        "ae613721-1fbe-480d-ba6b-d6d0702b184d"
      ],
      "langs": [
        "de5eda1c-5fb3-46a6-9606-d4554fc5a1d6"
      ],
      "origins": [
        "938de218-5343-4865-94d3-fb33f2eaa152"
      ],
      "series": [
        "197ecb28-b423-4c66-bbdb-49b89b5ed153"
      ],
      "singers": [
        "930579ff-3dc8-48a0-88a5-45ef3ec4f2a1"
      ],
      "songtypes": [
        "a6c79ce5-89ee-4d50-afe8-3abd7317f6c2"
      ],
      "songwriters": [
        "3f791d23-3f95-4939-b8c8-412ab8cde497",
        "8660d6b8-db43-4392-984b-fc987127ce61",
        "efa5bcde-0d33-4efa-8c7f-635e28df9bfa"
      ],
      "versions": [
        "03e1e1d2-8641-47b7-bbcb-39a3df9ff21c"
      ],
      "franchises": [
        "197ecb28-b423-4c66-bbdb-49b89b5ed153"
      ]
    },
    "titles": {
      "eng": "The Greatest Show"
    },
    "titles_default_language": "eng",
    "year": 2018
  }
}