{
  "header": {
    "version": 4,
    "description": "Karaoke Mugen Karaoke Data File"
  },
  "medias": [
    {
      "version": "Default",
      "filename": "ENG - Monster Strike - ONA ED4 - Knock On Doors In You.mp4",
      "audiogain": 2.77,
      "loudnorm": "-20.21,-8.29,6.40,-30.27,-1.56",
      "filesize": 44612862,
      "duration": 83,
      "default": true,
      "lyrics": [
        {
          "filename": "ENG - Monster Strike - ONA ED4 - Knock On Doors In You.ass",
          "default": true,
          "version": "Default"
        }
      ]
    }
  ],
  "data": {
    "created_at": "2023-06-18T14:09:59.942Z",
    "ignoreHooks": false,
    "kid": "303ed905-1a5d-4b92-ae8f-6b4e4ffe13f0",
    "modified_at": "2023-06-18T14:20:05.463Z",
    "repository": "kara.moe",
    "songorder": 4,
    "tags": {
      "authors": [
        "ee8628c8-9b7f-415b-bc0d-9b712d5daf8c"
      ],
      "collections": [
        "c7db86a0-ff64-4044-9be4-66dd1ef1d1c1"
      ],
      "creators": [
        "875713d0-9b1c-4743-b0f9-0752715ddd5a"
      ],
      "families": [
        "0377db02-3af6-43b8-9b08-c759df3d25c3"
      ],
      "groups": [
        "ae613721-1fbe-480d-ba6b-d6d0702b184d"
      ],
      "langs": [
        "de5eda1c-5fb3-46a6-9606-d4554fc5a1d6"
      ],
      "origins": [
        "8db3e098-06ef-45e5-bba9-cb04a21c1e66"
      ],
      "series": [
        "1a36266c-782f-4851-869e-6a97c4603391"
      ],
      "singergroups": [
        "d60bac08-fc90-4e0b-9310-bdd36949a93e"
      ],
      "songtypes": [
        "38c77c56-2b95-4040-b676-0994a8cb0597"
      ],
      "songwriters": [
        "d60bac08-fc90-4e0b-9310-bdd36949a93e"
      ]
    },
    "titles": {
      "eng": "Knock On Doors In You"
    },
    "titles_default_language": "eng",
    "year": 2016
  }
}