{
  "header": {
    "version": 4,
    "description": "Karaoke Mugen Karaoke Data File"
  },
  "medias": [
    {
      "version": "Demi Lovato.",
      "filename": "ENG - Frozen - MOVIE MV - Let It Go ~ Demi Lovato Vers. ~ Cover Vers.mp4",
      "audiogain": -2.92,
      "loudnorm": "-14.06,-3.97,7.90,-24.20,-1.65",
      "filesize": 78682706,
      "duration": 226,
      "default": true,
      "lyrics": [
        {
          "filename": "ENG - Frozen - MOVIE MV - Let It Go ~ Demi Lovato Vers. ~ Cover Vers.ass",
          "default": true,
          "version": "Default"
        }
      ]
    }
  ],
  "data": {
    "created_at": "2020-01-04T23:35:43.748Z",
    "ignoreHooks": false,
    "kid": "3581e971-002c-45e8-bff5-3909f4bec597",
    "modified_at": "2022-11-02T18:28:40.485Z",
    "repository": "kara.moe",
    "tags": {
      "authors": [
        "1db1738f-acdc-42fc-aec3-60f4bddf660d"
      ],
      "collections": [
        "c7db86a0-ff64-4044-9be4-66dd1ef1d1c1"
      ],
      "creators": [
        "68aadcb2-d66b-458f-bc95-d6ffb82b6729"
      ],
      "families": [
        "0377db02-3af6-43b8-9b08-c759df3d25c3",
        "5391f9fe-638c-415f-8dc9-958e3a2c5787"
      ],
      "groups": [
        "ae613721-1fbe-480d-ba6b-d6d0702b184d"
      ],
      "langs": [
        "de5eda1c-5fb3-46a6-9606-d4554fc5a1d6"
      ],
      "origins": [
        "c8ca9dea-d8b4-48fe-8427-d911653232e9"
      ],
      "series": [
        "0dd6fda0-7267-4eee-b8bb-50b9a5fb7886"
      ],
      "singers": [
        "adfab694-c281-4640-ad76-d363d91f0ab8"
      ],
      "songtypes": [
        "7be1b15c-cff8-4b37-a649-5c90f3d569a9"
      ],
      "songwriters": [
        "506f076a-3358-4987-b14a-2f8a74c08a43",
        "ca012992-eb15-4440-bf41-78072f44238b"
      ],
      "versions": [
        "03e1e1d2-8641-47b7-bbcb-39a3df9ff21c"
      ],
      "franchises": [
        "0dd6fda0-7267-4eee-b8bb-50b9a5fb7886"
      ]
    },
    "titles": {
      "eng": "Let It Go ~ Demi Lovato Vers.",
      "fre": "Libérée, délivrée ~ Demi Lovato Vers."
    },
    "titles_default_language": "eng",
    "title": "Let It Go ~ Demi Lovato Vers.",
    "year": 2013
  }
}