{
  "header": {
    "version": 4,
    "description": "Karaoke Mugen Karaoke Data File"
  },
  "medias": [
    {
      "version": "Default",
      "filename": "ENG - Fubuki Shirakami - REMIX AMV - Im. Scatman ~ Cover Vers.mp4",
      "audiogain": -0.37,
      "loudnorm": "-16.99,-6.27,3.70,-27.09,-1.12",
      "filesize": 35559609,
      "duration": 56,
      "default": true,
      "lyrics": [
        {
          "filename": "ENG - Fubuki Shirakami - REMIX AMV - Im. Scatman ~ Cover Vers.ass",
          "default": true,
          "version": "Default"
        }
      ]
    }
  ],
  "data": {
    "created_at": "2021-02-13T20:27:45.014Z",
    "ignoreHooks": false,
    "kid": "13425ea6-2319-4a03-95ce-c2511aa91837",
    "modified_at": "2022-04-25T19:29:41.801Z",
    "repository": "kara.moe",
    "tags": {
      "authors": [
        "1631228b-9125-497a-aafc-66f920a44a02"
      ],
      "collections": [
        "2fa2fe3f-bb56-45ee-aa38-eae60e76f224"
      ],
      "creators": [
        "0263d413-17bb-4cee-a311-6dd896eda1c9"
      ],
      "families": [
        "0377db02-3af6-43b8-9b08-c759df3d25c3"
      ],
      "groups": [
        "8c22c899-b3ed-42da-a548-ce00f950798b",
        "ae613721-1fbe-480d-ba6b-d6d0702b184d"
      ],
      "langs": [
        "de5eda1c-5fb3-46a6-9606-d4554fc5a1d6"
      ],
      "misc": [
        "ec4360fa-3e3c-4f6f-b0e1-fb8b12b6dd18"
      ],
      "origins": [
        "5106d71b-a78e-4d19-a16d-f8fb6719538a"
      ],
      "singers": [
        "53b39b45-1ee9-4625-83d6-642c02ca8fba"
      ],
      "songtypes": [
        "a6c79ce5-89ee-4d50-afe8-3abd7317f6c2"
      ],
      "songwriters": [
        "2ca9685c-2167-4f2d-9d29-aeda6a7e77d7",
        "7eadc8c1-19e2-416f-87c1-6c8b9249f307"
      ],
      "versions": [
        "03e1e1d2-8641-47b7-bbcb-39a3df9ff21c"
      ]
    },
    "titles": {
      "eng": "Im. Scatman"
    },
    "titles_default_language": "eng",
    "title": "Im. Scatman",
    "year": 2019
  }
}