{
  "header": {
    "version": 4,
    "description": "Karaoke Mugen Karaoke Data File"
  },
  "medias": [
    {
      "version": "Default",
      "filename": "ENG - ONE OK ROCK - MV - Cry Out.mp4",
      "audiogain": -11.51,
      "loudnorm": "-5.26,3.73,5.30,-15.54,-0.56",
      "filesize": 91645979,
      "duration": 232,
      "default": true,
      "lyrics": [
        {
          "filename": "ENG - ONE OK ROCK - MV - Cry Out.ass",
          "default": true,
          "version": "Default"
        }
      ]
    }
  ],
  "data": {
    "created_at": "2023-04-05T18:05:56.081Z",
    "ignoreHooks": false,
    "kid": "0c12dfdf-5096-4b7f-b113-a98212f5bdf8",
    "modified_at": "2023-04-05T18:05:56.081Z",
    "repository": "kara.moe",
    "tags": {
      "authors": [
        "f384f483-875a-4f20-9585-a0ed528675a1"
      ],
      "collections": [
        "dbcf2c22-524d-4708-99bb-601703633927"
      ],
      "creators": [
        "1acf79e8-e1f4-4bad-af70-05181037a703"
      ],
      "families": [
        "5391f9fe-638c-415f-8dc9-958e3a2c5787"
      ],
      "groups": [
        "ae613721-1fbe-480d-ba6b-d6d0702b184d"
      ],
      "langs": [
        "de5eda1c-5fb3-46a6-9606-d4554fc5a1d6",
        "4dcf9614-7914-42aa-99f4-dbce2e059133"
      ],
      "singers": [
        "57f7774c-51be-4b54-abce-d69eac0feb74"
      ],
      "songtypes": [
        "7be1b15c-cff8-4b37-a649-5c90f3d569a9"
      ],
      "songwriters": [
        "71e19eb8-f2da-4188-9dd6-2a7d5c4e970b",
        "af5a9aa5-48bb-4459-82d1-1e8fcc3de9e7"
      ]
    },
    "titles": {
      "eng": "Cry Out"
    },
    "titles_default_language": "eng",
    "titles_aliases": [],
    "year": 2015
  }
}