{
  "header": {
    "version": 4,
    "description": "Karaoke Mugen Karaoke Data File"
  },
  "medias": [
    {
      "version": "Default",
      "filename": "ENG - Tarja Turunen, Within Temptation - MV - Paradise (What About Us question_mark ).mp4",
      "audiogain": -9.04,
      "loudnorm": "-7.06,2.49,3.90,-17.29,-0.72",
      "filesize": 136739485,
      "duration": 328,
      "default": true,
      "lyrics": [
        {
          "filename": "ENG - Tarja Turunen, Within Temptation - MV - Paradise (What About Us question_mark ).ass",
          "default": true,
          "version": "Default"
        }
      ]
    }
  ],
  "data": {
    "created_at": "2021-11-11T16:18:01.743Z",
    "kid": "a1c2115e-93b9-458e-9321-46ed263f29e4",
    "modified_at": "2021-11-11T22:57:41.864Z",
    "repository": "kara.moe",
    "tags": {
      "authors": [
        "9f947b0d-e8bc-4778-8ebb-307369710fb2"
      ],
      "collections": [
        "efe171c0-e8a1-4d03-98c0-60ecf741ad52"
      ],
      "creators": [
        "4554e7df-8edb-40a8-87e7-fd7a1e0aef0c",
        "e5cd87bc-3182-410d-86de-c224576dfc06"
      ],
      "families": [
        "5391f9fe-638c-415f-8dc9-958e3a2c5787"
      ],
      "groups": [
        "ae613721-1fbe-480d-ba6b-d6d0702b184d"
      ],
      "langs": [
        "de5eda1c-5fb3-46a6-9606-d4554fc5a1d6"
      ],
      "misc": [
        "86705d4b-24e4-4756-9687-2b9c98bcf366"
      ],
      "singers": [
        "258c3d42-f4a8-4a60-93b4-049260f732dc",
        "ad2441c3-6047-4cf0-834f-8775f9a41f84"
      ],
      "songtypes": [
        "7be1b15c-cff8-4b37-a649-5c90f3d569a9"
      ],
      "songwriters": [
        "884b0f74-08a1-4ed0-9381-a511a09a896e",
        "8e6ac7ff-4491-4eab-b604-de8f7901b176",
        "ec2bcef2-1342-4a64-adad-672002f56658"
      ]
    },
    "titles": {
      "eng": "Paradise (What About Us?)"
    },
    "title": "Paradise (What About Us?)",
    "year": 2013
  }
}