{
  "header": {
    "version": 4,
    "description": "Karaoke Mugen Karaoke Data File"
  },
  "medias": [
    {
      "version": "Default",
      "filename": "ENG - Wind Rose - MV - Diggy Diggy Hole ~ Cover Metal Vers.mp4",
      "audiogain": -8.45,
      "loudnorm": "-7.95,1.35,4.50,-18.01,-0.86",
      "filesize": 145639925,
      "duration": 314,
      "default": true,
      "lyrics": [
        {
          "filename": "ENG - Wind Rose - MV - Diggy Diggy Hole ~ Cover Metal Vers.ass",
          "default": true,
          "version": "Default"
        }
      ]
    }
  ],
  "data": {
    "created_at": "2022-10-09T15:44:01.594Z",
    "ignoreHooks": false,
    "kid": "6b97e43a-84f7-4e05-86ba-7b5f5f47a0a9",
    "modified_at": "2022-10-09T15:55:15.905Z",
    "parents": [
      "d04a13e4-67d7-43c6-8c14-c5d44aed299f"
    ],
    "repository": "kara.moe",
    "tags": {
      "authors": [
        "dcec8aee-2b8b-45bf-acf6-cfbd44e9624e"
      ],
      "collections": [
        "efe171c0-e8a1-4d03-98c0-60ecf741ad52"
      ],
      "creators": [
        "041f16b7-dc24-41c2-ac7a-3960f40b6867"
      ],
      "families": [
        "5391f9fe-638c-415f-8dc9-958e3a2c5787"
      ],
      "groups": [
        "ae613721-1fbe-480d-ba6b-d6d0702b184d"
      ],
      "langs": [
        "de5eda1c-5fb3-46a6-9606-d4554fc5a1d6"
      ],
      "misc": [
        "86705d4b-24e4-4756-9687-2b9c98bcf366"
      ],
      "singers": [
        "9bd797ef-bb4b-4ea1-8051-f28b9d9d947b"
      ],
      "songtypes": [
        "7be1b15c-cff8-4b37-a649-5c90f3d569a9"
      ],
      "songwriters": [
        "877d8cd6-aa2a-43f4-97ea-dd659be0fbd5"
      ],
      "versions": [
        "03e1e1d2-8641-47b7-bbcb-39a3df9ff21c",
        "188a5c46-63ff-4e9f-89e4-763468b6ea4a"
      ]
    },
    "titles": {
      "eng": "Diggy Diggy Hole"
    },
    "titles_default_language": "eng",
    "title": "Diggy Diggy Hole",
    "year": 2019
  }
}