{
  "header": {
    "version": 4,
    "description": "Karaoke Mugen Karaoke Data File"
  },
  "medias": [
    {
      "version": "Default",
      "filename": "ENG - Genki Rockets - MV - Heavenly Star.mp4",
      "audiogain": -4.32,
      "loudnorm": "-11.51,0.68,4.40,-21.61,-0.84",
      "filesize": 55067975,
      "duration": 241,
      "default": true,
      "lyrics": [
        {
          "filename": "ENG - Genki Rockets - MV - Heavenly Star.ass",
          "default": true,
          "version": "Default",
          "subchecksum": "db09ca8543fcb3728be771adbc44c196"
        }
      ]
    }
  ],
  "data": {
    "created_at": "2018-04-05T01:35:39.000Z",
    "kid": "8f482f79-12b9-49db-af47-8777f92298a1",
    "modified_at": "2021-02-25T10:07:01.883Z",
    "repository": "kara.moe",
    "tags": {
      "authors": [
        "5e93f02a-bcd1-40a9-ba7a-91ada6683aea"
      ],
      "collections": [
        "c7db86a0-ff64-4044-9be4-66dd1ef1d1c1"
      ],
      "creators": [
        "90caf15e-bc86-46e1-8793-9af7906c8310"
      ],
      "families": [
        "5391f9fe-638c-415f-8dc9-958e3a2c5787"
      ],
      "groups": [
        "3c14c864-533c-49e6-a3cc-6969f1233775",
        "f5e7d2fc-0cbb-4fb9-a84a-b25dfb0e9e77"
      ],
      "langs": [
        "de5eda1c-5fb3-46a6-9606-d4554fc5a1d6"
      ],
      "singers": [
        "8a256258-1b9c-40e6-ae66-48d9fa86f60c"
      ],
      "songtypes": [
        "7be1b15c-cff8-4b37-a649-5c90f3d569a9"
      ],
      "songwriters": [
        "8a256258-1b9c-40e6-ae66-48d9fa86f60c"
      ]
    },
    "title": "Heavenly Star",
    "titles": {
      "eng": "Heavenly Star"
    },
    "year": 2008
  }
}