{
  "header": {
    "version": 4,
    "description": "Karaoke Mugen Karaoke Data File"
  },
  "medias": [
    {
      "version": "Default",
      "filename": "ENG - Jermaine Jackson, Pia Zadora - MV - When the Rain Begins to Fall.mp4",
      "audiogain": -3.21,
      "loudnorm": "-14.92,-1.10,4.70,-25.20,-0.96",
      "filesize": 24360946,
      "duration": 250,
      "default": true,
      "lyrics": [
        {
          "filename": "ENG - Jermaine Jackson, Pia Zadora - MV - When the Rain Begins to Fall.ass",
          "default": true,
          "version": "Default"
        }
      ]
    }
  ],
  "data": {
    "created_at": "2022-04-21T19:46:44.524Z",
    "ignoreHooks": false,
    "kid": "b0ed57c2-d2c0-4b97-ae42-1d2498e948b3",
    "modified_at": "2022-04-21T19:46:45.107Z",
    "repository": "kara.moe",
    "tags": {
      "authors": [
        "9bea7e05-2dec-434e-92ff-fcb53f69fdb7"
      ],
      "collections": [
        "efe171c0-e8a1-4d03-98c0-60ecf741ad52"
      ],
      "creators": [
        "e9f734dc-1c41-4087-99a6-badb07a87a3d"
      ],
      "families": [
        "5391f9fe-638c-415f-8dc9-958e3a2c5787"
      ],
      "langs": [
        "de5eda1c-5fb3-46a6-9606-d4554fc5a1d6"
      ],
      "singers": [
        "7104d24e-27d2-4324-b9ea-72beb92d802f",
        "c87cdab9-9f54-4311-b96b-8f4c8304c4c7"
      ],
      "songtypes": [
        "7be1b15c-cff8-4b37-a649-5c90f3d569a9"
      ],
      "songwriters": [
        "af66e9ed-5daa-4d54-b8e1-778df021b582",
        "1555b583-ca3b-4dfa-8bf2-baafaafbc077",
        "cc27638d-11dd-4cdc-b8a7-ae27e8fc8048"
      ],
      "groups": [
        "7792cc27-9ff9-4d47-9287-2338b7db1575"
      ]
    },
    "titles": {
      "eng": "When the Rain Begins to Fall"
    },
    "titles_default_language": "eng",
    "title": "When the Rain Begins to Fall",
    "year": 1984
  }
}