{
  "header": {
    "version": 4,
    "description": "Karaoke Mugen Karaoke Data File"
  },
  "medias": [
    {
      "version": "Default",
      "filename": "ENG - Pocket Monsters - OP - Pokemon Theme.mp4",
      "audiogain": 6.91,
      "loudnorm": "-25.20,-11.80,2.90,-35.37,-0.43",
      "filesize": 40630311,
      "duration": 61,
      "default": true,
      "lyrics": [
        {
          "filename": "ENG - Pocket Monsters - OP - Pokemon Theme.ass",
          "default": true,
          "version": "Default",
          "subchecksum": "0c3546d7262f7f683227df8facac10c7"
        }
      ]
    }
  ],
  "data": {
    "created_at": "2020-12-19T20:35:52.003Z",
    "kid": "7a625a24-12ab-4ff6-9b51-76792f87731a",
    "modified_at": "2021-02-25T10:15:23.188Z",
    "repository": "kara.moe",
    "tags": {
      "authors": [
        "7d4e5160-c7e7-4848-8e4a-7a04da53cd37"
      ],
      "collections": [
        "c7db86a0-ff64-4044-9be4-66dd1ef1d1c1"
      ],
      "creators": [
        "03fe574b-c7f5-4520-96dc-47320c39e2cc"
      ],
      "families": [
        "0377db02-3af6-43b8-9b08-c759df3d25c3"
      ],
      "genres": [
        "a0aeef4a-6428-45ff-a6e1-468b595930c2"
      ],
      "groups": [
        "24db50aa-a126-4d34-a48a-e45db79c4245",
        "f5e7d2fc-0cbb-4fb9-a84a-b25dfb0e9e77"
      ],
      "langs": [
        "de5eda1c-5fb3-46a6-9606-d4554fc5a1d6"
      ],
      "origins": [
        "938de218-5343-4865-94d3-fb33f2eaa152"
      ],
      "series": [
        "cc1f8e40-71a2-4097-9bcf-7132b4b19ef7"
      ],
      "singers": [
        "e7502d72-41a3-4c80-a595-bdd51bf706e2"
      ],
      "songtypes": [
        "f02ad9b3-0bd9-4aad-85b3-9976739ba0e4"
      ],
      "songwriters": [
        "8c03deb2-503d-4c95-b6ae-3199751dbb46",
        "a372bd40-7a4f-47d1-af15-0d97760a45ec"
      ],
      "franchises": [
        "c6923c03-f8c0-4258-a478-8dfa08f3ccd0"
      ]
    },
    "title": "Pokémon Theme",
    "titles": {
      "eng": "Pokémon Theme"
    },
    "year": 1998
  }
}