{
  "header": {
    "version": 4,
    "description": "Karaoke Mugen Karaoke Data File"
  },
  "medias": [
    {
      "version": "Default",
      "filename": "ENG - The Legend of Vox Machina - ONA AUDIO IN - Pull My Beads of Love.mp3",
      "audiogain": -9.16,
      "loudnorm": "-8.51,0.73,1.80,-18.70,-0.18",
      "filesize": 3697556,
      "duration": 85,
      "default": true,
      "lyrics": [
        {
          "filename": "ENG - The Legend of Vox Machina - ONA AUDIO IN - Pull My Beads of Love.ass",
          "default": true,
          "version": "Default"
        }
      ]
    }
  ],
  "data": {
    "created_at": "2023-05-06T13:20:46.084Z",
    "ignoreHooks": false,
    "kid": "4ad49de9-2174-45b9-aabd-b106c60a860b",
    "modified_at": "2023-07-20T22:16:00.146Z",
    "repository": "kara.moe",
    "tags": {
      "authors": [
        "f70c7314-b8d3-4bf4-96a0-dc8b2c5a6c94"
      ],
      "collections": [
        "c7db86a0-ff64-4044-9be4-66dd1ef1d1c1"
      ],
      "creators": [
        "eedcceb6-3a45-476f-b67b-ca0faebad510"
      ],
      "groups": [
        "8e209ae4-4381-438f-89dc-1b21752027d2",
        "966d1e74-d1f2-41e2-ab04-24279c22f562"
      ],
      "langs": [
        "de5eda1c-5fb3-46a6-9606-d4554fc5a1d6"
      ],
      "origins": [
        "8db3e098-06ef-45e5-bba9-cb04a21c1e66"
      ],
      "series": [
        "43bfe3ea-2903-453a-9536-73f50de34e30"
      ],
      "singers": [
        "2cea79b3-9905-4f50-a151-6107b8c06331",
        "acf5466e-efae-4ca2-88f9-0b2af9abe51f"
      ],
      "songtypes": [
        "42a262ae-acba-4ab5-a446-c5789c96c821",
        "5e5250d9-351a-4a82-98eb-55db50ad8962"
      ],
      "songwriters": [
        "31b7d41b-48ba-4208-ae18-5a469139691c",
        "acf5466e-efae-4ca2-88f9-0b2af9abe51f",
        "ff774416-8f4c-4602-9044-785d972bfb99"
      ]
    },
    "titles": {
      "eng": "Pull My Beads of Love"
    },
    "titles_default_language": "eng",
    "year": 2022
  }
}