{
  "header": {
    "version": 4,
    "description": "Karaoke Mugen Karaoke Data File"
  },
  "medias": [
    {
      "version": "Default",
      "filename": "ENG - Rihanna - MV - Diamonds.mp4",
      "audiogain": -1.61,
      "loudnorm": "-14.87,-5.24,9.40,-25.26,-1.74",
      "filesize": 78799037,
      "duration": 282,
      "default": true,
      "lyrics": [
        {
          "filename": "ENG - Rihanna - MV - Diamonds.ass",
          "default": true,
          "version": "Default"
        }
      ]
    }
  ],
  "data": {
    "created_at": "2022-08-04T13:20:10.590Z",
    "ignoreHooks": false,
    "kid": "ca80782a-3e31-43e4-aecc-53eeec6400cb",
    "modified_at": "2022-08-24T13:00:33.221Z",
    "repository": "kara.moe",
    "tags": {
      "authors": [
        "ad7338c3-cd2b-459b-8849-e22df5cdadae"
      ],
      "collections": [
        "efe171c0-e8a1-4d03-98c0-60ecf741ad52"
      ],
      "creators": [
        "a8171243-d933-4f30-95fa-95cddd364607",
        "e6ef85ce-0272-454f-a722-d55e5ef8ef25"
      ],
      "families": [
        "5391f9fe-638c-415f-8dc9-958e3a2c5787"
      ],
      "groups": [
        "ae613721-1fbe-480d-ba6b-d6d0702b184d"
      ],
      "langs": [
        "de5eda1c-5fb3-46a6-9606-d4554fc5a1d6"
      ],
      "singers": [
        "68de36fc-eee6-43fb-b66b-68a7530e77ec"
      ],
      "songtypes": [
        "7be1b15c-cff8-4b37-a649-5c90f3d569a9"
      ],
      "songwriters": [
        "1ea2a9dc-3a04-4cc2-8e88-4ff69cf6a760",
        "4d463f8f-5b10-48bc-a548-8a7d98ff5d6e",
        "5ad8ffc6-e1d9-442c-a78f-f076c5a3d77f",
        "c57b7caf-7989-479e-bd8e-1aa43081c471"
      ]
    },
    "titles": {
      "eng": "Diamonds"
    },
    "titles_default_language": "eng",
    "title": "Diamonds",
    "year": 2012
  }
}