{
  "header": {
    "version": 4,
    "description": "Karaoke Mugen Karaoke Data File"
  },
  "medias": [
    {
      "version": "Default",
      "filename": "ENG - League of Legends - GAME PC MV - K DA - THE BADDEST.mp4",
      "audiogain": -2.93,
      "loudnorm": "-13.91,-2.73,5.30,-23.95,-0.11",
      "filesize": 73771613,
      "duration": 162,
      "default": true,
      "lyrics": [
        {
          "filename": "ENG - League of Legends - GAME PC MV - K DA - THE BADDEST.ass",
          "default": true,
          "version": "Default"
        }
      ]
    }
  ],
  "data": {
    "created_at": "2021-10-24T17:41:58.869Z",
    "ignoreHooks": false,
    "kid": "4a6e2d27-1ed9-4464-b72a-6588f6add87e",
    "modified_at": "2023-04-30T12:11:37.244Z",
    "repository": "kara.moe",
    "tags": {
      "authors": [
        "5690b59e-e9d1-4384-8a50-f0ff04996dfb",
        "8605a8b9-3b45-44b9-9d98-1a25096bf702"
      ],
      "collections": [
        "c7db86a0-ff64-4044-9be4-66dd1ef1d1c1"
      ],
      "creators": [
        "4d1b9aac-f0ca-42de-a2f0-eff2869ea6e3"
      ],
      "groups": [
        "8e209ae4-4381-438f-89dc-1b21752027d2"
      ],
      "langs": [
        "3b9e2749-27d0-4a78-873d-ea91a9ee9a25",
        "de5eda1c-5fb3-46a6-9606-d4554fc5a1d6"
      ],
      "origins": [
        "dbedd6b3-d125-4cd8-aa32-c4175e4ca3a3"
      ],
      "platforms": [
        "3c15f758-e1bc-4266-8bb9-3c14112f504a"
      ],
      "series": [
        "f76f47b0-f820-454f-8cc5-2ec0bf5b3d28"
      ],
      "singers": [
        "1401c76b-2da8-4ad7-baf8-78139c4fb6f4",
        "318f012f-d226-4cba-bfd9-5cad1c61f109",
        "963b5ad3-acc1-44b3-bcbd-ed3d36d490a4"
      ],
      "songtypes": [
        "7be1b15c-cff8-4b37-a649-5c90f3d569a9"
      ],
      "songwriters": [
        "04abdffe-8b06-4350-b521-8a5789a75890",
        "5092adbb-0292-47be-bf28-dc0b20025086"
      ],
      "franchises": [
        "f76f47b0-f820-454f-8cc5-2ec0bf5b3d28"
      ]
    },
    "titles": {
      "eng": "K/DA - THE BADDEST"
    },
    "titles_default_language": "eng",
    "titles_aliases": [
      "kda"
    ],
    "year": 2020
  }
}