{
  "header": {
    "version": 4,
    "description": "Karaoke Mugen Karaoke Data File"
  },
  "medias": [
    {
      "version": "Default",
      "filename": "ENG - D4DJ Groovy Mix - GAME MV PV - Wish You Luck ~ Off Vocal Short Vers.mp4",
      "audiogain": -6.2,
      "loudnorm": "-9.49,3.12,13.60,-20.24,-0.84",
      "filesize": 39186475,
      "duration": 127,
      "default": true,
      "lyrics": [
        {
          "filename": "ENG - D4DJ Groovy Mix - GAME MV PV - Wish You Luck ~ Off Vocal Short Vers.ass",
          "default": true,
          "version": "Default"
        }
      ]
    }
  ],
  "data": {
    "comment": "audio créé à partir d'un collage de la version longue",
    "created_at": "2022-08-25T23:21:52.419Z",
    "ignoreHooks": false,
    "kid": "d5ad6867-8963-49e3-9f4e-4bcc09168408",
    "modified_at": "2022-12-07T03:55:46.578Z",
    "parents": [
      "a54f5d8e-7eef-4198-a178-466fb2633f5a"
    ],
    "repository": "kara.moe",
    "tags": {
      "authors": [
        "7848b5dc-a5df-4577-b640-147be5288cec"
      ],
      "collections": [
        "c7db86a0-ff64-4044-9be4-66dd1ef1d1c1",
        "dbcf2c22-524d-4708-99bb-601703633927"
      ],
      "families": [
        "0377db02-3af6-43b8-9b08-c759df3d25c3"
      ],
      "genres": [
        "caa86df2-0d59-474b-885c-f240a9e891b0"
      ],
      "groups": [
        "8e209ae4-4381-438f-89dc-1b21752027d2"
      ],
      "langs": [
        "4dcf9614-7914-42aa-99f4-dbce2e059133",
        "de5eda1c-5fb3-46a6-9606-d4554fc5a1d6"
      ],
      "misc": [
        "ec4fee75-71fb-45b4-9772-2ca374b4b600"
      ],
      "platforms": [
        "213a1a15-e73a-4a08-b3f6-b6e2745a82e5"
      ],
      "series": [
        "93077816-d626-4bdb-a4a6-39300f0159cf"
      ],
      "singers": [
        "20a5bacf-2ddb-45c1-82c6-05c0e3e96860",
        "360a527f-69b3-47e2-b028-d2b176bfaaa2",
        "7a99bdcc-b857-449d-a82f-b4005ae16dda",
        "cd997481-e2ff-4d88-ab77-152bedb5041a"
      ],
      "singergroups": [
        "f26ff5d5-f37a-4aa0-a4cd-5b33bc00ecc2"
      ],
      "songtypes": [
        "66e195b9-64ea-432d-a917-2e2c88d26052",
        "7be1b15c-cff8-4b37-a649-5c90f3d569a9"
      ],
      "songwriters": [
        "af3ffe51-8059-461c-bbb8-78ea388731f3"
      ],
      "versions": [
        "c0cc87b9-55b9-40f0-878a-fbb9e34c151e",
        "d125c80a-86c1-4321-88e9-07b7800679b6"
      ],
      "franchises": [
        "e2e9382c-e3bd-4db9-abaf-194d09099ab0"
      ],
      "origins": [
        "dbedd6b3-d125-4cd8-aa32-c4175e4ca3a3"
      ]
    },
    "titles": {
      "eng": "Wish You Luck"
    },
    "titles_default_language": "eng",
    "year": 2021
  }
}