{
  "header": {
    "version": 4,
    "description": "Karaoke Mugen Karaoke Data File"
  },
  "medias": [
    {
      "version": "Default",
      "filename": "ENG - Alexander Rybak - LIVE - Fairytale ~ Full Vers.mp4",
      "audiogain": -3.89,
      "loudnorm": "-14.37,-2.24,6.80,-24.42,-0.89",
      "filesize": 69577445,
      "duration": 193,
      "default": true,
      "lyrics": [
        {
          "filename": "ENG - Alexander Rybak - LIVE - Fairytale ~ Full Vers.ass",
          "default": true,
          "version": "Default"
        }
      ]
    }
  ],
  "data": {
    "created_at": "2022-01-22T19:26:35.074Z",
    "ignoreHooks": false,
    "kid": "4e8ae443-2dd5-4682-8682-3052ceed0547",
    "modified_at": "2022-12-21T22:36:32.147Z",
    "repository": "kara.moe",
    "tags": {
      "authors": [
        "70e26885-c0b5-4a01-b95b-2f492b8a8f10"
      ],
      "collections": [
        "efe171c0-e8a1-4d03-98c0-60ecf741ad52"
      ],
      "creators": [
        "8b64a50c-a04b-40cc-84c1-d60311b8abd5"
      ],
      "families": [
        "5391f9fe-638c-415f-8dc9-958e3a2c5787"
      ],
      "groups": [
        "3c14c864-533c-49e6-a3cc-6969f1233775"
      ],
      "langs": [
        "de5eda1c-5fb3-46a6-9606-d4554fc5a1d6"
      ],
      "origins": [
        "8dd8d2a4-913a-4b0b-a555-1121cc603a57"
      ],
      "singers": [
        "ba192798-17ef-485b-bfcc-057f5812ea30"
      ],
      "songtypes": [
        "a0167949-580c-4de3-bf13-497e462e02f3"
      ],
      "songwriters": [
        "ba192798-17ef-485b-bfcc-057f5812ea30"
      ],
      "versions": [
        "c2143a7f-6970-450e-8a79-0302db9220a9"
      ]
    },
    "titles": {
      "eng": "Fairytale"
    },
    "titles_default_language": "eng",
    "year": 2009
  }
}