{
  "header": {
    "version": 4,
    "description": "Karaoke Mugen Karaoke Data File"
  },
  "medias": [
    {
      "version": "Default",
      "filename": "ENG - The Big O - OP - Big-O.mp4",
      "audiogain": 3.48,
      "loudnorm": "-21.49,-6.66,6.40,-31.56,-0.49",
      "filesize": 22768135,
      "duration": 69,
      "default": true,
      "lyrics": [
        {
          "filename": "ENG - The Big O - OP - Big-O.ass",
          "default": true,
          "version": "Default",
          "subchecksum": "cb8e323737444b6c60f223111d90dc30"
        }
      ]
    }
  ],
  "data": {
    "created_at": "2017-10-11T17:01:19.000Z",
    "kid": "262c1680-0001-43eb-867f-30798a4c6cf6",
    "modified_at": "2021-02-25T10:18:41.031Z",
    "repository": "kara.moe",
    "tags": {
      "authors": [
        "5bdaba57-27f8-4568-8806-76a807728766"
      ],
      "collections": [
        "c7db86a0-ff64-4044-9be4-66dd1ef1d1c1"
      ],
      "creators": [
        "ef8f80e1-d244-4aea-b7f0-984d6dd4b82b"
      ],
      "families": [
        "0377db02-3af6-43b8-9b08-c759df3d25c3"
      ],
      "genres": [
        "f60ba57d-5ef4-49e0-b93b-d0dcbcff6592"
      ],
      "groups": [
        "24db50aa-a126-4d34-a48a-e45db79c4245"
      ],
      "langs": [
        "de5eda1c-5fb3-46a6-9606-d4554fc5a1d6"
      ],
      "origins": [
        "938de218-5343-4865-94d3-fb33f2eaa152"
      ],
      "series": [
        "72470240-8074-4f10-bba7-2051a96bdd8d"
      ],
      "singers": [
        "6096a886-a68e-4960-900e-1d00eeaa387c"
      ],
      "songtypes": [
        "f02ad9b3-0bd9-4aad-85b3-9976739ba0e4"
      ],
      "songwriters": [
        "6096a886-a68e-4960-900e-1d00eeaa387c"
      ]
    },
    "title": "Big-O",
    "titles": {
      "eng": "Big-O"
    },
    "year": 1999
  }
}