{
  "header": {
    "version": 4,
    "description": "Karaoke Mugen Karaoke Data File"
  },
  "medias": [
    {
      "version": "Default",
      "filename": "ENG - Aerosmith - MV - Dream On.mp4",
      "audiogain": -3.59,
      "loudnorm": "-15.01,0.02,6.80,-25.15,-1.76",
      "filesize": 71660841,
      "duration": 263,
      "default": true,
      "lyrics": [
        {
          "filename": "ENG - Aerosmith - MV - Dream On.ass",
          "default": true,
          "version": "Default"
        }
      ]
    }
  ],
  "data": {
    "created_at": "2022-04-17T15:45:00.063Z",
    "ignoreHooks": false,
    "kid": "6d968264-0cc8-41f1-a326-554527a98b8f",
    "modified_at": "2022-04-17T15:45:01.447Z",
    "repository": "kara.moe",
    "tags": {
      "authors": [
        "9c120131-f3e2-4538-aee6-4acce47d856d"
      ],
      "collections": [
        "efe171c0-e8a1-4d03-98c0-60ecf741ad52"
      ],
      "creators": [
        "28a02f79-daaf-4037-8897-3458e80a5b41"
      ],
      "families": [
        "5391f9fe-638c-415f-8dc9-958e3a2c5787"
      ],
      "langs": [
        "de5eda1c-5fb3-46a6-9606-d4554fc5a1d6"
      ],
      "singers": [
        "52c7a718-7f69-42ab-8e54-f76e369a10c2"
      ],
      "songtypes": [
        "7be1b15c-cff8-4b37-a649-5c90f3d569a9"
      ],
      "songwriters": [
        "282980c0-dbea-4bd4-8282-1b0759d9f72e"
      ],
      "groups": [
        "57e5e0c0-e02e-4871-a6cb-d48ea604ebab"
      ]
    },
    "titles": {
      "eng": "Dream On"
    },
    "titles_default_language": "eng",
    "title": "Dream On",
    "year": 1973
  }
}