{
  "header": {
    "version": 4,
    "description": "Karaoke Mugen Karaoke Data File"
  },
  "medias": [
    {
      "version": "Default",
      "filename": "ENG - Koukaku Kidoutai SAC_2045 - ONA ED - sustain Plus Plus.mp4",
      "audiogain": -1.41,
      "loudnorm": "-17.00,-4.44,8.90,-27.18,-2.00",
      "filesize": 95825009,
      "duration": 95,
      "default": true,
      "lyrics": [
        {
          "filename": "ENG - Koukaku Kidoutai SAC_2045 - ONA ED - sustain Plus Plus.ass",
          "default": true,
          "version": "Default",
          "subchecksum": "410d8cec60977cfa5b5fcd5c428fb841"
        }
      ]
    }
  ],
  "data": {
    "created_at": "2021-01-28T15:04:36.834Z",
    "kid": "d413e910-1a96-445e-b62f-2618501ba726",
    "modified_at": "2021-02-25T10:11:04.981Z",
    "repository": "kara.moe",
    "tags": {
      "authors": [
        "1631228b-9125-497a-aafc-66f920a44a02"
      ],
      "collections": [
        "c7db86a0-ff64-4044-9be4-66dd1ef1d1c1"
      ],
      "creators": [
        "20d023d6-5195-4e4f-bae3-8b28ad6334e2",
        "2d4abbfc-0667-419d-a71e-0a0302becfe2"
      ],
      "groups": [
        "8e209ae4-4381-438f-89dc-1b21752027d2"
      ],
      "langs": [
        "de5eda1c-5fb3-46a6-9606-d4554fc5a1d6"
      ],
      "origins": [
        "8db3e098-06ef-45e5-bba9-cb04a21c1e66"
      ],
      "series": [
        "c70cb31c-50cc-4a34-90e1-5416855a0eb0"
      ],
      "singers": [
        "f6cd900b-9a73-446f-b54e-84663b3cfb75"
      ],
      "songtypes": [
        "38c77c56-2b95-4040-b676-0994a8cb0597"
      ],
      "songwriters": [
        "a1b5be43-a6b7-40a5-88cf-7449a9da5422",
        "d1026da5-b413-42c7-912a-3d2c068cad34"
      ],
      "franchises": [
        "1115c82c-3ccf-4593-b759-1de63d698fa5"
      ]
    },
    "title": "sustain++;",
    "titles": {
      "eng": "sustain++;"
    },
    "year": 2020
  }
}