{
  "header": {
    "version": 4,
    "description": "Karaoke Mugen Karaoke Data File"
  },
  "medias": [
    {
      "version": "Default",
      "filename": "ENG - Toto - MV - Africa.mp4",
      "audiogain": -6.65,
      "loudnorm": "-11.11,2.28,4.80,-21.21,-1.18",
      "filesize": 82290723,
      "duration": 271,
      "default": true,
      "lyrics": [
        {
          "filename": "ENG - Toto - MV - Africa.ass",
          "default": true,
          "version": "Default"
        }
      ]
    }
  ],
  "data": {
    "created_at": "2023-02-25T23:39:19.142Z",
    "ignoreHooks": false,
    "kid": "eaab24e7-5670-4952-a1f9-ee15369e680c",
    "modified_at": "2023-07-20T22:16:00.344Z",
    "repository": "kara.moe",
    "tags": {
      "authors": [
        "0c8e4377-ee35-4896-89ed-9d06a1b5acd5",
        "f70c7314-b8d3-4bf4-96a0-dc8b2c5a6c94"
      ],
      "collections": [
        "efe171c0-e8a1-4d03-98c0-60ecf741ad52"
      ],
      "creators": [
        "28a02f79-daaf-4037-8897-3458e80a5b41"
      ],
      "families": [
        "5391f9fe-638c-415f-8dc9-958e3a2c5787"
      ],
      "groups": [
        "7792cc27-9ff9-4d47-9287-2338b7db1575",
        "966d1e74-d1f2-41e2-ab04-24279c22f562"
      ],
      "langs": [
        "de5eda1c-5fb3-46a6-9606-d4554fc5a1d6"
      ],
      "singers": [
        "85671108-0195-440e-b8f6-55c9600a4e8c"
      ],
      "songtypes": [
        "7be1b15c-cff8-4b37-a649-5c90f3d569a9"
      ],
      "songwriters": [
        "a14a4ec4-bdae-4a38-8d51-ee76b1785cee",
        "d406d93d-a6c0-4351-ba8c-0d469bc613af"
      ]
    },
    "titles": {
      "eng": "Africa"
    },
    "titles_default_language": "eng",
    "year": 1982
  }
}