{
  "header": {
    "version": 4,
    "description": "Karaoke Mugen Karaoke Data File"
  },
  "medias": [
    {
      "version": "Default",
      "filename": "ENG - Shin Kono Subarashiki Sekai - GAME SWITCH OP - NEW GAME.mp4",
      "audiogain": 0.43,
      "loudnorm": "-17.89,-6.23,6.50,-27.98,-0.85",
      "filesize": 74685089,
      "duration": 123,
      "default": true,
      "lyrics": [
        {
          "filename": "ENG - Shin Kono Subarashiki Sekai - GAME SWITCH OP - NEW GAME.ass",
          "default": true,
          "version": "Default"
        }
      ]
    }
  ],
  "data": {
    "created_at": "2023-05-28T15:18:36.179Z",
    "ignoreHooks": false,
    "kid": "b7ad254e-2100-458a-b4b5-1792724507ed",
    "modified_at": "2023-05-28T20:45:29.503Z",
    "repository": "kara.moe",
    "tags": {
      "authors": [
        "7848b5dc-a5df-4577-b640-147be5288cec"
      ],
      "collections": [
        "c7db86a0-ff64-4044-9be4-66dd1ef1d1c1"
      ],
      "creators": [
        "ac4a5180-97af-4679-adcd-70ab39919d48"
      ],
      "families": [
        "0377db02-3af6-43b8-9b08-c759df3d25c3"
      ],
      "groups": [
        "8e209ae4-4381-438f-89dc-1b21752027d2"
      ],
      "langs": [
        "de5eda1c-5fb3-46a6-9606-d4554fc5a1d6"
      ],
      "misc": [
        "ec4fee75-71fb-45b4-9772-2ca374b4b600"
      ],
      "origins": [
        "dbedd6b3-d125-4cd8-aa32-c4175e4ca3a3"
      ],
      "platforms": [
        "0a880bfc-d0e5-448b-98d2-4ba7b3106641",
        "248d92ee-8c02-43bc-86e2-cc6029883564",
        "3c15f758-e1bc-4266-8bb9-3c14112f504a"
      ],
      "series": [
        "67ce4a29-543c-48c6-93b4-6144b4a308b7"
      ],
      "singers": [
        "2086e27e-dcd3-4206-b63a-a518248fef64",
        "d4d4cb3a-f4aa-42a1-b490-2221b128f18e"
      ],
      "songtypes": [
        "f02ad9b3-0bd9-4aad-85b3-9976739ba0e4"
      ],
      "songwriters": [
        "2086e27e-dcd3-4206-b63a-a518248fef64",
        "d4d4cb3a-f4aa-42a1-b490-2221b128f18e"
      ],
      "franchises": [
        "052644f9-94c2-4931-89f6-433469a2ba14"
      ]
    },
    "titles": {
      "eng": "NEW GAME"
    },
    "titles_default_language": "eng",
    "year": 2021
  }
}