{
  "header": {
    "version": 4,
    "description": "Karaoke Mugen Karaoke Data File"
  },
  "medias": [
    {
      "version": "Default",
      "filename": "ENG - Carl Douglas - MV - Kung Fu Fighting.mp4",
      "audiogain": -0.08,
      "loudnorm": "-18.63,-3.70,9.20,-29.11,-1.09",
      "filesize": 36636196,
      "duration": 190,
      "default": true,
      "lyrics": [
        {
          "filename": "ENG - Carl Douglas - MV - Kung Fu Fighting.ass",
          "default": true,
          "version": "Default",
          "subchecksum": "28af28627a79fd47bddb636d33c387fc"
        }
      ]
    }
  ],
  "data": {
    "created_at": "2021-05-23T23:24:40.288Z",
    "kid": "294e2538-082a-4f3f-90ab-141dd6e7a718",
    "modified_at": "2021-05-23T23:26:57.354Z",
    "repository": "kara.moe",
    "tags": {
      "authors": [
        "0c8e4377-ee35-4896-89ed-9d06a1b5acd5"
      ],
      "collections": [
        "efe171c0-e8a1-4d03-98c0-60ecf741ad52"
      ],
      "creators": [
        "18e389d9-5f05-4966-8015-cf807525588a",
        "971c0efd-509d-4b41-8170-2084259eeb88"
      ],
      "families": [
        "5391f9fe-638c-415f-8dc9-958e3a2c5787"
      ],
      "groups": [
        "57e5e0c0-e02e-4871-a6cb-d48ea604ebab"
      ],
      "langs": [
        "de5eda1c-5fb3-46a6-9606-d4554fc5a1d6"
      ],
      "singers": [
        "d07dc531-e8b2-49a0-a879-2c1eda298a13"
      ],
      "songtypes": [
        "7be1b15c-cff8-4b37-a649-5c90f3d569a9"
      ],
      "songwriters": [
        "d07dc531-e8b2-49a0-a879-2c1eda298a13",
        "dbf4823b-8385-44c0-a87e-615ba9027f3a"
      ]
    },
    "title": "Kung Fu Fighting",
    "titles": {
      "eng": "Kung Fu Fighting"
    },
    "year": 1974
  }
}