{
  "header": {
    "version": 4,
    "description": "Karaoke Mugen Karaoke Data File"
  },
  "medias": [
    {
      "version": "Default",
      "filename": "ENG - Doctor Who - IN - Rasputin.mp4",
      "audiogain": 3.53,
      "loudnorm": "-20.62,-8.69,4.70,-30.74,-0.46",
      "filesize": 43062169,
      "duration": 60,
      "default": true,
      "lyrics": [
        {
          "filename": "ENG - Doctor Who - IN - Rasputin.ass",
          "default": true,
          "version": "Default"
        }
      ]
    }
  ],
  "data": {
    "created_at": "2022-10-24T19:58:06.699Z",
    "ignoreHooks": false,
    "kid": "46dca6a3-55ed-47e1-bcac-28dfe6b97ba5",
    "modified_at": "2022-10-24T19:58:07.390Z",
    "parents": [
      "1ae65028-d6df-48b2-bf53-5f83b7c65977"
    ],
    "repository": "kara.moe",
    "tags": {
      "authors": [
        "2ca6b53a-1b53-4535-b275-d3030b79172d",
        "05c1e4ad-32ba-490e-8f3c-5cd491c96d85"
      ],
      "collections": [
        "c7db86a0-ff64-4044-9be4-66dd1ef1d1c1",
        "2fa2fe3f-bb56-45ee-aa38-eae60e76f224"
      ],
      "creators": [
        "4f14f747-746f-4dbf-985e-107d52261bb9"
      ],
      "families": [
        "5391f9fe-638c-415f-8dc9-958e3a2c5787"
      ],
      "groups": [
        "57e5e0c0-e02e-4871-a6cb-d48ea604ebab",
        "2b4e9972-5e17-481b-99f5-d0787c0ada56",
        "8e209ae4-4381-438f-89dc-1b21752027d2"
      ],
      "langs": [
        "de5eda1c-5fb3-46a6-9606-d4554fc5a1d6"
      ],
      "series": [
        "2bb88864-fae1-4b6c-ba84-51452251156f"
      ],
      "singers": [
        "68d3eb00-d3ba-4e7d-8921-2af94b9c6bbd"
      ],
      "songtypes": [
        "5e5250d9-351a-4a82-98eb-55db50ad8962"
      ],
      "songwriters": [
        "290c12bf-2c01-4b22-913e-300d8282140e",
        "a81038a8-65f0-49f6-993f-837d6fd66fcb",
        "f065c6f5-3c92-40c1-b9cf-7c6a43e88ccc"
      ]
    },
    "titles": {
      "eng": "Rasputin"
    },
    "titles_default_language": "eng",
    "title": "Rasputin",
    "year": 2022
  }
}