{
  "header": {
    "version": 4,
    "description": "Karaoke Mugen Karaoke Data File"
  },
  "medias": [
    {
      "version": "Default",
      "filename": "ENG - Hermes House Band - MV - I Will Survive (La La La) ~ Cover Vers.mp4",
      "audiogain": -5.89,
      "loudnorm": "-11.61,0.46,4.90,-21.83,-1.05",
      "filesize": 21683452,
      "duration": 237,
      "default": true,
      "lyrics": [
        {
          "filename": "ENG - Hermes House Band - MV - I Will Survive (La La La) ~ Cover Vers.ass",
          "default": true,
          "version": "Default"
        }
      ]
    }
  ],
  "data": {
    "created_at": "2022-06-05T12:59:40.809Z",
    "ignoreHooks": false,
    "kid": "c62b1dec-894b-49a7-8e88-2496b4ee3daf",
    "modified_at": "2022-06-05T12:59:41.437Z",
    "parents": [
      "62168b8f-cbc3-494b-ab72-b139fd99e865"
    ],
    "repository": "kara.moe",
    "tags": {
      "authors": [
        "e3c3ae60-5602-4765-8456-fd0ab28e2041"
      ],
      "collections": [
        "efe171c0-e8a1-4d03-98c0-60ecf741ad52"
      ],
      "creators": [
        "ee954a78-2b37-4071-b094-f9945d846d63"
      ],
      "families": [
        "5391f9fe-638c-415f-8dc9-958e3a2c5787"
      ],
      "langs": [
        "de5eda1c-5fb3-46a6-9606-d4554fc5a1d6"
      ],
      "singers": [
        "eb9116b2-9e64-4d03-934e-01588edd137b"
      ],
      "songtypes": [
        "7be1b15c-cff8-4b37-a649-5c90f3d569a9"
      ],
      "songwriters": [
        "4504e3fe-70e8-4597-bfb9-fbad2a98a95d",
        "8e080225-3ba3-47c8-bbed-d105503b71ca"
      ],
      "versions": [
        "03e1e1d2-8641-47b7-bbcb-39a3df9ff21c"
      ],
      "groups": [
        "24db50aa-a126-4d34-a48a-e45db79c4245"
      ]
    },
    "titles": {
      "eng": "I Will Survive (La La La)"
    },
    "titles_default_language": "eng",
    "title": "I Will Survive (La La La)",
    "year": 1994
  }
}