{
  "header": {
    "version": 4,
    "description": "Karaoke Mugen Karaoke Data File"
  },
  "medias": [
    {
      "version": "Default",
      "filename": "ENG - TWICE - MV - The Feels.mp4",
      "audiogain": -9.67,
      "loudnorm": "-7.08,2.65,2.90,-17.23,-0.98",
      "filesize": 164693177,
      "duration": 209,
      "default": true,
      "lyrics": [
        {
          "filename": "ENG - TWICE - MV - The Feels.ass",
          "default": true,
          "version": "Default"
        }
      ]
    }
  ],
  "data": {
    "created_at": "2022-05-03T21:32:09.762Z",
    "ignoreHooks": false,
    "kid": "5dd8964a-4505-44e4-b660-e58d7419ad51",
    "modified_at": "2022-07-02T21:32:00.376Z",
    "repository": "kara.moe",
    "tags": {
      "authors": [
        "1d7745a8-73ea-40bb-ad99-826af98f6e41"
      ],
      "collections": [
        "dbcf2c22-524d-4708-99bb-601703633927"
      ],
      "creators": [
        "bdf56beb-3ac3-4480-bdd9-e5bff240a3b1",
        "e1a9a889-9e39-49c9-8ff7-7d7d16331ee5"
      ],
      "families": [
        "5391f9fe-638c-415f-8dc9-958e3a2c5787"
      ],
      "groups": [
        "8e209ae4-4381-438f-89dc-1b21752027d2"
      ],
      "langs": [
        "de5eda1c-5fb3-46a6-9606-d4554fc5a1d6"
      ],
      "singers": [
        "fe421082-61b7-4758-bcf2-71b03dd52a1d"
      ],
      "songtypes": [
        "7be1b15c-cff8-4b37-a649-5c90f3d569a9"
      ],
      "songwriters": [
        "3092ad16-8a56-46e7-a2f5-2afad369f88a",
        "a63716d7-fef0-4626-be55-a9fd61922794",
        "d7fc78df-3080-4345-8e71-bdac7bd0aa87",
        "fd6aad4e-98b3-4b2d-8aa0-829c21849df2"
      ]
    },
    "titles": {
      "eng": "The Feels"
    },
    "titles_default_language": "eng",
    "title": "The Feels",
    "year": 2021
  }
}