{
  "header": {
    "version": 4,
    "description": "Karaoke Mugen Karaoke Data File"
  },
  "medias": [
    {
      "version": "Default",
      "filename": "ENG - League of Legends - GAME PC MV - GIANTS.mp4",
      "audiogain": -9.33,
      "loudnorm": "-7.59,1.57,7.10,-17.78,-1.10",
      "filesize": 62029954,
      "duration": 198,
      "default": true,
      "lyrics": [
        {
          "filename": "ENG - League of Legends - GAME PC MV - GIANTS.ass",
          "default": true,
          "version": "Default"
        }
      ]
    }
  ],
  "data": {
    "created_at": "2022-04-10T18:30:43.087Z",
    "ignoreHooks": false,
    "kid": "7dc0cda4-4e11-49fa-a4c2-678ba202c89d",
    "modified_at": "2022-04-10T18:31:54.390Z",
    "repository": "kara.moe",
    "tags": {
      "authors": [
        "4d71ce82-eed1-4c44-ac85-5f7255f3dad3"
      ],
      "collections": [
        "c7db86a0-ff64-4044-9be4-66dd1ef1d1c1"
      ],
      "creators": [
        "4d1b9aac-f0ca-42de-a2f0-eff2869ea6e3"
      ],
      "groups": [
        "ae613721-1fbe-480d-ba6b-d6d0702b184d"
      ],
      "langs": [
        "de5eda1c-5fb3-46a6-9606-d4554fc5a1d6"
      ],
      "platforms": [
        "3c15f758-e1bc-4266-8bb9-3c14112f504a"
      ],
      "series": [
        "f76f47b0-f820-454f-8cc5-2ec0bf5b3d28"
      ],
      "singers": [
        "6a6440d0-8905-46e5-8224-7e78e53d0b7c",
        "91da2830-24e8-466c-829c-0fe482b337a1",
        "963b5ad3-acc1-44b3-bcbd-ed3d36d490a4",
        "dd028ee2-1016-4ff3-af2f-3028d7b3b01c",
        "e82baaf7-58df-4200-be62-388e8d31ef06",
        "3dfef56a-2397-4a05-a24a-9bf6c7356066"
      ],
      "songtypes": [
        "7be1b15c-cff8-4b37-a649-5c90f3d569a9"
      ],
      "songwriters": [
        "04abdffe-8b06-4350-b521-8a5789a75890",
        "91da2830-24e8-466c-829c-0fe482b337a1",
        "9600e100-16cc-4bd0-8c66-5ef4fa3df907",
        "3dfef56a-2397-4a05-a24a-9bf6c7356066"
      ],
      "franchises": [
        "f76f47b0-f820-454f-8cc5-2ec0bf5b3d28"
      ],
      "origins": [
        "dbedd6b3-d125-4cd8-aa32-c4175e4ca3a3"
      ]
    },
    "titles": {
      "eng": "GIANTS"
    },
    "titles_default_language": "eng",
    "title": "GIANTS",
    "year": 2019
  }
}