{
  "header": {
    "version": 4,
    "description": "Karaoke Mugen Karaoke Data File"
  },
  "medias": [
    {
      "version": "Default",
      "filename": "ENG - Queen - MV - Another One Bites the Dust.mp4",
      "audiogain": -2.04,
      "loudnorm": "-17.40,-2.42,4.60,-27.54,-0.36",
      "filesize": 22673534,
      "duration": 211,
      "default": true,
      "lyrics": [
        {
          "filename": "ENG - Queen - MV - Another One Bites the Dust.ass",
          "default": true,
          "version": "Default",
          "subchecksum": "85dca68c708d50755a9a48ddb7fb186e"
        }
      ]
    }
  ],
  "data": {
    "created_at": "2020-07-04T14:05:44.467Z",
    "kid": "2d6e8c86-6c9e-4767-adc7-ea722c9fed55",
    "modified_at": "2021-02-25T14:50:31.134Z",
    "repository": "kara.moe",
    "tags": {
      "authors": [
        "cf579318-3480-4b5b-a953-befa472acb37"
      ],
      "collections": [
        "efe171c0-e8a1-4d03-98c0-60ecf741ad52"
      ],
      "creators": [
        "078ec016-e167-49bf-ba43-af95adfc4c51"
      ],
      "families": [
        "5391f9fe-638c-415f-8dc9-958e3a2c5787"
      ],
      "groups": [
        "7792cc27-9ff9-4d47-9287-2338b7db1575"
      ],
      "langs": [
        "de5eda1c-5fb3-46a6-9606-d4554fc5a1d6"
      ],
      "singers": [
        "c25013e3-dbc3-4614-bb61-007748729633"
      ],
      "songtypes": [
        "7be1b15c-cff8-4b37-a649-5c90f3d569a9"
      ],
      "songwriters": [
        "00fc569f-06a4-4c70-bb73-44b37deb1708",
        "c25013e3-dbc3-4614-bb61-007748729633"
      ]
    },
    "title": "Another One Bites the Dust",
    "titles": {
      "eng": "Another One Bites the Dust"
    },
    "year": 1980
  }
}