{
  "header": {
    "version": 4,
    "description": "Karaoke Mugen Karaoke Data File"
  },
  "medias": [
    {
      "version": "Default",
      "filename": "ENG - Mafumafu, nqrse - MV - ECHO ~ Cover Vers.mp4",
      "audiogain": -11.56,
      "loudnorm": "-7.08,1.88,7.80,-17.29,-1.08",
      "filesize": 48861959,
      "duration": 238,
      "default": true,
      "lyrics": [
        {
          "filename": "ENG - Mafumafu, nqrse - MV - ECHO ~ Cover Vers.ass",
          "default": true,
          "version": "Default"
        }
      ]
    }
  ],
  "data": {
    "created_at": "2022-06-09T14:51:07.145Z",
    "ignoreHooks": false,
    "kid": "fcd3cfd8-fdaf-493f-b975-d5c31ea7f227",
    "modified_at": "2022-06-09T14:51:38.126Z",
    "parents": [
      "846ef843-252d-45ab-9cce-5577b578254d"
    ],
    "repository": "kara.moe",
    "tags": {
      "authors": [
        "84157b43-8a7a-482c-95d3-516757353835"
      ],
      "collections": [
        "c7db86a0-ff64-4044-9be4-66dd1ef1d1c1"
      ],
      "creators": [
        "3b5e1055-c1dd-44ba-9362-eddc4fdffa63",
        "6c2c0764-ac9e-4af4-91bd-655e9404418e"
      ],
      "families": [
        "0377db02-3af6-43b8-9b08-c759df3d25c3"
      ],
      "genres": [
        "45623cae-6d68-4304-a49b-896d1d6f4580"
      ],
      "groups": [
        "ae613721-1fbe-480d-ba6b-d6d0702b184d"
      ],
      "langs": [
        "de5eda1c-5fb3-46a6-9606-d4554fc5a1d6"
      ],
      "misc": [
        "1d6ceadf-a885-47e5-b23b-c07bf668a424",
        "ec4fee75-71fb-45b4-9772-2ca374b4b600"
      ],
      "singers": [
        "aba75c5b-5a8d-4376-896d-740d8f8847d9",
        "bc529860-da92-40b9-9c97-b6c6728a4dc7"
      ],
      "songtypes": [
        "7be1b15c-cff8-4b37-a649-5c90f3d569a9"
      ],
      "songwriters": [
        "28879964-f5f2-4f44-b3c4-46fb108748c1",
        "6c2c0764-ac9e-4af4-91bd-655e9404418e",
        "bc529860-da92-40b9-9c97-b6c6728a4dc7"
      ],
      "versions": [
        "03e1e1d2-8641-47b7-bbcb-39a3df9ff21c"
      ]
    },
    "titles": {
      "eng": "ECHO"
    },
    "titles_default_language": "eng",
    "title": "ECHO",
    "year": 2016
  }
}