{
  "header": {
    "version": 4,
    "description": "Karaoke Mugen Karaoke Data File"
  },
  "medias": [
    {
      "version": "Default",
      "filename": "ENG - Gloria Gaynor - MV - I Will Survive.mp4",
      "audiogain": -10.12,
      "loudnorm": "-8.60,2.06,3.50,-18.83,-0.21",
      "filesize": 22251181,
      "duration": 179,
      "default": true,
      "lyrics": [
        {
          "filename": "ENG - Gloria Gaynor - MV - I Will Survive.ass",
          "default": true,
          "version": "Default"
        }
      ]
    }
  ],
  "data": {
    "created_at": "2022-06-05T12:48:12.205Z",
    "ignoreHooks": false,
    "kid": "62168b8f-cbc3-494b-ab72-b139fd99e865",
    "modified_at": "2022-06-05T12:54:48.353Z",
    "repository": "kara.moe",
    "tags": {
      "authors": [
        "0c8e4377-ee35-4896-89ed-9d06a1b5acd5"
      ],
      "collections": [
        "efe171c0-e8a1-4d03-98c0-60ecf741ad52"
      ],
      "creators": [
        "ee954a78-2b37-4071-b094-f9945d846d63"
      ],
      "families": [
        "5391f9fe-638c-415f-8dc9-958e3a2c5787"
      ],
      "groups": [
        "57e5e0c0-e02e-4871-a6cb-d48ea604ebab"
      ],
      "langs": [
        "de5eda1c-5fb3-46a6-9606-d4554fc5a1d6"
      ],
      "singers": [
        "c8acb410-1692-476b-a00d-a27be4988dab"
      ],
      "songtypes": [
        "7be1b15c-cff8-4b37-a649-5c90f3d569a9"
      ],
      "songwriters": [
        "4504e3fe-70e8-4597-bfb9-fbad2a98a95d",
        "8e080225-3ba3-47c8-bbed-d105503b71ca"
      ]
    },
    "titles": {
      "eng": "I Will Survive"
    },
    "titles_default_language": "eng",
    "title": "I Will Survive",
    "year": 1978
  }
}