{
  "header": {
    "version": 4,
    "description": "Karaoke Mugen Karaoke Data File"
  },
  "medias": [
    {
      "version": "Default",
      "filename": "ENG - Touhou - MV - ON FIRE.mp4",
      "audiogain": -8.77,
      "loudnorm": "-8.39,2.03,7.60,-18.74,-0.81",
      "filesize": 43900607,
      "duration": 244,
      "default": true,
      "lyrics": [
        {
          "filename": "ENG - Touhou - MV - ON FIRE.ass",
          "default": true,
          "version": "Default"
        }
      ]
    }
  ],
  "data": {
    "created_at": "2023-02-04T22:22:30.239Z",
    "ignoreHooks": false,
    "kid": "3d788473-9bb9-4bf7-8b96-2dfba315af34",
    "modified_at": "2023-02-04T22:50:40.983Z",
    "repository": "kara.moe",
    "tags": {
      "authors": [
        "56355915-6bc6-4282-acbb-dd1fdaf13d50"
      ],
      "collections": [
        "c7db86a0-ff64-4044-9be4-66dd1ef1d1c1"
      ],
      "creators": [
        "827f578a-7713-4c06-b535-dfb37a998bc5"
      ],
      "families": [
        "0377db02-3af6-43b8-9b08-c759df3d25c3"
      ],
      "groups": [
        "8e209ae4-4381-438f-89dc-1b21752027d2",
        "df5f446f-d161-4760-8e0c-822e70ea03ae"
      ],
      "langs": [
        "de5eda1c-5fb3-46a6-9606-d4554fc5a1d6"
      ],
      "series": [
        "1bdaa5a1-dfa6-4365-b746-7a0b194dafd6"
      ],
      "singers": [
        "029041b7-0484-4814-bf60-349973f2090b",
        "2340cef3-f529-419d-8abd-a84aeefde2fd",
        "90cc6597-171e-4bd8-b05d-ceb04783a561",
        "9aca7565-a996-4231-b169-ad512d605908"
      ],
      "singergroups": [
        "58d81576-cd60-4dc9-a6cc-1aea8be9e7e0"
      ],
      "songtypes": [
        "7be1b15c-cff8-4b37-a649-5c90f3d569a9"
      ],
      "songwriters": [
        "2340cef3-f529-419d-8abd-a84aeefde2fd",
        "93a4dda2-64e7-459e-ba0b-6d789399a4d3"
      ],
      "warnings": [
        "51288600-29e0-4e41-a42b-77f0498e5691"
      ],
      "franchises": [
        "1bdaa5a1-dfa6-4365-b746-7a0b194dafd6"
      ]
    },
    "titles": {
      "eng": "ON FIRE"
    },
    "titles_default_language": "eng",
    "year": 2022
  }
}