{
  "header": {
    "version": 4,
    "description": "Karaoke Mugen Karaoke Data File"
  },
  "medias": [
    {
      "version": "Default",
      "filename": "ENG - Akon, Eminem - MV - Smack That.mp4",
      "audiogain": -8.41,
      "loudnorm": "-9.74,2.98,1.80,-19.90,-0.21",
      "filesize": 67012914,
      "duration": 214,
      "default": true,
      "lyrics": [
        {
          "filename": "ENG - Akon, Eminem - MV - Smack That.ass",
          "default": true,
          "version": "Default"
        }
      ]
    }
  ],
  "data": {
    "created_at": "2022-07-21T11:48:52.533Z",
    "ignoreHooks": false,
    "kid": "19f9a740-835a-4466-9004-c7deed48e442",
    "modified_at": "2022-10-15T15:47:04.171Z",
    "repository": "kara.moe",
    "tags": {
      "authors": [
        "d7692257-8d6f-4777-83ce-37b1ad1fe3b9"
      ],
      "collections": [
        "efe171c0-e8a1-4d03-98c0-60ecf741ad52"
      ],
      "creators": [
        "f963181a-1214-47f8-b6f9-1705cbc33779"
      ],
      "families": [
        "5391f9fe-638c-415f-8dc9-958e3a2c5787"
      ],
      "groups": [
        "3c14c864-533c-49e6-a3cc-6969f1233775"
      ],
      "langs": [
        "de5eda1c-5fb3-46a6-9606-d4554fc5a1d6"
      ],
      "singers": [
        "06cfc251-0816-4dd0-9c35-d450cf05a2dc",
        "47b6d545-8a6c-4c89-a3e2-c1439910b25e"
      ],
      "songtypes": [
        "7be1b15c-cff8-4b37-a649-5c90f3d569a9"
      ],
      "songwriters": [
        "47b6d545-8a6c-4c89-a3e2-c1439910b25e",
        "5c04e3bf-2e0b-4c47-8c68-50e60582e46c",
        "75998a7c-bfda-44ae-9a51-f0bae1d42d75",
        "06cfc251-0816-4dd0-9c35-d450cf05a2dc"
      ]
    },
    "titles": {
      "eng": "Smack That"
    },
    "titles_default_language": "eng",
    "title": "Smack That",
    "year": 2006
  }
}