{
  "header": {
    "version": 4,
    "description": "Karaoke Mugen Karaoke Data File"
  },
  "medias": [
    {
      "version": "Default",
      "filename": "FRE - Gjon's Tears - MV - Tout l'Univers.mp4",
      "audiogain": -8.78,
      "loudnorm": "-9.46,1.56,12.50,-20.01,-2.05",
      "filesize": 54776657,
      "duration": 186,
      "default": true,
      "lyrics": [
        {
          "filename": "FRE - Gjon's Tears - MV - Tout l'Univers.ass",
          "default": true,
          "version": "Default"
        }
      ]
    }
  ],
  "data": {
    "created_at": "2022-12-11T00:07:19.263Z",
    "ignoreHooks": false,
    "kid": "ab43ca93-e0ba-4777-a7fe-b814de1a818a",
    "modified_at": "2022-12-11T00:07:20.034Z",
    "repository": "kara.moe",
    "tags": {
      "authors": [
        "d920da91-9708-48c7-a3eb-c52eaf098148"
      ],
      "collections": [
        "efe171c0-e8a1-4d03-98c0-60ecf741ad52"
      ],
      "families": [
        "5391f9fe-638c-415f-8dc9-958e3a2c5787"
      ],
      "langs": [
        "fd8072b7-4d9b-45d4-8f5b-a931a830edef"
      ],
      "singers": [
        "101cfcd7-6385-49a7-82ff-2edfb451ad8c"
      ],
      "songtypes": [
        "7be1b15c-cff8-4b37-a649-5c90f3d569a9"
      ],
      "songwriters": [
        "101cfcd7-6385-49a7-82ff-2edfb451ad8c",
        "8103a61c-d9b1-465b-b76b-e1ba4158227f",
        "6e1bcefa-68f9-4d6e-bcb3-743615ba889e",
        "305cac05-79b2-48b8-8be7-26ab0e339a52"
      ],
      "groups": [
        "8e209ae4-4381-438f-89dc-1b21752027d2"
      ]
    },
    "titles": {
      "fre": "Tout l'Univers"
    },
    "titles_default_language": "fre",
    "year": 2021
  }
}