{
  "header": {
    "version": 4,
    "description": "Karaoke Mugen Karaoke Data File"
  },
  "medias": [
    {
      "version": "Default",
      "filename": "FRE - Pokemon Battle Frontier - OP - Le Tournoi Extreme.mp4",
      "audiogain": 1.05,
      "loudnorm": "-17.86,-6.53,2.10,-28.25,-0.42",
      "filesize": 18576774,
      "duration": 32,
      "default": true,
      "lyrics": [
        {
          "filename": "FRE - Pokemon Battle Frontier - OP - Le Tournoi Extreme.ass",
          "default": true,
          "version": "Default",
          "subchecksum": "a1ebe121e36dd8c20e6c61953147a2cc"
        }
      ]
    }
  ],
  "data": {
    "created_at": "2017-10-11T17:02:11.000Z",
    "kid": "5999bb8f-a237-48df-aaa7-9691bd6dce82",
    "modified_at": "2021-02-25T10:28:20.299Z",
    "repository": "kara.moe",
    "tags": {
      "authors": [
        "1b2f4ffc-ba49-4646-9eab-d19abe7e4081"
      ],
      "collections": [
        "c7db86a0-ff64-4044-9be4-66dd1ef1d1c1"
      ],
      "creators": [
        "03fe574b-c7f5-4520-96dc-47320c39e2cc"
      ],
      "families": [
        "0377db02-3af6-43b8-9b08-c759df3d25c3"
      ],
      "genres": [
        "a0aeef4a-6428-45ff-a6e1-468b595930c2"
      ],
      "groups": [
        "3c14c864-533c-49e6-a3cc-6969f1233775",
        "8c22c899-b3ed-42da-a548-ce00f950798b",
        "f5e7d2fc-0cbb-4fb9-a84a-b25dfb0e9e77"
      ],
      "langs": [
        "fd8072b7-4d9b-45d4-8f5b-a931a830edef"
      ],
      "origins": [
        "938de218-5343-4865-94d3-fb33f2eaa152"
      ],
      "series": [
        "d700940a-fd18-467a-b5be-5cc618e44260"
      ],
      "singers": [
        "c4e59998-59f2-4d4f-aa7f-177b05889c49"
      ],
      "songtypes": [
        "f02ad9b3-0bd9-4aad-85b3-9976739ba0e4"
      ],
      "songwriters": [
        "164ed444-263a-4944-8cd9-b103e5e54fb4",
        "6bf7b8ae-6ea3-4ba4-b0d1-5fcacb67e56e",
        "8c03deb2-503d-4c95-b6ae-3199751dbb46",
        "c691f372-ef5c-4327-b91d-038099be0159"
      ],
      "franchises": [
        "c6923c03-f8c0-4258-a478-8dfa08f3ccd0"
      ]
    },
    "title": "Le Tournoi Extrême",
    "titles": {
      "eng": "Le Tournoi Extrême"
    },
    "year": 2006
  }
}