{
  "header": {
    "version": 4,
    "description": "Karaoke Mugen Karaoke Data File"
  },
  "medias": [
    {
      "version": "Default",
      "filename": "FRE - Pokemon DP Sinnoh League Victors - OP - Les Vainqueurs de la Ligue de Sinnoh.mp4",
      "audiogain": 4.43,
      "loudnorm": "-20.66,-8.39,7.40,-31.09,-0.57",
      "filesize": 39852928,
      "duration": 38,
      "default": true,
      "lyrics": [
        {
          "filename": "FRE - Pokemon DP Sinnoh League Victors - OP - Les Vainqueurs de la Ligue de Sinnoh.ass",
          "default": true,
          "version": "Default",
          "subchecksum": "1fa4ccde445903185a7cbd06594af7e1"
        }
      ]
    }
  ],
  "data": {
    "created_at": "2017-10-11T17:02:10.000Z",
    "kid": "389a9597-bf83-4b35-b609-04236f388575",
    "modified_at": "2021-03-13T15:18:02.085Z",
    "repository": "kara.moe",
    "tags": {
      "authors": [
        "8c22c899-b3ed-42da-a548-ce00f950798b"
      ],
      "collections": [
        "c7db86a0-ff64-4044-9be4-66dd1ef1d1c1"
      ],
      "creators": [
        "03fe574b-c7f5-4520-96dc-47320c39e2cc"
      ],
      "families": [
        "0377db02-3af6-43b8-9b08-c759df3d25c3"
      ],
      "genres": [
        "a0aeef4a-6428-45ff-a6e1-468b595930c2"
      ],
      "groups": [
        "8c22c899-b3ed-42da-a548-ce00f950798b",
        "ae613721-1fbe-480d-ba6b-d6d0702b184d",
        "f5e7d2fc-0cbb-4fb9-a84a-b25dfb0e9e77"
      ],
      "langs": [
        "fd8072b7-4d9b-45d4-8f5b-a931a830edef"
      ],
      "origins": [
        "938de218-5343-4865-94d3-fb33f2eaa152"
      ],
      "series": [
        "a59ca1cd-947e-4234-b510-5663df81ecfc"
      ],
      "singers": [
        "e53572a4-d81e-4c16-9fc2-d511273b5e00"
      ],
      "songtypes": [
        "f02ad9b3-0bd9-4aad-85b3-9976739ba0e4"
      ],
      "songwriters": [
        "8c03deb2-503d-4c95-b6ae-3199751dbb46",
        "cd3d1769-bd96-4143-9964-d48f2bb4bfe4"
      ],
      "franchises": [
        "c6923c03-f8c0-4258-a478-8dfa08f3ccd0"
      ]
    },
    "title": "Les Vainqueurs de la Ligue de Sinnoh",
    "titles": {
      "eng": "Les Vainqueurs de la Ligue de Sinnoh"
    },
    "year": 2010
  }
}