{
  "header": {
    "version": 4,
    "description": "Karaoke Mugen Karaoke Data File"
  },
  "medias": [
    {
      "version": "Default",
      "filename": "FRE - Pocahontas - MOVIE IN - Au detour de la riviere.mp4",
      "audiogain": 0.9,
      "loudnorm": "-20.13,-7.43,8.80,-30.33,-0.53",
      "filesize": 94114542,
      "duration": 143,
      "default": true,
      "lyrics": [
        {
          "filename": "FRE - Pocahontas - MOVIE IN - Au detour de la riviere.ass",
          "default": true,
          "version": "Default"
        }
      ]
    }
  ],
  "data": {
    "created_at": "2023-06-08T11:10:29.631Z",
    "ignoreHooks": false,
    "kid": "8e796f71-178d-4ad4-8e44-33a75aae936c",
    "modified_at": "2023-06-08T11:10:30.280Z",
    "repository": "kara.moe",
    "tags": {
      "authors": [
        "0275191e-6efa-4aee-b15c-74f594274dd3",
        "a3a99b23-6c42-4d38-8863-491153187437"
      ],
      "collections": [
        "c7db86a0-ff64-4044-9be4-66dd1ef1d1c1"
      ],
      "creators": [
        "53ac4d74-c9b8-4fed-bab1-cfa65b2f3142"
      ],
      "families": [
        "0377db02-3af6-43b8-9b08-c759df3d25c3"
      ],
      "groups": [
        "de0c8e96-9934-4251-9142-b7a5ee70dd6f",
        "24db50aa-a126-4d34-a48a-e45db79c4245"
      ],
      "langs": [
        "fd8072b7-4d9b-45d4-8f5b-a931a830edef"
      ],
      "origins": [
        "c8ca9dea-d8b4-48fe-8427-d911653232e9"
      ],
      "series": [
        "2c85dc2a-9617-4768-b1f2-655989605fc8"
      ],
      "singers": [
        "fe5eba32-540c-4db6-86d4-4a1e185f2fe8"
      ],
      "songtypes": [
        "5e5250d9-351a-4a82-98eb-55db50ad8962"
      ],
      "songwriters": [
        "5b6f3049-0cf4-4746-9b48-3ff0240b54a3",
        "95fcb428-a4b0-4564-9ef7-ab6474736236"
      ]
    },
    "titles": {
      "fre": "Au détour de la rivière",
      "eng": "Just Around The Riverbend"
    },
    "titles_default_language": "fre",
    "year": 1995
  }
}