{
  "header": {
    "description": "Karaoke Mugen Karaoke Data File",
    "version": 4
  },
  "medias": [
    {
      "version": "Default",
      "filename": "FRE - Trois Cafes Gourmands - MV - A nos souvenirs.mp4",
      "audiogain": -7.83,
      "loudnorm": "-10.98,1.22,8.10,-21.20,-1.82",
      "filesize": 93310695,
      "duration": 192,
      "default": true,
      "lyrics": [
        {
          "filename": "FRE - Trois Cafes Gourmands - MV - A nos souvenirs.ass",
          "default": true,
          "version": "Default"
        }
      ]
    }
  ],
  "data": {
    "created_at": "2022-05-04T21:11:24.621Z",
    "kid": "dfb9b143-cd2e-4089-a123-f76b83db997e",
    "modified_at": "2022-05-04T21:11:24.621Z",
    "tags": {
      "authors": [
        "90414ca0-ab36-4879-8810-b032c6bfdab0",
        "5c6d3f71-9de0-48b6-8144-db6e2dc0fd36"
      ],
      "creators": [
        "94199e72-16c6-4d60-9be5-37ad9279a4ee"
      ],
      "families": [
        "5391f9fe-638c-415f-8dc9-958e3a2c5787"
      ],
      "groups": [
        "ae613721-1fbe-480d-ba6b-d6d0702b184d"
      ],
      "langs": [
        "fd8072b7-4d9b-45d4-8f5b-a931a830edef"
      ],
      "singers": [
        "eac74a88-422f-4906-ac9e-156d98c46e92"
      ],
      "songtypes": [
        "7be1b15c-cff8-4b37-a649-5c90f3d569a9"
      ],
      "songwriters": [
        "50fb7e3e-f452-4a74-a3ae-b320b300d5dd"
      ],
      "collections": [
        "efe171c0-e8a1-4d03-98c0-60ecf741ad52"
      ]
    },
    "titles": {
      "fre": "A nos souvenirs"
    },
    "titles_default_language": "fre",
    "titles_aliases": [],
    "title": "A nos souvenirs",
    "year": "2018",
    "repository": "kara.moe"
  }
}