{
  "header": {
    "version": 4,
    "description": "Karaoke Mugen Karaoke Data File"
  },
  "medias": [
    {
      "version": "Default",
      "filename": "FRE - Pokemon Johto League Champions - OP - Les Champions de Johto.mp4",
      "audiogain": -7.99,
      "loudnorm": "-9.17,1.71,1.90,-19.32,-0.55",
      "filesize": 33812007,
      "duration": 45,
      "default": true,
      "lyrics": [
        {
          "filename": "FRE - Pokemon Johto League Champions - OP - Les Champions de Johto.ass",
          "default": true,
          "version": "Default",
          "subchecksum": "76ab26c00f71e6a0accb6644000bfa4f"
        }
      ]
    }
  ],
  "data": {
    "created_at": "2019-05-16T01:26:59.000Z",
    "kid": "6805bc07-07dd-469b-9a9f-00d18bad5a19",
    "modified_at": "2021-02-25T10:28:27.812Z",
    "repository": "kara.moe",
    "tags": {
      "authors": [
        "1df04771-a378-4f14-a5e1-1455187d681a"
      ],
      "collections": [
        "c7db86a0-ff64-4044-9be4-66dd1ef1d1c1"
      ],
      "creators": [
        "03fe574b-c7f5-4520-96dc-47320c39e2cc"
      ],
      "families": [
        "0377db02-3af6-43b8-9b08-c759df3d25c3"
      ],
      "genres": [
        "a0aeef4a-6428-45ff-a6e1-468b595930c2"
      ],
      "groups": [
        "3c14c864-533c-49e6-a3cc-6969f1233775",
        "ae613721-1fbe-480d-ba6b-d6d0702b184d",
        "f5e7d2fc-0cbb-4fb9-a84a-b25dfb0e9e77"
      ],
      "langs": [
        "fd8072b7-4d9b-45d4-8f5b-a931a830edef"
      ],
      "origins": [
        "938de218-5343-4865-94d3-fb33f2eaa152"
      ],
      "series": [
        "31858de5-a42c-4c9a-84fd-b71d8133a788"
      ],
      "singers": [
        "c4e59998-59f2-4d4f-aa7f-177b05889c49"
      ],
      "songtypes": [
        "f02ad9b3-0bd9-4aad-85b3-9976739ba0e4"
      ],
      "songwriters": [
        "6bf7b8ae-6ea3-4ba4-b0d1-5fcacb67e56e",
        "8c03deb2-503d-4c95-b6ae-3199751dbb46",
        "a372bd40-7a4f-47d1-af15-0d97760a45ec",
        "c691f372-ef5c-4327-b91d-038099be0159"
      ],
      "franchises": [
        "c6923c03-f8c0-4258-a478-8dfa08f3ccd0"
      ]
    },
    "title": "Les Champions de Johto",
    "titles": {
      "eng": "Les Champions de Johto"
    },
    "year": 2001
  }
}