{
  "header": {
    "version": 4,
    "description": "Karaoke Mugen Karaoke Data File"
  },
  "medias": [
    {
      "version": "Default",
      "filename": "FRE - Georges Brassens - MV - Le Gorille.mp4",
      "audiogain": -1.38,
      "loudnorm": "-17.51,-0.40,6.70,-27.55,-0.09",
      "filesize": 57050461,
      "duration": 197,
      "default": true,
      "lyrics": [
        {
          "filename": "FRE - Georges Brassens - MV - Le Gorille.ass",
          "default": true,
          "version": "Default"
        }
      ]
    }
  ],
  "data": {
    "created_at": "2023-07-21T21:51:21.892Z",
    "ignoreHooks": false,
    "kid": "0accd15a-b072-458a-b3e3-b1261131a0ba",
    "modified_at": "2023-07-21T21:51:22.761Z",
    "repository": "kara.moe",
    "tags": {
      "authors": [
        "90414ca0-ab36-4879-8810-b032c6bfdab0"
      ],
      "collections": [
        "efe171c0-e8a1-4d03-98c0-60ecf741ad52"
      ],
      "creators": [
        "ee954a78-2b37-4071-b094-f9945d846d63"
      ],
      "families": [
        "5391f9fe-638c-415f-8dc9-958e3a2c5787"
      ],
      "langs": [
        "fd8072b7-4d9b-45d4-8f5b-a931a830edef"
      ],
      "singers": [
        "722927e0-5c31-419d-86dc-5b3e039af743"
      ],
      "songtypes": [
        "7be1b15c-cff8-4b37-a649-5c90f3d569a9"
      ],
      "songwriters": [
        "722927e0-5c31-419d-86dc-5b3e039af743"
      ],
      "groups": [
        "de0c8e96-9934-4251-9142-b7a5ee70dd6f"
      ]
    },
    "titles": {
      "fre": "Le Gorille"
    },
    "titles_default_language": "fre",
    "year": 1952
  }
}