{
  "header": {
    "version": 4,
    "description": "Karaoke Mugen Karaoke Data File"
  },
  "medias": [
    {
      "version": "Default",
      "filename": "FRE - Trust - MV - Antisocial.mp4",
      "audiogain": 3.72,
      "loudnorm": "-21.72,-8.89,3.30,-31.85,-0.42",
      "filesize": 11037351,
      "duration": 240,
      "default": true,
      "lyrics": [
        {
          "filename": "FRE - Trust - MV - Antisocial.ass",
          "default": true,
          "version": "Default",
          "subchecksum": "01a43d617dab4e07a632df7b700e8412"
        }
      ]
    }
  ],
  "data": {
    "created_at": "2020-07-12T12:47:40.397Z",
    "kid": "b5479069-afb1-4b23-8d00-dc015d32170c",
    "modified_at": "2021-05-20T17:41:28.157Z",
    "repository": "kara.moe",
    "tags": {
      "authors": [
        "90414ca0-ab36-4879-8810-b032c6bfdab0"
      ],
      "collections": [
        "efe171c0-e8a1-4d03-98c0-60ecf741ad52"
      ],
      "creators": [
        "f3dc1c73-8de5-4f6f-bac0-2134986e5dbe"
      ],
      "families": [
        "5391f9fe-638c-415f-8dc9-958e3a2c5787"
      ],
      "groups": [
        "7792cc27-9ff9-4d47-9287-2338b7db1575"
      ],
      "langs": [
        "fd8072b7-4d9b-45d4-8f5b-a931a830edef"
      ],
      "singers": [
        "34a40147-100a-4437-9973-7afd0f981e9b"
      ],
      "songtypes": [
        "7be1b15c-cff8-4b37-a649-5c90f3d569a9"
      ],
      "songwriters": [
        "04045080-77b3-4a76-83c5-c5b2f36aced8",
        "7f41c3fd-f9ed-4b84-816b-e62b7dd2fc25"
      ]
    },
    "title": "Antisocial",
    "titles": {
      "eng": "Antisocial"
    },
    "year": 1980
  }
}