{
  "header": {
    "version": 4,
    "description": "Karaoke Mugen Karaoke Data File"
  },
  "medias": [
    {
      "version": "Default",
      "filename": "FRE - Serge Gainsbourg - MV - Couleur cafe.mp4",
      "audiogain": -6.12,
      "loudnorm": "-13.50,2.70,3.40,-23.57,-0.52",
      "filesize": 5925022,
      "duration": 127,
      "default": true,
      "lyrics": [
        {
          "filename": "FRE - Serge Gainsbourg - MV - Couleur cafe.ass",
          "default": true,
          "version": "Default"
        }
      ]
    }
  ],
  "data": {
    "created_at": "2023-05-08T00:35:59.458Z",
    "ignoreHooks": false,
    "kid": "b1125cc6-8944-4022-bf7c-5f1f89daba80",
    "modified_at": "2023-05-08T00:35:59.633Z",
    "repository": "kara.moe",
    "tags": {
      "authors": [
        "3c67482b-b1ba-477e-88ca-46af456a6d5f"
      ],
      "collections": [
        "efe171c0-e8a1-4d03-98c0-60ecf741ad52"
      ],
      "creators": [
        "f5ac7140-7e00-4537-ae0e-4db66f157b9b"
      ],
      "families": [
        "5391f9fe-638c-415f-8dc9-958e3a2c5787"
      ],
      "langs": [
        "fd8072b7-4d9b-45d4-8f5b-a931a830edef"
      ],
      "singers": [
        "af0e1e4d-c7a2-40b0-b031-19889fc292a2"
      ],
      "songtypes": [
        "7be1b15c-cff8-4b37-a649-5c90f3d569a9"
      ],
      "songwriters": [
        "af0e1e4d-c7a2-40b0-b031-19889fc292a2"
      ],
      "groups": [
        "b4240f1f-200d-4d10-b5eb-d3a740eed323"
      ]
    },
    "titles": {
      "fre": "Couleur café"
    },
    "titles_default_language": "fre",
    "year": 1964
  }
}