{
  "header": {
    "version": 4,
    "description": "Karaoke Mugen Karaoke Data File"
  },
  "medias": [
    {
      "version": "Default",
      "filename": "FRE - Stupeflip - MV - Stupeflip vite !!!.mp4",
      "audiogain": -10.89,
      "loudnorm": "-7.54,2.54,2.50,-17.76,-0.47",
      "filesize": 31807465,
      "duration": 219,
      "default": true,
      "lyrics": [
        {
          "filename": "FRE - Stupeflip - MV - Stupeflip vite !!!.ass",
          "default": true,
          "version": "Default"
        }
      ]
    }
  ],
  "data": {
    "created_at": "2022-10-08T15:20:44.328Z",
    "kid": "fe0a7bd6-4c7c-4c59-831e-390b725fce91",
    "modified_at": "2022-10-08T15:26:28.284Z",
    "repository": "kara.moe",
    "tags": {
      "singers": [
        "05f79f6c-ce34-4a3c-81b7-28659f626c27",
        "33c4bb75-c207-42ac-b2e4-9a057557f3d2"
      ],
      "songtypes": [
        "7be1b15c-cff8-4b37-a649-5c90f3d569a9"
      ],
      "creators": [
        "105a4e17-cbb9-4bf5-a252-cdd6e533e700"
      ],
      "langs": [
        "fd8072b7-4d9b-45d4-8f5b-a931a830edef"
      ],
      "authors": [
        "9cdf3b70-3550-457c-bdb9-038f3253c6ad"
      ],
      "songwriters": [
        "33c4bb75-c207-42ac-b2e4-9a057557f3d2"
      ],
      "groups": [
        "ae613721-1fbe-480d-ba6b-d6d0702b184d"
      ],
      "families": [
        "5391f9fe-638c-415f-8dc9-958e3a2c5787"
      ],
      "collections": [
        "efe171c0-e8a1-4d03-98c0-60ecf741ad52"
      ],
      "singergroups": [
        "0ad52836-4cd8-4aae-8f71-10cb7b6b59e2"
      ]
    },
    "titles": {
      "fre": "Stupeflip vite !!!"
    },
    "titles_default_language": "fre",
    "title": "Stupeflip vite !!!",
    "year": 2011
  }
}