{
  "header": {
    "version": 4,
    "description": "Karaoke Mugen Karaoke Data File"
  },
  "medias": [
    {
      "version": "Default",
      "filename": "FRE - Michel Sardou - MV - Les Lacs du Connemara.mp4",
      "audiogain": 3.75,
      "loudnorm": "-21.34,-6.07,9.60,-31.64,-1.75",
      "filesize": 23064345,
      "duration": 332,
      "default": true,
      "lyrics": [
        {
          "filename": "FRE - Michel Sardou - MV - Les Lacs du Connemara.ass",
          "default": true,
          "version": "Default",
          "subchecksum": "a07b4d549a24561e1b46b2f293935db7"
        }
      ]
    }
  ],
  "data": {
    "created_at": "2020-07-12T15:00:38.925Z",
    "kid": "17f38d36-b9a0-484b-8ee2-aa49ee32db98",
    "modified_at": "2021-05-20T17:41:20.968Z",
    "repository": "kara.moe",
    "tags": {
      "authors": [
        "90414ca0-ab36-4879-8810-b032c6bfdab0"
      ],
      "collections": [
        "efe171c0-e8a1-4d03-98c0-60ecf741ad52"
      ],
      "creators": [
        "815666b0-7341-4250-a4e1-944777f324cf"
      ],
      "families": [
        "5391f9fe-638c-415f-8dc9-958e3a2c5787"
      ],
      "groups": [
        "7792cc27-9ff9-4d47-9287-2338b7db1575"
      ],
      "langs": [
        "fd8072b7-4d9b-45d4-8f5b-a931a830edef"
      ],
      "misc": [
        "86705d4b-24e4-4756-9687-2b9c98bcf366"
      ],
      "singers": [
        "9967d9a2-5281-4807-aa15-0f9127669d2b"
      ],
      "songtypes": [
        "7be1b15c-cff8-4b37-a649-5c90f3d569a9"
      ],
      "songwriters": [
        "1157ab42-7e23-4db6-ba76-63d8d8f22604",
        "9967d9a2-5281-4807-aa15-0f9127669d2b",
        "bebfe3dd-179c-4c99-a834-670f450bd853"
      ]
    },
    "title": "Les Lacs du Connemara",
    "titles": {
      "eng": "Les Lacs du Connemara"
    },
    "year": 1981
  }
}