{
  "header": {
    "version": 4,
    "description": "Karaoke Mugen Karaoke Data File"
  },
  "medias": [
    {
      "version": "Default",
      "filename": "FRE - Gilbert Montagne - MV - On va s'aimer.mp4",
      "audiogain": -5.39,
      "loudnorm": "-13.26,0.88,5.90,-23.41,-1.20",
      "filesize": 85597869,
      "duration": 234,
      "default": true,
      "lyrics": [
        {
          "filename": "FRE - Gilbert Montagne - MV - On va s'aimer.ass",
          "default": true,
          "version": "Default"
        }
      ]
    }
  ],
  "data": {
    "created_at": "2022-04-17T15:20:31.865Z",
    "ignoreHooks": false,
    "kid": "da21bcc5-1483-493b-8e50-364f6feb1c60",
    "modified_at": "2022-04-17T15:20:33.734Z",
    "repository": "kara.moe",
    "tags": {
      "authors": [
        "90414ca0-ab36-4879-8810-b032c6bfdab0"
      ],
      "collections": [
        "efe171c0-e8a1-4d03-98c0-60ecf741ad52"
      ],
      "creators": [
        "4b6702ca-6199-4553-a145-264ff5b5e518"
      ],
      "families": [
        "5391f9fe-638c-415f-8dc9-958e3a2c5787"
      ],
      "langs": [
        "fd8072b7-4d9b-45d4-8f5b-a931a830edef"
      ],
      "singers": [
        "8ceb7b51-1f4d-4ac9-b837-e9a840f268a2"
      ],
      "songtypes": [
        "7be1b15c-cff8-4b37-a649-5c90f3d569a9"
      ],
      "songwriters": [
        "8ceb7b51-1f4d-4ac9-b837-e9a840f268a2",
        "48ff09de-f36d-4a22-a1bd-dcefd8fabcc8"
      ],
      "groups": [
        "7792cc27-9ff9-4d47-9287-2338b7db1575"
      ]
    },
    "titles": {
      "fre": "On va s'aimer"
    },
    "titles_default_language": "fre",
    "title": "On va s'aimer",
    "year": 1984
  }
}