{
  "header": {
    "version": 4,
    "description": "Karaoke Mugen Karaoke Data File"
  },
  "medias": [
    {
      "version": "Default",
      "filename": "FRE - Garou, Michel Sardou - MV - La Riviere de notre enfance.mp4",
      "audiogain": 3.59,
      "loudnorm": "-21.15,-10.59,4.30,-31.37,-0.95",
      "filesize": 13527185,
      "duration": 207,
      "default": true,
      "lyrics": [
        {
          "filename": "FRE - Garou, Michel Sardou - MV - La Riviere de notre enfance.ass",
          "default": true,
          "version": "Default"
        }
      ]
    }
  ],
  "data": {
    "created_at": "2022-08-04T13:20:10.590Z",
    "ignoreHooks": false,
    "kid": "2f5fcd5a-e86c-43de-9fe0-c9926b9e1bd2",
    "modified_at": "2022-08-23T21:15:32.556Z",
    "repository": "kara.moe",
    "tags": {
      "authors": [
        "90414ca0-ab36-4879-8810-b032c6bfdab0"
      ],
      "collections": [
        "efe171c0-e8a1-4d03-98c0-60ecf741ad52"
      ],
      "creators": [
        "30e1ca0b-3db3-4aac-af8a-fb738c7d1281",
        "f963181a-1214-47f8-b6f9-1705cbc33779"
      ],
      "families": [
        "5391f9fe-638c-415f-8dc9-958e3a2c5787"
      ],
      "groups": [
        "3c14c864-533c-49e6-a3cc-6969f1233775"
      ],
      "langs": [
        "fd8072b7-4d9b-45d4-8f5b-a931a830edef"
      ],
      "singers": [
        "0d0f1f17-7927-452b-af45-8965671f5620",
        "9967d9a2-5281-4807-aa15-0f9127669d2b"
      ],
      "songtypes": [
        "7be1b15c-cff8-4b37-a649-5c90f3d569a9"
      ],
      "songwriters": [
        "48ff09de-f36d-4a22-a1bd-dcefd8fabcc8"
      ]
    },
    "titles": {
      "fre": "La Rivière de notre enfance"
    },
    "titles_default_language": "fre",
    "title": "La Rivière de notre enfance",
    "year": 2004
  }
}