{
  "header": {
    "version": 4,
    "description": "Karaoke Mugen Karaoke Data File"
  },
  "medias": [
    {
      "version": "Default",
      "filename": "FRE - Pokemon the Series Sun & Moon Ultra Legends - OP - Le defi de la vie.mp4",
      "audiogain": 5.69,
      "loudnorm": "-23.61,-10.09,4.90,-33.92,-1.09",
      "filesize": 10278786,
      "duration": 30,
      "default": true,
      "lyrics": [
        {
          "filename": "FRE - Pokemon the Series Sun & Moon Ultra Legends - OP - Le defi de la vie.ass",
          "default": true,
          "version": "Default",
          "subchecksum": "3e2ee8a9ecc824450f299b0c0a8b28d8"
        }
      ]
    }
  ],
  "data": {
    "created_at": "2019-06-04T18:21:31.000Z",
    "kid": "6e1122cb-d5a2-4896-be26-b2676e6c0854",
    "modified_at": "2021-02-25T10:28:43.020Z",
    "repository": "kara.moe",
    "tags": {
      "authors": [
        "1df04771-a378-4f14-a5e1-1455187d681a"
      ],
      "collections": [
        "c7db86a0-ff64-4044-9be4-66dd1ef1d1c1"
      ],
      "creators": [
        "03fe574b-c7f5-4520-96dc-47320c39e2cc"
      ],
      "families": [
        "0377db02-3af6-43b8-9b08-c759df3d25c3"
      ],
      "genres": [
        "a0aeef4a-6428-45ff-a6e1-468b595930c2"
      ],
      "groups": [
        "ae613721-1fbe-480d-ba6b-d6d0702b184d",
        "f5e7d2fc-0cbb-4fb9-a84a-b25dfb0e9e77"
      ],
      "langs": [
        "fd8072b7-4d9b-45d4-8f5b-a931a830edef"
      ],
      "origins": [
        "938de218-5343-4865-94d3-fb33f2eaa152"
      ],
      "series": [
        "12c42b19-4a19-4a66-861c-fe5b95fd8c63"
      ],
      "songtypes": [
        "f02ad9b3-0bd9-4aad-85b3-9976739ba0e4"
      ],
      "franchises": [
        "c6923c03-f8c0-4258-a478-8dfa08f3ccd0"
      ]
    },
    "title": "Le défi de la vie",
    "titles": {
      "eng": "Le défi de la vie"
    },
    "year": 2019
  }
}