{
  "header": {
    "version": 4,
    "description": "Karaoke Mugen Karaoke Data File"
  },
  "medias": [
    {
      "version": "Default",
      "filename": "FRE - Daniel Balavoine - MV - Le Chanteur.mp4",
      "audiogain": -6.89,
      "loudnorm": "-9.98,0.80,3.30,-20.09,-0.84",
      "filesize": 48496523,
      "duration": 221,
      "default": true,
      "lyrics": [
        {
          "filename": "FRE - Daniel Balavoine - MV - Le Chanteur.ass",
          "default": true,
          "version": "Default"
        }
      ]
    }
  ],
  "data": {
    "created_at": "2022-04-22T15:47:25.175Z",
    "ignoreHooks": false,
    "kid": "8625d35d-efc6-463b-a1ff-70890e6523f8",
    "modified_at": "2022-04-22T15:47:26.167Z",
    "repository": "kara.moe",
    "tags": {
      "authors": [
        "90414ca0-ab36-4879-8810-b032c6bfdab0"
      ],
      "collections": [
        "efe171c0-e8a1-4d03-98c0-60ecf741ad52"
      ],
      "creators": [
        "dee008b3-9388-4984-89a0-08935ecddc0d"
      ],
      "families": [
        "5391f9fe-638c-415f-8dc9-958e3a2c5787"
      ],
      "langs": [
        "fd8072b7-4d9b-45d4-8f5b-a931a830edef"
      ],
      "singers": [
        "c7f13ac7-c592-4fc0-888d-aeee059bf9f3"
      ],
      "songtypes": [
        "7be1b15c-cff8-4b37-a649-5c90f3d569a9"
      ],
      "songwriters": [
        "c7f13ac7-c592-4fc0-888d-aeee059bf9f3"
      ],
      "groups": [
        "57e5e0c0-e02e-4871-a6cb-d48ea604ebab"
      ]
    },
    "titles": {
      "fre": "Le Chanteur"
    },
    "titles_default_language": "fre",
    "title": "Le Chanteur",
    "year": 1978
  }
}