{
  "header": {
    "version": 4,
    "description": "Karaoke Mugen Karaoke Data File"
  },
  "medias": [
    {
      "version": "Default",
      "filename": "FRE - Axel Bauer - MV - Cargo.mp4",
      "audiogain": -0.78,
      "loudnorm": "-18.16,-4.36,5.60,-28.30,-1.44",
      "filesize": 15066024,
      "duration": 280,
      "default": true,
      "lyrics": [
        {
          "filename": "FRE - Axel Bauer - MV - Cargo.ass",
          "default": true,
          "version": "Default"
        }
      ]
    }
  ],
  "data": {
    "created_at": "2022-04-06T19:44:05.371Z",
    "ignoreHooks": false,
    "kid": "56318ee7-0a97-4156-a95f-60410f9bb172",
    "modified_at": "2022-04-10T14:33:32.936Z",
    "repository": "kara.moe",
    "tags": {
      "authors": [
        "90414ca0-ab36-4879-8810-b032c6bfdab0"
      ],
      "collections": [
        "efe171c0-e8a1-4d03-98c0-60ecf741ad52"
      ],
      "creators": [
        "6310c5a0-8d99-4cc7-a554-177b10124cd7"
      ],
      "families": [
        "5391f9fe-638c-415f-8dc9-958e3a2c5787"
      ],
      "groups": [
        "7792cc27-9ff9-4d47-9287-2338b7db1575"
      ],
      "langs": [
        "fd8072b7-4d9b-45d4-8f5b-a931a830edef"
      ],
      "singers": [
        "48058b02-9c73-47b2-a778-493070ecf8b7"
      ],
      "songtypes": [
        "7be1b15c-cff8-4b37-a649-5c90f3d569a9"
      ],
      "songwriters": [
        "48058b02-9c73-47b2-a778-493070ecf8b7",
        "a6604d44-5c36-438b-91d0-b0b0edc5fce3"
      ]
    },
    "titles": {
      "fre": "Cargo"
    },
    "titles_default_language": "fre",
    "title": "Cargo",
    "year": 1984
  }
}