{
  "header": {
    "version": 4,
    "description": "Karaoke Mugen Karaoke Data File"
  },
  "medias": [
    {
      "version": "Default",
      "filename": "FRE - The Lion King - MOVIE IN - Je voudrais deja etre roi.mp4",
      "audiogain": 0.19,
      "loudnorm": "-18.20,-6.61,4.90,-28.30,-0.86",
      "filesize": 85270166,
      "duration": 156,
      "default": true,
      "lyrics": [
        {
          "filename": "FRE - The Lion King - MOVIE IN - Je voudrais deja etre roi.ass",
          "default": true,
          "version": "Default",
          "subchecksum": "b6b66b1b1849981179baad843d692450"
        }
      ]
    }
  ],
  "data": {
    "created_at": "2019-08-24T21:09:51.000Z",
    "kid": "a62b9753-fcd9-4a57-9dc0-b9401ab3886f",
    "modified_at": "2021-02-25T10:30:08.855Z",
    "repository": "kara.moe",
    "tags": {
      "authors": [
        "79e0aa7d-da9a-4e9a-aa2b-64056a83b49b"
      ],
      "collections": [
        "c7db86a0-ff64-4044-9be4-66dd1ef1d1c1"
      ],
      "creators": [
        "53ac4d74-c9b8-4fed-bab1-cfa65b2f3142"
      ],
      "families": [
        "0377db02-3af6-43b8-9b08-c759df3d25c3"
      ],
      "groups": [
        "24db50aa-a126-4d34-a48a-e45db79c4245"
      ],
      "langs": [
        "fd8072b7-4d9b-45d4-8f5b-a931a830edef"
      ],
      "misc": [
        "1d6ceadf-a885-47e5-b23b-c07bf668a424"
      ],
      "origins": [
        "c8ca9dea-d8b4-48fe-8427-d911653232e9"
      ],
      "series": [
        "77e7de37-a966-4152-a238-8aa53247d753"
      ],
      "singers": [
        "3b0d8e64-c535-4bf1-8818-2f0c7408cc3c",
        "b38dcb17-00c2-407b-8848-8d3a09a78538"
      ],
      "songtypes": [
        "5e5250d9-351a-4a82-98eb-55db50ad8962"
      ],
      "songwriters": [
        "97490b81-7a16-4fe1-bc91-9968cf0d7769"
      ]
    },
    "title": "Je voudrais déjà être roi",
    "titles": {
      "eng": "Je voudrais déjà être roi"
    },
    "year": 1994
  }
}