{
  "header": {
    "description": "Karaoke Mugen Karaoke Data File",
    "version": 4
  },
  "medias": [
    {
      "version": "Default",
      "filename": "FRE - Daniel Balavoine - MV - Vivre ou Survivre.mp4",
      "audiogain": 3.93,
      "loudnorm": "-22.13,-10.12,5.00,-32.17,-0.41",
      "filesize": 12071177,
      "duration": 210,
      "default": true,
      "lyrics": [
        {
          "filename": "FRE - Daniel Balavoine - MV - Vivre ou Survivre.ass",
          "default": true,
          "version": "Default"
        }
      ]
    }
  ],
  "data": {
    "created_at": "2022-08-02T14:28:44.529Z",
    "kid": "fb4eeb63-9aa7-4ded-864e-1d7cca36878b",
    "modified_at": "2022-08-02T14:28:44.529Z",
    "tags": {
      "authors": [
        "90414ca0-ab36-4879-8810-b032c6bfdab0"
      ],
      "creators": [
        "dee008b3-9388-4984-89a0-08935ecddc0d"
      ],
      "families": [
        "5391f9fe-638c-415f-8dc9-958e3a2c5787"
      ],
      "groups": [
        "7792cc27-9ff9-4d47-9287-2338b7db1575"
      ],
      "langs": [
        "fd8072b7-4d9b-45d4-8f5b-a931a830edef"
      ],
      "singers": [
        "c7f13ac7-c592-4fc0-888d-aeee059bf9f3"
      ],
      "songtypes": [
        "7be1b15c-cff8-4b37-a649-5c90f3d569a9"
      ],
      "songwriters": [
        "c7f13ac7-c592-4fc0-888d-aeee059bf9f3"
      ],
      "collections": [
        "efe171c0-e8a1-4d03-98c0-60ecf741ad52"
      ]
    },
    "titles": {
      "fre": "Vivre ou Survivre"
    },
    "titles_default_language": "fre",
    "titles_aliases": [],
    "title": "Vivre ou Survivre",
    "year": "1982",
    "repository": "kara.moe"
  }
}