{
  "header": {
    "version": 4,
    "description": "Karaoke Mugen Karaoke Data File"
  },
  "medias": [
    {
      "version": "Default",
      "filename": "FRE - Claude Francois - MV - Alexandrie Alexandra.mp4",
      "audiogain": -7.71,
      "loudnorm": "-9.90,1.78,3.00,-20.01,-0.57",
      "filesize": 106006200,
      "duration": 263,
      "default": true,
      "lyrics": [
        {
          "filename": "FRE - Claude Francois - MV - Alexandrie Alexandra.ass",
          "default": true,
          "version": "Default"
        }
      ]
    }
  ],
  "data": {
    "created_at": "2021-09-05T20:22:11.154Z",
    "kid": "aca31506-bc24-4126-b30c-6df897c1f995",
    "modified_at": "2021-11-11T22:49:29.561Z",
    "repository": "kara.moe",
    "tags": {
      "authors": [
        "90414ca0-ab36-4879-8810-b032c6bfdab0"
      ],
      "collections": [
        "efe171c0-e8a1-4d03-98c0-60ecf741ad52"
      ],
      "creators": [
        "77f4c8c4-bb8f-4ff1-aabb-637ae49aeec3"
      ],
      "families": [
        "5391f9fe-638c-415f-8dc9-958e3a2c5787"
      ],
      "groups": [
        "57e5e0c0-e02e-4871-a6cb-d48ea604ebab"
      ],
      "langs": [
        "fd8072b7-4d9b-45d4-8f5b-a931a830edef"
      ],
      "singers": [
        "62bf6a01-ea61-4b89-967d-e4db0b719f75"
      ],
      "songtypes": [
        "7be1b15c-cff8-4b37-a649-5c90f3d569a9"
      ],
      "songwriters": [
        "3094da0e-8a59-49cc-bf76-1b0075ba4a5f",
        "62bf6a01-ea61-4b89-967d-e4db0b719f75",
        "ebc1ea94-f924-423b-b354-50ebf6f7d621"
      ]
    },
    "titles": {
      "eng": "Alexandrie Alexandra"
    },
    "title": "Alexandrie Alexandra",
    "year": 1978
  }
}