{
  "header": {
    "version": 4,
    "description": "Karaoke Mugen Karaoke Data File"
  },
  "medias": [
    {
      "version": "Fan Club 2.",
      "filename": "FRE - Rhythm Paradise - GAME DS IN - C'est certain ~ Fan Club 2 Vers.mp4",
      "audiogain": -6.79,
      "loudnorm": "-12.12,1.15,7.30,-22.37,-0.04",
      "filesize": 15204225,
      "duration": 157,
      "default": true,
      "lyrics": [
        {
          "filename": "FRE - Rhythm Paradise - GAME DS IN - C'est certain ~ Fan Club 2 Vers.ass",
          "default": true,
          "version": "Default"
        }
      ]
    }
  ],
  "data": {
    "created_at": "2017-10-11T17:01:43.000Z",
    "ignoreHooks": false,
    "kid": "91f32022-6576-4771-80a5-8dbe4bc84e23",
    "modified_at": "2023-04-26T00:06:48.777Z",
    "repository": "kara.moe",
    "tags": {
      "authors": [
        "8c22c899-b3ed-42da-a548-ce00f950798b"
      ],
      "collections": [
        "c7db86a0-ff64-4044-9be4-66dd1ef1d1c1"
      ],
      "creators": [
        "65202019-808e-49c3-8c7c-a12f16394bba"
      ],
      "families": [
        "0377db02-3af6-43b8-9b08-c759df3d25c3"
      ],
      "groups": [
        "3c14c864-533c-49e6-a3cc-6969f1233775",
        "56f41a2e-80fb-4bbe-9df0-420ee4c8997a",
        "8c22c899-b3ed-42da-a548-ce00f950798b"
      ],
      "langs": [
        "fd8072b7-4d9b-45d4-8f5b-a931a830edef"
      ],
      "origins": [
        "dbedd6b3-d125-4cd8-aa32-c4175e4ca3a3"
      ],
      "platforms": [
        "fafc313d-8d8a-4445-90b5-aad7928182ab"
      ],
      "series": [
        "b5d52661-64bc-4606-ad53-145f72673755"
      ],
      "singers": [
        "5ca1255e-1599-4890-a965-0f3cb6f39985"
      ],
      "songtypes": [
        "5e5250d9-351a-4a82-98eb-55db50ad8962"
      ],
      "songwriters": [
        "515ebc12-64ef-4c70-b0ef-f5f6618bccb5",
        "5938e181-5402-43ea-a5a0-a4ca2405705d"
      ],
      "franchises": [
        "7542749a-37e8-4dd6-aa66-8eaf7f84d3f7"
      ]
    },
    "titles": {
      "eng": "C'est certain ~ Fan Club 2 Vers."
    },
    "titles_default_language": "eng",
    "year": 2009
  }
}