{
  "header": {
    "version": 4,
    "description": "Karaoke Mugen Karaoke Data File"
  },
  "medias": [
    {
      "version": "Default",
      "filename": "FRE - Stromae - MV - Papaoutai.mp4",
      "audiogain": -4.96,
      "loudnorm": "-12.18,-1.50,8.30,-22.55,-1.03",
      "filesize": 49424362,
      "duration": 232,
      "default": true,
      "lyrics": [
        {
          "filename": "FRE - Stromae - MV - Papaoutai.ass",
          "default": true,
          "version": "Default"
        }
      ]
    }
  ],
  "data": {
    "created_at": "2022-01-22T20:06:56.062Z",
    "ignoreHooks": false,
    "kid": "5629a0f5-b4ef-4ad5-a058-35e8b246030e",
    "modified_at": "2022-01-22T23:34:28.053Z",
    "repository": "kara.moe",
    "tags": {
      "authors": [
        "9f5f3ff9-e254-41af-9e98-36ee29840b47"
      ],
      "collections": [
        "efe171c0-e8a1-4d03-98c0-60ecf741ad52"
      ],
      "creators": [
        "438a4f9a-8573-40ed-a436-364aa3505f36",
        "f963181a-1214-47f8-b6f9-1705cbc33779"
      ],
      "families": [
        "5391f9fe-638c-415f-8dc9-958e3a2c5787"
      ],
      "groups": [
        "ae613721-1fbe-480d-ba6b-d6d0702b184d"
      ],
      "langs": [
        "fd8072b7-4d9b-45d4-8f5b-a931a830edef"
      ],
      "singers": [
        "ba5b28b0-c317-4b07-aad8-817a7db50c04"
      ],
      "songtypes": [
        "7be1b15c-cff8-4b37-a649-5c90f3d569a9"
      ],
      "songwriters": [
        "ba5b28b0-c317-4b07-aad8-817a7db50c04"
      ]
    },
    "titles": {
      "eng": "Papaoutai",
      "fre": "Papaoutai"
    },
    "title": "Papaoutai",
    "year": 2013
  }
}