{
  "header": {
    "version": 4,
    "description": "Karaoke Mugen Karaoke Data File"
  },
  "medias": [
    {
      "version": "Default",
      "filename": "ITA - Paola & Chiara - MV - Vamos a Bailar.mp4",
      "audiogain": 2.97,
      "loudnorm": "-20.44,-8.49,5.30,-30.75,-1.13",
      "filesize": 12414393,
      "duration": 237,
      "default": true,
      "lyrics": [
        {
          "filename": "ITA - Paola & Chiara - MV - Vamos a Bailar.ass",
          "default": true,
          "version": "Default"
        }
      ]
    }
  ],
  "data": {
    "created_at": "2022-08-16T21:52:01.159Z",
    "ignoreHooks": false,
    "kid": "9d1e9f92-0204-4f79-b4f3-0958bdcdbf70",
    "modified_at": "2023-07-20T22:15:59.847Z",
    "repository": "kara.moe",
    "tags": {
      "authors": [
        "0905c4b2-266a-4389-badc-b4a51c4a93d5",
        "f70c7314-b8d3-4bf4-96a0-dc8b2c5a6c94"
      ],
      "collections": [
        "efe171c0-e8a1-4d03-98c0-60ecf741ad52"
      ],
      "creators": [
        "28a02f79-daaf-4037-8897-3458e80a5b41"
      ],
      "families": [
        "5391f9fe-638c-415f-8dc9-958e3a2c5787"
      ],
      "groups": [
        "3c14c864-533c-49e6-a3cc-6969f1233775",
        "966d1e74-d1f2-41e2-ab04-24279c22f562"
      ],
      "langs": [
        "11e9665f-f813-4495-bced-7ef9422cc992",
        "783496f0-1a2f-44c3-a906-02e8244148ae"
      ],
      "singers": [
        "3fd269e6-bf94-4219-8329-8bae1df81685"
      ],
      "songtypes": [
        "7be1b15c-cff8-4b37-a649-5c90f3d569a9"
      ],
      "songwriters": [
        "3fd269e6-bf94-4219-8329-8bae1df81685",
        "d787dd57-8fad-4caf-9a00-70f2319d5e33"
      ]
    },
    "titles": {
      "ita": "Vamos a Bailar"
    },
    "titles_default_language": "ita",
    "year": 2001
  }
}