{
  "header": {
    "version": 4,
    "description": "Karaoke Mugen Karaoke Data File"
  },
  "medias": [
    {
      "version": "Default",
      "filename": "JPN - Berryz Koubou - MV - Dschinghis Khan ~ Cover Vers.mp4",
      "audiogain": -10.35,
      "loudnorm": "-7.79,1.34,3.80,-17.90,-1.14",
      "filesize": 29709742,
      "duration": 198,
      "default": true,
      "lyrics": [
        {
          "filename": "JPN - Berryz Koubou - MV - Dschinghis Khan ~ Cover Vers.ass",
          "default": true,
          "version": "Default"
        }
      ]
    }
  ],
  "data": {
    "created_at": "2021-03-18T22:17:15.001Z",
    "kid": "376dae3a-1a64-49f6-847a-94b6ddd8a23b",
    "modified_at": "2022-06-04T00:13:39.565Z",
    "repository": "kara.moe",
    "songorder": null,
    "tags": {
      "authors": [
        "07b47582-0f32-4e3f-90c1-f856d299ccc5"
      ],
      "creators": [
        "00e80711-463d-476e-8496-bcac9b8e6ab8"
      ],
      "families": [
        "5391f9fe-638c-415f-8dc9-958e3a2c5787"
      ],
      "genres": [
        "caa86df2-0d59-474b-885c-f240a9e891b0"
      ],
      "groups": [
        "3c14c864-533c-49e6-a3cc-6969f1233775"
      ],
      "langs": [
        "4dcf9614-7914-42aa-99f4-dbce2e059133"
      ],
      "singers": [
        "99380495-0093-4a8d-b4f1-c4214602a4c6"
      ],
      "songtypes": [
        "7be1b15c-cff8-4b37-a649-5c90f3d569a9"
      ],
      "songwriters": [
        "4574ab5d-44e0-492b-8bbf-ebcf68e0074c",
        "ff7391aa-49b6-4a98-8d49-4029f90ac467"
      ],
      "versions": [
        "03e1e1d2-8641-47b7-bbcb-39a3df9ff21c"
      ],
      "collections": [
        "dbcf2c22-524d-4708-99bb-601703633927"
      ]
    },
    "titles": {
      "eng": "Dschinghis Khan",
      "jpn": "ジンギスカン"
    },
    "titles_default_language": "eng",
    "title": "Dschinghis Khan",
    "year": 2008
  }
}