{
  "header": {
    "version": 4,
    "description": "Karaoke Mugen Karaoke Data File"
  },
  "medias": [
    {
      "version": "Default",
      "filename": "JPN - Ao no Exorcist - AUDIO OP2 - IN MY WORLD ~ Full Vers.mp3",
      "audiogain": -11.04,
      "loudnorm": "-5.63,1.26,4.90,-15.85,-0.97",
      "filesize": 8442307,
      "duration": 206,
      "default": true,
      "lyrics": [
        {
          "filename": "JPN - Ao no Exorcist - AUDIO OP2 - IN MY WORLD ~ Full Vers.ass",
          "default": true,
          "version": "Default"
        }
      ]
    }
  ],
  "data": {
    "created_at": "2023-06-23T14:21:48.751Z",
    "ignoreHooks": false,
    "kid": "61ab0ea5-e40d-4c33-9c8a-da0a213d4c99",
    "modified_at": "2023-06-23T14:21:48.841Z",
    "parents": [
      "c1c80e47-de1b-459c-bc5b-e5b5ae96c9b0"
    ],
    "repository": "kara.moe",
    "songorder": 2,
    "tags": {
      "authors": [
        "1db1738f-acdc-42fc-aec3-60f4bddf660d"
      ],
      "collections": [
        "dbcf2c22-524d-4708-99bb-601703633927"
      ],
      "creators": [
        "566082ee-060d-4470-ac6f-4a537a50a613"
      ],
      "groups": [
        "ae613721-1fbe-480d-ba6b-d6d0702b184d"
      ],
      "langs": [
        "4dcf9614-7914-42aa-99f4-dbce2e059133"
      ],
      "series": [
        "999a8251-15ba-4a1a-b934-cc6f15a44919"
      ],
      "singers": [
        "30122147-4a27-469f-a59d-86a9997f1359"
      ],
      "songtypes": [
        "f02ad9b3-0bd9-4aad-85b3-9976739ba0e4",
        "42a262ae-acba-4ab5-a446-c5789c96c821"
      ],
      "songwriters": [
        "dffcef53-13ed-4b12-8e15-5c58c7ede869"
      ],
      "versions": [
        "c2143a7f-6970-450e-8a79-0302db9220a9"
      ],
      "franchises": [
        "999a8251-15ba-4a1a-b934-cc6f15a44919"
      ]
    },
    "titles": {
      "eng": "IN MY WORLD"
    },
    "titles_default_language": "eng",
    "year": 2011
  }
}