{
  "header": {
    "version": 4,
    "description": "Karaoke Mugen Karaoke Data File"
  },
  "medias": [
    {
      "version": "Default",
      "filename": "JPN - Muv-Luv Alternative Chronicles - GAME OP1 - Saigo no Eden.mp4",
      "audiogain": -6.3,
      "loudnorm": "-11.25,0.40,3.90,-21.29,-0.91",
      "filesize": 49522142,
      "duration": 125,
      "default": true,
      "lyrics": [
        {
          "filename": "JPN - Muv-Luv Alternative Chronicles - GAME OP1 - Saigo no Eden.ass",
          "default": true,
          "version": "Default",
          "subchecksum": "72386eb9031815f97f46365e37ed3186"
        }
      ]
    }
  ],
  "data": {
    "created_at": "2017-10-11T17:00:52.000Z",
    "kid": "580e2b79-63d2-4610-9c27-bb5d516819f7",
    "modified_at": "2021-02-25T12:31:24.486Z",
    "repository": "kara.moe",
    "songorder": 1,
    "tags": {
      "authors": [
        "8c22c899-b3ed-42da-a548-ce00f950798b"
      ],
      "collections": [
        "c7db86a0-ff64-4044-9be4-66dd1ef1d1c1"
      ],
      "creators": [
        "5e87ca69-52dd-4df4-957a-5a24d5a19c94"
      ],
      "groups": [
        "8c22c899-b3ed-42da-a548-ce00f950798b",
        "ae613721-1fbe-480d-ba6b-d6d0702b184d"
      ],
      "langs": [
        "4dcf9614-7914-42aa-99f4-dbce2e059133"
      ],
      "origins": [
        "2f96e82c-c61b-4413-817e-e6b247509b95",
        "dbedd6b3-d125-4cd8-aa32-c4175e4ca3a3"
      ],
      "series": [
        "874fe9d1-3d38-4b83-89af-09e399ce1b1d"
      ],
      "singers": [
        "6e7b7117-cc92-43e8-b097-66c794da0e03"
      ],
      "songtypes": [
        "f02ad9b3-0bd9-4aad-85b3-9976739ba0e4"
      ],
      "songwriters": [
        "400922df-5396-43ea-a338-90771426a74f",
        "f41e7218-6c19-4e19-9b5f-4612dcd58243"
      ],
      "franchises": [
        "71cd681c-bb96-412d-b6af-6c134af20758"
      ]
    },
    "title": "Saigo no Eden",
    "titles": {
      "qro": "Saigo no Eden",
      "jpn": "最後のエデン"
    },
    "year": 2010,
    "titles_default_language": "qro"
  }
}