{
  "header": {
    "version": 4,
    "description": "Karaoke Mugen Karaoke Data File"
  },
  "medias": [
    {
      "version": "Default",
      "filename": "JPN - Fate stay night - GAME OP - THIS ILLUSION.mp4",
      "audiogain": -9.85,
      "loudnorm": "-8.55,1.39,5.00,-18.96,-1.48",
      "filesize": 36423790,
      "duration": 90,
      "default": true,
      "lyrics": [
        {
          "filename": "JPN - Fate stay night - GAME OP - THIS ILLUSION.ass",
          "default": true,
          "version": "Default",
          "subchecksum": "431ee9ed1d4abf5ba61534cebbb0d2e3"
        }
      ]
    }
  ],
  "data": {
    "created_at": "2017-10-11T17:02:16.000Z",
    "kid": "05bee95c-eec2-47f3-b408-d8a910a11d9f",
    "modified_at": "2021-02-25T11:18:42.197Z",
    "repository": "kara.moe",
    "tags": {
      "authors": [
        "ad713171-dcf0-4076-911c-6764037096a1"
      ],
      "collections": [
        "c7db86a0-ff64-4044-9be4-66dd1ef1d1c1"
      ],
      "creators": [
        "211ed332-b979-4c23-9fac-c48ad71f3b8f"
      ],
      "groups": [
        "3c14c864-533c-49e6-a3cc-6969f1233775",
        "8c22c899-b3ed-42da-a548-ce00f950798b"
      ],
      "langs": [
        "4dcf9614-7914-42aa-99f4-dbce2e059133"
      ],
      "series": [
        "bed77af7-560d-4cae-9b23-6a0e61c5bdf5"
      ],
      "singers": [
        "d15efb95-bb49-4da2-bf74-12d0b55fb8c5"
      ],
      "songtypes": [
        "f02ad9b3-0bd9-4aad-85b3-9976739ba0e4"
      ],
      "songwriters": [
        "3de2d5c4-21ec-4c68-bf7c-0b3afc172f1f",
        "ae602bc2-ff2a-42b0-89fe-7ba6c86151ed"
      ],
      "franchises": [
        "564373dc-4cfa-454e-8af1-bcccb886c007"
      ],
      "origins": [
        "dbedd6b3-d125-4cd8-aa32-c4175e4ca3a3"
      ]
    },
    "title": "THIS ILLUSION",
    "titles": {
      "eng": "THIS ILLUSION"
    },
    "year": 2004,
    "titles_default_language": "eng"
  }
}