{
  "header": {
    "version": 4,
    "description": "Karaoke Mugen Karaoke Data File"
  },
  "medias": [
    {
      "version": "Default",
      "filename": "JPN - Chou Tokimeki Sendenbu - MV - Gyutto!.mp4",
      "audiogain": -11.27,
      "loudnorm": "-6.38,2.52,6.50,-16.72,-0.47",
      "filesize": 86663555,
      "duration": 286,
      "default": true,
      "lyrics": [
        {
          "filename": "JPN - Chou Tokimeki Sendenbu - MV - Gyutto!.ass",
          "default": true,
          "version": "Default"
        }
      ]
    }
  ],
  "data": {
    "created_at": "2023-05-22T17:01:38.242Z",
    "ignoreHooks": false,
    "kid": "483f0eae-5cc0-49b8-9750-8040a977b3bd",
    "modified_at": "2023-05-22T17:17:18.949Z",
    "repository": "kara.moe",
    "tags": {
      "authors": [
        "f5fd83aa-5022-41ab-82ec-4b9dc38ea653"
      ],
      "collections": [
        "dbcf2c22-524d-4708-99bb-601703633927"
      ],
      "creators": [
        "90caf15e-bc86-46e1-8793-9af7906c8310",
        "f1d08221-6523-4df1-8f86-35fc50b6f0ac"
      ],
      "families": [
        "5391f9fe-638c-415f-8dc9-958e3a2c5787"
      ],
      "genres": [
        "caa86df2-0d59-474b-885c-f240a9e891b0"
      ],
      "groups": [
        "8e209ae4-4381-438f-89dc-1b21752027d2"
      ],
      "langs": [
        "4dcf9614-7914-42aa-99f4-dbce2e059133"
      ],
      "singers": [
        "1f097682-889b-4e5f-a8d5-b899b9bcb4fd",
        "7c31db61-0a82-4eb6-9ffa-f7cdd90cdcec",
        "8eea5048-7cdd-4c95-a9c3-1d26219c00ba",
        "9a31f9d4-ce61-4f78-8a46-4e46c7723508",
        "f54d4193-cf0c-4dc0-bada-ec29522265e8",
        "f6fce380-2944-4b77-be4e-d0330f4c5f10"
      ],
      "singergroups": [
        "fffacd99-c1ae-461e-b1d1-cf555c5dba83"
      ],
      "songtypes": [
        "7be1b15c-cff8-4b37-a649-5c90f3d569a9"
      ],
      "songwriters": [
        "4277034f-9afe-43d5-827c-8c6d14e391ea"
      ]
    },
    "titles": {
      "jpn": "ギュッと！",
      "qro": "Gyutto!"
    },
    "titles_default_language": "qro",
    "year": 2022
  }
}