{
  "header": {
    "version": 4,
    "description": "Karaoke Mugen Karaoke Data File"
  },
  "medias": [
    {
      "version": "Default",
      "filename": "JPN - BABYMETAL - AUDIO - Road of Resistance.mp3",
      "audiogain": -11.23,
      "loudnorm": "-4.86,2.20,1.00,-15.00,-0.27",
      "filesize": 5348372,
      "duration": 318,
      "default": true,
      "lyrics": [
        {
          "filename": "JPN - BABYMETAL - AUDIO - Road of Resistance.ass",
          "default": true,
          "version": "Default"
        }
      ]
    }
  ],
  "data": {
    "created_at": "2023-07-02T21:13:18.173Z",
    "ignoreHooks": false,
    "kid": "668e459b-1b7d-4ce9-9286-9b207b6d96dd",
    "modified_at": "2023-07-02T21:13:18.359Z",
    "repository": "kara.moe",
    "tags": {
      "authors": [
        "74cb50bf-9693-47d3-bb83-be171fd9d71f"
      ],
      "collections": [
        "dbcf2c22-524d-4708-99bb-601703633927"
      ],
      "creators": [
        "6b7472ff-6bb9-4420-8a59-a322b9677779"
      ],
      "groups": [
        "df5f446f-d161-4760-8e0c-822e70ea03ae",
        "ae613721-1fbe-480d-ba6b-d6d0702b184d"
      ],
      "langs": [
        "4dcf9614-7914-42aa-99f4-dbce2e059133"
      ],
      "singergroups": [
        "e95f8edf-36e0-401f-8a73-dad70086a7eb"
      ],
      "songtypes": [
        "42a262ae-acba-4ab5-a446-c5789c96c821"
      ],
      "songwriters": [
        "062cf058-6dfd-4127-bd6a-b32417a4294b",
        "16f8122f-bb3c-4114-be7f-ef30d6c3135d",
        "905a8180-493a-4ca3-bd11-2eb687dfa8a6",
        "5a9ef0c1-3aa3-4416-b966-fd5eebcbaadb",
        "d226c213-b4f5-4afe-b8ce-2446b750c5a9",
        "96a28a2c-cc97-41df-94d7-5ebea1522a90"
      ],
      "misc": [
        "86705d4b-24e4-4756-9687-2b9c98bcf366"
      ]
    },
    "titles": {
      "eng": "Road of Resistance"
    },
    "titles_default_language": "eng",
    "year": 2015
  }
}