{
  "header": {
    "version": 4,
    "description": "Karaoke Mugen Karaoke Data File"
  },
  "medias": [
    {
      "version": "Default",
      "filename": "JPN - Ai Otsuka - AUDIO - 5 09a.m.mp3",
      "audiogain": -10.6,
      "loudnorm": "-8.29,1.83,13.20,-18.99,-1.99",
      "filesize": 7086523,
      "duration": 170,
      "default": true,
      "lyrics": [
        {
          "filename": "JPN - Ai Otsuka - AUDIO - 5 09a.m.ass",
          "default": true,
          "version": "Default"
        }
      ]
    }
  ],
  "data": {
    "created_at": "2023-05-24T00:47:39.033Z",
    "ignoreHooks": false,
    "kid": "7c6c94d6-c8eb-4a76-897e-eea6a27aed62",
    "modified_at": "2023-05-24T00:47:39.119Z",
    "repository": "kara.moe",
    "tags": {
      "authors": [
        "1db1738f-acdc-42fc-aec3-60f4bddf660d"
      ],
      "collections": [
        "dbcf2c22-524d-4708-99bb-601703633927"
      ],
      "creators": [
        "90caf15e-bc86-46e1-8793-9af7906c8310"
      ],
      "langs": [
        "4dcf9614-7914-42aa-99f4-dbce2e059133"
      ],
      "singers": [
        "7527572f-940e-471e-ad41-91600900baec"
      ],
      "songtypes": [
        "42a262ae-acba-4ab5-a446-c5789c96c821"
      ],
      "songwriters": [
        "7527572f-940e-471e-ad41-91600900baec"
      ],
      "groups": [
        "3c14c864-533c-49e6-a3cc-6969f1233775"
      ]
    },
    "titles": {
      "qro": "5:09a.m."
    },
    "titles_default_language": "qro",
    "year": 2005
  }
}