{
  "header": {
    "version": 4,
    "description": "Karaoke Mugen Karaoke Data File"
  },
  "medias": [
    {
      "version": "Default",
      "filename": "JPN - Touhou - AUDIO - LOVERS ~ Off Vocal Vers.mp3",
      "audiogain": -7.69,
      "loudnorm": "-9.04,1.12,3.50,-19.08,-0.93",
      "filesize": 5149534,
      "duration": 256,
      "default": true,
      "lyrics": [
        {
          "filename": "JPN - Touhou - AUDIO - LOVERS ~ Off Vocal Vers.ass",
          "default": true,
          "version": "Default"
        }
      ]
    }
  ],
  "data": {
    "created_at": "2022-12-01T22:22:15.809Z",
    "ignoreHooks": false,
    "kid": "414f20be-11e4-46da-9a25-7a44a46c18d1",
    "modified_at": "2023-05-20T13:13:51.925Z",
    "parents": [
      "33176b84-72b1-404f-b260-e577407e616c"
    ],
    "repository": "kara.moe",
    "tags": {
      "authors": [
        "fb28c6d3-a81e-40c0-9a4c-e3268c60a64b"
      ],
      "collections": [
        "c7db86a0-ff64-4044-9be4-66dd1ef1d1c1"
      ],
      "groups": [
        "ae613721-1fbe-480d-ba6b-d6d0702b184d"
      ],
      "langs": [
        "4dcf9614-7914-42aa-99f4-dbce2e059133"
      ],
      "series": [
        "1bdaa5a1-dfa6-4365-b746-7a0b194dafd6"
      ],
      "singers": [
        "a6e3509f-befc-4b8b-ac1c-3614e1c32447"
      ],
      "singergroups": [
        "eb49131c-b890-422d-9947-0e82292801e1"
      ],
      "songtypes": [
        "42a262ae-acba-4ab5-a446-c5789c96c821"
      ],
      "songwriters": [
        "26cb5252-8510-49e0-897c-a611a05fc056",
        "3c027018-54fc-4402-b3eb-46c34d07a56b"
      ],
      "versions": [
        "c0cc87b9-55b9-40f0-878a-fbb9e34c151e"
      ],
      "franchises": [
        "1bdaa5a1-dfa6-4365-b746-7a0b194dafd6"
      ]
    },
    "titles": {
      "eng": "LOVERS"
    },
    "titles_default_language": "eng",
    "year": 2016
  }
}