{
  "header": {
    "version": 4,
    "description": "Karaoke Mugen Karaoke Data File"
  },
  "medias": [
    {
      "version": "Default",
      "filename": "JPN - Nigeru Wa Haji Da Ga Yaku Ni Tatsu - MV - Koi ~ Full Vers.mp4",
      "audiogain": 4.47,
      "loudnorm": "-21.66,-12.46,3.80,-31.68,-0.17",
      "filesize": 134384183,
      "duration": 253,
      "default": true,
      "lyrics": [
        {
          "filename": "JPN - Nigeru Wa Haji Da Ga Yaku Ni Tatsu - MV - Koi ~ Full Vers.ass",
          "default": true,
          "version": "Default"
        }
      ]
    }
  ],
  "data": {
    "created_at": "2019-06-17T20:15:16.000Z",
    "ignoreHooks": false,
    "kid": "0d970594-c3c1-4157-8fee-395d6de36a2c",
    "modified_at": "2022-09-12T19:22:33.982Z",
    "parents": [
      "25d1180b-52c4-4be0-920e-deed83726f52"
    ],
    "repository": "kara.moe",
    "tags": {
      "authors": [
        "269d1464-84f9-44da-9064-1d074bafb602"
      ],
      "collections": [
        "dbcf2c22-524d-4708-99bb-601703633927"
      ],
      "creators": [
        "e8da43a3-7058-4162-9d31-2f331dee993e"
      ],
      "families": [
        "5391f9fe-638c-415f-8dc9-958e3a2c5787"
      ],
      "groups": [
        "2b4e9972-5e17-481b-99f5-d0787c0ada56",
        "ae613721-1fbe-480d-ba6b-d6d0702b184d"
      ],
      "langs": [
        "4dcf9614-7914-42aa-99f4-dbce2e059133"
      ],
      "series": [
        "d48f32a6-70de-49e8-8b8f-0f4c9ff01d68"
      ],
      "singers": [
        "518509f0-bd2c-4244-9f05-4167cb8c09bc"
      ],
      "songtypes": [
        "7be1b15c-cff8-4b37-a649-5c90f3d569a9"
      ],
      "songwriters": [
        "518509f0-bd2c-4244-9f05-4167cb8c09bc"
      ],
      "versions": [
        "c2143a7f-6970-450e-8a79-0302db9220a9"
      ]
    },
    "titles": {
      "qro": "Koi",
      "jpn": "恋"
    },
    "titles_default_language": "qro",
    "title": "Koi",
    "year": 2016
  }
}