{
  "header": {
    "version": 4,
    "description": "Karaoke Mugen Karaoke Data File"
  },
  "medias": [
    {
      "version": "Default",
      "filename": "JPN - Peach Boy Riverside - OP1 - Dark spiral journey.mp4",
      "audiogain": -1.41,
      "loudnorm": "-14.91,-6.34,2.20,-24.99,-0.56",
      "filesize": 26175868,
      "duration": 89,
      "default": true,
      "lyrics": [
        {
          "filename": "JPN - Peach Boy Riverside - OP1 - Dark spiral journey.ass",
          "default": true,
          "version": "Default"
        }
      ]
    }
  ],
  "data": {
    "created_at": "2022-12-27T17:50:07.551Z",
    "ignoreHooks": false,
    "kid": "580d477d-25b7-45cc-9cfb-bc415bca247d",
    "modified_at": "2022-12-27T18:47:49.132Z",
    "repository": "kara.moe",
    "songorder": 1,
    "tags": {
      "authors": [
        "ded2d27f-f4aa-484a-97df-715a6369e753"
      ],
      "collections": [
        "c7db86a0-ff64-4044-9be4-66dd1ef1d1c1"
      ],
      "creators": [
        "b48f634d-00cf-46f1-8a64-a9696a3d3b32"
      ],
      "families": [
        "0377db02-3af6-43b8-9b08-c759df3d25c3"
      ],
      "genres": [
        "a0aeef4a-6428-45ff-a6e1-468b595930c2"
      ],
      "groups": [
        "8e209ae4-4381-438f-89dc-1b21752027d2"
      ],
      "langs": [
        "4dcf9614-7914-42aa-99f4-dbce2e059133"
      ],
      "origins": [
        "938de218-5343-4865-94d3-fb33f2eaa152"
      ],
      "series": [
        "d4261d34-7f5b-4265-b146-8a15dfbc2ec1"
      ],
      "singers": [
        "68c5cb83-d115-4e98-a990-47f109192220",
        "8cae5e0a-8591-47eb-81cb-b5c4ab19364f"
      ],
      "songtypes": [
        "f02ad9b3-0bd9-4aad-85b3-9976739ba0e4"
      ],
      "songwriters": [
        "dd847c79-82cb-45b1-ae9b-ae2f8bd39417"
      ]
    },
    "titles": {
      "eng": "Dark spiral journey"
    },
    "titles_default_language": "eng",
    "year": 2021
  }
}