{
  "header": {
    "version": 4,
    "description": "Karaoke Mugen Karaoke Data File"
  },
  "medias": [
    {
      "version": "Default",
      "filename": "JPN - Super Robot Taisen - LIVE - SKILL ~ Full Vers.mp4",
      "audiogain": -9.56,
      "loudnorm": "-8.13,0.65,8.10,-18.40,-0.93",
      "filesize": 236507632,
      "duration": 449,
      "default": true,
      "lyrics": [
        {
          "filename": "JPN - Super Robot Taisen - LIVE - SKILL ~ Full Vers.ass",
          "default": true,
          "version": "Default"
        }
      ]
    }
  ],
  "data": {
    "created_at": "2017-11-12T18:58:26.000Z",
    "ignoreHooks": false,
    "kid": "77092708-448d-44e5-b74a-6fcecec9f94f",
    "modified_at": "2022-12-21T22:36:33.830Z",
    "repository": "kara.moe",
    "tags": {
      "authors": [
        "8c22c899-b3ed-42da-a548-ce00f950798b"
      ],
      "collections": [
        "dbcf2c22-524d-4708-99bb-601703633927"
      ],
      "creators": [
        "b2805292-730e-473a-96f0-fd8e7ffd1fd7"
      ],
      "families": [
        "5391f9fe-638c-415f-8dc9-958e3a2c5787"
      ],
      "groups": [
        "8c22c899-b3ed-42da-a548-ce00f950798b",
        "ae613721-1fbe-480d-ba6b-d6d0702b184d"
      ],
      "langs": [
        "4dcf9614-7914-42aa-99f4-dbce2e059133"
      ],
      "misc": [
        "86705d4b-24e4-4756-9687-2b9c98bcf366"
      ],
      "series": [
        "4e88aee3-4cb9-4342-bac8-6c0819b3a014"
      ],
      "singers": [
        "a14aaac9-98b8-4298-a7d6-ea4945750704"
      ],
      "songtypes": [
        "a0167949-580c-4de3-bf13-497e462e02f3"
      ],
      "songwriters": [
        "162799fe-de2f-4f72-99a2-8c606aee4f2d",
        "8324657f-0ecc-4ca1-80e5-3e0ef6c05467"
      ],
      "versions": [
        "c2143a7f-6970-450e-8a79-0302db9220a9"
      ],
      "franchises": [
        "4e88aee3-4cb9-4342-bac8-6c0819b3a014"
      ]
    },
    "titles": {
      "eng": "SKILL"
    },
    "titles_default_language": "eng",
    "year": 2015
  }
}