{
  "header": {
    "version": 4,
    "description": "Karaoke Mugen Karaoke Data File"
  },
  "medias": [
    {
      "version": "Default",
      "filename": "JPN - Link! Like! Love Live! - AUDIO - Spakly Spot ~ Full Vers.mp3",
      "audiogain": -9.96,
      "loudnorm": "-7.50,3.26,5.60,-17.80,-0.61",
      "filesize": 3369311,
      "duration": 188,
      "default": true,
      "lyrics": [
        {
          "filename": "JPN - Link! Like! Love Live! - AUDIO - Spakly Spot ~ Full Vers.ass",
          "default": true,
          "version": "Default"
        }
      ]
    }
  ],
  "data": {
    "created_at": "2023-05-06T11:50:49.799Z",
    "ignoreHooks": false,
    "kid": "66b6074c-670e-4f24-8936-bf27ae2150a6",
    "modified_at": "2023-05-06T11:56:51.770Z",
    "repository": "kara.moe",
    "tags": {
      "authors": [
        "449844e4-3a1f-46e1-8a92-bf72e2d1b6f1"
      ],
      "collections": [
        "dbcf2c22-524d-4708-99bb-601703633927"
      ],
      "creators": [
        "b2805292-730e-473a-96f0-fd8e7ffd1fd7"
      ],
      "genres": [
        "caa86df2-0d59-474b-885c-f240a9e891b0"
      ],
      "groups": [
        "8e209ae4-4381-438f-89dc-1b21752027d2"
      ],
      "langs": [
        "4dcf9614-7914-42aa-99f4-dbce2e059133"
      ],
      "series": [
        "c6245b47-6ad8-498a-b790-e6b8a50fea5e"
      ],
      "singers": [
        "4e39a0e7-c012-4be9-a2c9-f09cf8d3a31b",
        "f5569c82-f01f-4cdb-b1c2-a0db10706211"
      ],
      "singergroups": [
        "4af676a8-9381-477e-99c2-e693b416f095"
      ],
      "songtypes": [
        "42a262ae-acba-4ab5-a446-c5789c96c821"
      ],
      "songwriters": [
        "5a90ba74-5e7c-4ccb-a054-a95cc78e8522",
        "9f0ca505-ec73-4999-b71c-9d08d6edc702",
        "ccdcdf15-dcc6-4505-b0e7-015123a04ef9"
      ],
      "versions": [
        "c2143a7f-6970-450e-8a79-0302db9220a9"
      ],
      "franchises": [
        "fd5d066e-e85a-4eea-8688-2979a887450a"
      ]
    },
    "titles": {
      "eng": "Spakly Spot"
    },
    "titles_default_language": "eng",
    "year": 2023
  }
}