{
  "header": {
    "version": 4,
    "description": "Karaoke Mugen Karaoke Data File"
  },
  "medias": [
    {
      "version": "Default",
      "filename": "JPN - Touhou Hakureisou - REMIX OP - Psychedelic Demonic Cherry Blossom Alliance.mp4",
      "audiogain": -9.74,
      "loudnorm": "-6.72,1.55,1.90,-16.80,-1.70",
      "filesize": 19825535,
      "duration": 106,
      "default": true,
      "lyrics": [
        {
          "filename": "JPN - Touhou Hakureisou - REMIX OP - Psychedelic Demonic Cherry Blossom Alliance.ass",
          "default": true,
          "version": "Default"
        }
      ]
    }
  ],
  "data": {
    "created_at": "2022-02-19T17:31:18.024Z",
    "ignoreHooks": false,
    "kid": "e7a8f6f0-58af-4967-8d7e-07545a34503b",
    "modified_at": "2022-10-08T17:46:33.534Z",
    "repository": "kara.moe",
    "tags": {
      "authors": [
        "5c7df057-1721-436c-8244-17aae35ff388"
      ],
      "collections": [
        "c7db86a0-ff64-4044-9be4-66dd1ef1d1c1"
      ],
      "creators": [
        "3402d9b2-a4fc-4407-9503-6240c3b7aadb",
        "ca654b25-30b5-4054-a2c0-35028fdcae22"
      ],
      "families": [
        "0377db02-3af6-43b8-9b08-c759df3d25c3"
      ],
      "groups": [
        "ae613721-1fbe-480d-ba6b-d6d0702b184d"
      ],
      "langs": [
        "4dcf9614-7914-42aa-99f4-dbce2e059133"
      ],
      "misc": [
        "ec4360fa-3e3c-4f6f-b0e1-fb8b12b6dd18"
      ],
      "origins": [
        "ac5085db-52d8-44b4-8fbb-1697b24d2046"
      ],
      "series": [
        "2191a3d7-fd24-40f1-99e6-4284714976aa"
      ],
      "singers": [
        "d5f9e745-a3ca-4184-a2bc-07369a2485b4"
      ],
      "songtypes": [
        "f02ad9b3-0bd9-4aad-85b3-9976739ba0e4"
      ],
      "songwriters": [
        "26cb5252-8510-49e0-897c-a611a05fc056",
        "3fb85349-d73b-48e8-ab41-3fdad776182a",
        "d5f9e745-a3ca-4184-a2bc-07369a2485b4"
      ],
      "franchises": [
        "1bdaa5a1-dfa6-4365-b746-7a0b194dafd6"
      ]
    },
    "titles": {
      "eng": "Psychedelic Demonic Cherry Blossom Alliance",
      "jpn": "サイケデリック鬼桜同盟",
      "qro": "Saikederikku Onizakura Dômei"
    },
    "titles_default_language": "eng",
    "titles_aliases": [
      "Doumei"
    ],
    "title": "Psychedelic Demonic Cherry Blossom Alliance",
    "year": 2016
  }
}