{
  "header": {
    "version": 4,
    "description": "Karaoke Mugen Karaoke Data File"
  },
  "medias": [
    {
      "version": "Default",
      "filename": "JPN - Karakuri Circus - OP1 - Gekkou.mp4",
      "audiogain": -8.05,
      "loudnorm": "-9.21,0.04,4.70,-19.39,-1.16",
      "filesize": 36294398,
      "duration": 90,
      "default": true,
      "lyrics": [
        {
          "filename": "JPN - Karakuri Circus - OP1 - Gekkou.ass",
          "default": true,
          "version": "Default",
          "subchecksum": "ac674ebced4aa786a282c95aee682a4d"
        }
      ]
    }
  ],
  "data": {
    "created_at": "2018-11-20T18:48:53.000Z",
    "kid": "75016f7a-cb71-4ce0-809a-88d9e02c6e83",
    "modified_at": "2021-02-25T11:55:21.540Z",
    "repository": "kara.moe",
    "songorder": 1,
    "tags": {
      "authors": [
        "6bebcb04-2694-453c-9e0c-eb1a2e2718d9"
      ],
      "collections": [
        "c7db86a0-ff64-4044-9be4-66dd1ef1d1c1"
      ],
      "creators": [
        "d75c4cd2-ae9b-41e6-9e4a-c0a5d8ddc7b5"
      ],
      "families": [
        "0377db02-3af6-43b8-9b08-c759df3d25c3"
      ],
      "groups": [
        "ae613721-1fbe-480d-ba6b-d6d0702b184d"
      ],
      "langs": [
        "4dcf9614-7914-42aa-99f4-dbce2e059133"
      ],
      "origins": [
        "938de218-5343-4865-94d3-fb33f2eaa152"
      ],
      "series": [
        "29399a5a-5f5d-4f3c-b47a-2487cdb78d6a"
      ],
      "singers": [
        "a027724c-6136-4dc1-b585-7ae8f780c8d2"
      ],
      "songtypes": [
        "f02ad9b3-0bd9-4aad-85b3-9976739ba0e4"
      ],
      "songwriters": [
        "20a392bf-0517-4d22-a08c-46345d1077fe"
      ]
    },
    "title": "Gekkou",
    "titles": {
      "qro": "Gekkou",
      "jpn": "月虹"
    },
    "year": 2018,
    "titles_default_language": "qro"
  }
}