{
  "header": {
    "version": 4,
    "description": "Karaoke Mugen Karaoke Data File"
  },
  "medias": [
    {
      "version": "Default",
      "filename": "JPN - Magia Record Mahou Shoujo Madoka Magica Gaiden - GAME OP2 - Signal.mp4",
      "audiogain": 4.15,
      "loudnorm": "-22.78,-13.12,3.80,-33.09,-1.03",
      "filesize": 59671503,
      "duration": 91,
      "default": true,
      "lyrics": [
        {
          "filename": "JPN - Magia Record Mahou Shoujo Madoka Magica Gaiden - GAME OP2 - Signal.ass",
          "default": true,
          "version": "Default",
          "subchecksum": "f6efbcc05eaab7b8120c58d17ac0a9f0"
        }
      ]
    }
  ],
  "data": {
    "created_at": "2020-04-22T19:15:51.510Z",
    "kid": "80fdb153-ceda-413e-9d17-4f2657b4ddaf",
    "modified_at": "2021-07-03T17:41:34.167Z",
    "repository": "kara.moe",
    "songorder": 2,
    "tags": {
      "authors": [
        "1df04771-a378-4f14-a5e1-1455187d681a"
      ],
      "collections": [
        "c7db86a0-ff64-4044-9be4-66dd1ef1d1c1"
      ],
      "creators": [
        "dc045ff3-dbd9-4080-821b-2e6ee13d0e4d"
      ],
      "genres": [
        "b84e28f9-db1e-447f-b339-7954c3592523"
      ],
      "groups": [
        "ae613721-1fbe-480d-ba6b-d6d0702b184d"
      ],
      "langs": [
        "4dcf9614-7914-42aa-99f4-dbce2e059133"
      ],
      "platforms": [
        "213a1a15-e73a-4a08-b3f6-b6e2745a82e5"
      ],
      "series": [
        "bb08329a-f9ca-4e28-8b58-199bdc4cea06"
      ],
      "singers": [
        "ff590105-5f65-4b1f-adf9-2cfb5b789428"
      ],
      "songtypes": [
        "f02ad9b3-0bd9-4aad-85b3-9976739ba0e4"
      ],
      "songwriters": [
        "6a222786-1216-488e-a45c-e54d4fa413fa",
        "732c6ea7-d746-4ae5-abe8-387085eac132",
        "ced18c1f-7cc7-4c94-8eab-2af2c0f2a078"
      ],
      "franchises": [
        "c31a2b6a-96f5-4244-bce3-e04cd8b5c2ae"
      ],
      "origins": [
        "dbedd6b3-d125-4cd8-aa32-c4175e4ca3a3"
      ]
    },
    "title": "Signal",
    "titles": {
      "eng": "Signal"
    },
    "year": 2019,
    "titles_default_language": "eng"
  }
}