{
  "header": {
    "version": 4,
    "description": "Karaoke Mugen Karaoke Data File"
  },
  "medias": [
    {
      "version": "Default",
      "filename": "JPN - Kanata Amane - MV - KICK BACK ~ Cover Vers.mp4",
      "audiogain": -8.74,
      "loudnorm": "-7.97,1.02,3.60,-18.01,-0.72",
      "filesize": 74354563,
      "duration": 196,
      "default": true,
      "lyrics": [
        {
          "filename": "JPN - Kanata Amane - MV - KICK BACK ~ Cover Vers.ass",
          "default": true,
          "version": "Default"
        }
      ]
    }
  ],
  "data": {
    "created_at": "2023-01-31T13:12:02.660Z",
    "ignoreHooks": false,
    "kid": "8a5d302f-94cd-430d-a2ba-91849fee5658",
    "modified_at": "2023-01-31T13:12:02.805Z",
    "parents": [
      "09bdfa82-9c28-416a-9305-b0fb77730186"
    ],
    "repository": "kara.moe",
    "tags": {
      "authors": [
        "9cdf3b70-3550-457c-bdb9-038f3253c6ad"
      ],
      "collections": [
        "c7db86a0-ff64-4044-9be4-66dd1ef1d1c1",
        "dbcf2c22-524d-4708-99bb-601703633927"
      ],
      "creators": [
        "c926b218-3295-4f87-b4ac-6313503ee1ae",
        "7d1a94e6-a64a-48d8-a6d7-a18b24917b2e",
        "dd514cea-833f-4d57-8681-e7b97f878af4",
        "0b6b5d20-21d1-4ed7-b804-2292b084a9c2",
        "739f6478-e461-4c40-b386-e56ff69d6e75",
        "0263d413-17bb-4cee-a311-6dd896eda1c9"
      ],
      "families": [
        "0377db02-3af6-43b8-9b08-c759df3d25c3"
      ],
      "groups": [
        "8e209ae4-4381-438f-89dc-1b21752027d2"
      ],
      "langs": [
        "4dcf9614-7914-42aa-99f4-dbce2e059133"
      ],
      "origins": [
        "5106d71b-a78e-4d19-a16d-f8fb6719538a"
      ],
      "singers": [
        "8e89d60a-e9da-4981-a21e-276471cdf960"
      ],
      "songtypes": [
        "7be1b15c-cff8-4b37-a649-5c90f3d569a9"
      ],
      "songwriters": [
        "13c1ef7a-0b82-4f0e-9ebb-0aef854fcc59",
        "2a71d548-fb9e-4bbf-b10c-eee31eb68c1d",
        "5938e181-5402-43ea-a5a0-a4ca2405705d",
        "f120b614-e9f0-455e-ad4b-ec309a85d075"
      ],
      "versions": [
        "03e1e1d2-8641-47b7-bbcb-39a3df9ff21c"
      ]
    },
    "titles": {
      "eng": "KICK BACK"
    },
    "titles_default_language": "eng",
    "year": 2022
  }
}