{
  "header": {
    "version": 4,
    "description": "Karaoke Mugen Karaoke Data File"
  },
  "medias": [
    {
      "version": "Default",
      "filename": "JPN - Drakengard 3 - GAME PS3 MV - Kuroi Uta.mp4",
      "audiogain": -7.76,
      "loudnorm": "-9.76,0.81,19.50,-21.12,-2.23",
      "filesize": 60873859,
      "duration": 386,
      "default": true,
      "lyrics": [
        {
          "filename": "JPN - Drakengard 3 - GAME PS3 MV - Kuroi Uta.ass",
          "default": true,
          "version": "Default"
        }
      ]
    }
  ],
  "data": {
    "created_at": "2023-02-18T17:51:33.757Z",
    "ignoreHooks": false,
    "kid": "4669da76-f266-407d-b5bd-4b0785ff497a",
    "modified_at": "2023-02-18T17:53:17.125Z",
    "repository": "kara.moe",
    "tags": {
      "authors": [
        "a3a99b23-6c42-4d38-8863-491153187437"
      ],
      "collections": [
        "c7db86a0-ff64-4044-9be4-66dd1ef1d1c1"
      ],
      "creators": [
        "43124e1f-bc9d-4218-b41e-bfb33aa11dde"
      ],
      "families": [
        "5391f9fe-638c-415f-8dc9-958e3a2c5787"
      ],
      "groups": [
        "8e209ae4-4381-438f-89dc-1b21752027d2"
      ],
      "langs": [
        "4dcf9614-7914-42aa-99f4-dbce2e059133"
      ],
      "misc": [
        "86705d4b-24e4-4756-9687-2b9c98bcf366"
      ],
      "platforms": [
        "7f63ff91-7961-4488-888d-4bf46eea3a2a"
      ],
      "series": [
        "4f05686e-28b8-4146-9abe-3bff5e970a8e"
      ],
      "singers": [
        "7f76a2db-a80e-44af-9495-fdb584fa748c"
      ],
      "songtypes": [
        "7be1b15c-cff8-4b37-a649-5c90f3d569a9"
      ],
      "songwriters": [
        "30dd86d9-5892-4cd0-b02a-9ab335032cc5",
        "86c8595e-db97-4546-8519-ece76100dd32"
      ],
      "franchises": [
        "e22de966-45bf-4693-b95a-a4a16408e984"
      ],
      "origins": [
        "dbedd6b3-d125-4cd8-aa32-c4175e4ca3a3"
      ]
    },
    "titles": {
      "jpn": "クロイウタ",
      "qro": "Kuroi Uta"
    },
    "titles_default_language": "qro",
    "year": 2022
  }
}