{
  "header": {
    "version": 4,
    "description": "Karaoke Mugen Karaoke Data File"
  },
  "medias": [
    {
      "version": "Default",
      "filename": "JPN - Hypnosis Mic Division Rap Battle - Rhyme Anima - AUDIO ED - Kizuna ~ Full Vers.mp3",
      "audiogain": -9.56,
      "loudnorm": "-8.35,1.98,3.40,-18.42,-0.34",
      "filesize": 13545500,
      "duration": 357,
      "default": true,
      "lyrics": [
        {
          "filename": "JPN - Hypnosis Mic Division Rap Battle - Rhyme Anima - AUDIO ED - Kizuna ~ Full Vers.ass",
          "default": true,
          "version": "Default"
        }
      ]
    }
  ],
  "data": {
    "created_at": "2023-02-02T18:23:56.727Z",
    "ignoreHooks": false,
    "kid": "b0d69b25-4446-41ca-9f2b-c33d59001493",
    "modified_at": "2023-02-02T18:54:14.617Z",
    "repository": "kara.moe",
    "tags": {
      "authors": [
        "ee8628c8-9b7f-415b-bc0d-9b712d5daf8c"
      ],
      "collections": [
        "c7db86a0-ff64-4044-9be4-66dd1ef1d1c1",
        "dbcf2c22-524d-4708-99bb-601703633927"
      ],
      "creators": [
        "57922aa1-eae2-4c1d-946c-bb320505b549"
      ],
      "groups": [
        "8e209ae4-4381-438f-89dc-1b21752027d2"
      ],
      "langs": [
        "4dcf9614-7914-42aa-99f4-dbce2e059133"
      ],
      "misc": [
        "1d6ceadf-a885-47e5-b23b-c07bf668a424",
        "86705d4b-24e4-4756-9687-2b9c98bcf366"
      ],
      "origins": [
        "938de218-5343-4865-94d3-fb33f2eaa152"
      ],
      "series": [
        "647e4e21-c000-4178-bb2c-569f534d3bbd"
      ],
      "singers": [
        "01c71ea7-b3d5-4ab2-927e-9f56fb3327fd",
        "1a3f89aa-09c0-46e2-ab7d-87f8ff49d11d",
        "2ebbacb4-48f6-4b38-ab02-24fc5b7ffef8",
        "496d9fd8-7ed9-4c76-9567-332012b1c0ed",
        "67a15f6e-419f-4dae-a239-76648fa39fe5",
        "6fc680bc-6637-41af-884c-ec7d86524c41",
        "787d9b3d-2e20-4dca-b83c-6c9c1b9e2202",
        "7dc3c9cd-cf42-4b32-8cb2-9bc868e97564",
        "9a9da3af-c891-42ae-bd3e-f0696a361c04",
        "a249b8bf-618c-4146-ba30-4cff563cd6b5",
        "d72701c8-4aa0-4619-a4ea-aea77d37422c",
        "e88203e1-642b-4754-85b0-4ba62dc18563"
      ],
      "singergroups": [
        "3038a30c-d18d-49bb-a54c-fe01c7288689",
        "3c237bb1-08aa-40d5-9b45-79cb5e548ad5",
        "3e33190c-5796-4b46-ba8f-53162959bb1c",
        "e92f40ba-fd68-4f04-b44a-c1dced02c6c2",
        "58083e61-6d68-48a8-a5b3-4bbfa418cf81"
      ],
      "songtypes": [
        "38c77c56-2b95-4040-b676-0994a8cb0597",
        "42a262ae-acba-4ab5-a446-c5789c96c821"
      ],
      "songwriters": [
        "1a5b0d75-c6ed-4e95-a6ad-fbf43ffa30b4",
        "3c62e772-f382-4016-9b27-f100808529bc",
        "44e9d308-7855-40d4-a08f-bceaaea39227",
        "6b3c5b45-46b3-4cf4-8152-617dc2c9424b",
        "d3f4b228-00b9-4842-98db-1aeb87e991ea",
        "e7410a8d-0fac-4d49-be25-dd1d9267eb1e",
        "f92593ae-2834-467d-9560-dea4dde167b0"
      ],
      "versions": [
        "c2143a7f-6970-450e-8a79-0302db9220a9"
      ],
      "franchises": [
        "8969c1d9-a552-4216-837c-36945e5e730a"
      ]
    },
    "titles": {
      "jpn": "絆",
      "qro": "Kizuna"
    },
    "titles_default_language": "qro",
    "year": 2020
  }
}