{
  "header": {
    "version": 4,
    "description": "Karaoke Mugen Karaoke Data File"
  },
  "medias": [
    {
      "version": "Default",
      "filename": "JPN - Wagakki Band - MV - Phony ~ Cover Off Vocal Vers.mp4",
      "audiogain": -8.97,
      "loudnorm": "-7.67,1.68,5.00,-17.75,-0.57",
      "filesize": 21907616,
      "duration": 189,
      "default": true,
      "lyrics": [
        {
          "filename": "JPN - Wagakki Band - MV - Phony ~ Cover Off Vocal Vers.ass",
          "default": true,
          "version": "Default"
        }
      ]
    }
  ],
  "data": {
    "created_at": "2022-07-02T16:09:31.687Z",
    "ignoreHooks": false,
    "kid": "9837f871-97b8-4669-80ab-9306a0758f24",
    "modified_at": "2022-07-02T16:10:56.274Z",
    "parents": [
      "5e06bf1f-fe7e-47e8-bd65-26fa1f22558e",
      "ce595e86-3ed1-4060-bef9-96edaf493266"
    ],
    "repository": "kara.moe",
    "tags": {
      "authors": [
        "10891649-d475-46eb-b515-8eb3c1e14622"
      ],
      "collections": [
        "c7db86a0-ff64-4044-9be4-66dd1ef1d1c1"
      ],
      "creators": [
        "5eb9e72f-b599-418c-bf1d-4a78be0b113b"
      ],
      "families": [
        "0377db02-3af6-43b8-9b08-c759df3d25c3"
      ],
      "genres": [
        "45623cae-6d68-4304-a49b-896d1d6f4580"
      ],
      "groups": [
        "8e209ae4-4381-438f-89dc-1b21752027d2"
      ],
      "langs": [
        "4dcf9614-7914-42aa-99f4-dbce2e059133"
      ],
      "singers": [
        "c0f34b9f-919b-4db7-be8e-7d06b2b22421"
      ],
      "songtypes": [
        "7be1b15c-cff8-4b37-a649-5c90f3d569a9"
      ],
      "songwriters": [
        "07c4cdd6-c620-42ac-ba7b-7c291be59aa5"
      ],
      "versions": [
        "03e1e1d2-8641-47b7-bbcb-39a3df9ff21c",
        "c0cc87b9-55b9-40f0-878a-fbb9e34c151e"
      ]
    },
    "titles": {
      "eng": "Phony",
      "jpn": "フォニイ"
    },
    "titles_default_language": "eng",
    "title": "Phony",
    "year": 2022
  }
}