{
  "header": {
    "version": 4,
    "description": "Karaoke Mugen Karaoke Data File"
  },
  "medias": [
    {
      "version": "Default",
      "filename": "JPN - One Piece - ED16 - Dear friends.mp4",
      "audiogain": -2.81,
      "loudnorm": "-16.00,-3.04,13.60,-26.42,-2.07",
      "filesize": 12859239,
      "duration": 71,
      "default": true,
      "lyrics": [
        {
          "filename": "JPN - One Piece - ED16 - Dear friends.ass",
          "default": true,
          "version": "Default",
          "subchecksum": "4b497c3e4b114072564398514287f58b"
        }
      ]
    }
  ],
  "data": {
    "created_at": "2021-03-07T16:34:20.294Z",
    "kid": "5e53846f-1b67-4763-8cff-1af6709a56f4",
    "modified_at": "2021-03-07T16:40:57.639Z",
    "repository": "kara.moe",
    "songorder": 16,
    "tags": {
      "authors": [
        "70e26885-c0b5-4a01-b95b-2f492b8a8f10"
      ],
      "collections": [
        "c7db86a0-ff64-4044-9be4-66dd1ef1d1c1"
      ],
      "creators": [
        "f694bf43-b427-4244-9744-9d3f84fd8a31"
      ],
      "families": [
        "0377db02-3af6-43b8-9b08-c759df3d25c3"
      ],
      "genres": [
        "a0aeef4a-6428-45ff-a6e1-468b595930c2"
      ],
      "groups": [
        "3c14c864-533c-49e6-a3cc-6969f1233775"
      ],
      "langs": [
        "4dcf9614-7914-42aa-99f4-dbce2e059133"
      ],
      "origins": [
        "938de218-5343-4865-94d3-fb33f2eaa152"
      ],
      "series": [
        "955758fc-ef9b-441e-b9e3-33dd2caf2753"
      ],
      "singers": [
        "09bbde2d-92ed-4ab8-a078-8324666dbaa2"
      ],
      "songtypes": [
        "38c77c56-2b95-4040-b676-0994a8cb0597"
      ],
      "songwriters": [
        "560520db-4feb-4703-a8ed-fdf20a51fe32"
      ],
      "franchises": [
        "955758fc-ef9b-441e-b9e3-33dd2caf2753"
      ]
    },
    "title": "Dear friends",
    "titles": {
      "eng": "Dear friends"
    },
    "year": 2005,
    "titles_default_language": "eng"
  }
}