{
  "header": {
    "version": 4,
    "description": "Karaoke Mugen Karaoke Data File"
  },
  "medias": [
    {
      "version": "Default",
      "filename": "JPN - Senki Zesshou Symphogear XV - AUDIO - PERFECT SYMPHONY.mp3",
      "audiogain": -5.76,
      "loudnorm": "-11.47,-2.86,2.40,-21.51,-0.20",
      "filesize": 11461228,
      "duration": 279,
      "default": true,
      "lyrics": [
        {
          "filename": "JPN - Senki Zesshou Symphogear XV - AUDIO - PERFECT SYMPHONY.ass",
          "default": true,
          "version": "Default",
          "subchecksum": "fc6318862bd87f808f9b9d75d32e47e2"
        }
      ]
    }
  ],
  "data": {
    "created_at": "2020-12-11T00:23:46.521Z",
    "kid": "9df9bb87-ba82-49bd-a431-d462caf4366d",
    "modified_at": "2021-02-25T13:01:18.574Z",
    "repository": "kara.moe",
    "tags": {
      "authors": [
        "87096920-112f-485f-a310-04156cb4624d"
      ],
      "collections": [
        "c7db86a0-ff64-4044-9be4-66dd1ef1d1c1"
      ],
      "creators": [
        "d2a29c19-019f-4a3d-86ad-2dae9e41a4b1"
      ],
      "groups": [
        "60defa7b-774e-4680-8321-51b742c2e009",
        "8e209ae4-4381-438f-89dc-1b21752027d2"
      ],
      "langs": [
        "4dcf9614-7914-42aa-99f4-dbce2e059133"
      ],
      "origins": [
        "938de218-5343-4865-94d3-fb33f2eaa152"
      ],
      "series": [
        "5a0d57d7-a6e9-45bf-9960-334128e43e0a"
      ],
      "singers": [
        "0abac712-6493-4c55-856b-e88f2687e34b",
        "6d2045b2-80ab-45ff-a131-c4df02ef52d1",
        "7779578c-3d4e-4aa5-8f54-77023879e8e6",
        "7e153b87-dd5f-4ce1-b187-9941ca95ce3e",
        "7f71f194-f4a1-4246-9d74-a754a3989c27",
        "d2bf0734-aede-4e5c-b3a6-6d68b18192dc",
        "f2e9d52b-1b80-4fb5-8754-628462e094e5"
      ],
      "songtypes": [
        "42a262ae-acba-4ab5-a446-c5789c96c821"
      ],
      "songwriters": [
        "30e4f047-50d7-4ed7-8ed3-57cef0f20489",
        "af3ffe51-8059-461c-bbb8-78ea388731f3"
      ],
      "franchises": [
        "61b24082-a6a9-482b-b126-0ad7be595791"
      ]
    },
    "title": "PERFECT SYMPHONY",
    "titles": {
      "eng": "PERFECT SYMPHONY"
    },
    "year": 2020,
    "titles_default_language": "eng"
  }
}