{
  "header": {
    "version": 4,
    "description": "Karaoke Mugen Karaoke Data File"
  },
  "medias": [
    {
      "version": "Default",
      "filename": "JPN - Shouwa Genroku Rakugo Shinjuu Sukeroku Futatabi-hen - OP - Imawa no Shinigami.mp4",
      "audiogain": 4.28,
      "loudnorm": "-22.73,-8.89,9.60,-32.98,-0.93",
      "filesize": 47160153,
      "duration": 90,
      "default": true,
      "lyrics": [
        {
          "filename": "JPN - Shouwa Genroku Rakugo Shinjuu Sukeroku Futatabi-hen - OP - Imawa no Shinigami.ass",
          "default": true,
          "version": "Default"
        }
      ]
    }
  ],
  "data": {
    "created_at": "2018-03-25T11:55:48.000Z",
    "kid": "113c5319-b555-41a3-ad5c-65addaca3a00",
    "modified_at": "2022-01-12T18:58:41.260Z",
    "repository": "kara.moe",
    "tags": {
      "authors": [
        "79e0aa7d-da9a-4e9a-aa2b-64056a83b49b"
      ],
      "collections": [
        "c7db86a0-ff64-4044-9be4-66dd1ef1d1c1"
      ],
      "creators": [
        "2bf7a71d-d3fc-42ba-8aa0-a94d7ca3888c"
      ],
      "families": [
        "0377db02-3af6-43b8-9b08-c759df3d25c3"
      ],
      "groups": [
        "ae613721-1fbe-480d-ba6b-d6d0702b184d"
      ],
      "langs": [
        "4dcf9614-7914-42aa-99f4-dbce2e059133"
      ],
      "origins": [
        "938de218-5343-4865-94d3-fb33f2eaa152"
      ],
      "series": [
        "afa9c273-7447-4bfa-8b69-b685619767d2"
      ],
      "singers": [
        "326621ef-f074-4b13-9921-9728c65a6dff"
      ],
      "songtypes": [
        "f02ad9b3-0bd9-4aad-85b3-9976739ba0e4"
      ],
      "songwriters": [
        "d282be84-08cb-48bc-b95e-7463865d2788"
      ],
      "franchises": [
        "cf1d8d40-aec2-4072-ad3b-e5d0c1abc642"
      ]
    },
    "titles": {
      "qro": "Imawa no Shinigami",
      "jpn": "今際の死神"
    },
    "title": "Imawa no Shinigami",
    "year": 2017,
    "titles_default_language": "qro"
  }
}