{
  "header": {
    "version": 4,
    "description": "Karaoke Mugen Karaoke Data File"
  },
  "medias": [
    {
      "version": "Default",
      "filename": "JPN - Koukyoushihen Eureka Seven - MV - sakura ~ Full Vers.mp4",
      "audiogain": -5.5,
      "loudnorm": "-11.87,-0.04,3.90,-21.96,-0.43",
      "filesize": 33790585,
      "duration": 276,
      "default": true,
      "lyrics": [
        {
          "filename": "JPN - Koukyoushihen Eureka Seven - MV - sakura ~ Full Vers.ass",
          "default": true,
          "version": "Default"
        }
      ]
    }
  ],
  "data": {
    "created_at": "2017-10-11T17:01:54.000Z",
    "kid": "31c3a9e0-70ed-46b1-b2ac-c2cf317f2fcd",
    "modified_at": "2022-06-04T00:17:41.211Z",
    "parents": [
      "ed5f8289-506a-4705-83bf-48cd195208b0"
    ],
    "repository": "kara.moe",
    "songorder": null,
    "tags": {
      "authors": [
        "fa399f2f-ea1d-4902-8796-ea6d8218aff0"
      ],
      "creators": [
        "566082ee-060d-4470-ac6f-4a537a50a613"
      ],
      "families": [
        "5391f9fe-638c-415f-8dc9-958e3a2c5787"
      ],
      "groups": [
        "3c14c864-533c-49e6-a3cc-6969f1233775"
      ],
      "langs": [
        "4dcf9614-7914-42aa-99f4-dbce2e059133"
      ],
      "series": [
        "31008550-33c4-45b1-a3f4-990d388cceb0"
      ],
      "singers": [
        "3e870d4d-e065-4f6c-9d54-62218c659f46"
      ],
      "songtypes": [
        "7be1b15c-cff8-4b37-a649-5c90f3d569a9"
      ],
      "songwriters": [
        "3d9c01ba-2713-4b24-bab2-f3a8f9e496b0",
        "ae7a1e27-0997-4ace-ba4c-024aa52dfd33",
        "cb37c9bc-b7d1-48df-a973-925c49dff1eb"
      ],
      "versions": [
        "c2143a7f-6970-450e-8a79-0302db9220a9"
      ],
      "collections": [
        "dbcf2c22-524d-4708-99bb-601703633927"
      ],
      "franchises": [
        "ff285d6c-0ae5-4cc6-8226-fbf5effb2277"
      ]
    },
    "titles": {
      "qro": "sakura",
      "jpn": "サクラ"
    },
    "titles_default_language": "qro",
    "title": "sakura",
    "year": 2005
  }
}