{
  "header": {
    "version": 4,
    "description": "Karaoke Mugen Karaoke Data File"
  },
  "medias": [
    {
      "version": "Default",
      "filename": "JPN - ChaoS HEAd - ED2 - D.P.mp4",
      "audiogain": -2.47,
      "loudnorm": "-14.43,-0.32,5.10,-24.87,-1.74",
      "filesize": 21594368,
      "duration": 89,
      "default": true,
      "lyrics": [
        {
          "filename": "JPN - ChaoS HEAd - ED2 - D.P.ass",
          "default": true,
          "version": "Default"
        }
      ]
    }
  ],
  "data": {
    "created_at": "2022-04-16T13:44:47.974Z",
    "ignoreHooks": false,
    "kid": "47334127-46dc-419b-a054-afa7ad8462ca",
    "modified_at": "2022-04-22T20:17:33.145Z",
    "repository": "kara.moe",
    "songorder": 2,
    "tags": {
      "authors": [
        "8605a8b9-3b45-44b9-9d98-1a25096bf702"
      ],
      "collections": [
        "c7db86a0-ff64-4044-9be4-66dd1ef1d1c1"
      ],
      "creators": [
        "9c5cf6ba-0bc8-4cfe-a63c-e9be3a14e9fd"
      ],
      "families": [
        "0377db02-3af6-43b8-9b08-c759df3d25c3"
      ],
      "genres": [
        "f60ba57d-5ef4-49e0-b93b-d0dcbcff6592"
      ],
      "groups": [
        "3c14c864-533c-49e6-a3cc-6969f1233775"
      ],
      "langs": [
        "4dcf9614-7914-42aa-99f4-dbce2e059133"
      ],
      "origins": [
        "938de218-5343-4865-94d3-fb33f2eaa152"
      ],
      "series": [
        "73f7aa30-d9e9-4365-9e19-a7bb63e9a6b6"
      ],
      "singers": [
        "3b97f60d-23e3-4e23-bf7f-9835bba682a7"
      ],
      "songtypes": [
        "38c77c56-2b95-4040-b676-0994a8cb0597"
      ],
      "songwriters": [
        "8b3b3e30-0d28-43e0-90e0-ad0eef33509c",
        "eae43792-43ca-44cd-871b-5d46e5531c45"
      ],
      "franchises": [
        "73f7aa30-d9e9-4365-9e19-a7bb63e9a6b6"
      ]
    },
    "titles": {
      "eng": "D.P."
    },
    "titles_default_language": "eng",
    "title": "D.P.",
    "year": 2008,
    "titles_aliases": [
      "DP"
    ]
  }
}