{
  "header": {
    "version": 4,
    "description": "Karaoke Mugen Karaoke Data File"
  },
  "medias": [
    {
      "version": "Default",
      "filename": "JPN - Hanasaku Iroha - OP1 - Hana no Iro.mp4",
      "audiogain": -0.93,
      "loudnorm": "-16.56,-4.83,7.50,-26.73,-1.17",
      "filesize": 21972183,
      "duration": 91,
      "default": true,
      "lyrics": [
        {
          "filename": "JPN - Hanasaku Iroha - OP1 - Hana no Iro.ass",
          "default": true,
          "version": "Default"
        }
      ]
    }
  ],
  "data": {
    "created_at": "2017-10-11T17:02:29.000Z",
    "kid": "606e69ab-74f9-4602-8e8c-72a655d9a28a",
    "modified_at": "2021-10-15T23:50:59.624Z",
    "repository": "kara.moe",
    "songorder": 1,
    "tags": {
      "authors": [
        "5bdaba57-27f8-4568-8806-76a807728766"
      ],
      "collections": [
        "c7db86a0-ff64-4044-9be4-66dd1ef1d1c1"
      ],
      "creators": [
        "54259fe3-ce0c-4eca-855e-383f2c5be3a9"
      ],
      "families": [
        "0377db02-3af6-43b8-9b08-c759df3d25c3"
      ],
      "groups": [
        "9a8e0fbc-dcae-4989-be82-7cad3436f1f5",
        "ae613721-1fbe-480d-ba6b-d6d0702b184d"
      ],
      "langs": [
        "4dcf9614-7914-42aa-99f4-dbce2e059133"
      ],
      "origins": [
        "938de218-5343-4865-94d3-fb33f2eaa152"
      ],
      "series": [
        "8308d2af-47fd-4245-96c9-cda6684c3441"
      ],
      "singers": [
        "705e40f8-00f0-46e5-838a-4181d93de4b2"
      ],
      "songtypes": [
        "f02ad9b3-0bd9-4aad-85b3-9976739ba0e4"
      ],
      "songwriters": [
        "222ae5d2-c7d4-4ba9-852c-681baf61ece4"
      ]
    },
    "titles": {
      "qro": "Hana no Iro",
      "jpn": "ハナノイロ"
    },
    "title": "Hana no Iro",
    "year": 2011,
    "titles_default_language": "qro"
  }
}