{
  "header": {
    "version": 4,
    "description": "Karaoke Mugen Karaoke Data File"
  },
  "medias": [
    {
      "version": "Default",
      "filename": "JPN - Kamen Rider Agito - OP2 - Kamen Rider AGITO ~24.7 version~.mp4",
      "audiogain": -4.04,
      "loudnorm": "-12.38,-0.03,2.10,-22.52,-0.46",
      "filesize": 22024712,
      "duration": 71,
      "default": true,
      "lyrics": [
        {
          "filename": "JPN - Kamen Rider Agito - OP2 - Kamen Rider AGITO ~24.7 version~.ass",
          "default": true,
          "version": "Default",
          "subchecksum": "3c2645aafd720fce8e9de227b36c389e"
        }
      ]
    }
  ],
  "data": {
    "created_at": "2019-10-18T15:49:10.000Z",
    "kid": "6e5a16ba-0c0d-435b-ade1-a28d6cf3d20c",
    "modified_at": "2021-02-25T11:52:38.994Z",
    "repository": "kara.moe",
    "songorder": 2,
    "tags": {
      "authors": [
        "34fb11c3-d473-4bb4-b185-d9ab528da1ea"
      ],
      "collections": [
        "c7db86a0-ff64-4044-9be4-66dd1ef1d1c1"
      ],
      "creators": [
        "e32b14df-502b-45fa-9ca5-37554a63a4d7"
      ],
      "families": [
        "5391f9fe-638c-415f-8dc9-958e3a2c5787"
      ],
      "groups": [
        "3c14c864-533c-49e6-a3cc-6969f1233775"
      ],
      "langs": [
        "4dcf9614-7914-42aa-99f4-dbce2e059133"
      ],
      "origins": [
        "938de218-5343-4865-94d3-fb33f2eaa152"
      ],
      "series": [
        "3f2502fe-914b-45dc-bce2-f5d775fffbe5"
      ],
      "singers": [
        "678fcf84-392e-422d-af05-ff3ad7ef16d3"
      ],
      "songtypes": [
        "f02ad9b3-0bd9-4aad-85b3-9976739ba0e4"
      ],
      "songwriters": [
        "232b47ee-8649-4591-924f-032fa1f6e9a4",
        "ad9de3e0-673e-459b-ac88-178ae5e04341",
        "c6c717cb-4f97-4493-9472-07e71a528feb",
        "f311cb30-5c8a-47a5-a435-241df009e375"
      ],
      "franchises": [
        "93386847-9ab0-468e-bad0-e1d655e0e0ec"
      ],
      "genres": [
        "d3fac9ab-630d-402d-a392-3d2450c3e62e"
      ]
    },
    "title": "Kamen Rider AGITO ~24.7 version~",
    "titles": {
      "qro": "仮面ライダーアギト ~24.7 version~",
      "jpn": "Kamen Rider AGITO ~24.7 version~"
    },
    "year": 2001,
    "titles_default_language": "qro"
  }
}