{
  "header": {
    "version": 4,
    "description": "Karaoke Mugen Karaoke Data File"
  },
  "medias": [
    {
      "version": "Default",
      "filename": "JPN - Cardcaptor Sakura - AUDIO OP1 - Catch you Catch me ~ Full Off Vocal Vers.mp3",
      "audiogain": -6.79,
      "loudnorm": "-10.37,1.28,4.40,-20.47,-0.34",
      "filesize": 4275733,
      "duration": 226,
      "default": true,
      "lyrics": [
        {
          "filename": "JPN - Cardcaptor Sakura - AUDIO OP1 - Catch you Catch me ~ Full Off Vocal Vers.ass",
          "default": true,
          "version": "Default"
        }
      ]
    }
  ],
  "data": {
    "created_at": "2023-07-16T20:09:39.510Z",
    "ignoreHooks": false,
    "kid": "3b0b948e-bc20-4a7f-8a99-75193010774e",
    "modified_at": "2023-07-16T20:09:39.621Z",
    "parents": [
      "6cde9e23-563d-44b2-9207-4f67f3efd911"
    ],
    "repository": "kara.moe",
    "songorder": 1,
    "tags": {
      "authors": [
        "8db694fa-8d91-4c26-b640-0f2a08cbe0e8"
      ],
      "collections": [
        "c7db86a0-ff64-4044-9be4-66dd1ef1d1c1"
      ],
      "creators": [
        "e8da43a3-7058-4162-9d31-2f331dee993e"
      ],
      "genres": [
        "b84e28f9-db1e-447f-b339-7954c3592523"
      ],
      "groups": [
        "24db50aa-a126-4d34-a48a-e45db79c4245"
      ],
      "langs": [
        "4dcf9614-7914-42aa-99f4-dbce2e059133"
      ],
      "origins": [
        "938de218-5343-4865-94d3-fb33f2eaa152"
      ],
      "series": [
        "e18e6f53-efcc-4f1c-8919-eef475ae4af6"
      ],
      "singers": [
        "52aebbdd-58a6-4d06-a5bd-9784f19981b7"
      ],
      "songtypes": [
        "42a262ae-acba-4ab5-a446-c5789c96c821",
        "f02ad9b3-0bd9-4aad-85b3-9976739ba0e4"
      ],
      "songwriters": [
        "8b7e7d4a-52b0-46aa-8da1-f93381f1a548"
      ],
      "versions": [
        "c2143a7f-6970-450e-8a79-0302db9220a9",
        "c0cc87b9-55b9-40f0-878a-fbb9e34c151e"
      ],
      "franchises": [
        "e18e6f53-efcc-4f1c-8919-eef475ae4af6"
      ]
    },
    "titles": {
      "eng": "Catch you Catch me",
      "jpn": "さくらバージョン"
    },
    "titles_default_language": "eng",
    "year": 1998
  }
}