{
  "header": {
    "version": 4,
    "description": "Karaoke Mugen Karaoke Data File"
  },
  "medias": [
    {
      "version": "Kuro no Chikai ~",
      "filename": "JPN - Guriri, Nobunaga - MV - Himitsu ~ Kuro no Chikai ~.mp4",
      "audiogain": -10.09,
      "loudnorm": "-7.50,0.66,3.20,-17.82,-0.52",
      "filesize": 22833975,
      "duration": 256,
      "default": true,
      "lyrics": [
        {
          "filename": "JPN - Guriri, Nobunaga - MV - Himitsu ~ Kuro no Chikai ~.ass",
          "default": true,
          "version": "Default"
        }
      ]
    }
  ],
  "data": {
    "created_at": "2017-10-11T17:02:33.000Z",
    "ignoreHooks": false,
    "kid": "eb8dc55f-a156-423d-bb6c-6391275ac721",
    "modified_at": "2022-12-22T16:08:58.112Z",
    "repository": "kara.moe",
    "tags": {
      "authors": [
        "5bdaba57-27f8-4568-8806-76a807728766"
      ],
      "collections": [
        "c7db86a0-ff64-4044-9be4-66dd1ef1d1c1"
      ],
      "creators": [
        "be31538b-0a5e-49d7-a919-4dea0dac62cf"
      ],
      "genres": [
        "45623cae-6d68-4304-a49b-896d1d6f4580"
      ],
      "groups": [
        "ae613721-1fbe-480d-ba6b-d6d0702b184d"
      ],
      "langs": [
        "4dcf9614-7914-42aa-99f4-dbce2e059133"
      ],
      "singers": [
        "51257fd2-42da-470e-9d13-3c41fc39d1bf",
        "7d3391cc-4dfd-481d-bf5e-18f896d42b37"
      ],
      "songtypes": [
        "7be1b15c-cff8-4b37-a649-5c90f3d569a9"
      ],
      "songwriters": [
        "502f6283-cf5a-420c-bac4-a11e2c79f48c"
      ]
    },
    "titles": {
      "jpn": "秘蜜～黒の誓い～",
      "qro": "Himitsu ~ Kuro no Chikai ~"
    },
    "titles_default_language": "qro",
    "year": 2010
  }
}