{
  "header": {
    "version": 4,
    "description": "Karaoke Mugen Karaoke Data File"
  },
  "medias": [
    {
      "version": "Default",
      "filename": "JPN - Ashita no Kimi to Au Tame ni - PC GAME OP - TIME.avi",
      "audiogain": -8.1,
      "loudnorm": "-9.89,0.87,6.10,-19.98,-1.19",
      "filesize": 12138530,
      "duration": 132,
      "default": true,
      "lyrics": [
        {
          "filename": "JPN - Ashita no Kimi to Au Tame ni - PC GAME OP - TIME.ass",
          "default": true,
          "version": "Default",
          "subchecksum": "b9ea2f5a352fd1cf72f51a94c738cc17"
        }
      ]
    }
  ],
  "data": {
    "created_at": "2017-10-11T17:01:54.000Z",
    "kid": "27809a18-831d-40dd-a491-11a46fee2b54",
    "modified_at": "2021-02-25T10:46:33.816Z",
    "repository": "kara.moe",
    "tags": {
      "authors": [
        "5bdaba57-27f8-4568-8806-76a807728766"
      ],
      "collections": [
        "c7db86a0-ff64-4044-9be4-66dd1ef1d1c1"
      ],
      "creators": [
        "d701acb7-cbdb-4835-ba8b-1379549ff200"
      ],
      "groups": [
        "3c14c864-533c-49e6-a3cc-6969f1233775"
      ],
      "langs": [
        "4dcf9614-7914-42aa-99f4-dbce2e059133"
      ],
      "platforms": [
        "3c15f758-e1bc-4266-8bb9-3c14112f504a"
      ],
      "series": [
        "7e7a2e43-e3f6-4985-8f36-aac9394542b6"
      ],
      "singers": [
        "4490c07b-6c90-4a1a-b66d-135f65990307"
      ],
      "songtypes": [
        "f02ad9b3-0bd9-4aad-85b3-9976739ba0e4"
      ],
      "songwriters": [
        "0c2df8d7-f3af-46ec-9fbe-2f4814208e55"
      ],
      "origins": [
        "dbedd6b3-d125-4cd8-aa32-c4175e4ca3a3"
      ]
    },
    "title": "TIME",
    "titles": {
      "eng": "TIME"
    },
    "year": 2008,
    "titles_default_language": "eng"
  }
}