{
  "header": {
    "version": 4,
    "description": "Karaoke Mugen Karaoke Data File"
  },
  "medias": [
    {
      "version": "MindaRyn.",
      "filename": "JPN - Kimi no Na wa. - REMIX MV - Sparkle ~ MindaRyn Vers. ~ Alternative Cover Vers.mp4",
      "audiogain": -5.61,
      "loudnorm": "-13.08,-2.32,8.70,-23.38,-1.74",
      "filesize": 131801107,
      "duration": 409,
      "default": true,
      "lyrics": [
        {
          "filename": "JPN - Kimi no Na wa. - REMIX MV - Sparkle ~ MindaRyn Vers. ~ Alternative Cover Vers.ass",
          "default": true,
          "version": "Default"
        }
      ]
    }
  ],
  "data": {
    "created_at": "2019-10-23T12:53:07.000Z",
    "kid": "1496f1a1-297b-4fff-b087-731006c277ea",
    "modified_at": "2022-06-04T00:21:37.736Z",
    "parents": [
      "865dc3f1-a068-4677-871a-12543f1cfbc2"
    ],
    "repository": "kara.moe",
    "songorder": null,
    "tags": {
      "authors": [
        "fa399f2f-ea1d-4902-8796-ea6d8218aff0"
      ],
      "creators": [
        "38dce587-f7e7-4304-a408-fdb091988eda",
        "a8ec8a4f-33f9-45b7-a21c-4b29e82ffdb1",
        "d0f301c9-4920-4669-8771-02908cf93d89"
      ],
      "families": [
        "5391f9fe-638c-415f-8dc9-958e3a2c5787"
      ],
      "groups": [
        "ae613721-1fbe-480d-ba6b-d6d0702b184d"
      ],
      "langs": [
        "4dcf9614-7914-42aa-99f4-dbce2e059133"
      ],
      "misc": [
        "86705d4b-24e4-4756-9687-2b9c98bcf366",
        "ec4360fa-3e3c-4f6f-b0e1-fb8b12b6dd18"
      ],
      "series": [
        "d6cd8791-8b21-4da2-89be-db3bffc0fc74"
      ],
      "singers": [
        "d0f301c9-4920-4669-8771-02908cf93d89"
      ],
      "songtypes": [
        "7be1b15c-cff8-4b37-a649-5c90f3d569a9"
      ],
      "songwriters": [
        "2afe9818-539c-4010-ae0a-7fa4c009fdbe",
        "38dce587-f7e7-4304-a408-fdb091988eda"
      ],
      "versions": [
        "03e1e1d2-8641-47b7-bbcb-39a3df9ff21c",
        "9f63c359-d1bf-425a-bcf5-b245c2c9211d"
      ],
      "collections": [
        "dbcf2c22-524d-4708-99bb-601703633927"
      ]
    },
    "titles": {
      "eng": "Sparkle ~ MindaRyn Vers.",
      "jpn": "スパークル ～ MindaRyn Vers."
    },
    "titles_default_language": "eng",
    "title": "Sparkle ~ MindaRyn Vers.",
    "year": 2018
  }
}