{
  "header": {
    "version": 4,
    "description": "Karaoke Mugen Karaoke Data File"
  },
  "medias": [
    {
      "version": "Default",
      "filename": "JPN - Senki Zesshou Symphogear GX - CS LIVE - Junpaku Innocent ~ Full Vers.mp4",
      "audiogain": -1.52,
      "loudnorm": "-17.07,-3.64,6.10,-27.15,-0.17",
      "filesize": 92592254,
      "duration": 281,
      "default": true,
      "lyrics": [
        {
          "filename": "JPN - Senki Zesshou Symphogear GX - CS LIVE - Junpaku Innocent ~ Full Vers.ass",
          "default": true,
          "version": "Default"
        }
      ]
    }
  ],
  "data": {
    "created_at": "2022-06-07T23:54:42.763Z",
    "ignoreHooks": false,
    "kid": "03758242-dc36-4332-8c58-a29e58298475",
    "modified_at": "2022-06-07T23:54:43.547Z",
    "repository": "kara.moe",
    "tags": {
      "authors": [
        "a5dbab74-510b-48c5-9cea-5a537a81c974"
      ],
      "collections": [
        "dbcf2c22-524d-4708-99bb-601703633927"
      ],
      "creators": [
        "d2a29c19-019f-4a3d-86ad-2dae9e41a4b1"
      ],
      "families": [
        "5391f9fe-638c-415f-8dc9-958e3a2c5787"
      ],
      "langs": [
        "4dcf9614-7914-42aa-99f4-dbce2e059133"
      ],
      "series": [
        "86627e91-4551-4e88-899b-2cb017e853e0"
      ],
      "singers": [
        "f2e9d52b-1b80-4fb5-8754-628462e094e5"
      ],
      "songtypes": [
        "a0167949-580c-4de3-bf13-497e462e02f3",
        "a8a2616c-b5a1-4df3-ad6f-89291bc67dee"
      ],
      "songwriters": [
        "af3ffe51-8059-461c-bbb8-78ea388731f3",
        "178dcba7-6d20-40b9-baea-d7d3e38e2c25"
      ],
      "versions": [
        "c2143a7f-6970-450e-8a79-0302db9220a9"
      ],
      "groups": [
        "ae613721-1fbe-480d-ba6b-d6d0702b184d",
        "8c22c899-b3ed-42da-a548-ce00f950798b"
      ],
      "franchises": [
        "61b24082-a6a9-482b-b126-0ad7be595791"
      ]
    },
    "titles": {
      "qro": "Junpaku Innocent",
      "jpn": "純白イノセント"
    },
    "titles_default_language": "qro",
    "title": "Junpaku Innocent",
    "year": 2016
  }
}