{
  "header": {
    "version": 4,
    "description": "Karaoke Mugen Karaoke Data File"
  },
  "medias": [
    {
      "version": "Default",
      "filename": "JPN - Gintama' Enchousen - MV - Sakura Mitsutsuki ~ Full Vers.mp4",
      "audiogain": -9.45,
      "loudnorm": "-8.06,0.67,6.90,-18.10,-1.33",
      "filesize": 38996697,
      "duration": 216,
      "default": true,
      "lyrics": [
        {
          "filename": "JPN - Gintama' Enchousen - MV - Sakura Mitsutsuki ~ Full Vers.ass",
          "default": true,
          "version": "Default"
        }
      ]
    }
  ],
  "data": {
    "created_at": "2021-09-11T17:19:14.716Z",
    "kid": "05b1a628-ee17-4754-972c-f010a09b4587",
    "modified_at": "2022-06-04T00:19:18.458Z",
    "repository": "kara.moe",
    "songorder": null,
    "tags": {
      "authors": [
        "1d7745a8-73ea-40bb-ad99-826af98f6e41"
      ],
      "creators": [
        "6fa9de67-21cf-420b-9ddb-57edb5abe523"
      ],
      "families": [
        "5391f9fe-638c-415f-8dc9-958e3a2c5787"
      ],
      "groups": [
        "ae613721-1fbe-480d-ba6b-d6d0702b184d"
      ],
      "langs": [
        "4dcf9614-7914-42aa-99f4-dbce2e059133"
      ],
      "series": [
        "4621ddf3-265a-4b96-9f25-d625a2cc56a8"
      ],
      "singers": [
        "27a41af1-3aa1-4e1e-b747-8c06ed4fa4ef"
      ],
      "songtypes": [
        "7be1b15c-cff8-4b37-a649-5c90f3d569a9"
      ],
      "songwriters": [
        "366e2924-fd0f-40ea-a1d9-f8490aaac6cd",
        "5d794fd1-b9a5-4b9b-8ea1-4daebc2121fc"
      ],
      "versions": [
        "c2143a7f-6970-450e-8a79-0302db9220a9"
      ],
      "collections": [
        "dbcf2c22-524d-4708-99bb-601703633927"
      ],
      "franchises": [
        "0433ab0b-74bb-4837-8f1b-fd17a9e0c526"
      ]
    },
    "titles": {
      "qro": "Sakura Mitsutsuki",
      "jpn": "サクラミツツキ"
    },
    "titles_default_language": "qro",
    "title": "Sakura Mitsutsuki",
    "year": 2012
  }
}