{
  "header": {
    "version": 4,
    "description": "Karaoke Mugen Karaoke Data File"
  },
  "medias": [
    {
      "version": "Default",
      "filename": "JPN - Gekijouban Sword Art Online Ordinal Scale - MOVIE AUDIO ED - Catch the Moment ~ Off Vocal Vers.mp3",
      "audiogain": -11.29,
      "loudnorm": "-5.73,0.70,3.60,-15.88,-0.53",
      "filesize": 11277002,
      "duration": 279,
      "default": true,
      "lyrics": [
        {
          "filename": "JPN - Gekijouban Sword Art Online Ordinal Scale - MOVIE AUDIO ED - Catch the Moment ~ Off Vocal Vers.ass",
          "default": true,
          "version": "Default"
        }
      ]
    }
  ],
  "data": {
    "created_at": "2021-02-15T17:13:17.082Z",
    "ignoreHooks": false,
    "kid": "f818138b-73a6-47bd-9448-d0a98adc16c9",
    "modified_at": "2022-12-22T16:08:58.572Z",
    "parents": [
      "c4c37701-81d5-4a2e-a3f1-798cbdbe59ad"
    ],
    "repository": "kara.moe",
    "tags": {
      "authors": [
        "90698f28-1d62-4673-82c4-33ae96b1ba97",
        "d4156daf-6c2d-4c25-a268-40bd38321e41"
      ],
      "collections": [
        "c7db86a0-ff64-4044-9be4-66dd1ef1d1c1"
      ],
      "creators": [
        "b96e3686-bbe0-4b9e-815a-a278d5ff31be"
      ],
      "groups": [
        "ae613721-1fbe-480d-ba6b-d6d0702b184d",
        "8c22c899-b3ed-42da-a548-ce00f950798b"
      ],
      "langs": [
        "4dcf9614-7914-42aa-99f4-dbce2e059133"
      ],
      "origins": [
        "c8ca9dea-d8b4-48fe-8427-d911653232e9"
      ],
      "series": [
        "32cf8c15-cafc-46b5-81fd-7ab5a2685331"
      ],
      "singers": [
        "41f045f2-1576-496d-91b1-c0f28bab57a4"
      ],
      "songtypes": [
        "38c77c56-2b95-4040-b676-0994a8cb0597",
        "42a262ae-acba-4ab5-a446-c5789c96c821"
      ],
      "songwriters": [
        "15c7e3a2-8522-4854-9df6-39ca595a54fd",
        "41f045f2-1576-496d-91b1-c0f28bab57a4",
        "ae6a7812-73b3-4a19-ba13-e5011785b01d"
      ],
      "versions": [
        "c0cc87b9-55b9-40f0-878a-fbb9e34c151e"
      ],
      "franchises": [
        "39976477-082d-4293-87d1-e1e3a9561125"
      ]
    },
    "titles": {
      "eng": "Catch the Moment"
    },
    "titles_default_language": "eng",
    "year": 2017
  }
}