{
  "header": {
    "version": 4,
    "description": "Karaoke Mugen Karaoke Data File"
  },
  "medias": [
    {
      "version": "Default",
      "filename": "JPN - ZUTOMAYO - MV - Kansaete Kuyashiiwa ~ Off Vocal Vers.mp4",
      "audiogain": -8.83,
      "loudnorm": "-8.13,1.24,4.00,-18.24,-0.59",
      "filesize": 64364260,
      "duration": 243,
      "default": true,
      "lyrics": [
        {
          "filename": "JPN - ZUTOMAYO - MV - Kansaete Kuyashiiwa ~ Off Vocal Vers.ass",
          "default": true,
          "version": "Default"
        }
      ]
    }
  ],
  "data": {
    "created_at": "2021-08-14T21:00:21.278Z",
    "ignoreHooks": false,
    "kid": "7975850d-55f7-4b3a-aced-cf52192780d3",
    "modified_at": "2022-10-19T15:08:04.530Z",
    "parents": [
      "ee614c00-f2fe-44f8-9273-37e6bad60537"
    ],
    "repository": "kara.moe",
    "tags": {
      "authors": [
        "5e93f02a-bcd1-40a9-ba7a-91ada6683aea",
        "90698f28-1d62-4673-82c4-33ae96b1ba97"
      ],
      "collections": [
        "dbcf2c22-524d-4708-99bb-601703633927"
      ],
      "creators": [
        "165c7b0c-06d6-4c2e-83d9-bf5b084382a0"
      ],
      "families": [
        "0377db02-3af6-43b8-9b08-c759df3d25c3"
      ],
      "groups": [
        "8e209ae4-4381-438f-89dc-1b21752027d2"
      ],
      "langs": [
        "4dcf9614-7914-42aa-99f4-dbce2e059133"
      ],
      "singers": [
        "d3f693d0-7d45-465e-82ed-a6723c600008"
      ],
      "singergroups": [
        "c7d361f6-c1cf-44b2-b40a-a18aa90f2d8f"
      ],
      "songtypes": [
        "7be1b15c-cff8-4b37-a649-5c90f3d569a9"
      ],
      "songwriters": [
        "c7d361f6-c1cf-44b2-b40a-a18aa90f2d8f"
      ],
      "versions": [
        "c0cc87b9-55b9-40f0-878a-fbb9e34c151e"
      ]
    },
    "titles": {
      "jpn": "勘冴えて悔しいわ",
      "qro": "Kansaete Kuyashiiwa"
    },
    "titles_default_language": "qro",
    "title": "Kansaete Kuyashiiwa",
    "year": 2021
  }
}