{
  "header": {
    "version": 4,
    "description": "Karaoke Mugen Karaoke Data File"
  },
  "medias": [
    {
      "version": "Default",
      "filename": "JPN - Eve - MV - Oki ni Mesu mama.mp4",
      "audiogain": -13.09,
      "loudnorm": "-4.96,3.09,5.00,-15.04,-0.62",
      "filesize": 59593608,
      "duration": 248,
      "default": true,
      "lyrics": [
        {
          "filename": "JPN - Eve - MV - Oki ni Mesu mama.ass",
          "default": true,
          "version": "Default"
        }
      ]
    }
  ],
  "data": {
    "created_at": "2020-03-22T13:07:58.314Z",
    "ignoreHooks": false,
    "kid": "ea69dbc0-6ce0-4a68-af54-5ff07e6a6fc1",
    "modified_at": "2022-04-28T12:19:52.698Z",
    "repository": "kara.moe",
    "tags": {
      "authors": [
        "1631228b-9125-497a-aafc-66f920a44a02"
      ],
      "collections": [
        "c7db86a0-ff64-4044-9be4-66dd1ef1d1c1"
      ],
      "creators": [
        "945ec011-2614-44ad-bdef-3ee71f0028ff",
        "a610df83-d060-40b9-be33-cba9656ed2d3"
      ],
      "families": [
        "0377db02-3af6-43b8-9b08-c759df3d25c3"
      ],
      "groups": [
        "8c22c899-b3ed-42da-a548-ce00f950798b",
        "ae613721-1fbe-480d-ba6b-d6d0702b184d"
      ],
      "langs": [
        "4dcf9614-7914-42aa-99f4-dbce2e059133"
      ],
      "singers": [
        "a84f6a9f-4785-48bb-9f07-fdede3de7cae"
      ],
      "songtypes": [
        "7be1b15c-cff8-4b37-a649-5c90f3d569a9"
      ],
      "songwriters": [
        "7d97bcee-9037-4264-8c64-95809c5d385f",
        "a84f6a9f-4785-48bb-9f07-fdede3de7cae"
      ]
    },
    "titles": {
      "eng": "As You Like It",
      "qro": "Oki ni Mesu mama",
      "jpn": "お気に召すまま"
    },
    "titles_default_language": "eng",
    "title": "Oki ni Mesu mama",
    "year": 2017
  }
}