{
  "header": {
    "version": 4,
    "description": "Karaoke Mugen Karaoke Data File"
  },
  "medias": [
    {
      "version": "Hololive English.",
      "filename": "JPN - Amelia Watson, Baelz Hakos, Fauna Ceres - MV - Ochame Kinou ~ Hololive English Vers. ~ Cover Vers.mp4",
      "audiogain": -9.11,
      "loudnorm": "-7.64,1.69,3.00,-17.70,-0.28",
      "filesize": 113863398,
      "duration": 250,
      "default": true,
      "lyrics": [
        {
          "filename": "JPN - Amelia Watson, Baelz Hakos, Fauna Ceres - MV - Ochame Kinou ~ Hololive English Vers. ~ Cover Vers.ass",
          "default": true,
          "version": "Default"
        }
      ]
    }
  ],
  "data": {
    "created_at": "2022-01-04T18:55:47.306Z",
    "ignoreHooks": false,
    "kid": "b3f59b1f-44bc-43b1-822f-861e804eb513",
    "modified_at": "2022-01-28T14:04:11.459Z",
    "parents": [
      "a652d03a-84b9-41a1-afb3-7360e07f94e3"
    ],
    "repository": "kara.moe",
    "tags": {
      "authors": [
        "4b50fcec-273e-4cc5-83f2-b156c2300f7f"
      ],
      "collections": [
        "c7db86a0-ff64-4044-9be4-66dd1ef1d1c1"
      ],
      "creators": [
        "0263d413-17bb-4cee-a311-6dd896eda1c9"
      ],
      "families": [
        "0377db02-3af6-43b8-9b08-c759df3d25c3"
      ],
      "groups": [
        "8e209ae4-4381-438f-89dc-1b21752027d2"
      ],
      "langs": [
        "4dcf9614-7914-42aa-99f4-dbce2e059133"
      ],
      "origins": [
        "5106d71b-a78e-4d19-a16d-f8fb6719538a"
      ],
      "singers": [
        "07348630-8056-450f-af29-41aae163688f",
        "1f24215f-7bdb-4232-bc32-6424e5d5714c",
        "37a0d0df-aab7-482b-b2f2-65b9ca1cc639",
        "4e8b870c-0201-4d30-80cf-f067122768f7",
        "567bb64c-6c5d-4619-adb4-8234ba57f744",
        "5cc06a77-fa60-4a10-9430-b24735b2a7ae",
        "87f8830b-c3f6-413b-9551-515733ebac41",
        "a80f1013-c2b8-4934-8387-840788b749b5",
        "c4cd517c-9219-4757-9d66-0ffb56c754f9",
        "d416af0b-09c6-4c6b-82f9-8027a0db8259",
        "def3e764-d93a-4f14-9a0e-2e62afd11d27"
      ],
      "songtypes": [
        "7be1b15c-cff8-4b37-a649-5c90f3d569a9"
      ],
      "songwriters": [
        "8d8bb14c-a310-4bd4-bc88-1b3121993160"
      ],
      "versions": [
        "03e1e1d2-8641-47b7-bbcb-39a3df9ff21c"
      ]
    },
    "titles": {
      "qro": "Ochame Kinô ~ Hololive English Vers.",
      "jpn": "おちゃめ機能 ~ Hololive English Vers."
    },
    "titles_aliases": [
      "吹っ切れた",
      "Fukkireta",
      "kinou"
    ],
    "title": "Ochame Kinô ~ Hololive English Vers.",
    "year": 2022,
    "titles_default_language": "qro"
  }
}