{
  "header": {
    "version": 4,
    "description": "Karaoke Mugen Karaoke Data File"
  },
  "medias": [
    {
      "version": "Default",
      "filename": "JPN - Nichijou - MV - Hyadain No Kakakata Kataomoi-C ~ Full Vers.mp4",
      "audiogain": -8.3,
      "loudnorm": "-9.89,-0.71,5.50,-19.96,-0.45",
      "filesize": 20064086,
      "duration": 234,
      "default": true,
      "lyrics": [
        {
          "filename": "JPN - Nichijou - MV - Hyadain No Kakakata Kataomoi-C ~ Full Vers.ass",
          "default": true,
          "version": "Default"
        }
      ]
    }
  ],
  "data": {
    "created_at": "2023-01-07T16:10:13.377Z",
    "ignoreHooks": false,
    "kid": "83c10710-6435-402f-aa03-c4d08dec059b",
    "modified_at": "2023-01-07T16:10:15.226Z",
    "parents": [
      "ddcbc025-fc29-4ed8-8f70-604071ad5ab9"
    ],
    "repository": "kara.moe",
    "tags": {
      "authors": [
        "74cb50bf-9693-47d3-bb83-be171fd9d71f"
      ],
      "collections": [
        "dbcf2c22-524d-4708-99bb-601703633927"
      ],
      "creators": [
        "b2805292-730e-473a-96f0-fd8e7ffd1fd7"
      ],
      "families": [
        "5391f9fe-638c-415f-8dc9-958e3a2c5787"
      ],
      "groups": [
        "ae613721-1fbe-480d-ba6b-d6d0702b184d",
        "df5f446f-d161-4760-8e0c-822e70ea03ae"
      ],
      "langs": [
        "4dcf9614-7914-42aa-99f4-dbce2e059133"
      ],
      "series": [
        "88c428da-88d8-4912-829b-b263f01a2dbd"
      ],
      "singers": [
        "5d4acd69-3c02-4b32-9fd9-eac6dd11885b"
      ],
      "songtypes": [
        "7be1b15c-cff8-4b37-a649-5c90f3d569a9"
      ],
      "songwriters": [
        "5d4acd69-3c02-4b32-9fd9-eac6dd11885b"
      ],
      "versions": [
        "c2143a7f-6970-450e-8a79-0302db9220a9"
      ]
    },
    "titles": {
      "jpn": "ヒャダインのカカカタ☆カタオモイ-C",
      "qro": "Hyadain No Kakakata☆Kataomoi-C"
    },
    "titles_default_language": "qro",
    "year": 2011
  }
}