{
  "header": {
    "version": 4,
    "description": "Karaoke Mugen Karaoke Data File"
  },
  "medias": [
    {
      "version": "Default",
      "filename": "JPN - SPYxFAMILY - MV - Kigeki ~ Full Vers.mp4",
      "audiogain": -5.65,
      "loudnorm": "-10.89,0.80,5.00,-21.05,-0.60",
      "filesize": 94744968,
      "duration": 232,
      "default": true,
      "lyrics": [
        {
          "filename": "JPN - SPYxFAMILY - MV - Kigeki ~ Full Vers.ass",
          "default": true,
          "version": "Default"
        }
      ]
    }
  ],
  "data": {
    "created_at": "2022-05-15T21:24:51.726Z",
    "ignoreHooks": false,
    "kid": "9ab5b066-60cb-45ca-8555-a50209bf220d",
    "modified_at": "2023-07-16T19:38:35.785Z",
    "parents": [
      "55fa865b-cc20-4567-a9b7-3cac6c936e5f"
    ],
    "repository": "kara.moe",
    "tags": {
      "authors": [
        "06852e02-b77e-4106-b6f7-2d03942ad0ea"
      ],
      "collections": [
        "dbcf2c22-524d-4708-99bb-601703633927"
      ],
      "creators": [
        "e8da43a3-7058-4162-9d31-2f331dee993e"
      ],
      "families": [
        "5391f9fe-638c-415f-8dc9-958e3a2c5787"
      ],
      "groups": [
        "8e209ae4-4381-438f-89dc-1b21752027d2"
      ],
      "langs": [
        "4dcf9614-7914-42aa-99f4-dbce2e059133"
      ],
      "series": [
        "8218a8eb-cad8-473b-8ccb-64cacc2d833a"
      ],
      "singers": [
        "518509f0-bd2c-4244-9f05-4167cb8c09bc"
      ],
      "songtypes": [
        "7be1b15c-cff8-4b37-a649-5c90f3d569a9"
      ],
      "songwriters": [
        "518509f0-bd2c-4244-9f05-4167cb8c09bc"
      ],
      "versions": [
        "c2143a7f-6970-450e-8a79-0302db9220a9"
      ]
    },
    "titles": {
      "jpn": "喜劇",
      "qro": "Kigeki",
      "eng": "Comedy"
    },
    "titles_default_language": "qro",
    "year": 2022
  }
}