{
  "header": {
    "version": 4,
    "description": "Karaoke Mugen Karaoke Data File"
  },
  "medias": [
    {
      "version": "Default",
      "filename": "JPN - Build Divide Code White - OP - Gold.mp4",
      "audiogain": 0.61,
      "loudnorm": "-16.96,-5.84,4.40,-27.20,-1.12",
      "filesize": 27080939,
      "duration": 86,
      "default": true,
      "lyrics": [
        {
          "filename": "JPN - Build Divide Code White - OP - Gold.ass",
          "default": true,
          "version": "Default"
        }
      ]
    }
  ],
  "data": {
    "created_at": "2022-05-08T02:27:58.396Z",
    "ignoreHooks": false,
    "kid": "5343a9a7-e0b5-4183-89cc-f8e912486865",
    "modified_at": "2023-02-05T12:41:16.522Z",
    "repository": "kara.moe",
    "tags": {
      "authors": [
        "10891649-d475-46eb-b515-8eb3c1e14622",
        "2a9febcc-f195-4ca2-9912-4f6484e05a00"
      ],
      "collections": [
        "c7db86a0-ff64-4044-9be4-66dd1ef1d1c1"
      ],
      "creators": [
        "58186e9d-9478-47dc-8c95-eeea5c0a3317",
        "771735da-6b67-403d-8d5c-2761a0665168"
      ],
      "families": [
        "0377db02-3af6-43b8-9b08-c759df3d25c3"
      ],
      "genres": [
        "a0aeef4a-6428-45ff-a6e1-468b595930c2"
      ],
      "groups": [
        "8e209ae4-4381-438f-89dc-1b21752027d2"
      ],
      "langs": [
        "4dcf9614-7914-42aa-99f4-dbce2e059133"
      ],
      "origins": [
        "938de218-5343-4865-94d3-fb33f2eaa152"
      ],
      "series": [
        "0ded370b-03a2-480b-a379-2cb48bf5e071"
      ],
      "singers": [
        "e22fbc73-32ed-46af-ab06-c358c02aee1d"
      ],
      "songtypes": [
        "f02ad9b3-0bd9-4aad-85b3-9976739ba0e4"
      ],
      "songwriters": [
        "5f20186f-004f-4053-927a-0d2929836f3f",
        "b269bf90-79fc-4167-a78d-e22328df4ee0",
        "ff1aec1d-751a-40ff-bbff-a3f0fd5e9749"
      ],
      "franchises": [
        "d4443016-d32c-422c-b15f-998eb2fb0478"
      ]
    },
    "titles": {
      "eng": "Gold",
      "jpn": "「Gold」"
    },
    "titles_default_language": "eng",
    "year": 2022
  }
}