{
  "header": {
    "version": 4,
    "description": "Karaoke Mugen Karaoke Data File"
  },
  "medias": [
    {
      "version": "Default",
      "filename": "JPN - GUMI, Rin Kagamine - MV - 1,2 Fanclub.mp4",
      "audiogain": -10.47,
      "loudnorm": "-5.82,1.00,1.90,-15.92,-0.66",
      "filesize": 46043435,
      "duration": 238,
      "default": true,
      "lyrics": [
        {
          "filename": "JPN - GUMI, Rin Kagamine - MV - 1,2 Fanclub.ass",
          "default": true,
          "version": "Default"
        }
      ]
    }
  ],
  "data": {
    "created_at": "2018-04-03T17:21:21.000Z",
    "ignoreHooks": false,
    "kid": "88a7f740-0c8e-4812-a7a7-6d9b9d3f1c46",
    "modified_at": "2022-10-23T17:11:12.222Z",
    "repository": "kara.moe",
    "tags": {
      "authors": [
        "8c22c899-b3ed-42da-a548-ce00f950798b"
      ],
      "collections": [
        "c7db86a0-ff64-4044-9be4-66dd1ef1d1c1"
      ],
      "creators": [
        "6d9032b7-539c-44b7-b643-6fd4fa55af05",
        "97963ece-7c35-4ec3-bd8d-1778bc0a4111",
        "d281e011-ff97-49eb-9f79-a55bc0f87b59"
      ],
      "families": [
        "0377db02-3af6-43b8-9b08-c759df3d25c3"
      ],
      "genres": [
        "45623cae-6d68-4304-a49b-896d1d6f4580"
      ],
      "groups": [
        "8c22c899-b3ed-42da-a548-ce00f950798b",
        "ae613721-1fbe-480d-ba6b-d6d0702b184d"
      ],
      "langs": [
        "4dcf9614-7914-42aa-99f4-dbce2e059133"
      ],
      "misc": [
        "1d6ceadf-a885-47e5-b23b-c07bf668a424"
      ],
      "singers": [
        "dafdeefa-0a96-44df-9653-aeb88c400e33",
        "dbb8d613-a120-46c7-bb42-bc6c1efb61f7"
      ],
      "songtypes": [
        "7be1b15c-cff8-4b37-a649-5c90f3d569a9"
      ],
      "songwriters": [
        "7b3b2c24-f297-4c2a-82a5-bc9c9102567c"
      ]
    },
    "titles": {
      "eng": "1,2 Fanclub",
      "jpn": "いーあるふぁんくらぶ",
      "qro": "Ii Aru Fanclub"
    },
    "titles_default_language": "eng",
    "title": "1,2 Fanclub",
    "year": 2012
  }
}