{
  "header": {
    "version": 4,
    "description": "Karaoke Mugen Karaoke Data File"
  },
  "medias": [
    {
      "version": "Symphogear Live 2016.",
      "filename": "JPN - Senki Zesshou Symphogear GX - LIVE - Arigatou wo Utai Nagara ~ Symphogear Live 2016 Vers. ~ Full Vers.mp4",
      "audiogain": -1.26,
      "loudnorm": "-17.23,-3.32,6.60,-27.43,-0.06",
      "filesize": 125468933,
      "duration": 277,
      "default": true,
      "lyrics": [
        {
          "filename": "JPN - Senki Zesshou Symphogear GX - LIVE - Arigatou wo Utai Nagara ~ Symphogear Live 2016 Vers. ~ Full Vers.ass",
          "default": true,
          "version": "Default"
        }
      ]
    }
  ],
  "data": {
    "created_at": "2022-07-22T17:58:15.233Z",
    "ignoreHooks": false,
    "kid": "ae913a83-3ba7-4463-9760-b03829cb36d9",
    "modified_at": "2022-12-21T22:36:37.177Z",
    "parents": [
      "9d97eee4-da24-4a50-82df-eaeaed37a208"
    ],
    "repository": "kara.moe",
    "tags": {
      "authors": [
        "a5dbab74-510b-48c5-9cea-5a537a81c974"
      ],
      "collections": [
        "dbcf2c22-524d-4708-99bb-601703633927"
      ],
      "creators": [
        "d2a29c19-019f-4a3d-86ad-2dae9e41a4b1"
      ],
      "families": [
        "5391f9fe-638c-415f-8dc9-958e3a2c5787"
      ],
      "groups": [
        "8c22c899-b3ed-42da-a548-ce00f950798b",
        "ae613721-1fbe-480d-ba6b-d6d0702b184d"
      ],
      "langs": [
        "4dcf9614-7914-42aa-99f4-dbce2e059133"
      ],
      "series": [
        "86627e91-4551-4e88-899b-2cb017e853e0"
      ],
      "singers": [
        "7779578c-3d4e-4aa5-8f54-77023879e8e6",
        "d2bf0734-aede-4e5c-b3a6-6d68b18192dc",
        "f2e9d52b-1b80-4fb5-8754-628462e094e5"
      ],
      "songtypes": [
        "a0167949-580c-4de3-bf13-497e462e02f3"
      ],
      "songwriters": [
        "a50ecbe0-14d8-4fdc-a6f2-e6263689a4f3",
        "af3ffe51-8059-461c-bbb8-78ea388731f3"
      ],
      "versions": [
        "c2143a7f-6970-450e-8a79-0302db9220a9"
      ],
      "franchises": [
        "61b24082-a6a9-482b-b126-0ad7be595791"
      ]
    },
    "titles": {
      "jpn": "『ありがとう』を唄いながら",
      "qro": "\"Arigatô\" wo Utai Nagara ~ Symphogear Live 2016 Vers."
    },
    "titles_default_language": "qro",
    "titles_aliases": [
      "\"Arigatou\""
    ],
    "year": 2016
  }
}