{
  "header": {
    "version": 4,
    "description": "Karaoke Mugen Karaoke Data File"
  },
  "medias": [
    {
      "version": "Default",
      "filename": "JPN - Yuuki Yuuna wa Yuusha de Aru Washio Sumi no Shou 2 - Tamashii - MOVIE IN - Kokubou Taisou.mp4",
      "audiogain": 7.44,
      "loudnorm": "-24.48,-10.70,1.90,-34.48,-0.64",
      "filesize": 7688286,
      "duration": 56,
      "default": true,
      "lyrics": [
        {
          "filename": "JPN - Yuuki Yuuna wa Yuusha de Aru Washio Sumi no Shou 2 - Tamashii - MOVIE IN - Kokubou Taisou.ass",
          "default": true,
          "version": "Default"
        }
      ]
    }
  ],
  "data": {
    "created_at": "2022-01-23T18:52:10.034Z",
    "ignoreHooks": false,
    "kid": "38218608-b0f5-49cb-986a-4f37bc5e0e16",
    "modified_at": "2022-01-23T18:52:10.034Z",
    "repository": "kara.moe",
    "tags": {
      "authors": [
        "523ead5e-981e-4993-af29-12524f7edcf1"
      ],
      "collections": [
        "c7db86a0-ff64-4044-9be4-66dd1ef1d1c1"
      ],
      "creators": [
        "7226816c-fb45-4f3a-bd39-7f4f616553bf"
      ],
      "families": [
        "0377db02-3af6-43b8-9b08-c759df3d25c3"
      ],
      "groups": [
        "2b4e9972-5e17-481b-99f5-d0787c0ada56",
        "ae613721-1fbe-480d-ba6b-d6d0702b184d"
      ],
      "langs": [
        "4dcf9614-7914-42aa-99f4-dbce2e059133"
      ],
      "origins": [
        "c8ca9dea-d8b4-48fe-8427-d911653232e9"
      ],
      "series": [
        "d69de620-1eca-4eb5-b3de-83c478caaf4c"
      ],
      "singers": [
        "4fc68333-b1f6-44ce-b2be-ac4866b78932"
      ],
      "songtypes": [
        "5e5250d9-351a-4a82-98eb-55db50ad8962"
      ],
      "songwriters": [
        "ead196cc-e1e3-43a4-8804-dd4199e89c4e",
        "25ff1805-c080-4568-82bd-09fb7676665a"
      ],
      "franchises": [
        "f57709e6-ded9-43e0-b72f-f5e5cca8382a"
      ]
    },
    "titles": {
      "qro": "Kokubô Taisô",
      "jpn": "国防体操"
    },
    "titles_aliases": [
      "kokubou",
      "taisou"
    ],
    "title": "Kokubô Taisô",
    "year": 2017,
    "titles_default_language": "qro"
  }
}