{
  "header": {
    "version": 4,
    "description": "Karaoke Mugen Karaoke Data File"
  },
  "medias": [
    {
      "version": "Default",
      "filename": "JPN - Senki Zesshou Symphogear AXZ - LIVE - Change the Future ~ Full Vers.mp4",
      "audiogain": -8.98,
      "loudnorm": "-8.96,2.88,3.50,-19.00,-0.34",
      "filesize": 212943542,
      "duration": 251,
      "default": true,
      "lyrics": [
        {
          "filename": "JPN - Senki Zesshou Symphogear AXZ - LIVE - Change the Future ~ Full Vers.ass",
          "default": true,
          "version": "Default"
        }
      ]
    }
  ],
  "data": {
    "created_at": "2020-09-20T18:41:54.789Z",
    "ignoreHooks": false,
    "kid": "cdfd701c-aa97-4b9e-8a1c-5b85634746d4",
    "modified_at": "2023-02-05T03:58:02.527Z",
    "parents": [
      "d93ad418-b4a6-4f7d-b5d9-953b456ab13d"
    ],
    "repository": "kara.moe",
    "tags": {
      "authors": [
        "523ead5e-981e-4993-af29-12524f7edcf1"
      ],
      "collections": [
        "dbcf2c22-524d-4708-99bb-601703633927"
      ],
      "creators": [
        "d2a29c19-019f-4a3d-86ad-2dae9e41a4b1"
      ],
      "families": [
        "5391f9fe-638c-415f-8dc9-958e3a2c5787"
      ],
      "groups": [
        "2b4e9972-5e17-481b-99f5-d0787c0ada56",
        "ae613721-1fbe-480d-ba6b-d6d0702b184d"
      ],
      "langs": [
        "4dcf9614-7914-42aa-99f4-dbce2e059133"
      ],
      "misc": [
        "1d6ceadf-a885-47e5-b23b-c07bf668a424"
      ],
      "origins": [
        "938de218-5343-4865-94d3-fb33f2eaa152"
      ],
      "series": [
        "84baaef4-5c5e-42fd-bb81-9151f280fa09"
      ],
      "singers": [
        "7f71f194-f4a1-4246-9d74-a754a3989c27",
        "f2e9d52b-1b80-4fb5-8754-628462e094e5"
      ],
      "songtypes": [
        "a0167949-580c-4de3-bf13-497e462e02f3"
      ],
      "songwriters": [
        "178dcba7-6d20-40b9-baea-d7d3e38e2c25",
        "af3ffe51-8059-461c-bbb8-78ea388731f3"
      ],
      "versions": [
        "c2143a7f-6970-450e-8a79-0302db9220a9"
      ],
      "franchises": [
        "61b24082-a6a9-482b-b126-0ad7be595791"
      ]
    },
    "titles": {
      "eng": "Change the Future"
    },
    "titles_default_language": "eng",
    "year": 2018
  }
}