{
  "header": {
    "version": 4,
    "description": "Karaoke Mugen Karaoke Data File"
  },
  "medias": [
    {
      "version": "Default",
      "filename": "JPN - Touhou - AMV - ZUN-san - O.T.Z.Y.mp4",
      "audiogain": -11.25,
      "loudnorm": "-7.09,1.66,3.30,-17.20,-0.02",
      "filesize": 108896164,
      "duration": 223,
      "default": true,
      "lyrics": [
        {
          "filename": "JPN - Touhou - AMV - ZUN-san - O.T.Z.Y.ass",
          "default": true,
          "version": "Default"
        }
      ]
    }
  ],
  "data": {
    "created_at": "2022-02-10T11:55:15.134Z",
    "ignoreHooks": false,
    "kid": "9932bb63-fef0-4afc-a150-44fdee8225f3",
    "modified_at": "2023-07-21T20:25:28.284Z",
    "repository": "kara.moe",
    "tags": {
      "authors": [
        "db867b9b-f487-444d-9f24-142c4324a235"
      ],
      "collections": [
        "c7db86a0-ff64-4044-9be4-66dd1ef1d1c1"
      ],
      "creators": [
        "2b873ad5-a3ce-4abf-9f11-6f600e6e6ba0"
      ],
      "groups": [
        "ae613721-1fbe-480d-ba6b-d6d0702b184d"
      ],
      "langs": [
        "4dcf9614-7914-42aa-99f4-dbce2e059133"
      ],
      "misc": [
        "07af42d1-824e-407e-bf37-7fb84905484b"
      ],
      "series": [
        "1bdaa5a1-dfa6-4365-b746-7a0b194dafd6"
      ],
      "singers": [
        "5e9a5d91-ea80-4515-acdf-43f023a54467"
      ],
      "singergroups": [
        "2b873ad5-a3ce-4abf-9f11-6f600e6e6ba0"
      ],
      "songtypes": [
        "a6c79ce5-89ee-4d50-afe8-3abd7317f6c2"
      ],
      "songwriters": [
        "26cb5252-8510-49e0-897c-a611a05fc056",
        "5e9a5d91-ea80-4515-acdf-43f023a54467",
        "6a47ce13-3ffa-4c21-97d2-6863ce84483b",
        "6da99060-acc4-48c0-9d5b-042dae38ed28",
        "feceb592-efac-4eda-9b03-c27cf509004c"
      ],
      "franchises": [
        "1bdaa5a1-dfa6-4365-b746-7a0b194dafd6"
      ]
    },
    "titles": {
      "jpn": "ズンサン - O.T.Z.Y.",
      "qro": "ZUN-san - O.T.Z.Y"
    },
    "titles_default_language": "qro",
    "titles_aliases": [
      "YMCA",
      "Y.M.C.A.",
      "otzy"
    ],
    "year": 2014
  }
}