{
  "header": {
    "version": 4,
    "description": "Karaoke Mugen Karaoke Data File"
  },
  "medias": [
    {
      "version": "Default",
      "filename": "JPN - Darker Than Black Kuro no Keiyakusha - MV - HOWLING ~ Full Vers.mp4",
      "audiogain": 11.92,
      "loudnorm": "-28.03,-15.63,1.30,-38.07,-0.08",
      "filesize": 94817773,
      "duration": 284,
      "default": true,
      "lyrics": [
        {
          "filename": "JPN - Darker Than Black Kuro no Keiyakusha - MV - HOWLING ~ Full Vers.ass",
          "default": true,
          "version": "Default"
        }
      ]
    }
  ],
  "data": {
    "created_at": "2019-10-26T22:08:06.000Z",
    "ignoreHooks": false,
    "kid": "6384069b-56de-46fe-aba2-6ffdbe308e62",
    "modified_at": "2023-02-04T19:25:57.473Z",
    "parents": [
      "3a2a46a0-c335-4bda-8e5c-7ad5ab111eb5"
    ],
    "repository": "kara.moe",
    "tags": {
      "authors": [
        "1db1738f-acdc-42fc-aec3-60f4bddf660d"
      ],
      "collections": [
        "dbcf2c22-524d-4708-99bb-601703633927"
      ],
      "creators": [
        "221d01d3-cf22-45d6-b187-5e7806dd6d1e"
      ],
      "families": [
        "5391f9fe-638c-415f-8dc9-958e3a2c5787"
      ],
      "groups": [
        "3c14c864-533c-49e6-a3cc-6969f1233775"
      ],
      "langs": [
        "4dcf9614-7914-42aa-99f4-dbce2e059133"
      ],
      "series": [
        "7e469cb2-bd10-435a-8f8f-dd48bb86d455"
      ],
      "singergroups": [
        "e0b53e4d-f2be-4a8d-b31a-04fef6e2492b"
      ],
      "songtypes": [
        "7be1b15c-cff8-4b37-a649-5c90f3d569a9"
      ],
      "songwriters": [
        "8afb7356-e7ab-4581-9891-5fd8abd49a7f",
        "f9a97890-5c76-42ee-a96b-f8e21b1b1fa0"
      ],
      "versions": [
        "c2143a7f-6970-450e-8a79-0302db9220a9"
      ],
      "franchises": [
        "be8bc785-2cba-4faf-9162-af582d31113b"
      ]
    },
    "titles": {
      "eng": "HOWLING"
    },
    "titles_default_language": "eng",
    "year": 2007
  }
}