{
  "header": {
    "version": 4,
    "description": "Karaoke Mugen Karaoke Data File"
  },
  "medias": [
    {
      "version": "Default",
      "filename": "JPN - Mashiro no Oto - OP2 - Ginsekai.mp4",
      "audiogain": -0.63,
      "loudnorm": "-17.06,-6.37,4.20,-27.17,-0.01",
      "filesize": 40535184,
      "duration": 90,
      "default": true,
      "lyrics": [
        {
          "filename": "JPN - Mashiro no Oto - OP2 - Ginsekai.ass",
          "default": true,
          "version": "Default",
          "subchecksum": "76dd5fd156020f3ab95ddf695644f3e6"
        }
      ]
    }
  ],
  "data": {
    "created_at": "2021-06-14T11:24:56.415Z",
    "kid": "ad7f887f-ad7e-4741-8445-857990332bb3",
    "modified_at": "2021-06-14T11:43:54.701Z",
    "repository": "kara.moe",
    "songorder": 2,
    "tags": {
      "authors": [
        "56b54c89-86ae-4635-992f-ddc1234b8015"
      ],
      "collections": [
        "c7db86a0-ff64-4044-9be4-66dd1ef1d1c1"
      ],
      "creators": [
        "83c61ae6-0690-4baa-a3a1-28f1f68f986f"
      ],
      "families": [
        "0377db02-3af6-43b8-9b08-c759df3d25c3"
      ],
      "groups": [
        "8c22c899-b3ed-42da-a548-ce00f950798b",
        "8e209ae4-4381-438f-89dc-1b21752027d2"
      ],
      "langs": [
        "4dcf9614-7914-42aa-99f4-dbce2e059133"
      ],
      "origins": [
        "938de218-5343-4865-94d3-fb33f2eaa152"
      ],
      "series": [
        "15ddf7fc-1cf3-4d57-9d25-11b9193cd5ee"
      ],
      "singers": [
        "00b1f396-3c50-4135-9300-a0d8d4dcc2d2"
      ],
      "songtypes": [
        "f02ad9b3-0bd9-4aad-85b3-9976739ba0e4"
      ],
      "songwriters": [
        "52a54db3-4195-4c58-a057-49320f27192b"
      ]
    },
    "title": "Ginsekai",
    "titles": {
      "qro": "Ginsekai",
      "jpn": "銀世界"
    },
    "year": 2021,
    "titles_default_language": "qro"
  }
}