{
  "header": {
    "version": 4,
    "description": "Karaoke Mugen Karaoke Data File"
  },
  "medias": [
    {
      "version": "Default",
      "filename": "JPN - Project SEKAI COLORFUL STAGE! - GAME MV - Hitsuji ga Ippiki ~ Full Vers.mp4",
      "audiogain": 0.26,
      "loudnorm": "-17.00,-6.90,5.40,-27.06,-0.89",
      "filesize": 132531190,
      "duration": 184,
      "default": true,
      "lyrics": [
        {
          "filename": "JPN - Project SEKAI COLORFUL STAGE! - GAME MV - Hitsuji ga Ippiki ~ Full Vers.ass",
          "default": true,
          "version": "Default"
        }
      ]
    }
  ],
  "data": {
    "created_at": "2023-05-04T17:17:52.812Z",
    "ignoreHooks": false,
    "kid": "d80e9a40-599e-41d1-ab34-c7d466a20c53",
    "modified_at": "2023-05-04T17:56:25.271Z",
    "repository": "kara.moe",
    "tags": {
      "authors": [
        "278c6742-0b75-43dd-b317-2ea112952b4a"
      ],
      "collections": [
        "c7db86a0-ff64-4044-9be4-66dd1ef1d1c1"
      ],
      "creators": [
        "1e5648fb-22fc-474d-b865-254eb31fa000"
      ],
      "families": [
        "0377db02-3af6-43b8-9b08-c759df3d25c3"
      ],
      "genres": [
        "45623cae-6d68-4304-a49b-896d1d6f4580"
      ],
      "groups": [
        "8c22c899-b3ed-42da-a548-ce00f950798b",
        "8e209ae4-4381-438f-89dc-1b21752027d2"
      ],
      "langs": [
        "4dcf9614-7914-42aa-99f4-dbce2e059133"
      ],
      "misc": [
        "1d6ceadf-a885-47e5-b23b-c07bf668a424"
      ],
      "origins": [
        "dbedd6b3-d125-4cd8-aa32-c4175e4ca3a3"
      ],
      "series": [
        "192b33fb-638a-4680-bdb2-a5adb9889849"
      ],
      "singers": [
        "42e22ca1-af49-4588-90e3-671ab88f2258",
        "9a9da3af-c891-42ae-bd3e-f0696a361c04",
        "b1933ef2-f157-4a9e-92a6-bf5cee65c299",
        "c06de857-8928-41e9-b5db-d5af620d0f89",
        "e53db9de-5632-41d6-8911-afb2f27545b0"
      ],
      "singergroups": [
        "e1de7634-8683-4738-9dfb-a66121ec36c5"
      ],
      "songtypes": [
        "7be1b15c-cff8-4b37-a649-5c90f3d569a9"
      ],
      "songwriters": [
        "25d8c383-feb5-4caf-8e2a-c286d84b9cb9"
      ],
      "versions": [
        "c2143a7f-6970-450e-8a79-0302db9220a9"
      ]
    },
    "titles": {
      "jpn": "ひつじがいっぴき",
      "qro": "Hitsuji ga Ippiki"
    },
    "titles_default_language": "qro",
    "year": 2023
  }
}