{
  "header": {
    "version": 4,
    "description": "Karaoke Mugen Karaoke Data File"
  },
  "medias": [
    {
      "version": "Default",
      "filename": "JPN - Hikari Sentai Maskman - ED - Ai No Soldier.mp4",
      "audiogain": -4.19,
      "loudnorm": "-13.19,-2.94,2.00,-23.27,-0.52",
      "filesize": 13452895,
      "duration": 59,
      "default": true,
      "lyrics": [
        {
          "filename": "JPN - Hikari Sentai Maskman - ED - Ai No Soldier.ass",
          "default": true,
          "version": "Default",
          "subchecksum": "21f0eace01d57e2919aab81f9917dcdc"
        }
      ]
    }
  ],
  "data": {
    "created_at": "2018-11-17T12:51:56.000Z",
    "kid": "ba6d15f8-1d3f-46b2-9ed8-85301d35b6a6",
    "modified_at": "2021-02-25T11:41:54.202Z",
    "repository": "kara.moe",
    "tags": {
      "authors": [
        "4607780c-f1ef-47cf-9c1c-b13e8f731699"
      ],
      "collections": [
        "c7db86a0-ff64-4044-9be4-66dd1ef1d1c1"
      ],
      "creators": [
        "e32b14df-502b-45fa-9ca5-37554a63a4d7"
      ],
      "families": [
        "5391f9fe-638c-415f-8dc9-958e3a2c5787"
      ],
      "groups": [
        "7792cc27-9ff9-4d47-9287-2338b7db1575"
      ],
      "langs": [
        "4dcf9614-7914-42aa-99f4-dbce2e059133"
      ],
      "origins": [
        "938de218-5343-4865-94d3-fb33f2eaa152"
      ],
      "series": [
        "519badee-8aaa-4de7-b595-32b96bb06931"
      ],
      "singers": [
        "162799fe-de2f-4f72-99a2-8c606aee4f2d"
      ],
      "songtypes": [
        "38c77c56-2b95-4040-b676-0994a8cb0597"
      ],
      "songwriters": [
        "6bd811f1-acc4-4333-bda5-fb1e4185af0e",
        "aa809605-012b-4b29-8cef-930e63efb28f"
      ],
      "genres": [
        "d3fac9ab-630d-402d-a392-3d2450c3e62e"
      ]
    },
    "title": "Ai No Soldier",
    "titles": {
      "qro": "Ai no Soldier",
      "jpn": "愛のソルジャー"
    },
    "year": 1987,
    "titles_default_language": "qro"
  }
}