{
  "header": {
    "version": 4,
    "description": "Karaoke Mugen Karaoke Data File"
  },
  "medias": [
    {
      "version": "Default",
      "filename": "JPN - Touhou - AUDIO - Yoake no Werewolf.mp3",
      "audiogain": -9.98,
      "loudnorm": "-7.79,0.40,5.10,-17.82,-0.89",
      "filesize": 6623500,
      "duration": 268,
      "default": true,
      "lyrics": [
        {
          "filename": "JPN - Touhou - AUDIO - Yoake no Werewolf.ass",
          "default": true,
          "version": "Default"
        }
      ]
    }
  ],
  "data": {
    "comment": "Awooo. Mon 100e kara!!",
    "created_at": "2022-04-27T19:54:45.096Z",
    "ignoreHooks": false,
    "kid": "d2dcd796-7ea9-45f8-a1fd-0ee5ac4a0e27",
    "modified_at": "2023-05-20T13:13:54.624Z",
    "repository": "kara.moe",
    "tags": {
      "authors": [
        "fb28c6d3-a81e-40c0-9a4c-e3268c60a64b"
      ],
      "collections": [
        "c7db86a0-ff64-4044-9be4-66dd1ef1d1c1"
      ],
      "groups": [
        "ae613721-1fbe-480d-ba6b-d6d0702b184d"
      ],
      "langs": [
        "4dcf9614-7914-42aa-99f4-dbce2e059133"
      ],
      "series": [
        "1bdaa5a1-dfa6-4365-b746-7a0b194dafd6"
      ],
      "singers": [
        "a6e3509f-befc-4b8b-ac1c-3614e1c32447"
      ],
      "singergroups": [
        "eb49131c-b890-422d-9947-0e82292801e1"
      ],
      "songtypes": [
        "42a262ae-acba-4ab5-a446-c5789c96c821"
      ],
      "songwriters": [
        "26cb5252-8510-49e0-897c-a611a05fc056",
        "3059eca0-7b9f-41e0-a5a6-2e7e3be5d025",
        "a6e3509f-befc-4b8b-ac1c-3614e1c32447"
      ],
      "franchises": [
        "1bdaa5a1-dfa6-4365-b746-7a0b194dafd6"
      ]
    },
    "titles": {
      "jpn": "夜明けのウェアウルフ",
      "qro": "Yoake no Werewolf"
    },
    "titles_default_language": "qro",
    "titles_aliases": [
      "of Dawn"
    ],
    "year": 2016
  }
}