{
  "header": {
    "version": 4,
    "description": "Karaoke Mugen Karaoke Data File"
  },
  "medias": [
    {
      "version": "Default",
      "filename": "JPN - Initial D - MOVIE MV - BLOOD ON FIRE.mp4",
      "audiogain": -5.09,
      "loudnorm": "-13.00,0.51,4.80,-23.11,-0.47",
      "filesize": 39016162,
      "duration": 278,
      "default": true,
      "lyrics": [
        {
          "filename": "JPN - Initial D - MOVIE MV - BLOOD ON FIRE.ass",
          "default": true,
          "version": "Default"
        }
      ]
    }
  ],
  "data": {
    "created_at": "2019-10-26T18:43:51.000Z",
    "kid": "c115cdba-da98-4bdb-9d3b-2171331fd20f",
    "modified_at": "2022-06-04T00:21:27.419Z",
    "repository": "kara.moe",
    "songorder": null,
    "tags": {
      "authors": [
        "1db1738f-acdc-42fc-aec3-60f4bddf660d"
      ],
      "creators": [
        "90caf15e-bc86-46e1-8793-9af7906c8310"
      ],
      "families": [
        "5391f9fe-638c-415f-8dc9-958e3a2c5787"
      ],
      "groups": [
        "3c14c864-533c-49e6-a3cc-6969f1233775"
      ],
      "langs": [
        "4dcf9614-7914-42aa-99f4-dbce2e059133"
      ],
      "origins": [
        "c8ca9dea-d8b4-48fe-8427-d911653232e9"
      ],
      "series": [
        "f433bddc-18e0-4497-b303-93108d9fe69b"
      ],
      "singers": [
        "5646881b-891d-424b-82db-fc2bde31d498"
      ],
      "songtypes": [
        "7be1b15c-cff8-4b37-a649-5c90f3d569a9"
      ],
      "songwriters": [
        "1dfea462-dfdd-40ab-aff5-ed98e2462404",
        "8a9c6942-05fc-48dd-b84e-9d7d30d9337c"
      ],
      "collections": [
        "dbcf2c22-524d-4708-99bb-601703633927"
      ],
      "franchises": [
        "f433bddc-18e0-4497-b303-93108d9fe69b"
      ]
    },
    "titles": {
      "eng": "BLOOD on FIRE"
    },
    "titles_default_language": "eng",
    "title": "BLOOD ON FIRE",
    "year": 2005
  }
}