{
  "header": {
    "version": 4,
    "description": "Karaoke Mugen Karaoke Data File"
  },
  "medias": [
    {
      "version": "Default",
      "filename": "JPN - Ao no Exorcist - AUDIO OP1 - CORE PRIDE ~ Full Vers.mp3",
      "audiogain": -10.8,
      "loudnorm": "-5.63,1.54,2.10,-15.67,-0.25",
      "filesize": 10496284,
      "duration": 257,
      "default": true,
      "lyrics": [
        {
          "filename": "JPN - Ao no Exorcist - AUDIO OP1 - CORE PRIDE ~ Full Vers.ass",
          "default": true,
          "version": "Default"
        }
      ]
    }
  ],
  "data": {
    "created_at": "2023-06-23T14:20:37.537Z",
    "ignoreHooks": false,
    "kid": "d77c499b-872b-4a4a-9d06-d1def1714772",
    "modified_at": "2023-06-23T14:20:37.625Z",
    "parents": [
      "14d1764e-b841-48aa-b39f-faee41ec145c"
    ],
    "repository": "kara.moe",
    "songorder": 1,
    "tags": {
      "authors": [
        "1db1738f-acdc-42fc-aec3-60f4bddf660d"
      ],
      "collections": [
        "dbcf2c22-524d-4708-99bb-601703633927"
      ],
      "creators": [
        "dde803c3-3fa6-4864-9e8e-967866b0f335"
      ],
      "groups": [
        "ae613721-1fbe-480d-ba6b-d6d0702b184d"
      ],
      "langs": [
        "4dcf9614-7914-42aa-99f4-dbce2e059133"
      ],
      "series": [
        "999a8251-15ba-4a1a-b934-cc6f15a44919"
      ],
      "singers": [
        "f3e5f15a-9e7a-4117-b6e4-f61fe71d0ea9"
      ],
      "songtypes": [
        "f02ad9b3-0bd9-4aad-85b3-9976739ba0e4",
        "42a262ae-acba-4ab5-a446-c5789c96c821"
      ],
      "songwriters": [
        "268d71a1-e945-496d-a0c1-d854a3417529"
      ],
      "versions": [
        "c2143a7f-6970-450e-8a79-0302db9220a9"
      ],
      "franchises": [
        "999a8251-15ba-4a1a-b934-cc6f15a44919"
      ]
    },
    "titles": {
      "eng": "CORE PRIDE"
    },
    "titles_default_language": "eng",
    "year": 2011
  }
}