{
  "header": {
    "version": 4,
    "description": "Karaoke Mugen Karaoke Data File"
  },
  "medias": [
    {
      "version": "Default",
      "filename": "JPN - Ao Ashi - ED2 - Calla Lily no Koibumi.mp4",
      "audiogain": 7.69,
      "loudnorm": "-25.07,-16.66,5.50,-35.15,-1.30",
      "filesize": 10395311,
      "duration": 90,
      "default": true,
      "lyrics": [
        {
          "filename": "JPN - Ao Ashi - ED2 - Calla Lily no Koibumi.ass",
          "default": true,
          "version": "Default"
        }
      ]
    }
  ],
  "data": {
    "created_at": "2022-08-25T19:06:32.904Z",
    "ignoreHooks": false,
    "kid": "df282121-ac82-40de-9a63-f7e2608c983f",
    "modified_at": "2022-08-25T19:06:34.200Z",
    "repository": "kara.moe",
    "songorder": 2,
    "tags": {
      "authors": [
        "06852e02-b77e-4106-b6f7-2d03942ad0ea"
      ],
      "collections": [
        "c7db86a0-ff64-4044-9be4-66dd1ef1d1c1"
      ],
      "creators": [
        "20d023d6-5195-4e4f-bae3-8b28ad6334e2"
      ],
      "families": [
        "0377db02-3af6-43b8-9b08-c759df3d25c3"
      ],
      "genres": [
        "a0aeef4a-6428-45ff-a6e1-468b595930c2"
      ],
      "langs": [
        "4dcf9614-7914-42aa-99f4-dbce2e059133"
      ],
      "misc": [
        "fe819ff1-9db8-4a0f-85dc-0e322c9126c4"
      ],
      "origins": [
        "938de218-5343-4865-94d3-fb33f2eaa152"
      ],
      "series": [
        "a8a05a73-9487-4ab5-a939-8c723effda3e"
      ],
      "singers": [
        "729b5bdb-fee5-44ee-a044-03d2ff77392e"
      ],
      "songtypes": [
        "38c77c56-2b95-4040-b676-0994a8cb0597"
      ],
      "songwriters": [
        "52b928b7-27ef-4f63-ab7a-12adad85b594",
        "4100634f-13e5-4346-aa8c-10921ece09e2"
      ],
      "groups": [
        "8e209ae4-4381-438f-89dc-1b21752027d2"
      ]
    },
    "titles": {
      "jpn": "カラー・リリィの恋文",
      "qro": " Calla Lily no Koibumi"
    },
    "titles_default_language": "qro",
    "title": " Calla Lily no Koibumi",
    "year": 2022
  }
}