{
  "header": {
    "version": 4,
    "description": "Karaoke Mugen Karaoke Data File"
  },
  "medias": [
    {
      "version": "Gensokyo Holoism.",
      "filename": "JPN - Touhou - REMIX AUDIO - Help me, ERINNNNNN!! ~ Gensokyo Holoism Vers. ~ Cover Vers.mp3",
      "audiogain": -8.76,
      "loudnorm": "-8.33,1.59,2.60,-18.38,-0.72",
      "filesize": 5920863,
      "duration": 343,
      "default": true,
      "lyrics": [
        {
          "filename": "JPN - Touhou - REMIX AUDIO - Help me, ERINNNNNN!! ~ Gensokyo Holoism Vers. ~ Cover Vers.ass",
          "default": true,
          "version": "Default"
        }
      ]
    }
  ],
  "data": {
    "created_at": "2021-03-31T10:54:06.802Z",
    "ignoreHooks": false,
    "kid": "8ed820c8-6d8e-4098-aec9-13a88ec1f231",
    "modified_at": "2023-07-21T20:25:27.885Z",
    "parents": [
      "810aa8c5-0d62-4928-9198-1947e24ce165"
    ],
    "repository": "kara.moe",
    "tags": {
      "authors": [
        "84157b43-8a7a-482c-95d3-516757353835"
      ],
      "collections": [
        "c7db86a0-ff64-4044-9be4-66dd1ef1d1c1"
      ],
      "creators": [
        "0263d413-17bb-4cee-a311-6dd896eda1c9",
        "2b873ad5-a3ce-4abf-9f11-6f600e6e6ba0"
      ],
      "groups": [
        "8e209ae4-4381-438f-89dc-1b21752027d2"
      ],
      "langs": [
        "4dcf9614-7914-42aa-99f4-dbce2e059133"
      ],
      "misc": [
        "86705d4b-24e4-4756-9687-2b9c98bcf366",
        "ec4360fa-3e3c-4f6f-b0e1-fb8b12b6dd18"
      ],
      "origins": [
        "5106d71b-a78e-4d19-a16d-f8fb6719538a",
        "ac5085db-52d8-44b4-8fbb-1697b24d2046"
      ],
      "series": [
        "1bdaa5a1-dfa6-4365-b746-7a0b194dafd6"
      ],
      "singers": [
        "1631fe7d-daba-4c55-addf-eb500c847fe2",
        "1813f043-d361-4df9-9cdf-24e3d0d1044c",
        "1b0ecff9-05f5-46dd-b225-480bcf60b7bf",
        "53b39b45-1ee9-4625-83d6-642c02ca8fba",
        "5755dfc0-cc41-469e-aea0-a69333aabb6d",
        "5ccf4c5b-2a3a-4ada-a24d-6bfa58728689",
        "690be47d-5aa9-4731-b937-41dcac99ea91",
        "77848990-54ab-4ef6-bba7-e1258fda78a5",
        "d046b961-48f5-4ffd-8f75-ea05e91575d2",
        "f8b4b7ec-2056-4f2a-b242-a29e67393654"
      ],
      "singergroups": [
        "2b873ad5-a3ce-4abf-9f11-6f600e6e6ba0"
      ],
      "songtypes": [
        "42a262ae-acba-4ab5-a446-c5789c96c821"
      ],
      "songwriters": [
        "5e9a5d91-ea80-4515-acdf-43f023a54467",
        "b0730926-2e92-457b-843d-9ec2aaf7ce73"
      ],
      "versions": [
        "03e1e1d2-8641-47b7-bbcb-39a3df9ff21c"
      ],
      "franchises": [
        "1bdaa5a1-dfa6-4365-b746-7a0b194dafd6"
      ]
    },
    "titles": {
      "eng": "Help me, ERINNNNNN!! ~ Gensokyo Holoism Vers."
    },
    "titles_default_language": "eng",
    "titles_aliases": [
      "Eirin"
    ],
    "year": 2020
  }
}