{
  "header": {
    "version": 4,
    "description": "Karaoke Mugen Karaoke Data File"
  },
  "medias": [
    {
      "version": "Default",
      "filename": "JPN - D.N.A2 - ED - Single bed.mp4",
      "audiogain": 1.72,
      "loudnorm": "-19.29,-5.23,5.90,-29.49,-0.32",
      "filesize": 16730977,
      "duration": 87,
      "default": true,
      "lyrics": [
        {
          "filename": "JPN - D.N.A2 - ED - Single bed.ass",
          "default": true,
          "version": "Default",
          "subchecksum": "44e2599978d88d65b70e197d7f3757fa"
        }
      ]
    }
  ],
  "data": {
    "created_at": "2017-10-11T17:02:22.000Z",
    "kid": "159d7af6-17e0-4242-8a33-275a30cbe946",
    "modified_at": "2021-02-25T11:06:02.104Z",
    "repository": "kara.moe",
    "tags": {
      "authors": [
        "5bdaba57-27f8-4568-8806-76a807728766"
      ],
      "collections": [
        "c7db86a0-ff64-4044-9be4-66dd1ef1d1c1"
      ],
      "creators": [
        "2bf7a71d-d3fc-42ba-8aa0-a94d7ca3888c",
        "9c5cf6ba-0bc8-4cfe-a63c-e9be3a14e9fd"
      ],
      "families": [
        "0377db02-3af6-43b8-9b08-c759df3d25c3"
      ],
      "genres": [
        "a0aeef4a-6428-45ff-a6e1-468b595930c2"
      ],
      "groups": [
        "24db50aa-a126-4d34-a48a-e45db79c4245"
      ],
      "langs": [
        "4dcf9614-7914-42aa-99f4-dbce2e059133"
      ],
      "origins": [
        "938de218-5343-4865-94d3-fb33f2eaa152"
      ],
      "series": [
        "97c43fad-0d18-492d-b758-4c11e8d3f939"
      ],
      "singers": [
        "3c734b6a-a6be-41a3-954c-9929ac2e22f3"
      ],
      "songtypes": [
        "38c77c56-2b95-4040-b676-0994a8cb0597"
      ],
      "songwriters": [
        "231f8e04-ce5a-4f83-81c2-acffee51cc59",
        "74f3e83c-83f1-45a6-914c-9fbd95a9e3e6",
        "9b76b230-7e4b-433d-9fdd-47be7d2a5dc1",
        "9c4da7ef-47f1-4bbe-88c8-8a05ea73218f"
      ]
    },
    "title": "Single bed",
    "titles": {
      "eng": "Single bed",
      "jpn": "シングルベッド"
    },
    "year": 1994,
    "titles_default_language": "eng"
  }
}