{
  "header": {
    "version": 4,
    "description": "Karaoke Mugen Karaoke Data File"
  },
  "medias": [
    {
      "version": "Default",
      "filename": "JPN - Kidou Shin Seiki Gundam X - OP2 - Resolution.mp4",
      "audiogain": 2.23,
      "loudnorm": "-19.85,-7.33,4.50,-30.05,-0.89",
      "filesize": 39097077,
      "duration": 83,
      "default": true,
      "lyrics": [
        {
          "filename": "JPN - Kidou Shin Seiki Gundam X - OP2 - Resolution.ass",
          "default": true,
          "version": "Default",
          "subchecksum": "9155d01db4fc2ccc6be4e3071a6a368d"
        }
      ]
    }
  ],
  "data": {
    "created_at": "2018-06-20T00:04:21.000Z",
    "kid": "20d17bb4-4960-4635-9268-8da3d054daab",
    "modified_at": "2021-02-25T12:00:58.427Z",
    "repository": "kara.moe",
    "songorder": 2,
    "tags": {
      "authors": [
        "06852e02-b77e-4106-b6f7-2d03942ad0ea",
        "5bdaba57-27f8-4568-8806-76a807728766"
      ],
      "collections": [
        "c7db86a0-ff64-4044-9be4-66dd1ef1d1c1"
      ],
      "creators": [
        "ef8f80e1-d244-4aea-b7f0-984d6dd4b82b"
      ],
      "families": [
        "0377db02-3af6-43b8-9b08-c759df3d25c3"
      ],
      "genres": [
        "f60ba57d-5ef4-49e0-b93b-d0dcbcff6592"
      ],
      "groups": [
        "24db50aa-a126-4d34-a48a-e45db79c4245"
      ],
      "langs": [
        "4dcf9614-7914-42aa-99f4-dbce2e059133"
      ],
      "misc": [
        "fe819ff1-9db8-4a0f-85dc-0e322c9126c4"
      ],
      "origins": [
        "938de218-5343-4865-94d3-fb33f2eaa152"
      ],
      "series": [
        "d85d62bd-cca3-4df6-a358-3d09824e46a2"
      ],
      "singers": [
        "53dbd40c-43a8-438f-9a88-1a63d4ec9ab7"
      ],
      "songtypes": [
        "f02ad9b3-0bd9-4aad-85b3-9976739ba0e4"
      ],
      "songwriters": [
        "3d9e732d-de1d-49d9-94fa-3d94ea6a5ae7",
        "3e8af4c6-3244-4d99-ac5f-78698a1c343c"
      ],
      "franchises": [
        "e6ade589-c2e4-49a1-acdb-ea9b03e57240"
      ]
    },
    "title": "Resolution",
    "titles": {
      "eng": "Resolution"
    },
    "year": 1996,
    "titles_default_language": "eng"
  }
}