{
  "header": {
    "version": 4,
    "description": "Karaoke Mugen Karaoke Data File"
  },
  "medias": [
    {
      "version": "Default",
      "filename": "JPN - Major - OP - Kokoro e.mp4",
      "audiogain": -4.45,
      "loudnorm": "-12.35,-3.26,3.60,-22.51,-0.64",
      "filesize": 39353327,
      "duration": 100,
      "default": true,
      "lyrics": [
        {
          "filename": "JPN - Major - OP - Kokoro e.ass",
          "default": true,
          "version": "Default"
        }
      ]
    }
  ],
  "data": {
    "created_at": "2017-10-11T17:03:04.000Z",
    "ignoreHooks": false,
    "kid": "396494dd-76ac-4a9e-9444-7c7d73690c65",
    "modified_at": "2022-10-01T19:16:37.249Z",
    "repository": "kara.moe",
    "tags": {
      "authors": [
        "5bdaba57-27f8-4568-8806-76a807728766"
      ],
      "collections": [
        "c7db86a0-ff64-4044-9be4-66dd1ef1d1c1"
      ],
      "creators": [
        "875713d0-9b1c-4743-b0f9-0752715ddd5a"
      ],
      "families": [
        "0377db02-3af6-43b8-9b08-c759df3d25c3"
      ],
      "genres": [
        "a0aeef4a-6428-45ff-a6e1-468b595930c2"
      ],
      "groups": [
        "3c14c864-533c-49e6-a3cc-6969f1233775"
      ],
      "langs": [
        "4dcf9614-7914-42aa-99f4-dbce2e059133"
      ],
      "origins": [
        "938de218-5343-4865-94d3-fb33f2eaa152"
      ],
      "series": [
        "4df4d550-15ee-4380-86e6-e51b1a8160ac"
      ],
      "singers": [
        "400e62d1-a9b8-44df-b08c-ab791588a1dd"
      ],
      "songtypes": [
        "f02ad9b3-0bd9-4aad-85b3-9976739ba0e4"
      ],
      "songwriters": [
        "bf4e828b-fef3-4e04-b335-e8b388451a57"
      ],
      "franchises": [
        "eaaa382d-05c9-49b3-b971-0046ff846bbf",
        "4df4d550-15ee-4380-86e6-e51b1a8160ac"
      ]
    },
    "titles": {
      "jpn": "心絵-ココロエ-",
      "qro": "Kokoro e"
    },
    "titles_default_language": "qro",
    "titles_aliases": [
      "Kokoro he"
    ],
    "title": "Kokoro e",
    "year": 2004
  }
}