{
  "header": {
    "version": 4,
    "description": "Karaoke Mugen Karaoke Data File"
  },
  "medias": [
    {
      "version": "Default",
      "filename": "JPN - Love Live! Sunshine!! - AUDIO - Guilty Night, Guilty Kiss! ~ Off Vocal Vers.mp3",
      "audiogain": -7.24,
      "loudnorm": "-9.97,0.63,3.50,-20.01,-0.52",
      "filesize": 10277723,
      "duration": 247,
      "default": true,
      "lyrics": [
        {
          "filename": "JPN - Love Live! Sunshine!! - AUDIO - Guilty Night, Guilty Kiss! ~ Off Vocal Vers.ass",
          "default": true,
          "version": "Default"
        }
      ]
    }
  ],
  "data": {
    "created_at": "2021-01-01T15:50:43.893Z",
    "ignoreHooks": false,
    "kid": "ee1306cc-8259-465b-baa1-89186a18e976",
    "modified_at": "2022-11-15T18:33:39.246Z",
    "parents": [
      "b13de6c2-80e8-42fd-9db7-a1890575728a"
    ],
    "repository": "kara.moe",
    "tags": {
      "authors": [
        "78d42fee-8d3e-4bd5-9c44-98ce55f7d21f",
        "90698f28-1d62-4673-82c4-33ae96b1ba97",
        "b62bd925-89e4-4ee4-ba4c-80de93e831b8"
      ],
      "collections": [
        "c7db86a0-ff64-4044-9be4-66dd1ef1d1c1"
      ],
      "creators": [
        "b2805292-730e-473a-96f0-fd8e7ffd1fd7"
      ],
      "genres": [
        "caa86df2-0d59-474b-885c-f240a9e891b0"
      ],
      "groups": [
        "8c22c899-b3ed-42da-a548-ce00f950798b",
        "ae613721-1fbe-480d-ba6b-d6d0702b184d"
      ],
      "langs": [
        "4dcf9614-7914-42aa-99f4-dbce2e059133"
      ],
      "origins": [
        "938de218-5343-4865-94d3-fb33f2eaa152"
      ],
      "series": [
        "63466536-1102-4f91-b167-4380d274e2a3"
      ],
      "singers": [
        "81f96b53-701d-4886-80ba-71f256e051a2",
        "8f1cdf03-baf0-4294-bfdf-fdeedcdbeac5",
        "e3ef4054-6292-4b5f-ad14-1008bae5e375"
      ],
      "singergroups": [
        "8a711d9c-42de-40fd-a050-fe72b5460a26"
      ],
      "songtypes": [
        "42a262ae-acba-4ab5-a446-c5789c96c821"
      ],
      "songwriters": [
        "c5a951cb-53d8-4472-ac1d-9f31a38fdb2f",
        "f41e7218-6c19-4e19-9b5f-4612dcd58243"
      ],
      "versions": [
        "c0cc87b9-55b9-40f0-878a-fbb9e34c151e"
      ],
      "franchises": [
        "fd5d066e-e85a-4eea-8688-2979a887450a"
      ]
    },
    "titles": {
      "eng": "Guilty Night, Guilty Kiss!"
    },
    "titles_default_language": "eng",
    "year": 2016
  }
}