{
  "header": {
    "version": 4,
    "description": "Karaoke Mugen Karaoke Data File"
  },
  "medias": [
    {
      "version": "Default",
      "filename": "JPN - Touhou - MV - s complex.mp4",
      "audiogain": -9.01,
      "loudnorm": "-8.91,4.06,3.30,-19.03,-0.73",
      "filesize": 26816623,
      "duration": 229,
      "default": true,
      "lyrics": [
        {
          "filename": "JPN - Touhou - MV - s complex.ass",
          "default": true,
          "version": "Default"
        }
      ]
    }
  ],
  "data": {
    "created_at": "2022-02-17T05:29:49.282Z",
    "ignoreHooks": false,
    "kid": "dd4afdec-e409-44a0-9a8d-41fcf4916ade",
    "modified_at": "2023-07-21T20:25:27.712Z",
    "repository": "kara.moe",
    "tags": {
      "authors": [
        "fb28c6d3-a81e-40c0-9a4c-e3268c60a64b"
      ],
      "collections": [
        "c7db86a0-ff64-4044-9be4-66dd1ef1d1c1"
      ],
      "creators": [
        "2b873ad5-a3ce-4abf-9f11-6f600e6e6ba0",
        "dfdca219-b7f2-4e7b-a18a-0229108ff1cd"
      ],
      "families": [
        "0377db02-3af6-43b8-9b08-c759df3d25c3"
      ],
      "groups": [
        "3c14c864-533c-49e6-a3cc-6969f1233775"
      ],
      "langs": [
        "4dcf9614-7914-42aa-99f4-dbce2e059133"
      ],
      "origins": [
        "ac5085db-52d8-44b4-8fbb-1697b24d2046"
      ],
      "series": [
        "1bdaa5a1-dfa6-4365-b746-7a0b194dafd6"
      ],
      "singers": [
        "8863c512-04a6-4bba-be93-14c824fba970"
      ],
      "singergroups": [
        "2b873ad5-a3ce-4abf-9f11-6f600e6e6ba0"
      ],
      "songtypes": [
        "7be1b15c-cff8-4b37-a649-5c90f3d569a9"
      ],
      "songwriters": [
        "26cb5252-8510-49e0-897c-a611a05fc056",
        "6da99060-acc4-48c0-9d5b-042dae38ed28"
      ],
      "franchises": [
        "1bdaa5a1-dfa6-4365-b746-7a0b194dafd6"
      ]
    },
    "titles": {
      "eng": "s complex"
    },
    "titles_default_language": "eng",
    "year": 2007
  }
}