{
  "header": {
    "version": 4,
    "description": "Karaoke Mugen Karaoke Data File"
  },
  "medias": [
    {
      "version": "Default",
      "filename": "JPN - Miku Hatsune - MV - Rolling Girl ~ Off Vocal Vers.mp4",
      "audiogain": -10.58,
      "loudnorm": "-5.93,0.65,2.00,-15.97,-1.26",
      "filesize": 68493389,
      "duration": 199,
      "default": true,
      "lyrics": [
        {
          "filename": "JPN - Miku Hatsune - MV - Rolling Girl ~ Off Vocal Vers.ass",
          "default": true,
          "version": "Default"
        }
      ]
    }
  ],
  "data": {
    "created_at": "2019-10-11T21:00:21.000Z",
    "kid": "1add2c09-3461-4965-a0c5-7ae0e829b01d",
    "modified_at": "2021-12-28T20:50:18.698Z",
    "parents": [
      "cf400ad8-8a56-4273-a033-72161079e3c4"
    ],
    "repository": "kara.moe",
    "tags": {
      "authors": [
        "1df04771-a378-4f14-a5e1-1455187d681a"
      ],
      "collections": [
        "c7db86a0-ff64-4044-9be4-66dd1ef1d1c1"
      ],
      "creators": [
        "34d87340-d8c8-4298-bcc7-d5d5f4af9831",
        "8da56750-72e9-4489-a6e5-b78ce4779e85"
      ],
      "families": [
        "0377db02-3af6-43b8-9b08-c759df3d25c3"
      ],
      "genres": [
        "45623cae-6d68-4304-a49b-896d1d6f4580"
      ],
      "groups": [
        "ae613721-1fbe-480d-ba6b-d6d0702b184d"
      ],
      "langs": [
        "4dcf9614-7914-42aa-99f4-dbce2e059133"
      ],
      "singers": [
        "4407ba0e-5de7-4add-870f-7ac95a4804c9"
      ],
      "songtypes": [
        "7be1b15c-cff8-4b37-a649-5c90f3d569a9"
      ],
      "songwriters": [
        "b08f2c69-8493-4187-a86d-495b91f1a6a5"
      ],
      "versions": [
        "c0cc87b9-55b9-40f0-878a-fbb9e34c151e"
      ]
    },
    "titles": {
      "eng": "Rolling Girl",
      "jpn": "ローリンガール"
    },
    "title": "Rolling Girl",
    "year": 2010,
    "titles_default_language": "eng"
  }
}