{
  "header": {
    "version": 4,
    "description": "Karaoke Mugen Karaoke Data File"
  },
  "medias": [
    {
      "version": "Default",
      "filename": "JPN - Tales of Xillia - MV - progress ~ Full Vers.mp4",
      "audiogain": -12.74,
      "loudnorm": "-6.31,2.52,17.00,-17.62,-2.20",
      "filesize": 119070215,
      "duration": 311,
      "default": true,
      "lyrics": [
        {
          "filename": "JPN - Tales of Xillia - MV - progress ~ Full Vers.ass",
          "default": true,
          "version": "Default"
        }
      ]
    }
  ],
  "data": {
    "created_at": "2017-10-11T17:01:18.000Z",
    "ignoreHooks": false,
    "kid": "3c084f31-14f4-4f3d-b6a8-673d8ff3d96a",
    "modified_at": "2022-07-08T21:18:40.596Z",
    "parents": [
      "3e8b817a-6a42-4eff-b5a2-cdc3ae71eca1"
    ],
    "repository": "kara.moe",
    "tags": {
      "authors": [
        "5bdaba57-27f8-4568-8806-76a807728766"
      ],
      "collections": [
        "dbcf2c22-524d-4708-99bb-601703633927"
      ],
      "creators": [
        "90caf15e-bc86-46e1-8793-9af7906c8310"
      ],
      "families": [
        "5391f9fe-638c-415f-8dc9-958e3a2c5787"
      ],
      "groups": [
        "ae613721-1fbe-480d-ba6b-d6d0702b184d"
      ],
      "langs": [
        "4dcf9614-7914-42aa-99f4-dbce2e059133"
      ],
      "misc": [
        "86705d4b-24e4-4756-9687-2b9c98bcf366",
        "fe819ff1-9db8-4a0f-85dc-0e322c9126c4"
      ],
      "series": [
        "89f822c7-4680-4c5e-9969-5ebda11c077a"
      ],
      "singers": [
        "c10e51ef-eccd-4c18-b0e6-ada13851361a"
      ],
      "songtypes": [
        "7be1b15c-cff8-4b37-a649-5c90f3d569a9"
      ],
      "songwriters": [
        "c10e51ef-eccd-4c18-b0e6-ada13851361a",
        "f3c7208a-d031-4928-9152-fe3c3f2ae82e"
      ],
      "versions": [
        "c2143a7f-6970-450e-8a79-0302db9220a9"
      ],
      "franchises": [
        "457ab7f6-9644-4493-b61b-8778400aaf54"
      ]
    },
    "titles": {
      "eng": "progress"
    },
    "titles_default_language": "eng",
    "title": "progress",
    "year": 2011
  }
}