{
  "header": {
    "version": 4,
    "description": "Karaoke Mugen Karaoke Data File"
  },
  "medias": [
    {
      "version": "Default",
      "filename": "JPN - Takane no Nadeshiko - MV - Kawaikute Gomen ~ Cover Vers.mp4",
      "audiogain": -10.17,
      "loudnorm": "-6.56,1.70,2.40,-16.64,0.01",
      "filesize": 77484845,
      "duration": 217,
      "default": true,
      "lyrics": [
        {
          "filename": "JPN - Takane no Nadeshiko - MV - Kawaikute Gomen ~ Cover Vers.ass",
          "default": true,
          "version": "Default"
        }
      ]
    }
  ],
  "data": {
    "comment": "Fichier source : https://www.youtube.com/watch?v=MPywGQPLJPo",
    "created_at": "2022-12-30T21:12:23.470Z",
    "ignoreHooks": false,
    "kid": "b955c1de-30f8-47de-a2ea-149b7c4c669a",
    "modified_at": "2023-02-14T17:03:57.841Z",
    "parents": [
      "abb11cf4-80be-4d82-9df5-b9f057921158"
    ],
    "repository": "kara.moe",
    "tags": {
      "authors": [
        "f5fd83aa-5022-41ab-82ec-4b9dc38ea653",
        "a3a99b23-6c42-4d38-8863-491153187437"
      ],
      "collections": [
        "dbcf2c22-524d-4708-99bb-601703633927"
      ],
      "creators": [
        "c674764c-7097-419b-b8cc-86bfd2e1ef1f"
      ],
      "families": [
        "5391f9fe-638c-415f-8dc9-958e3a2c5787"
      ],
      "genres": [
        "caa86df2-0d59-474b-885c-f240a9e891b0"
      ],
      "groups": [
        "8e209ae4-4381-438f-89dc-1b21752027d2"
      ],
      "langs": [
        "4dcf9614-7914-42aa-99f4-dbce2e059133"
      ],
      "singers": [
        "6b1c9a76-5ce7-485b-9738-ab3707e274ac",
        "80ee7ad7-23f6-4dfe-873f-c1f9022763e7",
        "93bee103-6337-4cf3-8b37-8c63dea22cab",
        "b66a6b91-4315-435a-8e6b-079e1cbe36c1",
        "bf8eeb40-cf3f-4162-afef-d5666c539dbe",
        "c3baa197-4895-4037-a497-a0dd7d427d00",
        "c3d60052-7118-4847-8a1d-0476dc9120e6",
        "cf1fdacf-6d4c-4a3d-a3e4-95ed97e655f5",
        "e70e3aa6-10b7-43d0-953e-5b414ff1f98e",
        "ff3efef4-63f6-4a27-bd78-37a6f4b71df1"
      ],
      "singergroups": [
        "b48abc70-bab8-4e7a-9b9e-f58049988e0e"
      ],
      "songtypes": [
        "7be1b15c-cff8-4b37-a649-5c90f3d569a9"
      ],
      "songwriters": [
        "830a59c3-38ab-404b-9d85-4a5d352368fd",
        "af0dc126-897e-4390-a7a1-cbfed65c2925"
      ],
      "versions": [
        "03e1e1d2-8641-47b7-bbcb-39a3df9ff21c"
      ]
    },
    "titles": {
      "jpn": "可愛くてごめん",
      "qro": "Kawaikute Gomen"
    },
    "titles_default_language": "qro",
    "year": 2022
  }
}