{
  "header": {
    "version": 4,
    "description": "Karaoke Mugen Karaoke Data File"
  },
  "medias": [
    {
      "version": "Default",
      "filename": "JPN - Hatsune Miku Project Mirai 2 - GAME 3DS OP - Ageage Again.mp4",
      "audiogain": -7.38,
      "loudnorm": "-10.25,-0.05,2.90,-20.63,-0.22",
      "filesize": 33021206,
      "duration": 90,
      "default": true,
      "lyrics": [
        {
          "filename": "JPN - Hatsune Miku Project Mirai 2 - GAME 3DS OP - Ageage Again.ass",
          "default": true,
          "version": "Default"
        }
      ]
    }
  ],
  "data": {
    "created_at": "2017-10-11T17:02:40.000Z",
    "ignoreHooks": false,
    "kid": "13284759-d71a-4b10-b9bb-d60c2b79ff12",
    "modified_at": "2023-03-06T00:14:07.328Z",
    "repository": "kara.moe",
    "tags": {
      "authors": [
        "351522fb-b05b-4424-bf4e-38255645150f"
      ],
      "collections": [
        "c7db86a0-ff64-4044-9be4-66dd1ef1d1c1"
      ],
      "creators": [
        "b8a3778d-0864-4135-9053-1def02d3262e"
      ],
      "genres": [
        "45623cae-6d68-4304-a49b-896d1d6f4580"
      ],
      "groups": [
        "8c22c899-b3ed-42da-a548-ce00f950798b",
        "ae613721-1fbe-480d-ba6b-d6d0702b184d"
      ],
      "langs": [
        "4dcf9614-7914-42aa-99f4-dbce2e059133"
      ],
      "platforms": [
        "d7393757-7de7-4247-ba59-120b3ceea9bf"
      ],
      "series": [
        "8bc18f21-9750-4f43-97d3-2dd9352bb8af"
      ],
      "singers": [
        "4407ba0e-5de7-4add-870f-7ac95a4804c9"
      ],
      "songtypes": [
        "f02ad9b3-0bd9-4aad-85b3-9976739ba0e4"
      ],
      "songwriters": [
        "cd1744e6-3151-4619-8782-1bfe15cb3f0b"
      ],
      "franchises": [
        "f6127619-b3a8-439e-a29e-e610b9d85d9e",
        "8bc18f21-9750-4f43-97d3-2dd9352bb8af"
      ],
      "origins": [
        "dbedd6b3-d125-4cd8-aa32-c4175e4ca3a3"
      ]
    },
    "titles": {
      "jpn": "アゲアゲアゲイン",
      "qro": "Ageage Again"
    },
    "titles_default_language": "qro",
    "year": 2013
  }
}