{
  "header": {
    "version": 4,
    "description": "Karaoke Mugen Karaoke Data File"
  },
  "medias": [
    {
      "version": "Default",
      "filename": "JPN - YOASOBI - MV - Ano Yume wo Nazotte ~ Off Vocal Vers.mp4",
      "audiogain": -7.43,
      "loudnorm": "-8.92,1.42,4.30,-18.94,-0.86",
      "filesize": 53571863,
      "duration": 239,
      "default": true,
      "lyrics": [
        {
          "filename": "JPN - YOASOBI - MV - Ano Yume wo Nazotte ~ Off Vocal Vers.ass",
          "default": true,
          "version": "Default"
        }
      ]
    }
  ],
  "data": {
    "created_at": "2022-02-01T20:58:04.261Z",
    "ignoreHooks": false,
    "kid": "fb27b296-bf85-4726-b51a-eee152379188",
    "modified_at": "2022-11-19T23:39:36.339Z",
    "parents": [
      "8564be6a-839a-4732-9935-a753e40325b9"
    ],
    "repository": "kara.moe",
    "tags": {
      "authors": [
        "04258b89-6c20-417b-8eb3-55d9afbd1bbe",
        "90698f28-1d62-4673-82c4-33ae96b1ba97"
      ],
      "collections": [
        "c7db86a0-ff64-4044-9be4-66dd1ef1d1c1"
      ],
      "families": [
        "0377db02-3af6-43b8-9b08-c759df3d25c3"
      ],
      "groups": [
        "8e209ae4-4381-438f-89dc-1b21752027d2"
      ],
      "langs": [
        "4dcf9614-7914-42aa-99f4-dbce2e059133"
      ],
      "singergroups": [
        "e028a7e9-d3f2-4df7-a6ba-c7f78e98b549"
      ],
      "songtypes": [
        "7be1b15c-cff8-4b37-a649-5c90f3d569a9"
      ],
      "songwriters": [
        "ac03c264-7085-486b-a47f-3e7574e51a33"
      ],
      "versions": [
        "c0cc87b9-55b9-40f0-878a-fbb9e34c151e"
      ]
    },
    "titles": {
      "jpn": "あの夢をなぞって",
      "qro": "Ano Yume wo Nazotte"
    },
    "titles_default_language": "qro",
    "year": 2020
  }
}