{
  "header": {
    "version": 4,
    "description": "Karaoke Mugen Karaoke Data File"
  },
  "medias": [
    {
      "version": "Default",
      "filename": "JPN - Fate Apocrypha - MV - Desir ~ Full Vers.mp4",
      "audiogain": -4.82,
      "loudnorm": "-12.53,0.03,7.30,-22.67,-1.33",
      "filesize": 71174244,
      "duration": 292,
      "default": true,
      "lyrics": [
        {
          "filename": "JPN - Fate Apocrypha - MV - Desir ~ Full Vers.ass",
          "default": true,
          "version": "Default"
        }
      ]
    }
  ],
  "data": {
    "created_at": "2020-08-15T22:53:47.738Z",
    "kid": "06fd48ba-913c-4185-9174-87c76b7343fb",
    "modified_at": "2022-06-04T00:19:39.912Z",
    "parents": [
      "8994450e-ca1a-444e-b129-88be1d3efa26"
    ],
    "repository": "kara.moe",
    "songorder": null,
    "tags": {
      "authors": [
        "4d71ce82-eed1-4c44-ac85-5f7255f3dad3"
      ],
      "creators": [
        "771735da-6b67-403d-8d5c-2761a0665168"
      ],
      "families": [
        "5391f9fe-638c-415f-8dc9-958e3a2c5787"
      ],
      "groups": [
        "ae613721-1fbe-480d-ba6b-d6d0702b184d"
      ],
      "langs": [
        "4dcf9614-7914-42aa-99f4-dbce2e059133"
      ],
      "series": [
        "778d74d8-9ea1-455e-9211-93927cbb0f89"
      ],
      "singers": [
        "40777238-a776-4235-9f5e-eec754c96827"
      ],
      "songtypes": [
        "7be1b15c-cff8-4b37-a649-5c90f3d569a9"
      ],
      "songwriters": [
        "30450ae7-a46f-41aa-a791-5d2c2697ee20",
        "796c4009-51ee-49a9-8947-d6cb242a9aad"
      ],
      "versions": [
        "c2143a7f-6970-450e-8a79-0302db9220a9"
      ],
      "collections": [
        "dbcf2c22-524d-4708-99bb-601703633927"
      ],
      "franchises": [
        "564373dc-4cfa-454e-8af1-bcccb886c007"
      ]
    },
    "titles": {
      "fre": "Désir"
    },
    "titles_default_language": "fre",
    "title": "Désir",
    "year": 2017
  }
}