{
  "header": {
    "version": 4,
    "description": "Karaoke Mugen Karaoke Data File"
  },
  "medias": [
    {
      "version": "Default",
      "filename": "JPN - Touhou - MV - Kero 9 Destiny.mp4",
      "audiogain": -10.12,
      "loudnorm": "-7.07,1.44,3.90,-17.27,-1.63",
      "filesize": 15434349,
      "duration": 187,
      "default": true,
      "lyrics": [
        {
          "filename": "JPN - Touhou - MV - Kero 9 Destiny.ass",
          "default": true,
          "version": "Default",
          "subchecksum": "88ed9fdc6b20b3a394ac262da319422b"
        }
      ]
    }
  ],
  "data": {
    "created_at": "2017-10-11T17:01:59.000Z",
    "kid": "e791519d-1506-46e8-91db-229ba64aef83",
    "modified_at": "2021-02-25T13:27:49.468Z",
    "repository": "kara.moe",
    "tags": {
      "authors": [
        "5bdaba57-27f8-4568-8806-76a807728766"
      ],
      "collections": [
        "c7db86a0-ff64-4044-9be4-66dd1ef1d1c1"
      ],
      "creators": [
        "32b71a4d-af3b-4daf-86f4-85519eaea5c4",
        "a56ed9e7-a3dc-4203-b91c-4128bcf7bfa9"
      ],
      "families": [
        "0377db02-3af6-43b8-9b08-c759df3d25c3"
      ],
      "groups": [
        "3c14c864-533c-49e6-a3cc-6969f1233775"
      ],
      "langs": [
        "4dcf9614-7914-42aa-99f4-dbce2e059133"
      ],
      "origins": [
        "ac5085db-52d8-44b4-8fbb-1697b24d2046"
      ],
      "series": [
        "1bdaa5a1-dfa6-4365-b746-7a0b194dafd6"
      ],
      "singers": [
        "d08d5ec3-0d71-4d8d-97de-0a2432b331bd"
      ],
      "songtypes": [
        "7be1b15c-cff8-4b37-a649-5c90f3d569a9"
      ],
      "songwriters": [
        "26cb5252-8510-49e0-897c-a611a05fc056",
        "7be9727f-c4db-4013-98cc-f0a9739e7867",
        "9c1b63ff-6949-4909-b750-fae8e018cf23"
      ],
      "franchises": [
        "1bdaa5a1-dfa6-4365-b746-7a0b194dafd6"
      ]
    },
    "title": "Kero 9 Destiny",
    "titles": {
      "qro": "Kero ⑨ Destiny",
      "jpn": "ケロ⑨destiny"
    },
    "year": 2008,
    "titles_aliases": [
      "Kero 9 Destiny",
      "Kero Destiny"
    ],
    "titles_default_language": "qro"
  }
}