{
  "header": {
    "version": 4,
    "description": "Karaoke Mugen Karaoke Data File"
  },
  "medias": [
    {
      "version": "Default",
      "filename": "JPN - Suzumiya Haruhi no Shoushitsu - MV - Yasashii Boukyaku.mp4",
      "audiogain": 5.85,
      "loudnorm": "-24.00,-10.85,7.10,-34.21,-1.08",
      "filesize": 93140540,
      "duration": 349,
      "default": true,
      "lyrics": [
        {
          "filename": "JPN - Suzumiya Haruhi no Shoushitsu - MV - Yasashii Boukyaku.ass",
          "default": true,
          "version": "Default"
        }
      ]
    }
  ],
  "data": {
    "created_at": "2017-10-11T17:01:32.000Z",
    "kid": "d2c6ff44-7d5b-4db6-9b62-d6fff3f5eaae",
    "modified_at": "2022-06-04T00:17:39.202Z",
    "repository": "kara.moe",
    "songorder": null,
    "tags": {
      "authors": [
        "56ee67d5-8706-4b61-9f4c-9d99e9cf80e8"
      ],
      "creators": [
        "b2805292-730e-473a-96f0-fd8e7ffd1fd7"
      ],
      "families": [
        "5391f9fe-638c-415f-8dc9-958e3a2c5787"
      ],
      "groups": [
        "ae613721-1fbe-480d-ba6b-d6d0702b184d"
      ],
      "langs": [
        "4dcf9614-7914-42aa-99f4-dbce2e059133"
      ],
      "misc": [
        "86705d4b-24e4-4756-9687-2b9c98bcf366"
      ],
      "series": [
        "3221d869-0545-4b2f-83db-03f10ab2d77c"
      ],
      "singers": [
        "8c3ef7dd-5265-4527-ac49-c604ab822add"
      ],
      "songtypes": [
        "7be1b15c-cff8-4b37-a649-5c90f3d569a9"
      ],
      "songwriters": [
        "4d509824-9384-4076-8c0a-c019e7a28eec",
        "f0c8d2b6-cf8b-4c07-8894-e35c1df0c43d",
        "f41e7218-6c19-4e19-9b5f-4612dcd58243"
      ],
      "collections": [
        "dbcf2c22-524d-4708-99bb-601703633927"
      ],
      "franchises": [
        "4f132535-c7b6-4147-a324-6995aad44df7"
      ]
    },
    "titles": {
      "qro": "Yasashii Bôkyaku",
      "jpn": "優しい忘却"
    },
    "titles_default_language": "qro",
    "titles_aliases": [
      "Boukyaku"
    ],
    "title": "Yasashii Bôkyaku",
    "year": 2010
  }
}