{
  "header": {
    "version": 4,
    "description": "Karaoke Mugen Karaoke Data File"
  },
  "medias": [
    {
      "version": "Default",
      "filename": "JPN - Starlight Kukugumi - AUDIO - Yoroshiku Kukugumi ~ Off Vocal Vers.mp3",
      "audiogain": -8.75,
      "loudnorm": "-8.14,0.61,4.00,-18.21,0.03",
      "filesize": 10557555,
      "duration": 258,
      "default": true,
      "lyrics": [
        {
          "filename": "JPN - Starlight Kukugumi - AUDIO - Yoroshiku Kukugumi ~ Off Vocal Vers.ass",
          "default": true,
          "version": "Default"
        }
      ]
    }
  ],
  "data": {
    "created_at": "2023-07-03T11:51:44.190Z",
    "ignoreHooks": false,
    "kid": "a7b9c76d-5654-496a-9a1d-2564b36e5614",
    "modified_at": "2023-07-17T00:38:30.734Z",
    "parents": [
      "babddc82-0464-449d-bca6-1d0afe79f4d3"
    ],
    "repository": "kara.moe",
    "tags": {
      "authors": [
        "7848b5dc-a5df-4577-b640-147be5288cec"
      ],
      "collections": [
        "c7db86a0-ff64-4044-9be4-66dd1ef1d1c1"
      ],
      "creators": [
        "97e62433-0f2f-4e1b-ba1e-109eec95dc11"
      ],
      "groups": [
        "ae613721-1fbe-480d-ba6b-d6d0702b184d"
      ],
      "langs": [
        "4dcf9614-7914-42aa-99f4-dbce2e059133"
      ],
      "misc": [
        "1d6ceadf-a885-47e5-b23b-c07bf668a424"
      ],
      "singers": [
        "0691da5a-1612-40fe-91a3-898cce043c3e",
        "1477f7cf-7a03-4ecc-a3eb-81fe697202ed",
        "371f95d8-5385-4728-8dbb-0cd3e5892ce4",
        "4fc68333-b1f6-44ce-b2be-ac4866b78932",
        "67f4e548-9fc9-48f1-bc2c-8c24fd88f5f2",
        "bbf38c20-4ff8-46ca-8e23-55a71286f0ef",
        "cd997481-e2ff-4d88-ab77-152bedb5041a",
        "d450e6ee-57dc-41ea-b60e-396135d6a2e8",
        "e3ec5558-2fa7-44e9-a4a4-59910a7a3370"
      ],
      "singergroups": [
        "30caa67d-4228-4164-a807-6dd484dd7b19"
      ],
      "songtypes": [
        "42a262ae-acba-4ab5-a446-c5789c96c821"
      ],
      "songwriters": [
        "dc1018ff-a0eb-4068-9a76-68d7fba7318d",
        "ead196cc-e1e3-43a4-8804-dd4199e89c4e"
      ],
      "versions": [
        "c0cc87b9-55b9-40f0-878a-fbb9e34c151e"
      ],
      "franchises": [
        "197ecb28-b423-4c66-bbdb-49b89b5ed153"
      ]
    },
    "titles": {
      "jpn": "よろしく九九組",
      "qro": "Yoroshiku Kukugumi"
    },
    "titles_default_language": "qro",
    "year": 2018
  }
}