{
  "header": {
    "version": 4,
    "description": "Karaoke Mugen Karaoke Data File"
  },
  "medias": [
    {
      "version": "Default",
      "filename": "JPN - Natsu no Arashi! Akinai-chuu - OP - Oyasumi Paradox.mp4",
      "audiogain": 2.77,
      "loudnorm": "-20.91,-9.87,2.80,-30.94,-0.35",
      "filesize": 16984669,
      "duration": 89,
      "default": true,
      "lyrics": [
        {
          "filename": "JPN - Natsu no Arashi! Akinai-chuu - OP - Oyasumi Paradox.ass",
          "default": true,
          "version": "Default",
          "subchecksum": "675f58bf2afda5e7aebde951fd7cd4e1"
        }
      ]
    }
  ],
  "data": {
    "created_at": "2017-10-11T17:01:21.000Z",
    "kid": "e743a2de-ffdb-4eff-a863-3b6b36e9213f",
    "modified_at": "2021-02-25T12:34:31.575Z",
    "repository": "kara.moe",
    "tags": {
      "authors": [
        "5bdaba57-27f8-4568-8806-76a807728766"
      ],
      "collections": [
        "c7db86a0-ff64-4044-9be4-66dd1ef1d1c1"
      ],
      "creators": [
        "c3bd80ef-d1fe-427f-913f-a2ba2fe66114"
      ],
      "families": [
        "0377db02-3af6-43b8-9b08-c759df3d25c3"
      ],
      "groups": [
        "3c14c864-533c-49e6-a3cc-6969f1233775"
      ],
      "langs": [
        "4dcf9614-7914-42aa-99f4-dbce2e059133"
      ],
      "origins": [
        "938de218-5343-4865-94d3-fb33f2eaa152"
      ],
      "series": [
        "9b14e1f7-2f2f-4151-9428-42ed5047f921"
      ],
      "singers": [
        "49f072be-b82b-470e-a3bf-a1600efc1b83"
      ],
      "songtypes": [
        "f02ad9b3-0bd9-4aad-85b3-9976739ba0e4"
      ],
      "songwriters": [
        "6a4ddfcf-aaf4-48e5-af2b-6f6f9451881e",
        "a4cc2a40-4c54-4f52-ab8e-e8b7a679937b"
      ],
      "franchises": [
        "57173e30-3163-4ced-9dda-8047687de0a4"
      ]
    },
    "title": "Oyasumi Paradox",
    "titles": {
      "qro": "Oyasumi Paradox",
      "jpn": "おやすみパラドックス"
    },
    "year": 2009,
    "titles_default_language": "qro"
  }
}