{
  "header": {
    "version": 4,
    "description": "Karaoke Mugen Karaoke Data File"
  },
  "medias": [
    {
      "version": "Default",
      "filename": "JPN - Touhou - MV - Mou Uta Shika Utaenai.mp4",
      "audiogain": -9.94,
      "loudnorm": "-7.35,0.91,3.50,-17.39,-0.69",
      "filesize": 9670668,
      "duration": 165,
      "default": true,
      "lyrics": [
        {
          "filename": "JPN - Touhou - MV - Mou Uta Shika Utaenai.ass",
          "default": true,
          "version": "Default"
        }
      ]
    }
  ],
  "data": {
    "comment": "Déso si l'encodage/ compression sont foireux, j'ai du m'y prendre par plusieurs étapes et j'y comprends toujours rien.",
    "created_at": "2022-02-16T00:11:09.089Z",
    "ignoreHooks": false,
    "kid": "e1aa8b3a-3c5d-4eaa-a7fc-383583b60061",
    "modified_at": "2022-09-30T20:38:04.411Z",
    "repository": "kara.moe",
    "tags": {
      "authors": [
        "fb28c6d3-a81e-40c0-9a4c-e3268c60a64b"
      ],
      "collections": [
        "c7db86a0-ff64-4044-9be4-66dd1ef1d1c1"
      ],
      "creators": [
        "ad4c9a45-6385-48ff-9468-1a056c486239",
        "df416ab3-6b70-421d-b728-b21110cd7ec0"
      ],
      "families": [
        "0377db02-3af6-43b8-9b08-c759df3d25c3"
      ],
      "groups": [
        "ae613721-1fbe-480d-ba6b-d6d0702b184d"
      ],
      "langs": [
        "4dcf9614-7914-42aa-99f4-dbce2e059133"
      ],
      "series": [
        "1bdaa5a1-dfa6-4365-b746-7a0b194dafd6"
      ],
      "singers": [
        "4cb575ae-a999-4234-9417-31580bcfab94",
        "95995521-0e6f-4cf2-92a3-6e536c6e4747"
      ],
      "songtypes": [
        "7be1b15c-cff8-4b37-a649-5c90f3d569a9"
      ],
      "songwriters": [
        "1beb86fb-499b-412b-833d-3b8d5db091b0",
        "26cb5252-8510-49e0-897c-a611a05fc056",
        "ad4c9a45-6385-48ff-9468-1a056c486239"
      ],
      "franchises": [
        "1bdaa5a1-dfa6-4365-b746-7a0b194dafd6"
      ]
    },
    "titles": {
      "jpn": "もう歌しかうたえない",
      "qro": "Mô Uta Shika Utaenai"
    },
    "titles_default_language": "qro",
    "titles_aliases": [
      "Unable to do Anything but Sing",
      "Mou"
    ],
    "title": "Mô Uta Shika Utaenai",
    "year": 2010
  }
}