{
  "header": {
    "version": 4,
    "description": "Karaoke Mugen Karaoke Data File"
  },
  "medias": [
    {
      "version": "Default",
      "filename": "JPN - Fuufu Ijou, Koibito Miman. - MV - TRUE FOOL LOVE ~ Full Off Vocal Vers.mp4",
      "audiogain": -9.68,
      "loudnorm": "-6.70,3.05,2.90,-16.72,-0.19",
      "filesize": 136646518,
      "duration": 209,
      "default": true,
      "lyrics": [
        {
          "filename": "JPN - Fuufu Ijou, Koibito Miman. - MV - TRUE FOOL LOVE ~ Full Off Vocal Vers.ass",
          "default": true,
          "version": "Default"
        }
      ]
    }
  ],
  "data": {
    "created_at": "2023-05-24T17:17:34.662Z",
    "ignoreHooks": false,
    "kid": "28c67ba3-cff3-42c6-b7ce-996301f10a51",
    "modified_at": "2023-06-04T19:37:53.506Z",
    "parents": [
      "c1eca456-8b5d-45ac-b565-7a2e6504b478"
    ],
    "repository": "kara.moe",
    "tags": {
      "authors": [
        "4749577f-84d7-470b-bfa8-09c6f9a97c32"
      ],
      "collections": [
        "dbcf2c22-524d-4708-99bb-601703633927"
      ],
      "creators": [
        "8d57adf8-54ac-408a-b104-b7e48029a3eb"
      ],
      "families": [
        "5391f9fe-638c-415f-8dc9-958e3a2c5787"
      ],
      "groups": [
        "8e209ae4-4381-438f-89dc-1b21752027d2"
      ],
      "langs": [
        "4dcf9614-7914-42aa-99f4-dbce2e059133"
      ],
      "origins": [
        "938de218-5343-4865-94d3-fb33f2eaa152"
      ],
      "series": [
        "86e29803-fef4-44ff-b4bd-d5d406e3a21d"
      ],
      "singers": [
        "8a484e8b-1945-416f-b778-97a887ff24eb"
      ],
      "songtypes": [
        "7be1b15c-cff8-4b37-a649-5c90f3d569a9"
      ],
      "songwriters": [
        "23f1e99f-3964-44cf-b36a-de1341b1f213",
        "9440a48e-d17c-45af-9340-f3f77042ea4e"
      ],
      "versions": [
        "c0cc87b9-55b9-40f0-878a-fbb9e34c151e",
        "c2143a7f-6970-450e-8a79-0302db9220a9"
      ]
    },
    "titles": {
      "eng": "TRUE FOOL LOVE"
    },
    "titles_default_language": "eng",
    "year": 2022
  }
}