{
  "header": {
    "version": 4,
    "description": "Karaoke Mugen Karaoke Data File"
  },
  "medias": [
    {
      "version": "Default",
      "filename": "JPN - Lapis Re LiGHTs - IN - 700,000,000,000,000,000,000,000 no Sora de.mp4",
      "audiogain": 0.69,
      "loudnorm": "-17.85,-1.73,5.40,-28.12,-0.91",
      "filesize": 91497456,
      "duration": 101,
      "default": true,
      "lyrics": [
        {
          "filename": "JPN - Lapis Re LiGHTs - IN - 700,000,000,000,000,000,000,000 no Sora de.ass",
          "default": true,
          "version": "Default"
        }
      ]
    }
  ],
  "data": {
    "created_at": "2020-11-14T14:26:38.956Z",
    "ignoreHooks": false,
    "kid": "b17e4d3e-687b-4acd-aab4-3ed316b8d35b",
    "modified_at": "2022-05-08T14:34:56.758Z",
    "repository": "kara.moe",
    "tags": {
      "authors": [
        "1df04771-a378-4f14-a5e1-1455187d681a"
      ],
      "collections": [
        "c7db86a0-ff64-4044-9be4-66dd1ef1d1c1"
      ],
      "creators": [
        "6817ef9f-9296-475c-b1bd-f16d7438b2cf"
      ],
      "families": [
        "0377db02-3af6-43b8-9b08-c759df3d25c3"
      ],
      "genres": [
        "caa86df2-0d59-474b-885c-f240a9e891b0"
      ],
      "groups": [
        "8e209ae4-4381-438f-89dc-1b21752027d2"
      ],
      "langs": [
        "4dcf9614-7914-42aa-99f4-dbce2e059133"
      ],
      "origins": [
        "938de218-5343-4865-94d3-fb33f2eaa152"
      ],
      "series": [
        "130e319e-6724-4a2e-81e2-5cd48c6db406"
      ],
      "singers": [
        "3e359145-2e00-44f7-9acd-d60797d450a7",
        "58e1e6be-1a33-4d2a-8d2a-e3caf8e1ced5",
        "870c731d-053d-4034-bd5a-aa5bc477800c",
        "99229d7e-7cbe-4ceb-a886-3fb6d82adf59",
        "aa40cb35-8f2e-4f49-aba8-db744343205f",
        "daa910cd-e7d3-42a3-9713-85d96763cb6c"
      ],
      "songtypes": [
        "5e5250d9-351a-4a82-98eb-55db50ad8962"
      ]
    },
    "titles": {
      "qro": "700,000,000,000,000,000,000,000 no Sora de",
      "jpn": "700,000,000,000,000,000,000,000の空で"
    },
    "titles_default_language": "qro",
    "title": "700,000,000,000,000,000,000,000 no Sora de",
    "year": 2020
  }
}