{
  "header": {
    "version": 4,
    "description": "Karaoke Mugen Karaoke Data File"
  },
  "medias": [
    {
      "version": "Default",
      "filename": "JPN - BanG Dream! - AMV - Tenka Toitsu A to Z.mp4",
      "audiogain": -9.06,
      "loudnorm": "-9.39,-1.20,3.70,-19.40,-0.64",
      "filesize": 136823393,
      "duration": 219,
      "default": true,
      "lyrics": [
        {
          "filename": "JPN - BanG Dream! - AMV - Tenka Toitsu A to Z.ass",
          "default": true,
          "version": "Default",
          "subchecksum": "7b191925b0828f02e27c843b1d02717d"
        }
      ]
    }
  ],
  "data": {
    "created_at": "2019-04-11T22:57:24.000Z",
    "kid": "f43e9138-9857-4e72-abab-afbbbd96e924",
    "modified_at": "2021-02-25T10:50:30.858Z",
    "repository": "kara.moe",
    "tags": {
      "authors": [
        "8ba639a3-3640-4ffc-81a5-0b13be29f7d2"
      ],
      "collections": [
        "c7db86a0-ff64-4044-9be4-66dd1ef1d1c1"
      ],
      "creators": [
        "bd4564a8-44e5-454a-9c57-bd2a3c8a537e"
      ],
      "families": [
        "0377db02-3af6-43b8-9b08-c759df3d25c3"
      ],
      "genres": [
        "caa86df2-0d59-474b-885c-f240a9e891b0"
      ],
      "groups": [
        "ae613721-1fbe-480d-ba6b-d6d0702b184d"
      ],
      "langs": [
        "4dcf9614-7914-42aa-99f4-dbce2e059133"
      ],
      "misc": [
        "1d6ceadf-a885-47e5-b23b-c07bf668a424"
      ],
      "origins": [
        "ac5085db-52d8-44b4-8fbb-1697b24d2046"
      ],
      "platforms": [
        "213a1a15-e73a-4a08-b3f6-b6e2745a82e5"
      ],
      "series": [
        "a65e956d-39ab-4995-9ede-889c30a5cbf0"
      ],
      "singers": [
        "55e25eff-ac9a-4164-b9c7-352488eb6a34",
        "5bc28f95-9eb2-47d1-be88-954f5ce3f5c6",
        "8873b988-e184-4d38-903f-85f503b89299",
        "9332cf9e-20a6-4738-98a2-f6ef30529681",
        "b85c564e-f1e2-44c7-a0df-c99d48cb509f",
        "ea8530d7-12f4-421c-8798-a2d3f21ca326"
      ],
      "songtypes": [
        "a6c79ce5-89ee-4d50-afe8-3abd7317f6c2"
      ],
      "songwriters": [
        "60c782e0-d553-46c4-a470-bf13b3c88689",
        "edcfaab2-4464-4eab-927a-91be9dfa982e"
      ],
      "franchises": [
        "a65e956d-39ab-4995-9ede-889c30a5cbf0"
      ]
    },
    "title": "Tenka Toitsu A to Z☆",
    "titles": {
      "qro": "Tenka Toitsu A to Z☆",
      "jpn": "天下トーイツ A to Z☆"
    },
    "year": 2018,
    "titles_default_language": "qro"
  }
}