{
  "header": {
    "version": 4,
    "description": "Karaoke Mugen Karaoke Data File"
  },
  "medias": [
    {
      "version": "Default",
      "filename": "JPN - WORLD ORDER - MV - WORLD ORDER.mp4",
      "audiogain": -7.31,
      "loudnorm": "-10.52,1.16,9.00,-20.68,-1.10",
      "filesize": 23082326,
      "duration": 291,
      "default": true,
      "lyrics": [
        {
          "filename": "JPN - WORLD ORDER - MV - WORLD ORDER.ass",
          "default": true,
          "version": "Default"
        }
      ]
    }
  ],
  "data": {
    "created_at": "2022-01-11T21:41:07.638Z",
    "kid": "c5bc9624-1daa-46f8-8e1d-8da31d55f8f3",
    "modified_at": "2022-06-04T00:22:59.046Z",
    "repository": "kara.moe",
    "songorder": null,
    "tags": {
      "authors": [
        "4d71ce82-eed1-4c44-ac85-5f7255f3dad3"
      ],
      "creators": [
        "db7bfefa-98e1-4a78-97b9-3d7f25cb5f95"
      ],
      "families": [
        "5391f9fe-638c-415f-8dc9-958e3a2c5787"
      ],
      "groups": [
        "3c14c864-533c-49e6-a3cc-6969f1233775"
      ],
      "langs": [
        "4dcf9614-7914-42aa-99f4-dbce2e059133"
      ],
      "singers": [
        "94c8e59b-1e6a-43cc-80b1-720ea6a20942"
      ],
      "songtypes": [
        "7be1b15c-cff8-4b37-a649-5c90f3d569a9"
      ],
      "songwriters": [
        "fbf2ca7b-7c3e-4c42-b7c3-16733b0e6324"
      ],
      "collections": [
        "dbcf2c22-524d-4708-99bb-601703633927"
      ]
    },
    "titles": {
      "eng": "WORLD ORDER"
    },
    "titles_default_language": "eng",
    "title": "WORLD ORDER",
    "year": 2009
  }
}