{
  "header": {
    "version": 4,
    "description": "Karaoke Mugen Karaoke Data File"
  },
  "medias": [
    {
      "version": "Default",
      "filename": "JPN - Denonbu - AUDIO - PRECIOUS NIGHT ~ Kana Off Vocal Vers.mp3",
      "audiogain": -5.74,
      "loudnorm": "-11.17,0.79,9.00,-21.34,-1.08",
      "filesize": 11205152,
      "duration": 274,
      "default": true,
      "lyrics": [
        {
          "filename": "JPN - Denonbu - AUDIO - PRECIOUS NIGHT ~ Kana Off Vocal Vers.ass",
          "default": true,
          "version": "Default"
        }
      ]
    }
  ],
  "data": {
    "created_at": "2023-07-08T03:14:28.794Z",
    "ignoreHooks": false,
    "kid": "b8c19e4a-568b-4de7-a33a-5ac0ec5b204f",
    "modified_at": "2023-07-08T03:14:28.879Z",
    "parents": [
      "07b5c48b-400e-46df-b051-640bb451d870"
    ],
    "repository": "kara.moe",
    "tags": {
      "authors": [
        "7848b5dc-a5df-4577-b640-147be5288cec"
      ],
      "collections": [
        "c7db86a0-ff64-4044-9be4-66dd1ef1d1c1"
      ],
      "creators": [
        "c3e622d4-2686-4331-8691-d528c8647088"
      ],
      "groups": [
        "8e209ae4-4381-438f-89dc-1b21752027d2"
      ],
      "langs": [
        "4dcf9614-7914-42aa-99f4-dbce2e059133"
      ],
      "series": [
        "2734cb00-0154-4a59-a535-ef7794e8109d"
      ],
      "singers": [
        "c06de857-8928-41e9-b5db-d5af620d0f89"
      ],
      "singergroups": [
        "cfc8668e-03dc-423e-9d50-2b18944ca70d"
      ],
      "songtypes": [
        "42a262ae-acba-4ab5-a446-c5789c96c821"
      ],
      "songwriters": [
        "4571738c-416b-45ad-976b-4acafeed5cd3",
        "67335af9-dec8-498e-9eb4-d43a8206242c",
        "71a37c51-caaa-41aa-b46b-5ece42d18740"
      ],
      "versions": [
        "c0cc87b9-55b9-40f0-878a-fbb9e34c151e",
        "12d21e9c-3427-4677-a5bd-1301a0f7358a"
      ]
    },
    "titles": {
      "eng": "PRECIOUS NIGHT"
    },
    "titles_default_language": "eng",
    "year": 2022
  }
}