{
  "header": {
    "version": 4,
    "description": "Karaoke Mugen Karaoke Data File"
  },
  "medias": [
    {
      "version": "Default",
      "filename": "JPN - Black Cat - OP - Diamond no Hana.mp4",
      "audiogain": 1.55,
      "loudnorm": "-18.68,-6.61,4.70,-28.76,-0.86",
      "filesize": 18667343,
      "duration": 93,
      "default": true,
      "lyrics": [
        {
          "filename": "JPN - Black Cat - OP - Diamond no Hana.ass",
          "default": true,
          "version": "Default"
        }
      ]
    }
  ],
  "data": {
    "created_at": "2017-10-11T17:01:07.000Z",
    "ignoreHooks": false,
    "kid": "d7de6944-04bb-46ff-91d1-191caf77ae67",
    "modified_at": "2023-07-16T14:42:42.092Z",
    "repository": "kara.moe",
    "tags": {
      "authors": [
        "5bdaba57-27f8-4568-8806-76a807728766"
      ],
      "collections": [
        "c7db86a0-ff64-4044-9be4-66dd1ef1d1c1"
      ],
      "creators": [
        "12d35c78-7372-4a33-8843-b4a18b1ee737"
      ],
      "families": [
        "0377db02-3af6-43b8-9b08-c759df3d25c3"
      ],
      "groups": [
        "3c14c864-533c-49e6-a3cc-6969f1233775"
      ],
      "langs": [
        "4dcf9614-7914-42aa-99f4-dbce2e059133"
      ],
      "origins": [
        "938de218-5343-4865-94d3-fb33f2eaa152"
      ],
      "series": [
        "5cb8e9fc-334f-4a27-9b32-eefed4797279"
      ],
      "singers": [
        "797bb5d8-80be-4aee-a2cb-d2c262c7627d"
      ],
      "songtypes": [
        "f02ad9b3-0bd9-4aad-85b3-9976739ba0e4"
      ],
      "songwriters": [
        "797bb5d8-80be-4aee-a2cb-d2c262c7627d"
      ]
    },
    "titles": {
      "jpn": "ダイアの花",
      "qro": "Diamond no Hana"
    },
    "titles_default_language": "qro",
    "titles_aliases": [
      "Daia"
    ],
    "year": 2005
  }
}