{
  "header": {
    "version": 4,
    "description": "Karaoke Mugen Karaoke Data File"
  },
  "medias": [
    {
      "version": "Default",
      "filename": "JPN - Minna no Rhythm Tengoku - GAME WII IN - I Feel Fine!!.mp4",
      "audiogain": -10.26,
      "loudnorm": "-9.20,-0.87,4.30,-19.37,-0.61",
      "filesize": 21369885,
      "duration": 169,
      "default": true,
      "lyrics": [
        {
          "filename": "JPN - Minna no Rhythm Tengoku - GAME WII IN - I Feel Fine!!.ass",
          "default": true,
          "version": "Default"
        }
      ]
    }
  ],
  "data": {
    "created_at": "2017-10-11T17:01:45.000Z",
    "ignoreHooks": false,
    "kid": "65b7b312-2526-43e4-a03d-e8b8be3a5391",
    "modified_at": "2022-04-18T13:50:27.711Z",
    "repository": "kara.moe",
    "tags": {
      "authors": [
        "5bdaba57-27f8-4568-8806-76a807728766"
      ],
      "collections": [
        "c7db86a0-ff64-4044-9be4-66dd1ef1d1c1"
      ],
      "creators": [
        "65202019-808e-49c3-8c7c-a12f16394bba"
      ],
      "groups": [
        "ae613721-1fbe-480d-ba6b-d6d0702b184d"
      ],
      "langs": [
        "4dcf9614-7914-42aa-99f4-dbce2e059133"
      ],
      "platforms": [
        "78d46ef5-c98a-44dd-ad00-5d8c44b6271b"
      ],
      "series": [
        "596cea36-ae38-445e-badf-cfcfcd1dd341"
      ],
      "singers": [
        "d8ae7b0c-40dd-4805-a275-922cc13f1e9b"
      ],
      "songtypes": [
        "5e5250d9-351a-4a82-98eb-55db50ad8962"
      ],
      "songwriters": [
        "5938e181-5402-43ea-a5a0-a4ca2405705d"
      ],
      "franchises": [
        "7542749a-37e8-4dd6-aa66-8eaf7f84d3f7"
      ],
      "origins": [
        "dbedd6b3-d125-4cd8-aa32-c4175e4ca3a3"
      ]
    },
    "titles": {
      "eng": "I Feel Fine!!"
    },
    "titles_default_language": "eng",
    "title": "I Feel Fine!!",
    "year": 2011
  }
}