{
  "header": {
    "version": 4,
    "description": "Karaoke Mugen Karaoke Data File"
  },
  "medias": [
    {
      "version": "Default",
      "filename": "JPN - YOASOBI - MV - Tabun.mp4",
      "audiogain": -7.85,
      "loudnorm": "-8.52,1.57,7.80,-18.79,-1.16",
      "filesize": 44917875,
      "duration": 263,
      "default": true,
      "lyrics": [
        {
          "filename": "JPN - YOASOBI - MV - Tabun.ass",
          "default": true,
          "version": "Default"
        }
      ]
    }
  ],
  "data": {
    "created_at": "2021-09-22T13:19:39.535Z",
    "ignoreHooks": false,
    "kid": "12fdd56c-86dc-4800-9f03-024d779a0b1e",
    "modified_at": "2022-11-19T23:39:36.534Z",
    "repository": "kara.moe",
    "tags": {
      "authors": [
        "87096920-112f-485f-a310-04156cb4624d"
      ],
      "collections": [
        "c7db86a0-ff64-4044-9be4-66dd1ef1d1c1"
      ],
      "creators": [
        "018afa2a-07d6-429c-82eb-f4b215096434"
      ],
      "families": [
        "0377db02-3af6-43b8-9b08-c759df3d25c3"
      ],
      "groups": [
        "60defa7b-774e-4680-8321-51b742c2e009",
        "8e209ae4-4381-438f-89dc-1b21752027d2"
      ],
      "langs": [
        "4dcf9614-7914-42aa-99f4-dbce2e059133"
      ],
      "singergroups": [
        "e028a7e9-d3f2-4df7-a6ba-c7f78e98b549"
      ],
      "songtypes": [
        "7be1b15c-cff8-4b37-a649-5c90f3d569a9"
      ],
      "songwriters": [
        "ac03c264-7085-486b-a47f-3e7574e51a33"
      ]
    },
    "titles": {
      "jpn": "たぶん",
      "qro": "Tabun"
    },
    "titles_default_language": "qro",
    "year": 2020
  }
}