{
  "header": {
    "version": 4,
    "description": "Karaoke Mugen Karaoke Data File"
  },
  "medias": [
    {
      "version": "Default",
      "filename": "JPN - Densha Otoko - OP1 - Mr. Roboto.mp4",
      "audiogain": 3.3,
      "loudnorm": "-21.50,-5.29,4.90,-31.60,-0.56",
      "filesize": 51990190,
      "duration": 116,
      "default": true,
      "lyrics": [
        {
          "filename": "JPN - Densha Otoko - OP1 - Mr. Roboto.ass",
          "default": true,
          "version": "Default",
          "subchecksum": "874ec8a836b571d2bef713f30cd27222"
        }
      ]
    }
  ],
  "data": {
    "created_at": "2017-10-11T15:00:52.000Z",
    "kid": "5f4986b3-13cb-4c95-83d7-b1379acae7a4",
    "modified_at": "2021-02-25T11:08:52.671Z",
    "repository": "kara.moe",
    "songorder": 1,
    "tags": {
      "authors": [
        "4607780c-f1ef-47cf-9c1c-b13e8f731699"
      ],
      "collections": [
        "c7db86a0-ff64-4044-9be4-66dd1ef1d1c1"
      ],
      "creators": [
        "75cd9c99-a991-449e-9b5c-954410edbe60"
      ],
      "families": [
        "5391f9fe-638c-415f-8dc9-958e3a2c5787"
      ],
      "groups": [
        "3c14c864-533c-49e6-a3cc-6969f1233775"
      ],
      "langs": [
        "4dcf9614-7914-42aa-99f4-dbce2e059133"
      ],
      "origins": [
        "938de218-5343-4865-94d3-fb33f2eaa152"
      ],
      "series": [
        "10f114a6-d80f-46bb-bba4-eed3b1d38240"
      ],
      "singers": [
        "19c4c8a1-1c91-4cc7-ba47-c9c07d136d0f"
      ],
      "songtypes": [
        "f02ad9b3-0bd9-4aad-85b3-9976739ba0e4"
      ],
      "songwriters": [
        "dd6ef751-6952-4194-8988-fa1dbce6ba4d"
      ],
      "genres": [
        "28650021-2b2a-4a55-aff4-85dd4896c687"
      ]
    },
    "title": "Mr. Roboto",
    "titles": {
      "eng": "Mr. Roboto"
    },
    "year": 2005,
    "titles_default_language": "eng"
  }
}