{
  "header": {
    "version": 4,
    "description": "Karaoke Mugen Karaoke Data File"
  },
  "medias": [
    {
      "version": "Default",
      "filename": "JPN - Baby I Love You Daze - MV - Shinsekai.mp4",
      "audiogain": 1.88,
      "loudnorm": "-19.03,-9.49,15.80,-30.18,-1.33",
      "filesize": 86120592,
      "duration": 213,
      "default": true,
      "lyrics": [
        {
          "filename": "JPN - Baby I Love You Daze - MV - Shinsekai.ass",
          "default": true,
          "version": "Default",
          "subchecksum": "2dd5ffcd24674170146ea69cef0cb595"
        }
      ]
    }
  ],
  "data": {
    "created_at": "2019-01-05T13:16:47.000Z",
    "kid": "f8e8f9a2-a1c4-4ce3-a6ef-9e8d9630c900",
    "modified_at": "2021-02-25T10:48:26.357Z",
    "repository": "kara.moe",
    "tags": {
      "authors": [
        "6bebcb04-2694-453c-9e0c-eb1a2e2718d9"
      ],
      "collections": [
        "c7db86a0-ff64-4044-9be4-66dd1ef1d1c1"
      ],
      "creators": [
        "57ffcdd9-7e4f-4971-85ce-0fb3aa8151ac"
      ],
      "families": [
        "0377db02-3af6-43b8-9b08-c759df3d25c3"
      ],
      "groups": [
        "ae613721-1fbe-480d-ba6b-d6d0702b184d"
      ],
      "langs": [
        "4dcf9614-7914-42aa-99f4-dbce2e059133"
      ],
      "series": [
        "3f57ea0a-faaa-469c-9bc0-37b6b319b664"
      ],
      "singers": [
        "a027724c-6136-4dc1-b585-7ae8f780c8d2"
      ],
      "songtypes": [
        "7be1b15c-cff8-4b37-a649-5c90f3d569a9"
      ],
      "songwriters": [
        "20a392bf-0517-4d22-a08c-46345d1077fe"
      ]
    },
    "title": "Shinsekai",
    "titles": {
      "qro": "Shinsekai",
      "jpn": "新世界"
    },
    "year": 2018,
    "titles_default_language": "qro"
  }
}