{
  "header": {
    "version": 4,
    "description": "Karaoke Mugen Karaoke Data File"
  },
  "medias": [
    {
      "version": "Goose House.",
      "filename": "JPN - Pocket Monsters - REMIX MV - Mezase Pokemon Master ~ Goose House Vers. ~ Cover Vers.mp4",
      "audiogain": -7.47,
      "loudnorm": "-11.19,1.14,6.80,-21.48,-1.44",
      "filesize": 92251137,
      "duration": 329,
      "default": true,
      "lyrics": [
        {
          "filename": "JPN - Pocket Monsters - REMIX MV - Mezase Pokemon Master ~ Goose House Vers. ~ Cover Vers.ass",
          "default": true,
          "version": "Default"
        }
      ]
    }
  ],
  "data": {
    "created_at": "2019-09-28T14:36:57.000Z",
    "kid": "0da3d721-fd99-41bc-9e7f-a3cc01993477",
    "modified_at": "2022-06-04T00:13:50.236Z",
    "parents": [
      "242db3b8-9777-49b9-8897-c22fd35e0f32"
    ],
    "repository": "kara.moe",
    "songorder": null,
    "tags": {
      "authors": [
        "57e2d8c3-b3f3-4b82-88a4-2491946b24d9"
      ],
      "families": [
        "5391f9fe-638c-415f-8dc9-958e3a2c5787"
      ],
      "groups": [
        "2b4e9972-5e17-481b-99f5-d0787c0ada56",
        "ae613721-1fbe-480d-ba6b-d6d0702b184d"
      ],
      "langs": [
        "4dcf9614-7914-42aa-99f4-dbce2e059133"
      ],
      "misc": [
        "86705d4b-24e4-4756-9687-2b9c98bcf366",
        "ec4360fa-3e3c-4f6f-b0e1-fb8b12b6dd18"
      ],
      "series": [
        "cc1f8e40-71a2-4097-9bcf-7132b4b19ef7"
      ],
      "singers": [
        "ee11c54e-60b4-49ba-9b26-7a054484b00a"
      ],
      "songtypes": [
        "7be1b15c-cff8-4b37-a649-5c90f3d569a9"
      ],
      "songwriters": [
        "959ddffc-27b2-401f-a8d2-c5f971c8b666",
        "d0f72bfd-3c82-4f24-b149-717ed6e45f43"
      ],
      "versions": [
        "03e1e1d2-8641-47b7-bbcb-39a3df9ff21c"
      ],
      "collections": [
        "dbcf2c22-524d-4708-99bb-601703633927"
      ],
      "franchises": [
        "c6923c03-f8c0-4258-a478-8dfa08f3ccd0"
      ]
    },
    "titles": {
      "qro": "Mezase Pokémon Master ~ Goose House Vers.",
      "jpn": "めざせポケモンマスター ~ Goose House Vers."
    },
    "titles_default_language": "qro",
    "title": "Mezase Pokémon Master ~ Goose House Vers.",
    "year": 2013
  }
}