{
  "header": {
    "version": 4,
    "description": "Karaoke Mugen Karaoke Data File"
  },
  "medias": [
    {
      "version": "Default",
      "filename": "JPN - Touhou - MV - START.mp4",
      "audiogain": -8.82,
      "loudnorm": "-7.81,2.02,5.80,-17.92,-1.14",
      "filesize": 33045246,
      "duration": 213,
      "default": true,
      "lyrics": [
        {
          "filename": "JPN - Touhou - MV - START.ass",
          "default": true,
          "version": "Default"
        }
      ]
    }
  ],
  "data": {
    "created_at": "2023-06-30T21:08:58.258Z",
    "ignoreHooks": false,
    "kid": "0e20d02c-3f7a-4b19-b5d0-8e42aab647e1",
    "modified_at": "2023-06-30T21:08:59.274Z",
    "repository": "kara.moe",
    "tags": {
      "authors": [
        "56355915-6bc6-4282-acbb-dd1fdaf13d50"
      ],
      "collections": [
        "c7db86a0-ff64-4044-9be4-66dd1ef1d1c1"
      ],
      "creators": [
        "50a403a1-431d-4d31-b4cc-9d0a0c10e29f"
      ],
      "families": [
        "0377db02-3af6-43b8-9b08-c759df3d25c3"
      ],
      "groups": [
        "df5f446f-d161-4760-8e0c-822e70ea03ae",
        "8e209ae4-4381-438f-89dc-1b21752027d2"
      ],
      "langs": [
        "4dcf9614-7914-42aa-99f4-dbce2e059133"
      ],
      "series": [
        "1bdaa5a1-dfa6-4365-b746-7a0b194dafd6"
      ],
      "singers": [
        "b9ce4174-62ce-4ede-b4c1-a8e0f90d068f"
      ],
      "singergroups": [
        "bc2ef6e5-4b1a-4066-ab1a-1a8385dc27d2"
      ],
      "songtypes": [
        "7be1b15c-cff8-4b37-a649-5c90f3d569a9"
      ],
      "songwriters": [
        "36ef5afc-edd0-424c-88fa-65e13575f3dd",
        "36625be5-356a-4c7a-bd56-9d6209bc44fd"
      ],
      "franchises": [
        "1bdaa5a1-dfa6-4365-b746-7a0b194dafd6"
      ]
    },
    "titles": {
      "eng": "START"
    },
    "titles_default_language": "eng",
    "year": 2021
  }
}