{
  "header": {
    "version": 4,
    "description": "Karaoke Mugen Karaoke Data File"
  },
  "medias": [
    {
      "version": "Default",
      "filename": "JPN - Digimon Adventure - LIVE - Butter-Fly ~ Full Vers.mp4",
      "audiogain": -9.77,
      "loudnorm": "-7.32,1.53,3.30,-17.41,-0.34",
      "filesize": 119930056,
      "duration": 280,
      "default": true,
      "lyrics": [
        {
          "filename": "JPN - Digimon Adventure - LIVE - Butter-Fly ~ Full Vers.ass",
          "default": true,
          "version": "Default"
        }
      ]
    }
  ],
  "data": {
    "created_at": "2021-06-06T20:38:12.130Z",
    "ignoreHooks": false,
    "kid": "60b855ac-b596-492a-b737-9e4dff3475a5",
    "modified_at": "2022-12-21T22:36:32.963Z",
    "parents": [
      "e702344c-f032-45ae-9d33-e3d18db59756"
    ],
    "repository": "kara.moe",
    "tags": {
      "authors": [
        "70e26885-c0b5-4a01-b95b-2f492b8a8f10"
      ],
      "collections": [
        "dbcf2c22-524d-4708-99bb-601703633927"
      ],
      "creators": [
        "0436d462-6b0b-491c-9938-5890de7b32a4"
      ],
      "families": [
        "5391f9fe-638c-415f-8dc9-958e3a2c5787"
      ],
      "groups": [
        "ae613721-1fbe-480d-ba6b-d6d0702b184d"
      ],
      "langs": [
        "4dcf9614-7914-42aa-99f4-dbce2e059133"
      ],
      "series": [
        "2fa3fc52-cad5-4946-a4bb-829c2f71c1ee"
      ],
      "singers": [
        "8cabf7de-7f83-4a4f-83fa-6c1324c0fe51"
      ],
      "songtypes": [
        "a0167949-580c-4de3-bf13-497e462e02f3"
      ],
      "songwriters": [
        "a04ce6fd-9a98-4fb5-aca1-a3b7e97b7522"
      ],
      "versions": [
        "c2143a7f-6970-450e-8a79-0302db9220a9"
      ],
      "franchises": [
        "315185f5-7fec-40da-ad58-8b0badb1c717"
      ]
    },
    "titles": {
      "eng": "Butter-Fly"
    },
    "titles_default_language": "eng",
    "titles_aliases": [
      "Butterfly"
    ],
    "year": 2014
  }
}