{
  "header": {
    "version": 4,
    "description": "Karaoke Mugen Karaoke Data File"
  },
  "medias": [
    {
      "version": "Default",
      "filename": "JPN - Ryuu ga Gotoku 0 - PS3 PS4 PC GAME IN - 24 Jikan Cinderella.mp4",
      "audiogain": -0.77,
      "loudnorm": "-17.56,-3.56,3.30,-27.77,-0.10",
      "filesize": 114086597,
      "duration": 110,
      "default": true,
      "lyrics": [
        {
          "filename": "JPN - Ryuu ga Gotoku 0 - PS3 PS4 PC GAME IN - 24 Jikan Cinderella.ass",
          "default": true,
          "version": "Default",
          "subchecksum": "89ebac51b676abf5034290c77ecbd168"
        }
      ]
    }
  ],
  "data": {
    "created_at": "2017-10-11T17:01:25.000Z",
    "kid": "29b7b9d8-d5bf-4ca0-ae9d-cb285762127f",
    "modified_at": "2021-02-25T12:53:52.086Z",
    "repository": "kara.moe",
    "tags": {
      "authors": [
        "5e93f02a-bcd1-40a9-ba7a-91ada6683aea"
      ],
      "collections": [
        "c7db86a0-ff64-4044-9be4-66dd1ef1d1c1"
      ],
      "creators": [
        "b8a3778d-0864-4135-9053-1def02d3262e"
      ],
      "groups": [
        "ae613721-1fbe-480d-ba6b-d6d0702b184d"
      ],
      "langs": [
        "4dcf9614-7914-42aa-99f4-dbce2e059133"
      ],
      "platforms": [
        "248d92ee-8c02-43bc-86e2-cc6029883564",
        "3c15f758-e1bc-4266-8bb9-3c14112f504a",
        "7f63ff91-7961-4488-888d-4bf46eea3a2a"
      ],
      "series": [
        "36299781-38f0-49f7-b34d-cd9516a0c083"
      ],
      "singers": [
        "001574c7-e714-429e-9f67-001d4ddbb080"
      ],
      "songtypes": [
        "5e5250d9-351a-4a82-98eb-55db50ad8962"
      ],
      "songwriters": [
        "ef2fa98a-f056-4006-bce5-52f9385c5a70"
      ],
      "franchises": [
        "d39de2d9-b14c-495d-be4a-8fad3b65305f"
      ],
      "origins": [
        "dbedd6b3-d125-4cd8-aa32-c4175e4ca3a3"
      ]
    },
    "title": "24 Jikan Cinderella",
    "titles": {
      "qro": "24 Jikan Cinderella",
      "jpn": "24時間シンデレラ"
    },
    "year": 2015,
    "titles_default_language": "qro"
  }
}