{
  "header": {
    "version": 4,
    "description": "Karaoke Mugen Karaoke Data File"
  },
  "medias": [
    {
      "version": "Default",
      "filename": "JPN - Senki Zesshou Symphogear GX - CS LIVE - Okitegami ~ Full Vers.mp4",
      "audiogain": -0.87,
      "loudnorm": "-17.07,-6.08,4.90,-27.11,-0.45",
      "filesize": 86660171,
      "duration": 242,
      "default": true,
      "lyrics": [
        {
          "filename": "JPN - Senki Zesshou Symphogear GX - CS LIVE - Okitegami ~ Full Vers.ass",
          "default": true,
          "version": "Default"
        }
      ]
    }
  ],
  "data": {
    "created_at": "2022-06-08T00:02:18.186Z",
    "ignoreHooks": false,
    "kid": "e8046f9f-51cc-4038-9ec5-c0d885e68658",
    "modified_at": "2022-12-17T06:54:39.151Z",
    "parents": [
      "113d7807-4e48-41de-8726-be29b67f2c85"
    ],
    "repository": "kara.moe",
    "tags": {
      "authors": [
        "a5dbab74-510b-48c5-9cea-5a537a81c974"
      ],
      "collections": [
        "dbcf2c22-524d-4708-99bb-601703633927"
      ],
      "creators": [
        "d2a29c19-019f-4a3d-86ad-2dae9e41a4b1"
      ],
      "families": [
        "5391f9fe-638c-415f-8dc9-958e3a2c5787"
      ],
      "groups": [
        "8c22c899-b3ed-42da-a548-ce00f950798b",
        "ae613721-1fbe-480d-ba6b-d6d0702b184d"
      ],
      "langs": [
        "4dcf9614-7914-42aa-99f4-dbce2e059133"
      ],
      "series": [
        "86627e91-4551-4e88-899b-2cb017e853e0"
      ],
      "singers": [
        "d2bf0734-aede-4e5c-b3a6-6d68b18192dc"
      ],
      "songtypes": [
        "a0167949-580c-4de3-bf13-497e462e02f3",
        "a8a2616c-b5a1-4df3-ad6f-89291bc67dee"
      ],
      "songwriters": [
        "a23e6b58-22ee-4a65-9199-07bb49271033",
        "af3ffe51-8059-461c-bbb8-78ea388731f3"
      ],
      "versions": [
        "c2143a7f-6970-450e-8a79-0302db9220a9"
      ],
      "franchises": [
        "61b24082-a6a9-482b-b126-0ad7be595791"
      ]
    },
    "titles": {
      "jpn": "おきてがみ",
      "qro": "Okitegami"
    },
    "titles_default_language": "qro",
    "year": 2016
  }
}