{
  "header": {
    "version": 4,
    "description": "Karaoke Mugen Karaoke Data File"
  },
  "medias": [
    {
      "version": "Default",
      "filename": "JPN - Touhou - AUDIO - MetoMetoMe.mp3",
      "audiogain": -10.17,
      "loudnorm": "-6.46,2.88,1.60,-16.51,-0.15",
      "filesize": 5662211,
      "duration": 202,
      "default": true,
      "lyrics": [
        {
          "filename": "JPN - Touhou - AUDIO - MetoMetoMe.ass",
          "default": true,
          "version": "Default"
        }
      ]
    }
  ],
  "data": {
    "created_at": "2023-01-29T12:39:44.233Z",
    "ignoreHooks": false,
    "kid": "96fb345a-25e6-4bfe-8241-e1b106edd234",
    "modified_at": "2023-05-20T13:13:53.836Z",
    "repository": "kara.moe",
    "tags": {
      "authors": [
        "fb28c6d3-a81e-40c0-9a4c-e3268c60a64b"
      ],
      "collections": [
        "c7db86a0-ff64-4044-9be4-66dd1ef1d1c1"
      ],
      "groups": [
        "8e209ae4-4381-438f-89dc-1b21752027d2"
      ],
      "langs": [
        "4dcf9614-7914-42aa-99f4-dbce2e059133"
      ],
      "misc": [
        "ec4fee75-71fb-45b4-9772-2ca374b4b600"
      ],
      "origins": [
        "ac5085db-52d8-44b4-8fbb-1697b24d2046"
      ],
      "series": [
        "1bdaa5a1-dfa6-4365-b746-7a0b194dafd6"
      ],
      "singers": [
        "a6e3509f-befc-4b8b-ac1c-3614e1c32447"
      ],
      "singergroups": [
        "eb49131c-b890-422d-9947-0e82292801e1"
      ],
      "songtypes": [
        "42a262ae-acba-4ab5-a446-c5789c96c821"
      ],
      "songwriters": [
        "26cb5252-8510-49e0-897c-a611a05fc056",
        "a6e3509f-befc-4b8b-ac1c-3614e1c32447"
      ],
      "franchises": [
        "1bdaa5a1-dfa6-4365-b746-7a0b194dafd6"
      ]
    },
    "titles": {
      "jpn": "めとめとめ",
      "qro": "MetoMetoMe"
    },
    "titles_default_language": "qro",
    "titles_aliases": [
      "me to"
    ],
    "year": 2022
  }
}