{
  "header": {
    "version": 4,
    "description": "Karaoke Mugen Karaoke Data File"
  },
  "medias": [
    {
      "version": "Default",
      "filename": "JPN - Nagi no Asukara - MV - Aqua Terrarium ~ Full Vers.mp4",
      "audiogain": 5.38,
      "loudnorm": "-22.71,-8.24,5.40,-32.93,-1.10",
      "filesize": 108750051,
      "duration": 297,
      "default": true,
      "lyrics": [
        {
          "filename": "JPN - Nagi no Asukara - MV - Aqua Terrarium ~ Full Vers.ass",
          "default": true,
          "version": "Default"
        }
      ]
    }
  ],
  "data": {
    "created_at": "2020-04-25T21:55:51.247Z",
    "kid": "e2b21cfe-a6fd-4d4f-be7e-738a6f95de93",
    "modified_at": "2022-06-04T00:16:33.902Z",
    "parents": [
      "0b0dc359-d285-4ee7-aca8-20dbabc0ce00"
    ],
    "repository": "kara.moe",
    "songorder": null,
    "tags": {
      "authors": [
        "60defa7b-774e-4680-8321-51b742c2e009"
      ],
      "creators": [
        "a2eb054b-5c11-4dfc-90ed-b0e0f289b838"
      ],
      "families": [
        "5391f9fe-638c-415f-8dc9-958e3a2c5787"
      ],
      "groups": [
        "60defa7b-774e-4680-8321-51b742c2e009",
        "ae613721-1fbe-480d-ba6b-d6d0702b184d"
      ],
      "langs": [
        "4dcf9614-7914-42aa-99f4-dbce2e059133"
      ],
      "series": [
        "0388a665-4bb8-4313-ae3f-bf1ba260d9b2"
      ],
      "singers": [
        "1d4bf64f-1fc5-4e97-a6cf-a15ab7517229"
      ],
      "songtypes": [
        "7be1b15c-cff8-4b37-a649-5c90f3d569a9"
      ],
      "songwriters": [
        "1d4bf64f-1fc5-4e97-a6cf-a15ab7517229",
        "7d007ea2-a183-4f90-a60e-a2b401190292"
      ],
      "versions": [
        "c2143a7f-6970-450e-8a79-0302db9220a9"
      ],
      "collections": [
        "dbcf2c22-524d-4708-99bb-601703633927"
      ]
    },
    "titles": {
      "eng": "Aqua Terrarium",
      "jpn": "アクアテラリウム"
    },
    "titles_default_language": "eng",
    "title": "Aqua Terrarium",
    "year": 2013
  }
}