{
  "header": {
    "version": 4,
    "description": "Karaoke Mugen Karaoke Data File"
  },
  "medias": [
    {
      "version": "Default",
      "filename": "JPN - Touhou - MV - Nine Head Pride.mp4",
      "audiogain": -9.44,
      "loudnorm": "-7.52,1.05,2.90,-17.53,-1.32",
      "filesize": 26397340,
      "duration": 224,
      "default": true,
      "lyrics": [
        {
          "filename": "JPN - Touhou - MV - Nine Head Pride.ass",
          "default": true,
          "version": "Default"
        }
      ]
    }
  ],
  "data": {
    "created_at": "2022-10-03T17:35:04.307Z",
    "ignoreHooks": false,
    "kid": "2ab6268a-660e-45be-bcb0-53d9585f5cdc",
    "modified_at": "2022-10-03T17:35:05.501Z",
    "repository": "kara.moe",
    "tags": {
      "authors": [
        "1fbfef73-6731-40df-ba51-65a54b9d1605"
      ],
      "collections": [
        "c7db86a0-ff64-4044-9be4-66dd1ef1d1c1"
      ],
      "creators": [
        "ad4c9a45-6385-48ff-9468-1a056c486239",
        "cc49c065-8f05-4b87-92e2-132fef8dc84c"
      ],
      "families": [
        "0377db02-3af6-43b8-9b08-c759df3d25c3"
      ],
      "langs": [
        "4dcf9614-7914-42aa-99f4-dbce2e059133"
      ],
      "origins": [
        "ac5085db-52d8-44b4-8fbb-1697b24d2046"
      ],
      "series": [
        "1bdaa5a1-dfa6-4365-b746-7a0b194dafd6"
      ],
      "singers": [
        "4cb575ae-a999-4234-9417-31580bcfab94",
        "95995521-0e6f-4cf2-92a3-6e536c6e4747"
      ],
      "songtypes": [
        "7be1b15c-cff8-4b37-a649-5c90f3d569a9"
      ],
      "songwriters": [
        "26cb5252-8510-49e0-897c-a611a05fc056",
        "1beb86fb-499b-412b-833d-3b8d5db091b0",
        "4cb575ae-a999-4234-9417-31580bcfab94",
        "09fd68e1-3812-4cc5-8698-a5f0c26c00a4"
      ],
      "franchises": [
        "1bdaa5a1-dfa6-4365-b746-7a0b194dafd6"
      ],
      "groups": [
        "ae613721-1fbe-480d-ba6b-d6d0702b184d"
      ]
    },
    "titles": {
      "jpn": "ナインヘッドプライド",
      "eng": "Nine Head Pride"
    },
    "titles_default_language": "eng",
    "title": "Nine Head Pride",
    "year": 2014
  }
}