{
  "header": {
    "version": 4,
    "description": "Karaoke Mugen Karaoke Data File"
  },
  "medias": [
    {
      "version": "Fushigi na Kusuri",
      "filename": "JPN - Touhou - MV - Unavoidable Koishi ~ Fushigi na Kusuri.mp4",
      "audiogain": -7.37,
      "loudnorm": "-10.74,-0.13,3.70,-20.88,-0.28",
      "filesize": 17844396,
      "duration": 120,
      "default": true,
      "lyrics": [
        {
          "filename": "JPN - Touhou - MV - Unavoidable Koishi ~ Fushigi na Kusuri.ass",
          "default": true,
          "version": "Default",
          "subchecksum": "8c1d99d24501b1ee95f9af866f7e1d34"
        }
      ]
    }
  ],
  "data": {
    "created_at": "2018-06-18T19:40:28.000Z",
    "kid": "0da49500-fa1f-4812-999b-b1c6f32f287e",
    "modified_at": "2021-02-25T13:28:14.740Z",
    "repository": "kara.moe",
    "tags": {
      "authors": [
        "a5dbab74-510b-48c5-9cea-5a537a81c974"
      ],
      "collections": [
        "c7db86a0-ff64-4044-9be4-66dd1ef1d1c1"
      ],
      "creators": [
        "a56ed9e7-a3dc-4203-b91c-4128bcf7bfa9"
      ],
      "families": [
        "0377db02-3af6-43b8-9b08-c759df3d25c3"
      ],
      "groups": [
        "8c22c899-b3ed-42da-a548-ce00f950798b",
        "ae613721-1fbe-480d-ba6b-d6d0702b184d"
      ],
      "langs": [
        "4dcf9614-7914-42aa-99f4-dbce2e059133"
      ],
      "series": [
        "1bdaa5a1-dfa6-4365-b746-7a0b194dafd6"
      ],
      "singers": [
        "531eb66a-6db1-4957-99b8-0219812fe7eb"
      ],
      "songtypes": [
        "7be1b15c-cff8-4b37-a649-5c90f3d569a9"
      ],
      "songwriters": [
        "ac8e31e1-4814-42dd-9b54-0c75f1576e0f",
        "d295ada0-4d16-479b-ba92-0f4f45553d04"
      ],
      "franchises": [
        "1bdaa5a1-dfa6-4365-b746-7a0b194dafd6"
      ]
    },
    "title": "Unavoidable Koishi ~ Fushigi na Kusuri",
    "titles": {
      "qro": "Unavoidable Koishi ~ Fushigi na Kusuri",
      "jpn": "Unavoidable Koishi ~ ふしぎなくすり"
    },
    "year": 2010,
    "titles_default_language": "qro"
  }
}