{
  "header": {
    "version": 4,
    "description": "Karaoke Mugen Karaoke Data File"
  },
  "medias": [
    {
      "version": "Default",
      "filename": "JPN - Yowamushi Pedal - OP1 - Reclaim.mp4",
      "audiogain": 3.83,
      "loudnorm": "-20.55,-9.73,5.10,-30.70,-1.09",
      "filesize": 44481875,
      "duration": 90,
      "default": true,
      "lyrics": [
        {
          "filename": "JPN - Yowamushi Pedal - OP1 - Reclaim.ass",
          "default": true,
          "version": "Default",
          "subchecksum": "fdfaf7bd0347537d9aadb69d733318ef"
        }
      ]
    }
  ],
  "data": {
    "created_at": "2017-10-11T17:00:52.000Z",
    "kid": "3842f386-7d82-4739-80f3-d08d56b1598e",
    "modified_at": "2021-02-25T13:40:37.731Z",
    "repository": "kara.moe",
    "songorder": 1,
    "tags": {
      "authors": [
        "5bdaba57-27f8-4568-8806-76a807728766"
      ],
      "collections": [
        "c7db86a0-ff64-4044-9be4-66dd1ef1d1c1"
      ],
      "creators": [
        "53e900ec-a1ff-4c95-8b2d-a63995c2936f"
      ],
      "families": [
        "0377db02-3af6-43b8-9b08-c759df3d25c3"
      ],
      "groups": [
        "ae613721-1fbe-480d-ba6b-d6d0702b184d"
      ],
      "langs": [
        "4dcf9614-7914-42aa-99f4-dbce2e059133"
      ],
      "origins": [
        "938de218-5343-4865-94d3-fb33f2eaa152"
      ],
      "series": [
        "fd5c4a81-9e1e-4688-a037-8b26f32d5eb9"
      ],
      "singers": [
        "30122147-4a27-469f-a59d-86a9997f1359"
      ],
      "songtypes": [
        "f02ad9b3-0bd9-4aad-85b3-9976739ba0e4"
      ],
      "songwriters": [
        "30122147-4a27-469f-a59d-86a9997f1359",
        "dffcef53-13ed-4b12-8e15-5c58c7ede869"
      ],
      "franchises": [
        "fd5c4a81-9e1e-4688-a037-8b26f32d5eb9"
      ]
    },
    "title": "Reclaim",
    "titles": {
      "eng": "Reclaim"
    },
    "year": 2013,
    "titles_default_language": "eng"
  }
}