{
  "header": {
    "version": 4,
    "description": "Karaoke Mugen Karaoke Data File"
  },
  "medias": [
    {
      "version": "Default",
      "filename": "JPN - Macross 7 - IN - Submarine Street.mp4",
      "audiogain": -3.05,
      "loudnorm": "-14.01,-0.65,4.10,-24.09,0.73",
      "filesize": 28454785,
      "duration": 171,
      "default": true,
      "lyrics": [
        {
          "filename": "JPN - Macross 7 - IN - Submarine Street.ass",
          "default": true,
          "version": "Default",
          "subchecksum": "271411c049b4a822b83a5a8c6e03c347"
        }
      ]
    }
  ],
  "data": {
    "created_at": "2018-11-15T22:08:15.000Z",
    "kid": "e02c5c80-0f24-443a-b5b9-a0b5cf9dee0d",
    "modified_at": "2021-02-25T12:16:27.387Z",
    "repository": "kara.moe",
    "tags": {
      "authors": [
        "5bdaba57-27f8-4568-8806-76a807728766"
      ],
      "collections": [
        "c7db86a0-ff64-4044-9be4-66dd1ef1d1c1"
      ],
      "creators": [
        "fa1cbae7-2b13-45ec-8233-15807fd5f1a3"
      ],
      "families": [
        "0377db02-3af6-43b8-9b08-c759df3d25c3"
      ],
      "genres": [
        "f60ba57d-5ef4-49e0-b93b-d0dcbcff6592"
      ],
      "groups": [
        "24db50aa-a126-4d34-a48a-e45db79c4245"
      ],
      "langs": [
        "4dcf9614-7914-42aa-99f4-dbce2e059133"
      ],
      "origins": [
        "938de218-5343-4865-94d3-fb33f2eaa152"
      ],
      "series": [
        "6ffeba39-3d62-45f8-97d5-e25f81c61af1"
      ],
      "singers": [
        "00051843-4129-427f-883d-c1eb8e9fe98b",
        "6335750b-cbf3-4c6b-9f84-00dc692ae9e5",
        "7927b9e9-feea-4c4d-8142-57ad8ddc0dbd"
      ],
      "songtypes": [
        "5e5250d9-351a-4a82-98eb-55db50ad8962"
      ],
      "songwriters": [
        "016c92b5-35cf-4055-87e6-d73ce6245f90",
        "33fa3cf4-8411-4ea7-b018-b570b06388b3"
      ],
      "franchises": [
        "01b9b958-2d2a-43d0-a5dd-efb5b14675ea"
      ]
    },
    "title": "Submarine Street",
    "titles": {
      "eng": "SUBMARINE STREET"
    },
    "year": 1994,
    "titles_default_language": "eng"
  }
}