{
  "header": {
    "version": 4,
    "description": "Karaoke Mugen Karaoke Data File"
  },
  "medias": [
    {
      "version": "Default",
      "filename": "JPN - NANA - OP2 - Wish.mp4",
      "audiogain": -0.73,
      "loudnorm": "-16.94,-6.87,3.70,-27.33,-0.33",
      "filesize": 42105210,
      "duration": 96,
      "default": true,
      "lyrics": [
        {
          "filename": "JPN - NANA - OP2 - Wish.ass",
          "default": true,
          "version": "Default"
        }
      ]
    }
  ],
  "data": {
    "created_at": "2017-10-11T17:02:13.000Z",
    "ignoreHooks": false,
    "kid": "eb18136a-cf16-4119-aa30-ed1b9fd0b213",
    "modified_at": "2023-07-12T15:14:24.569Z",
    "repository": "kara.moe",
    "songorder": 2,
    "tags": {
      "authors": [
        "5bdaba57-27f8-4568-8806-76a807728766"
      ],
      "collections": [
        "c7db86a0-ff64-4044-9be4-66dd1ef1d1c1"
      ],
      "creators": [
        "9c5cf6ba-0bc8-4cfe-a63c-e9be3a14e9fd"
      ],
      "families": [
        "0377db02-3af6-43b8-9b08-c759df3d25c3"
      ],
      "groups": [
        "3c14c864-533c-49e6-a3cc-6969f1233775"
      ],
      "langs": [
        "4dcf9614-7914-42aa-99f4-dbce2e059133"
      ],
      "misc": [
        "fe819ff1-9db8-4a0f-85dc-0e322c9126c4"
      ],
      "origins": [
        "938de218-5343-4865-94d3-fb33f2eaa152"
      ],
      "series": [
        "6393edba-8ecb-44e6-8a1d-e80b6e007a12"
      ],
      "singers": [
        "1b4d0d00-1f9e-40ad-b560-f69c7dbe8d55"
      ],
      "songtypes": [
        "f02ad9b3-0bd9-4aad-85b3-9976739ba0e4"
      ],
      "songwriters": [
        "1b4d0d00-1f9e-40ad-b560-f69c7dbe8d55",
        "492588dc-dcba-4295-8aca-e31cbd58b0e1",
        "ed8dde08-f578-4c3a-90dc-53d566f580fb"
      ]
    },
    "titles": {
      "eng": "Wish"
    },
    "titles_default_language": "eng",
    "year": 2006
  }
}