{
  "header": {
    "version": 4,
    "description": "Karaoke Mugen Karaoke Data File"
  },
  "medias": [
    {
      "version": "Default",
      "filename": "JPN - Hypnosis Mic -Division Rap Battle- - MV - Ohayou Ikebukuro.mp4",
      "audiogain": -9.98,
      "loudnorm": "-8.26,1.95,5.90,-18.52,-0.31",
      "filesize": 19414252,
      "duration": 267,
      "default": true,
      "lyrics": [
        {
          "filename": "JPN - Hypnosis Mic -Division Rap Battle- - MV - Ohayou Ikebukuro.ass",
          "default": true,
          "version": "Default"
        }
      ]
    }
  ],
  "data": {
    "created_at": "2019-09-24T12:19:29.000Z",
    "ignoreHooks": false,
    "kid": "7e064094-0e18-4229-87c7-710e8bcc58e7",
    "modified_at": "2022-09-30T19:53:16.946Z",
    "repository": "kara.moe",
    "tags": {
      "authors": [
        "2a9bbf75-0722-4b4a-9935-caa92f38fdd1"
      ],
      "collections": [
        "c7db86a0-ff64-4044-9be4-66dd1ef1d1c1"
      ],
      "creators": [
        "57922aa1-eae2-4c1d-946c-bb320505b549",
        "769af53e-df08-4cb5-9cad-7503576dee49",
        "98ab71c6-8066-4d59-84a2-9833a27ec461",
        "d2a29c19-019f-4a3d-86ad-2dae9e41a4b1"
      ],
      "families": [
        "0377db02-3af6-43b8-9b08-c759df3d25c3"
      ],
      "groups": [
        "ae613721-1fbe-480d-ba6b-d6d0702b184d"
      ],
      "langs": [
        "4dcf9614-7914-42aa-99f4-dbce2e059133"
      ],
      "misc": [
        "ec4fee75-71fb-45b4-9772-2ca374b4b600"
      ],
      "series": [
        "8969c1d9-a552-4216-837c-36945e5e730a"
      ],
      "singers": [
        "787d9b3d-2e20-4dca-b83c-6c9c1b9e2202",
        "78be834e-1d7a-4c34-95ae-cd02702bf1fb",
        "9b55465b-ae63-43ae-a2e9-39a86033392d"
      ],
      "singergroups": [
        "3e33190c-5796-4b46-ba8f-53162959bb1c"
      ],
      "songtypes": [
        "7be1b15c-cff8-4b37-a649-5c90f3d569a9"
      ],
      "songwriters": [
        "44e9d308-7855-40d4-a08f-bceaaea39227",
        "787d9b3d-2e20-4dca-b83c-6c9c1b9e2202",
        "799f220e-e32c-4b1c-8f6a-78fff3cccdaa"
      ],
      "franchises": [
        "8969c1d9-a552-4216-837c-36945e5e730a"
      ]
    },
    "titles": {
      "jpn": "おはようイケブクロ",
      "qro": "Ohayô Ikebukuro"
    },
    "titles_default_language": "qro",
    "title": "Ohayô Ikebukuro",
    "year": 2019,
    "titles_aliases": [
      "Ohayou"
    ]
  }
}