{
  "header": {
    "version": 4,
    "description": "Karaoke Mugen Karaoke Data File"
  },
  "medias": [
    {
      "version": "Default",
      "filename": "JPN - Kamisama Hajimemashita 2 - OP - Kamisama no Kamisama.mp4",
      "audiogain": 4.87,
      "loudnorm": "-20.53,-9.87,3.40,-30.69,-0.85",
      "filesize": 40953036,
      "duration": 91,
      "default": true,
      "lyrics": [
        {
          "filename": "JPN - Kamisama Hajimemashita 2 - OP - Kamisama no Kamisama.ass",
          "default": true,
          "version": "Default",
          "subchecksum": "821c1bfaf1aedaf85d75702af3b19e69"
        }
      ]
    }
  ],
  "data": {
    "created_at": "2017-10-11T17:02:32.000Z",
    "kid": "6b414b34-7412-4878-97e8-13e753c5175e",
    "modified_at": "2021-02-25T11:53:57.963Z",
    "repository": "kara.moe",
    "tags": {
      "authors": [
        "5bdaba57-27f8-4568-8806-76a807728766"
      ],
      "collections": [
        "c7db86a0-ff64-4044-9be4-66dd1ef1d1c1"
      ],
      "creators": [
        "53e900ec-a1ff-4c95-8b2d-a63995c2936f"
      ],
      "families": [
        "0377db02-3af6-43b8-9b08-c759df3d25c3"
      ],
      "genres": [
        "8b6ace6f-a59e-4740-b3ff-e1618720383c"
      ],
      "groups": [
        "ae613721-1fbe-480d-ba6b-d6d0702b184d"
      ],
      "langs": [
        "4dcf9614-7914-42aa-99f4-dbce2e059133"
      ],
      "misc": [
        "fe819ff1-9db8-4a0f-85dc-0e322c9126c4"
      ],
      "origins": [
        "938de218-5343-4865-94d3-fb33f2eaa152"
      ],
      "series": [
        "6ed0dd07-d1eb-4e7c-af1b-a62fb9e5d423"
      ],
      "singers": [
        "4b200b1b-ca34-469d-b54e-93e57687ea78"
      ],
      "songtypes": [
        "f02ad9b3-0bd9-4aad-85b3-9976739ba0e4"
      ],
      "songwriters": [
        "5dbc0949-4f7f-4a33-93c3-6a176b2ce1ba"
      ],
      "franchises": [
        "b9664da2-4f6e-488c-9e50-e7051d41a737"
      ]
    },
    "title": "Kamisama no Kamisama",
    "titles": {
      "qro": "Kamisama no Kamisama",
      "jpn": "神様の神様"
    },
    "year": 2015,
    "titles_default_language": "qro"
  }
}