{
  "header": {
    "version": 4,
    "description": "Karaoke Mugen Karaoke Data File"
  },
  "medias": [
    {
      "version": "Default",
      "filename": "JPN - Ao no Kanata no Four Rhythm - GAME SWITCH AUDIO ED - Sorakoi ~ Kana Off Vocal Vers.mp3",
      "audiogain": -3.67,
      "loudnorm": "-16.59,0.01,9.40,-26.69,-1.16",
      "filesize": 13318526,
      "duration": 320,
      "default": true,
      "lyrics": [
        {
          "filename": "JPN - Ao no Kanata no Four Rhythm - GAME SWITCH AUDIO ED - Sorakoi ~ Kana Off Vocal Vers.ass",
          "default": true,
          "version": "Default"
        }
      ]
    }
  ],
  "data": {
    "created_at": "2023-05-29T01:35:34.556Z",
    "ignoreHooks": false,
    "kid": "9cf20b26-7f10-4420-ac76-e759ce663044",
    "modified_at": "2023-05-29T01:45:52.914Z",
    "parents": [
      "99023b1e-d244-413d-877f-331c8009089b"
    ],
    "repository": "kara.moe",
    "tags": {
      "authors": [
        "7848b5dc-a5df-4577-b640-147be5288cec"
      ],
      "collections": [
        "f2462778-f986-4844-a4b8-e1d3ccdb861b"
      ],
      "groups": [
        "ae613721-1fbe-480d-ba6b-d6d0702b184d"
      ],
      "langs": [
        "4dcf9614-7914-42aa-99f4-dbce2e059133"
      ],
      "misc": [
        "86705d4b-24e4-4756-9687-2b9c98bcf366"
      ],
      "origins": [
        "2f96e82c-c61b-4413-817e-e6b247509b95",
        "dbedd6b3-d125-4cd8-aa32-c4175e4ca3a3"
      ],
      "platforms": [
        "0a880bfc-d0e5-448b-98d2-4ba7b3106641",
        "248d92ee-8c02-43bc-86e2-cc6029883564",
        "3c15f758-e1bc-4266-8bb9-3c14112f504a",
        "e791f168-068f-4c05-aa36-e8d63726aa06"
      ],
      "series": [
        "056a9c8e-70b4-40d8-ae22-62676bdb9624"
      ],
      "singers": [
        "2833c1fd-1446-4b55-97db-4d97fda4dcea"
      ],
      "songtypes": [
        "38c77c56-2b95-4040-b676-0994a8cb0597",
        "42a262ae-acba-4ab5-a446-c5789c96c821"
      ],
      "songwriters": [
        "400922df-5396-43ea-a338-90771426a74f",
        "4cc2a8d4-2898-419a-8959-9b4fe89c89e0"
      ],
      "versions": [
        "12d21e9c-3427-4677-a5bd-1301a0f7358a",
        "c0cc87b9-55b9-40f0-878a-fbb9e34c151e",
        "c2143a7f-6970-450e-8a79-0302db9220a9"
      ]
    },
    "titles": {
      "jpn": "空恋 - sorakoi -",
      "qro": "Sorakoi"
    },
    "titles_default_language": "qro",
    "year": 2015
  }
}