{
  "header": {
    "version": 4,
    "description": "Karaoke Mugen Karaoke Data File"
  },
  "medias": [
    {
      "version": "Default",
      "filename": "JPN - Aishiteru ze Baby - AUDIO OP - sunny side up ~ Full Vers.mp3",
      "audiogain": -9.8,
      "loudnorm": "-7.45,1.81,7.10,-17.55,-1.22",
      "filesize": 10649231,
      "duration": 265,
      "default": true,
      "lyrics": [
        {
          "filename": "JPN - Aishiteru ze Baby - AUDIO OP - sunny side up ~ Full Vers.ass",
          "default": true,
          "version": "Default"
        }
      ]
    }
  ],
  "data": {
    "created_at": "2023-06-06T21:32:03.996Z",
    "ignoreHooks": false,
    "kid": "4679d061-4ec8-4a3b-ae7b-03142ff47e14",
    "modified_at": "2023-06-06T21:33:03.884Z",
    "parents": [
      "e05cf287-0bfa-4fc8-998f-af8b6e8cfbe6"
    ],
    "repository": "kara.moe",
    "tags": {
      "authors": [
        "1db1738f-acdc-42fc-aec3-60f4bddf660d"
      ],
      "collections": [
        "dbcf2c22-524d-4708-99bb-601703633927"
      ],
      "creators": [
        "28a02f79-daaf-4037-8897-3458e80a5b41"
      ],
      "groups": [
        "3c14c864-533c-49e6-a3cc-6969f1233775"
      ],
      "langs": [
        "4dcf9614-7914-42aa-99f4-dbce2e059133"
      ],
      "series": [
        "6642f234-2189-4c3b-bb66-8ee574089661"
      ],
      "singers": [
        "5b0ba4ca-f297-4c2c-a404-8c38d6840e84"
      ],
      "songtypes": [
        "42a262ae-acba-4ab5-a446-c5789c96c821",
        "f02ad9b3-0bd9-4aad-85b3-9976739ba0e4"
      ],
      "songwriters": [
        "2a98d41d-7d05-46a3-9425-91e5099079b1"
      ],
      "versions": [
        "c2143a7f-6970-450e-8a79-0302db9220a9"
      ]
    },
    "titles": {
      "eng": "sunny side up"
    },
    "titles_default_language": "eng",
    "year": 2002
  }
}