{
  "header": {
    "version": 4,
    "description": "Karaoke Mugen Karaoke Data File"
  },
  "medias": [
    {
      "version": "Default",
      "filename": "JPN - Hai to Gensou no Grimgar - ED1 - Harvest.mp4",
      "audiogain": 7.48,
      "loudnorm": "-26.09,-11.56,10.40,-36.38,-2.44",
      "filesize": 19482014,
      "duration": 90,
      "default": true,
      "lyrics": [
        {
          "filename": "JPN - Hai to Gensou no Grimgar - ED1 - Harvest.ass",
          "default": true,
          "version": "Default",
          "subchecksum": "2a177f690ae6d030d8e5b6c41e06e63c"
        }
      ]
    }
  ],
  "data": {
    "created_at": "2017-10-11T17:03:09.000Z",
    "kid": "7e26d10d-71ae-440b-b4f2-e4ba1ecfb8d2",
    "modified_at": "2021-02-25T11:35:27.082Z",
    "repository": "kara.moe",
    "songorder": 1,
    "tags": {
      "authors": [
        "5bdaba57-27f8-4568-8806-76a807728766"
      ],
      "collections": [
        "c7db86a0-ff64-4044-9be4-66dd1ef1d1c1"
      ],
      "creators": [
        "b96e3686-bbe0-4b9e-815a-a278d5ff31be"
      ],
      "families": [
        "0377db02-3af6-43b8-9b08-c759df3d25c3"
      ],
      "genres": [
        "4b80eca6-f44f-4262-a8d0-b6879d6b70cb"
      ],
      "groups": [
        "ae613721-1fbe-480d-ba6b-d6d0702b184d"
      ],
      "langs": [
        "4dcf9614-7914-42aa-99f4-dbce2e059133"
      ],
      "origins": [
        "938de218-5343-4865-94d3-fb33f2eaa152"
      ],
      "series": [
        "c56376c7-a48c-4cd1-88ce-43e40eeaa1a3"
      ],
      "singers": [
        "02268bf0-9541-48a7-9fa2-66edf5a96091",
        "8e441486-caa4-4627-9232-ddc4ee01d518"
      ],
      "songtypes": [
        "38c77c56-2b95-4040-b676-0994a8cb0597"
      ],
      "songwriters": [
        "1900b35d-bd27-4a89-9b27-6e3e2af731fc",
        "55c188df-382c-4f13-8dd9-b538528cda6b"
      ]
    },
    "title": "Harvest",
    "titles": {
      "eng": "Harvest"
    },
    "year": 2016,
    "titles_default_language": "eng"
  }
}