{
  "header": {
    "version": 4,
    "description": "Karaoke Mugen Karaoke Data File"
  },
  "medias": [
    {
      "version": "Default",
      "filename": "JPN - Yuru Camp - OP - Shiny Days.mp4",
      "audiogain": 2.81,
      "loudnorm": "-20.71,-8.07,4.10,-30.77,-0.76",
      "filesize": 29374210,
      "duration": 89,
      "default": true,
      "lyrics": [
        {
          "filename": "JPN - Yuru Camp - OP - Shiny Days.ass",
          "default": true,
          "version": "Default",
          "subchecksum": "e19209e70e0321bcb505b11268667a12"
        }
      ]
    }
  ],
  "data": {
    "created_at": "2018-02-10T17:04:14.000Z",
    "kid": "26226389-a649-414d-861b-3ef2b460377c",
    "modified_at": "2021-02-25T13:43:30.757Z",
    "repository": "kara.moe",
    "tags": {
      "authors": [
        "79e0aa7d-da9a-4e9a-aa2b-64056a83b49b"
      ],
      "collections": [
        "c7db86a0-ff64-4044-9be4-66dd1ef1d1c1"
      ],
      "creators": [
        "503c656c-6c92-42c5-b580-6fe448668cdb"
      ],
      "families": [
        "0377db02-3af6-43b8-9b08-c759df3d25c3"
      ],
      "groups": [
        "56f41a2e-80fb-4bbe-9df0-420ee4c8997a",
        "9a8e0fbc-dcae-4989-be82-7cad3436f1f5",
        "ae613721-1fbe-480d-ba6b-d6d0702b184d",
        "f53332f8-daed-4ac5-97c9-64239b520db0"
      ],
      "langs": [
        "4dcf9614-7914-42aa-99f4-dbce2e059133"
      ],
      "origins": [
        "938de218-5343-4865-94d3-fb33f2eaa152"
      ],
      "series": [
        "9b181df8-f437-4a67-b3d7-45b4864d0f18"
      ],
      "singers": [
        "f97ee9f8-c652-4eaa-b8df-5e5a7ff30318"
      ],
      "songtypes": [
        "f02ad9b3-0bd9-4aad-85b3-9976739ba0e4"
      ],
      "songwriters": [
        "1d68dbe4-55b5-4745-bc08-404d4df2565b",
        "c1adbd28-c725-4849-b05f-efc09967c792"
      ],
      "franchises": [
        "51c6394c-2561-4451-b218-843eebde170c"
      ]
    },
    "title": "Shiny Days",
    "titles": {
      "eng": "SHINY DAYS"
    },
    "year": 2018,
    "titles_default_language": "eng"
  }
}