{
  "header": {
    "version": 4,
    "description": "Karaoke Mugen Karaoke Data File"
  },
  "medias": [
    {
      "version": "Default",
      "filename": "JPN - Nurse Angel Ririka SOS - OP - Koi o Suru Tabi ni Kizutsuki Yasuku.mp4",
      "audiogain": -4.08,
      "loudnorm": "-13.41,0.13,5.50,-23.72,-1.04",
      "filesize": 58697871,
      "duration": 97,
      "default": true,
      "lyrics": [
        {
          "filename": "JPN - Nurse Angel Ririka SOS - OP - Koi o Suru Tabi ni Kizutsuki Yasuku.ass",
          "default": true,
          "version": "Default"
        }
      ]
    }
  ],
  "data": {
    "created_at": "2023-01-29T15:45:03.062Z",
    "ignoreHooks": false,
    "kid": "bf1c3b1f-ae65-42ad-bfe1-3a1d6eea281e",
    "modified_at": "2023-01-29T15:56:47.061Z",
    "repository": "kara.moe",
    "tags": {
      "authors": [
        "2941868f-535f-4ea6-99f9-a0192e0e4dc7"
      ],
      "collections": [
        "c7db86a0-ff64-4044-9be4-66dd1ef1d1c1"
      ],
      "creators": [
        "3416bd66-667d-4c3f-91f3-6e692001ef25"
      ],
      "families": [
        "0377db02-3af6-43b8-9b08-c759df3d25c3"
      ],
      "genres": [
        "b84e28f9-db1e-447f-b339-7954c3592523"
      ],
      "groups": [
        "24db50aa-a126-4d34-a48a-e45db79c4245"
      ],
      "langs": [
        "4dcf9614-7914-42aa-99f4-dbce2e059133"
      ],
      "misc": [
        "fe819ff1-9db8-4a0f-85dc-0e322c9126c4"
      ],
      "origins": [
        "938de218-5343-4865-94d3-fb33f2eaa152"
      ],
      "series": [
        "632961d4-a0db-4927-8202-0117275fa342"
      ],
      "singers": [
        "203cf358-1c2b-4029-b275-b473a4c0cd36"
      ],
      "songtypes": [
        "f02ad9b3-0bd9-4aad-85b3-9976739ba0e4"
      ],
      "songwriters": [
        "0f0afbed-006d-49ed-90e3-c054b178d18c",
        "19045a57-4bc4-4c83-ad1c-3fa9a3b701b1",
        "b84410df-6489-4d6f-842e-05947c02c60a"
      ]
    },
    "titles": {
      "jpn": "恋をするたびに傷つきやすく…",
      "qro": "Koi o Suru Tabi ni Kizutsuki Yasuku..."
    },
    "titles_default_language": "qro",
    "year": 1995
  }
}