{
  "header": {
    "version": 4,
    "description": "Karaoke Mugen Karaoke Data File"
  },
  "medias": [
    {
      "version": "Default",
      "filename": "JPN - Sora Yori mo Tooi Basho - OP - The Girls Are Alright!.mp4",
      "audiogain": -9.46,
      "loudnorm": "-8.47,1.26,5.10,-18.67,-0.70",
      "filesize": 42797405,
      "duration": 91,
      "default": true,
      "lyrics": [
        {
          "filename": "JPN - Sora Yori mo Tooi Basho - OP - The Girls Are Alright!.ass",
          "default": true,
          "version": "Default",
          "subchecksum": "7de721fc426da57ceeec6e591d9697ee"
        }
      ]
    }
  ],
  "data": {
    "created_at": "2018-02-16T17:17:54.000Z",
    "kid": "1e849252-f66d-4618-a189-d2cca0b024b9",
    "modified_at": "2021-02-25T13:09:45.662Z",
    "repository": "kara.moe",
    "tags": {
      "authors": [
        "79e0aa7d-da9a-4e9a-aa2b-64056a83b49b"
      ],
      "collections": [
        "c7db86a0-ff64-4044-9be4-66dd1ef1d1c1"
      ],
      "creators": [
        "9c5cf6ba-0bc8-4cfe-a63c-e9be3a14e9fd"
      ],
      "families": [
        "0377db02-3af6-43b8-9b08-c759df3d25c3"
      ],
      "groups": [
        "ae613721-1fbe-480d-ba6b-d6d0702b184d",
        "f53332f8-daed-4ac5-97c9-64239b520db0"
      ],
      "langs": [
        "4dcf9614-7914-42aa-99f4-dbce2e059133"
      ],
      "origins": [
        "938de218-5343-4865-94d3-fb33f2eaa152"
      ],
      "series": [
        "1c075562-6644-4be7-aec4-acae4ee6ed5e"
      ],
      "singers": [
        "6593aba9-d565-4ad8-b6f4-7859a3d2927f"
      ],
      "songtypes": [
        "f02ad9b3-0bd9-4aad-85b3-9976739ba0e4"
      ],
      "songwriters": [
        "8c88f3c6-ea88-458e-8935-f94f8408e349"
      ]
    },
    "title": "The Girls Are Alright!",
    "titles": {
      "eng": "The Girls Are Alright!"
    },
    "year": 2018,
    "titles_default_language": "eng"
  }
}