{
  "header": {
    "version": 4,
    "description": "Karaoke Mugen Karaoke Data File"
  },
  "medias": [
    {
      "version": "Default",
      "filename": "JPN - Love Live! Superstar!! 2nd Season - IN - Vitamin SUMMER!.mp4",
      "audiogain": -0.59,
      "loudnorm": "-17.28,-2.11,4.50,-27.45,-0.43",
      "filesize": 69875134,
      "duration": 94,
      "default": true,
      "lyrics": [
        {
          "filename": "JPN - Love Live! Superstar!! 2nd Season - IN - Vitamin SUMMER!.ass",
          "default": true,
          "version": "Default"
        }
      ]
    }
  ],
  "data": {
    "created_at": "2022-08-22T21:31:57.318Z",
    "ignoreHooks": false,
    "kid": "3477b2ac-a313-498d-bbe8-7d6ea0b328bd",
    "modified_at": "2022-09-25T22:26:52.232Z",
    "repository": "kara.moe",
    "tags": {
      "authors": [
        "449844e4-3a1f-46e1-8a92-bf72e2d1b6f1"
      ],
      "collections": [
        "c7db86a0-ff64-4044-9be4-66dd1ef1d1c1"
      ],
      "creators": [
        "b2805292-730e-473a-96f0-fd8e7ffd1fd7"
      ],
      "families": [
        "0377db02-3af6-43b8-9b08-c759df3d25c3"
      ],
      "genres": [
        "caa86df2-0d59-474b-885c-f240a9e891b0"
      ],
      "groups": [
        "8e209ae4-4381-438f-89dc-1b21752027d2"
      ],
      "langs": [
        "4dcf9614-7914-42aa-99f4-dbce2e059133"
      ],
      "origins": [
        "938de218-5343-4865-94d3-fb33f2eaa152"
      ],
      "series": [
        "51ceccbb-3e30-4e99-b378-a0d09a5a5786"
      ],
      "singers": [
        "4a1c9511-daa2-4172-9367-5afb3312234e",
        "4e66c19f-a55a-4be7-a948-4eb45796b71f",
        "7b8b38f7-9945-4ee3-9e38-25ddf137f1e0",
        "8a484e8b-1945-416f-b778-97a887ff24eb",
        "8b1d7f16-0b3e-4c63-82c1-bd60518b86a8",
        "a8ce4769-f4d8-4ac8-ad84-731f9895ad9f",
        "ac31fbd5-633b-4b85-8e6b-33976419c240",
        "c1fd3a67-0c3b-4d95-9cd8-f6aa2c8cc5a8",
        "d8060e7f-5362-405e-9e83-b9c854ca6e3c"
      ],
      "singergroups": [
        "f3e5b1d3-30b1-4548-95c8-6cf77216bdbd"
      ],
      "songtypes": [
        "5e5250d9-351a-4a82-98eb-55db50ad8962"
      ],
      "songwriters": [
        "ad8ef7bf-28ee-4c9b-b454-07bef357f053",
        "f77f4be8-1af3-4bab-9411-759dbd5bb583"
      ],
      "franchises": [
        "fd5d066e-e85a-4eea-8688-2979a887450a"
      ]
    },
    "titles": {
      "eng": "Vitamin SUMMER!",
      "jpn": "ビタミンSUMMER!"
    },
    "titles_default_language": "eng",
    "title": "Vitamin SUMMER!",
    "year": 2022
  }
}