{
  "header": {
    "description": "Karaoke Mugen Karaoke Data File",
    "version": 4
  },
  "medias": [
    {
      "version": "Default",
      "filename": "JPN - Touhou - REMIX MV - Oyome ni Shinasai!.mp4",
      "audiogain": -0.16,
      "loudnorm": "-16.80,-8.31,3.40,-26.88,-0.14",
      "filesize": 44249369,
      "duration": 154,
      "default": true,
      "lyrics": [
        {
          "filename": "JPN - Touhou - REMIX MV - Oyome ni Shinasai!.ass",
          "default": true,
          "version": "Default"
        }
      ]
    }
  ],
  "data": {
    "created_at": "2022-10-15T13:21:55.919Z",
    "kid": "1338914d-9516-4636-a186-0ebd3492b7bd",
    "modified_at": "2022-10-15T13:21:55.919Z",
    "tags": {
      "authors": [
        "1fbfef73-6731-40df-ba51-65a54b9d1605"
      ],
      "collections": [
        "c7db86a0-ff64-4044-9be4-66dd1ef1d1c1"
      ],
      "creators": [
        "25fc251a-0514-4bf5-a818-dd0547723f4a"
      ],
      "families": [
        "0377db02-3af6-43b8-9b08-c759df3d25c3"
      ],
      "groups": [
        "3c14c864-533c-49e6-a3cc-6969f1233775"
      ],
      "langs": [
        "4dcf9614-7914-42aa-99f4-dbce2e059133"
      ],
      "misc": [
        "ec4360fa-3e3c-4f6f-b0e1-fb8b12b6dd18"
      ],
      "origins": [
        "ac5085db-52d8-44b4-8fbb-1697b24d2046"
      ],
      "series": [
        "1bdaa5a1-dfa6-4365-b746-7a0b194dafd6"
      ],
      "singers": [
        "98cd2e0e-44fb-4feb-aada-1b418e94af37",
        "ccb88de5-b120-4088-ac75-a4204dac8b7d",
        "fecfe7bd-e11c-4d89-832a-a1fbc70e1ec4"
      ],
      "songtypes": [
        "7be1b15c-cff8-4b37-a649-5c90f3d569a9"
      ],
      "songwriters": [
        "feceb592-efac-4eda-9b03-c27cf509004c",
        "b722bb12-a0f3-4f13-984f-10630694b18b",
        "26cb5252-8510-49e0-897c-a611a05fc056"
      ],
      "franchises": [
        "1bdaa5a1-dfa6-4365-b746-7a0b194dafd6"
      ]
    },
    "titles": {
      "jpn": "お嫁にしなさいっ！",
      "qro": "Oyome ni Shinasai!",
      "eng": "Make Us Your Brides!"
    },
    "titles_default_language": "qro",
    "titles_aliases": [],
    "title": "Oyome ni Shinasai!",
    "year": "2007",
    "repository": "kara.moe"
  }
}