{
  "header": {
    "version": 4,
    "description": "Karaoke Mugen Karaoke Data File"
  },
  "medias": [
    {
      "version": "Default",
      "filename": "JPN - Senki Zesshou Symphogear XD Unlimited - AUDIO CS - Eiai Promise.mp3",
      "audiogain": -8.51,
      "loudnorm": "-7.61,0.66,2.10,-17.62,-0.44",
      "filesize": 11115500,
      "duration": 271,
      "default": true,
      "lyrics": [
        {
          "filename": "JPN - Senki Zesshou Symphogear XD Unlimited - AUDIO CS - Eiai Promise.ass",
          "default": true,
          "version": "Default"
        }
      ]
    }
  ],
  "data": {
    "created_at": "2023-06-06T03:33:17.128Z",
    "ignoreHooks": false,
    "kid": "1906d460-ca9e-406f-aa3e-33eb89a580d6",
    "modified_at": "2023-06-13T03:57:28.892Z",
    "repository": "kara.moe",
    "tags": {
      "authors": [
        "7848b5dc-a5df-4577-b640-147be5288cec"
      ],
      "collections": [
        "c7db86a0-ff64-4044-9be4-66dd1ef1d1c1"
      ],
      "creators": [
        "de902543-7032-4edd-a407-6c9fade246cd"
      ],
      "groups": [
        "ae613721-1fbe-480d-ba6b-d6d0702b184d"
      ],
      "langs": [
        "4dcf9614-7914-42aa-99f4-dbce2e059133"
      ],
      "series": [
        "99a6a137-2984-4db4-a59c-66014ffae310"
      ],
      "singers": [
        "d638c586-47e1-44e4-9976-ad1e47c75c5a"
      ],
      "songtypes": [
        "42a262ae-acba-4ab5-a446-c5789c96c821",
        "a8a2616c-b5a1-4df3-ad6f-89291bc67dee"
      ],
      "songwriters": [
        "400922df-5396-43ea-a338-90771426a74f",
        "af3ffe51-8059-461c-bbb8-78ea388731f3"
      ],
      "franchises": [
        "61b24082-a6a9-482b-b126-0ad7be595791"
      ]
    },
    "titles": {
      "jpn": "永愛プロミス",
      "qro": "Eiai Promise"
    },
    "titles_default_language": "qro",
    "year": 2018
  }
}