{
  "header": {
    "version": 4,
    "description": "Karaoke Mugen Karaoke Data File"
  },
  "medias": [
    {
      "version": "Default",
      "filename": "JPN - Senki Zesshou Symphogear GX - AUDIO CS - tommorow ~ Full Vers.mp3",
      "audiogain": -6.65,
      "loudnorm": "-11.65,-1.60,10.60,-21.85,-1.96",
      "filesize": 13434276,
      "duration": 327,
      "default": true,
      "lyrics": [
        {
          "filename": "JPN - Senki Zesshou Symphogear GX - AUDIO CS - tommorow ~ Full Vers.ass",
          "default": true,
          "version": "Default"
        }
      ]
    }
  ],
  "data": {
    "created_at": "2022-12-27T22:02:14.644Z",
    "ignoreHooks": false,
    "kid": "0306ec43-857b-4a30-b19b-2bab17ef5307",
    "modified_at": "2022-12-27T22:02:14.730Z",
    "repository": "kara.moe",
    "tags": {
      "authors": [
        "87096920-112f-485f-a310-04156cb4624d"
      ],
      "collections": [
        "c7db86a0-ff64-4044-9be4-66dd1ef1d1c1"
      ],
      "creators": [
        "d2a29c19-019f-4a3d-86ad-2dae9e41a4b1",
        "0041fabf-4b82-4ecd-961b-e4c49b8c88be"
      ],
      "genres": [
        "caa86df2-0d59-474b-885c-f240a9e891b0",
        "b84e28f9-db1e-447f-b339-7954c3592523"
      ],
      "langs": [
        "4dcf9614-7914-42aa-99f4-dbce2e059133"
      ],
      "origins": [
        "938de218-5343-4865-94d3-fb33f2eaa152"
      ],
      "series": [
        "86627e91-4551-4e88-899b-2cb017e853e0"
      ],
      "singers": [
        "7e153b87-dd5f-4ce1-b187-9941ca95ce3e"
      ],
      "songtypes": [
        "a8a2616c-b5a1-4df3-ad6f-89291bc67dee",
        "42a262ae-acba-4ab5-a446-c5789c96c821"
      ],
      "songwriters": [
        "af3ffe51-8059-461c-bbb8-78ea388731f3",
        "178dcba7-6d20-40b9-baea-d7d3e38e2c25"
      ],
      "versions": [
        "c2143a7f-6970-450e-8a79-0302db9220a9"
      ],
      "franchises": [
        "61b24082-a6a9-482b-b126-0ad7be595791"
      ],
      "groups": [
        "ae613721-1fbe-480d-ba6b-d6d0702b184d",
        "60defa7b-774e-4680-8321-51b742c2e009"
      ],
      "misc": [
        "86705d4b-24e4-4756-9687-2b9c98bcf366"
      ]
    },
    "titles": {
      "eng": "tommorow"
    },
    "titles_default_language": "eng",
    "year": 2015
  }
}