{
  "header": {
    "version": 4,
    "description": "Karaoke Mugen Karaoke Data File"
  },
  "medias": [
    {
      "version": "Default",
      "filename": "JPN - Isekai Shokudou 2 - OP - Onnaji Kimochi.mp4",
      "audiogain": 4.1,
      "loudnorm": "-21.60,-7.18,7.70,-31.95,-0.57",
      "filesize": 35597369,
      "duration": 90,
      "default": true,
      "lyrics": [
        {
          "filename": "JPN - Isekai Shokudou 2 - OP - Onnaji Kimochi.ass",
          "default": true,
          "version": "Default"
        }
      ]
    }
  ],
  "data": {
    "created_at": "2021-12-17T12:00:52.535Z",
    "kid": "a64b8634-9a5d-484c-9842-0f756b8c6ba0",
    "modified_at": "2021-12-17T12:09:05.792Z",
    "repository": "kara.moe",
    "tags": {
      "authors": [
        "9cdf3b70-3550-457c-bdb9-038f3253c6ad"
      ],
      "collections": [
        "c7db86a0-ff64-4044-9be4-66dd1ef1d1c1"
      ],
      "creators": [
        "03fe574b-c7f5-4520-96dc-47320c39e2cc"
      ],
      "families": [
        "0377db02-3af6-43b8-9b08-c759df3d25c3"
      ],
      "genres": [
        "4b80eca6-f44f-4262-a8d0-b6879d6b70cb"
      ],
      "groups": [
        "8e209ae4-4381-438f-89dc-1b21752027d2"
      ],
      "langs": [
        "4dcf9614-7914-42aa-99f4-dbce2e059133"
      ],
      "origins": [
        "938de218-5343-4865-94d3-fb33f2eaa152"
      ],
      "series": [
        "8ce04e8b-a073-43fb-a952-db9e5f2ac82d"
      ],
      "singers": [
        "853ada81-3791-4761-9d7e-8b08ddeabf10"
      ],
      "songtypes": [
        "f02ad9b3-0bd9-4aad-85b3-9976739ba0e4"
      ],
      "songwriters": [
        "5ca2bb94-8691-4e68-82e5-8125fe3fed08"
      ],
      "franchises": [
        "8cd800ed-d499-424a-b4fb-9abb9dca50ff"
      ]
    },
    "titles": {
      "qro": "Onnaji Kimochi.",
      "jpn": "おんなじキモチ."
    },
    "title": "Onnaji Kimochi.",
    "year": 2021,
    "titles_default_language": "qro"
  }
}