{
  "header": {
    "version": 4,
    "description": "Karaoke Mugen Karaoke Data File"
  },
  "medias": [
    {
      "version": "Default",
      "filename": "JPN - Lon - MV - Ochame Kinou ~ Cover Vers.mp4",
      "audiogain": -9.81,
      "loudnorm": "-7.42,0.96,4.40,-17.49,-0.48",
      "filesize": 11221447,
      "duration": 90,
      "default": true,
      "lyrics": [
        {
          "filename": "JPN - Lon - MV - Ochame Kinou ~ Cover Vers.ass",
          "default": true,
          "version": "Default"
        }
      ]
    }
  ],
  "data": {
    "created_at": "2020-05-01T18:27:32.178Z",
    "ignoreHooks": false,
    "kid": "ba15a260-a883-41bb-b76f-78bdeb682bc4",
    "modified_at": "2022-01-28T14:04:58.423Z",
    "parents": [
      "a652d03a-84b9-41a1-afb3-7360e07f94e3"
    ],
    "repository": "kara.moe",
    "tags": {
      "authors": [
        "b2676ab6-a04c-40c3-a49a-404b458edae9"
      ],
      "collections": [
        "c7db86a0-ff64-4044-9be4-66dd1ef1d1c1"
      ],
      "families": [
        "0377db02-3af6-43b8-9b08-c759df3d25c3"
      ],
      "groups": [
        "60defa7b-774e-4680-8321-51b742c2e009",
        "ae613721-1fbe-480d-ba6b-d6d0702b184d"
      ],
      "langs": [
        "4dcf9614-7914-42aa-99f4-dbce2e059133"
      ],
      "singers": [
        "2c3923c9-07d3-4c23-8f8c-588dda373625"
      ],
      "songtypes": [
        "7be1b15c-cff8-4b37-a649-5c90f3d569a9"
      ],
      "songwriters": [
        "8d8bb14c-a310-4bd4-bc88-1b3121993160"
      ],
      "versions": [
        "03e1e1d2-8641-47b7-bbcb-39a3df9ff21c"
      ]
    },
    "titles": {
      "qro": "Ochame Kinô",
      "jpn": "おちゃめ機能"
    },
    "titles_aliases": [
      "吹っ切れた",
      "Fukkireta",
      "kinou"
    ],
    "title": "Ochame Kinô",
    "year": 2010,
    "titles_default_language": "qro"
  }
}