{
  "header": {
    "version": 4,
    "description": "Karaoke Mugen Karaoke Data File"
  },
  "medias": [
    {
      "version": "Default",
      "filename": "JPN - Zetsubou Funsai Shoujo Amida - IN MV - NO NAME.mp4",
      "audiogain": -11.74,
      "loudnorm": "-5.17,2.75,3.40,-15.30,0.06",
      "filesize": 44051579,
      "duration": 197,
      "default": true,
      "lyrics": [
        {
          "filename": "JPN - Zetsubou Funsai Shoujo Amida - IN MV - NO NAME.ass",
          "default": true,
          "version": "Default"
        }
      ]
    }
  ],
  "data": {
    "created_at": "2022-09-15T19:56:06.074Z",
    "ignoreHooks": false,
    "kid": "a339a85b-8c0b-487a-a932-216d0d5bbdcd",
    "modified_at": "2022-09-15T19:56:06.494Z",
    "repository": "kara.moe",
    "tags": {
      "authors": [
        "ee8628c8-9b7f-415b-bc0d-9b712d5daf8c"
      ],
      "collections": [
        "dbcf2c22-524d-4708-99bb-601703633927",
        "c7db86a0-ff64-4044-9be4-66dd1ef1d1c1"
      ],
      "creators": [
        "9c5cf6ba-0bc8-4cfe-a63c-e9be3a14e9fd"
      ],
      "groups": [
        "8e209ae4-4381-438f-89dc-1b21752027d2"
      ],
      "langs": [
        "4dcf9614-7914-42aa-99f4-dbce2e059133"
      ],
      "series": [
        "13b9ae9d-76cb-4d8e-9c3a-747b64878315"
      ],
      "singers": [
        "ceb2da34-d41c-4976-9391-ecf4e37968d9"
      ],
      "songtypes": [
        "7be1b15c-cff8-4b37-a649-5c90f3d569a9",
        "5e5250d9-351a-4a82-98eb-55db50ad8962"
      ],
      "songwriters": [
        "40808ea2-94f8-4a02-a31f-e9478ab23d9a"
      ]
    },
    "titles": {
      "eng": "NO NAME"
    },
    "titles_default_language": "eng",
    "title": "NO NAME",
    "year": 2020
  }
}