{
  "header": {
    "version": 4,
    "description": "Karaoke Mugen Karaoke Data File"
  },
  "medias": [
    {
      "version": "Default",
      "filename": "JPN - Alice to Zouroku - OP - Wonder Drive.mp4",
      "audiogain": -0.75,
      "loudnorm": "-16.04,-7.47,3.70,-26.19,-0.68",
      "filesize": 42998620,
      "duration": 92,
      "default": true,
      "lyrics": [
        {
          "filename": "JPN - Alice to Zouroku - OP - Wonder Drive.ass",
          "default": true,
          "version": "Default",
          "subchecksum": "efe1b45700cc6edb5d134e778dd85eb8"
        }
      ]
    }
  ],
  "data": {
    "created_at": "2017-10-11T17:02:01.000Z",
    "kid": "a540c898-e820-48dc-a703-b32ec772aeec",
    "modified_at": "2021-02-25T10:41:52.964Z",
    "repository": "kara.moe",
    "tags": {
      "authors": [
        "6bebcb04-2694-453c-9e0c-eb1a2e2718d9"
      ],
      "collections": [
        "c7db86a0-ff64-4044-9be4-66dd1ef1d1c1"
      ],
      "creators": [
        "802a8ac8-b16f-40a4-944b-99956798c906"
      ],
      "families": [
        "0377db02-3af6-43b8-9b08-c759df3d25c3"
      ],
      "groups": [
        "ae613721-1fbe-480d-ba6b-d6d0702b184d"
      ],
      "langs": [
        "4dcf9614-7914-42aa-99f4-dbce2e059133"
      ],
      "origins": [
        "938de218-5343-4865-94d3-fb33f2eaa152"
      ],
      "series": [
        "99c57af8-c779-46f0-9bb5-b2b5f90455fb"
      ],
      "singers": [
        "607c7178-32ae-4378-a8d8-5fc3e6762177"
      ],
      "songtypes": [
        "f02ad9b3-0bd9-4aad-85b3-9976739ba0e4"
      ],
      "songwriters": [
        "1d631037-5e19-45ca-a736-1ec75b96e106",
        "beca2faf-71f6-4c3c-92de-dce76ed20dac"
      ]
    },
    "title": "Wonder Drive",
    "titles": {
      "eng": "Wonder Drive",
      "jpn": "ワンダードライブ"
    },
    "year": 2017,
    "titles_default_language": "eng"
  }
}