{
  "header": {
    "version": 4,
    "description": "Karaoke Mugen Karaoke Data File"
  },
  "medias": [
    {
      "version": "Default",
      "filename": "JPN - Senki Zesshou Symphogear XD Unlimited - GAME AMV - Tsumugi Rhapsody.mp4",
      "audiogain": -0.52,
      "loudnorm": "-17.25,-6.47,6.70,-27.35,-1.56",
      "filesize": 51800484,
      "duration": 104,
      "default": true,
      "lyrics": [
        {
          "filename": "JPN - Senki Zesshou Symphogear XD Unlimited - GAME AMV - Tsumugi Rhapsody.ass",
          "default": true,
          "version": "Default",
          "subchecksum": "d96531c242db4e0d5b0517a3b02b9068"
        }
      ]
    }
  ],
  "data": {
    "created_at": "2021-04-05T15:07:12.434Z",
    "kid": "b63f8295-528e-449c-b98c-fbd6cb175bc1",
    "modified_at": "2021-04-05T15:37:19.260Z",
    "repository": "kara.moe",
    "tags": {
      "authors": [
        "278c6742-0b75-43dd-b317-2ea112952b4a"
      ],
      "collections": [
        "c7db86a0-ff64-4044-9be4-66dd1ef1d1c1"
      ],
      "creators": [
        "278c6742-0b75-43dd-b317-2ea112952b4a",
        "bd4564a8-44e5-454a-9c57-bd2a3c8a537e"
      ],
      "groups": [
        "8c22c899-b3ed-42da-a548-ce00f950798b",
        "8e209ae4-4381-438f-89dc-1b21752027d2"
      ],
      "langs": [
        "4dcf9614-7914-42aa-99f4-dbce2e059133"
      ],
      "platforms": [
        "213a1a15-e73a-4a08-b3f6-b6e2745a82e5"
      ],
      "series": [
        "99a6a137-2984-4db4-a59c-66014ffae310"
      ],
      "singers": [
        "0abac712-6493-4c55-856b-e88f2687e34b"
      ],
      "songtypes": [
        "a6c79ce5-89ee-4d50-afe8-3abd7317f6c2"
      ],
      "songwriters": [
        "400922df-5396-43ea-a338-90771426a74f",
        "55b5abfd-b2be-46be-9e41-9e23ab6f1b24"
      ],
      "franchises": [
        "61b24082-a6a9-482b-b126-0ad7be595791"
      ],
      "origins": [
        "dbedd6b3-d125-4cd8-aa32-c4175e4ca3a3"
      ]
    },
    "title": "Tsumugi Rhapsody",
    "titles": {
      "qro": "Tsumugi Rhapsody",
      "jpn": "紡ぎ-Rhapsody-"
    },
    "year": 2021,
    "titles_default_language": "qro"
  }
}