{
  "header": {
    "version": 4,
    "description": "Karaoke Mugen Karaoke Data File"
  },
  "medias": [
    {
      "version": "Suisei Hoshimachi.",
      "filename": "JPN - Promare - MV - Kakusei ~ Suisei Hoshimachi Vers. ~ Cover Vers.mp4",
      "audiogain": -8.43,
      "loudnorm": "-9.34,0.48,8.80,-19.70,-1.32",
      "filesize": 10103965,
      "duration": 255,
      "default": true,
      "lyrics": [
        {
          "filename": "JPN - Promare - MV - Kakusei ~ Suisei Hoshimachi Vers. ~ Cover Vers.ass",
          "default": true,
          "version": "Default",
          "subchecksum": "d246f807a720a7203a9742737531bf4c"
        }
      ]
    }
  ],
  "data": {
    "created_at": "2021-01-25T21:04:48.856Z",
    "kid": "8633c37b-c106-4726-8dd8-cc047a9138b2",
    "modified_at": "2021-05-15T16:29:08.609Z",
    "parents": [
      "5cb469d6-d931-4152-b9e4-771e41259010"
    ],
    "repository": "kara.moe",
    "tags": {
      "authors": [
        "9cdf3b70-3550-457c-bdb9-038f3253c6ad"
      ],
      "collections": [
        "c7db86a0-ff64-4044-9be4-66dd1ef1d1c1"
      ],
      "creators": [
        "0263d413-17bb-4cee-a311-6dd896eda1c9"
      ],
      "families": [
        "0377db02-3af6-43b8-9b08-c759df3d25c3"
      ],
      "groups": [
        "ae613721-1fbe-480d-ba6b-d6d0702b184d"
      ],
      "langs": [
        "4dcf9614-7914-42aa-99f4-dbce2e059133"
      ],
      "origins": [
        "5106d71b-a78e-4d19-a16d-f8fb6719538a"
      ],
      "series": [
        "2e0843e9-ffaa-42ec-8bb6-a955d899724b"
      ],
      "singers": [
        "83b3a34b-d13b-452c-8574-d63545edf650"
      ],
      "songtypes": [
        "7be1b15c-cff8-4b37-a649-5c90f3d569a9"
      ],
      "songwriters": [
        "3c825fd4-7eac-4dbc-a6eb-4a81d3c266c9",
        "3da90f41-38d9-4e30-aa4b-4e938a9550d4",
        "876d7797-43a2-43ff-aa7d-29b40ea91d4c"
      ],
      "versions": [
        "03e1e1d2-8641-47b7-bbcb-39a3df9ff21c"
      ]
    },
    "title": "Kakusei ~ Suisei Hoshimachi Vers.",
    "titles": {
      "qro": "Kakusei ~ Suisei Hoshimachi Vers.",
      "jpn": "覚醒 ~ 星街すいせい Vers."
    },
    "year": 2019,
    "titles_default_language": "qro"
  }
}