{
  "header": {
    "version": 4,
    "description": "Karaoke Mugen Karaoke Data File"
  },
  "medias": [
    {
      "version": "Default",
      "filename": "JPN - .hack LIMINALITY - OVA OP1 - Edge.mp4",
      "audiogain": -2.37,
      "loudnorm": "-16.05,-2.38,2.00,-26.05,-0.57",
      "filesize": 55302355,
      "duration": 90,
      "default": true,
      "lyrics": [
        {
          "filename": "JPN - .hack LIMINALITY - OVA OP1 - Edge.ass",
          "default": true,
          "version": "Default",
          "subchecksum": "db20c4b196fea723118d2cc7fdf509fb"
        }
      ]
    }
  ],
  "data": {
    "created_at": "2017-10-11T17:02:20.000Z",
    "kid": "1733160b-df53-4b39-83ed-9f62273618cb",
    "modified_at": "2021-02-25T10:34:08.420Z",
    "repository": "kara.moe",
    "songorder": 1,
    "tags": {
      "authors": [
        "5bdaba57-27f8-4568-8806-76a807728766"
      ],
      "collections": [
        "c7db86a0-ff64-4044-9be4-66dd1ef1d1c1"
      ],
      "creators": [
        "53c428f6-4ad6-464f-8529-40e7b9941c7f"
      ],
      "families": [
        "0377db02-3af6-43b8-9b08-c759df3d25c3"
      ],
      "genres": [
        "4b80eca6-f44f-4262-a8d0-b6879d6b70cb"
      ],
      "groups": [
        "3c14c864-533c-49e6-a3cc-6969f1233775"
      ],
      "langs": [
        "4dcf9614-7914-42aa-99f4-dbce2e059133"
      ],
      "origins": [
        "2a6ef087-a000-4f8e-aeb5-9a7968756a36"
      ],
      "series": [
        "4a584ffd-1305-4f01-abf2-780dc6efbf64"
      ],
      "singers": [
        "50b2bf9a-d450-4581-ac86-008363e7d459"
      ],
      "songtypes": [
        "f02ad9b3-0bd9-4aad-85b3-9976739ba0e4"
      ],
      "songwriters": [
        "1f324dc7-f858-415b-bbc1-41fcce3d6ac7"
      ],
      "franchises": [
        "62bc5729-026d-408d-b6f5-534df49f73da"
      ]
    },
    "title": "Edge",
    "titles": {
      "eng": "edge"
    },
    "year": 2002,
    "titles_default_language": "eng"
  }
}