{
  "header": {
    "version": 4,
    "description": "Karaoke Mugen Karaoke Data File"
  },
  "medias": [
    {
      "version": "Default",
      "filename": "JPN - Len Kagamine - MV - Ego Rock ~ Full Off Vocal Vers.mp4",
      "audiogain": -8.57,
      "loudnorm": "-8.26,1.77,3.60,-18.34,0.11",
      "filesize": 32394287,
      "duration": 170,
      "default": true,
      "lyrics": [
        {
          "filename": "JPN - Len Kagamine - MV - Ego Rock ~ Full Off Vocal Vers.ass",
          "default": true,
          "version": "Default"
        }
      ]
    }
  ],
  "data": {
    "created_at": "2022-12-31T16:00:28.667Z",
    "ignoreHooks": false,
    "kid": "2cb75eec-92a1-4e61-9738-2ff752fc66ba",
    "modified_at": "2022-12-31T16:00:28.774Z",
    "parents": [
      "42e4bbbc-dad9-4fe4-b8ed-1bb27359516d"
    ],
    "repository": "kara.moe",
    "tags": {
      "authors": [
        "10891649-d475-46eb-b515-8eb3c1e14622"
      ],
      "collections": [
        "c7db86a0-ff64-4044-9be4-66dd1ef1d1c1"
      ],
      "creators": [
        "c2dfafc2-d7d9-495d-8911-614a85005851"
      ],
      "families": [
        "0377db02-3af6-43b8-9b08-c759df3d25c3"
      ],
      "genres": [
        "45623cae-6d68-4304-a49b-896d1d6f4580"
      ],
      "groups": [
        "8e209ae4-4381-438f-89dc-1b21752027d2"
      ],
      "langs": [
        "4dcf9614-7914-42aa-99f4-dbce2e059133"
      ],
      "singers": [
        "7ce72adb-b4f2-42d9-b628-360b759a03df"
      ],
      "songtypes": [
        "7be1b15c-cff8-4b37-a649-5c90f3d569a9"
      ],
      "songwriters": [
        "73871a7b-3a4e-45bc-9e70-ff0a7c784c16"
      ],
      "versions": [
        "c2143a7f-6970-450e-8a79-0302db9220a9",
        "c0cc87b9-55b9-40f0-878a-fbb9e34c151e"
      ]
    },
    "titles": {
      "eng": "Ego Rock",
      "jpn": "エゴロック"
    },
    "titles_default_language": "eng",
    "year": 2021
  }
}