{
  "header": {
    "version": 4,
    "description": "Karaoke Mugen Karaoke Data File"
  },
  "medias": [
    {
      "version": "Default",
      "filename": "JPN - Tokusatsu GaGaGa - AMV - Kyuukyuuki Emerjason no Theme.mp4",
      "audiogain": -1.64,
      "loudnorm": "-15.78,-6.52,3.40,-25.86,-0.51",
      "filesize": 115228473,
      "duration": 150,
      "default": true,
      "lyrics": [
        {
          "filename": "JPN - Tokusatsu GaGaGa - AMV - Kyuukyuuki Emerjason no Theme.ass",
          "default": true,
          "version": "Default"
        }
      ]
    }
  ],
  "data": {
    "created_at": "2019-03-17T22:04:34.000Z",
    "ignoreHooks": false,
    "kid": "3a64260a-1e80-48f9-99c9-90781f4184f3",
    "modified_at": "2022-09-30T20:41:58.097Z",
    "parents": [
      "3cf487ef-b64a-4d65-8ad1-742a8b5098bb"
    ],
    "repository": "kara.moe",
    "tags": {
      "authors": [
        "ef611801-6a99-482e-9b99-13ad3d3a0648"
      ],
      "collections": [
        "c7db86a0-ff64-4044-9be4-66dd1ef1d1c1"
      ],
      "creators": [
        "2825452c-f305-4f7a-a24f-4c9065a8f4fd"
      ],
      "families": [
        "5391f9fe-638c-415f-8dc9-958e3a2c5787"
      ],
      "groups": [
        "ae613721-1fbe-480d-ba6b-d6d0702b184d"
      ],
      "langs": [
        "4dcf9614-7914-42aa-99f4-dbce2e059133"
      ],
      "series": [
        "e1752080-55ff-45b9-a3aa-ebbcabd58a54"
      ],
      "songtypes": [
        "a6c79ce5-89ee-4d50-afe8-3abd7317f6c2"
      ],
      "songwriters": [
        "af2241fe-849a-4357-9fba-30ccafb808a8",
        "d209ba01-58bf-4741-851f-185d8d4f734f"
      ],
      "genres": [
        "d3fac9ab-630d-402d-a392-3d2450c3e62e",
        "28650021-2b2a-4a55-aff4-85dd4896c687"
      ]
    },
    "titles": {
      "jpn": "救急機 エマージェイソンのテーマ",
      "qro": "Kyûkyûki Emerjason no Theme"
    },
    "titles_default_language": "qro",
    "title": "Kyûkyûki Emerjason no Theme",
    "year": 2019,
    "titles_aliases": [
      "Kyuukyuuki"
    ]
  }
}