{
  "header": {
    "version": 4,
    "description": "Karaoke Mugen Karaoke Data File"
  },
  "medias": [
    {
      "version": "Default",
      "filename": "JPN - Tales of the Heroes Twin Brave - PSP GAME OP - SHINE.mp4",
      "audiogain": -5.36,
      "loudnorm": "-10.94,1.18,5.10,-21.06,-1.19",
      "filesize": 16614450,
      "duration": 90,
      "default": true,
      "lyrics": [
        {
          "filename": "JPN - Tales of the Heroes Twin Brave - PSP GAME OP - SHINE.ass",
          "default": true,
          "version": "Default",
          "subchecksum": "1fbe538f7a07826df8a1b9eb3fa16429"
        }
      ]
    }
  ],
  "data": {
    "created_at": "2017-10-11T15:03:03.000Z",
    "kid": "637cdba7-7cab-48f9-968f-0eecb45e84d2",
    "modified_at": "2021-02-25T13:16:56.475Z",
    "repository": "kara.moe",
    "tags": {
      "authors": [
        "5bdaba57-27f8-4568-8806-76a807728766"
      ],
      "collections": [
        "c7db86a0-ff64-4044-9be4-66dd1ef1d1c1"
      ],
      "creators": [
        "c3e622d4-2686-4331-8691-d528c8647088"
      ],
      "groups": [
        "ae613721-1fbe-480d-ba6b-d6d0702b184d"
      ],
      "langs": [
        "4dcf9614-7914-42aa-99f4-dbce2e059133"
      ],
      "platforms": [
        "6b101aff-4b7b-4b0d-b35e-0f1b67e38c9b"
      ],
      "series": [
        "e22c5566-e691-4638-9de5-aada28ddf477"
      ],
      "singers": [
        "b8e22eee-9ed1-4edc-9f23-b65164b89f2c"
      ],
      "songtypes": [
        "f02ad9b3-0bd9-4aad-85b3-9976739ba0e4"
      ],
      "songwriters": [
        "89a56fa6-060f-499a-9071-3d353cd6d131"
      ],
      "franchises": [
        "457ab7f6-9644-4493-b61b-8778400aaf54"
      ],
      "origins": [
        "dbedd6b3-d125-4cd8-aa32-c4175e4ca3a3"
      ]
    },
    "title": "SHINE",
    "titles": {
      "eng": "SHINE"
    },
    "year": 2012,
    "titles_default_language": "eng"
  }
}