{
  "header": {
    "version": 4,
    "description": "Karaoke Mugen Karaoke Data File"
  },
  "medias": [
    {
      "version": "Default",
      "filename": "JPN - BTOB - AUDIO - Blowin' ~ Off Vocal Vers.mp3",
      "audiogain": -8.83,
      "loudnorm": "-7.63,1.21,4.00,-17.96,-0.97",
      "filesize": 11235672,
      "duration": 276,
      "default": true,
      "lyrics": [
        {
          "filename": "JPN - BTOB - AUDIO - Blowin' ~ Off Vocal Vers.ass",
          "default": true,
          "version": "Default"
        }
      ]
    }
  ],
  "data": {
    "created_at": "2019-10-12T09:19:20.000Z",
    "kid": "3a28d7eb-984f-46a2-8254-8a09002b6c1a",
    "modified_at": "2022-05-26T16:18:32.272Z",
    "parents": [
      "bd00984e-9d97-41c3-aefe-cad4144c30cc"
    ],
    "repository": "kara.moe",
    "songorder": null,
    "tags": {
      "authors": [
        "622e2a6d-e4e8-4ff5-b218-890e8d7a3abf"
      ],
      "creators": [
        "6b8ffb9d-bc6a-4de7-b8a7-b4c6b4c2f475"
      ],
      "groups": [
        "2b4e9972-5e17-481b-99f5-d0787c0ada56",
        "ae613721-1fbe-480d-ba6b-d6d0702b184d"
      ],
      "langs": [
        "4dcf9614-7914-42aa-99f4-dbce2e059133"
      ],
      "singers": [
        "e29ca23d-958f-47c3-892c-605e38dd0b41"
      ],
      "songtypes": [
        "42a262ae-acba-4ab5-a446-c5789c96c821"
      ],
      "songwriters": [
        "e29ca23d-958f-47c3-892c-605e38dd0b41"
      ],
      "versions": [
        "c0cc87b9-55b9-40f0-878a-fbb9e34c151e"
      ],
      "collections": [
        "dbcf2c22-524d-4708-99bb-601703633927"
      ]
    },
    "titles": {
      "eng": "Blowin'"
    },
    "titles_default_language": "eng",
    "title": "Blowin'",
    "year": 2017
  }
}