{
  "header": {
    "version": 4,
    "description": "Karaoke Mugen Karaoke Data File"
  },
  "medias": [
    {
      "version": "Default",
      "filename": "JPN - Project SEKAI COLORFUL STAGE! - GAME MV - Peaky Peaky ~ Full Vers.mp4",
      "audiogain": -10.37,
      "loudnorm": "-7.30,1.26,3.80,-17.41,-1.57",
      "filesize": 83193063,
      "duration": 187,
      "default": true,
      "lyrics": [
        {
          "filename": "JPN - Project SEKAI COLORFUL STAGE! - GAME MV - Peaky Peaky ~ Full Vers.ass",
          "default": true,
          "version": "Default"
        }
      ]
    }
  ],
  "data": {
    "created_at": "2022-08-22T19:44:49.798Z",
    "ignoreHooks": false,
    "kid": "a4121752-fff5-4ce8-87e2-9a53921eb8a7",
    "modified_at": "2022-12-26T21:32:15.803Z",
    "repository": "kara.moe",
    "tags": {
      "authors": [
        "3d0daa38-cfdf-4c60-8f2d-f08e1f915b39"
      ],
      "collections": [
        "c7db86a0-ff64-4044-9be4-66dd1ef1d1c1"
      ],
      "creators": [
        "1e5648fb-22fc-474d-b865-254eb31fa000",
        "021aab8c-5dd0-41a5-8214-cc628ac818f9",
        "7eebabcd-52be-47ae-b4c2-c741f20b277a"
      ],
      "families": [
        "0377db02-3af6-43b8-9b08-c759df3d25c3"
      ],
      "genres": [
        "45623cae-6d68-4304-a49b-896d1d6f4580"
      ],
      "groups": [
        "8e209ae4-4381-438f-89dc-1b21752027d2"
      ],
      "langs": [
        "4dcf9614-7914-42aa-99f4-dbce2e059133"
      ],
      "misc": [
        "1d6ceadf-a885-47e5-b23b-c07bf668a424"
      ],
      "platforms": [
        "213a1a15-e73a-4a08-b3f6-b6e2745a82e5"
      ],
      "series": [
        "192b33fb-638a-4680-bdb2-a5adb9889849"
      ],
      "singers": [
        "088ee286-73a1-4919-8503-68dbc81df761",
        "20d2fab3-1e7c-4a00-889e-272eacc68e10",
        "45350754-a9ee-4836-a3ab-a88a43e419e8",
        "b607e60e-e507-476f-9738-d1bf01ed0898",
        "c300a86a-ce96-4eeb-9852-9a02750a60cf"
      ],
      "singergroups": [
        "fbfee5ed-dbac-4e0a-861b-b4a40d32ef6e"
      ],
      "songtypes": [
        "7be1b15c-cff8-4b37-a649-5c90f3d569a9"
      ],
      "songwriters": [
        "7b3b2c24-f297-4c2a-82a5-bc9c9102567c"
      ],
      "versions": [
        "c2143a7f-6970-450e-8a79-0302db9220a9"
      ],
      "origins": [
        "dbedd6b3-d125-4cd8-aa32-c4175e4ca3a3"
      ]
    },
    "titles": {
      "eng": "Peaky Peaky"
    },
    "titles_default_language": "eng",
    "year": 2022
  }
}