{
  "header": {
    "version": 4,
    "description": "Karaoke Mugen Karaoke Data File"
  },
  "medias": [
    {
      "version": "Default",
      "filename": "JPN - Kidou Senshi Gundam Tekketsu no Orphans - MV - STEEL - Tekketsu no Kizuna ~ Full Vers.mp4",
      "audiogain": -10.51,
      "loudnorm": "-7.07,1.84,7.40,-17.36,-1.66",
      "filesize": 64730223,
      "duration": 325,
      "default": true,
      "lyrics": [
        {
          "filename": "JPN - Kidou Senshi Gundam Tekketsu no Orphans - MV - STEEL - Tekketsu no Kizuna ~ Full Vers.ass",
          "default": true,
          "version": "Default"
        }
      ]
    }
  ],
  "data": {
    "created_at": "2020-02-27T18:53:13.546Z",
    "kid": "5e12f958-1999-4b65-93d0-a238f586143b",
    "modified_at": "2022-06-04T00:13:13.470Z",
    "parents": [
      "557bd215-05e6-430d-933e-9f81740271dd"
    ],
    "repository": "kara.moe",
    "songorder": null,
    "tags": {
      "authors": [
        "87096920-112f-485f-a310-04156cb4624d"
      ],
      "creators": [
        "ef8f80e1-d244-4aea-b7f0-984d6dd4b82b"
      ],
      "families": [
        "5391f9fe-638c-415f-8dc9-958e3a2c5787"
      ],
      "groups": [
        "60defa7b-774e-4680-8321-51b742c2e009",
        "ae613721-1fbe-480d-ba6b-d6d0702b184d"
      ],
      "langs": [
        "4dcf9614-7914-42aa-99f4-dbce2e059133"
      ],
      "misc": [
        "86705d4b-24e4-4756-9687-2b9c98bcf366"
      ],
      "origins": [
        "938de218-5343-4865-94d3-fb33f2eaa152"
      ],
      "series": [
        "844f4f88-0b45-4689-bfb7-aedfb8343fee"
      ],
      "singers": [
        "61c5e3d4-6a0e-46b6-b622-06f5bc6d3294"
      ],
      "songtypes": [
        "7be1b15c-cff8-4b37-a649-5c90f3d569a9"
      ],
      "songwriters": [
        "7e72484d-b638-4d9a-95f2-5947c59d721b",
        "895ceb3c-0bee-4f59-aa9f-28e0168453c0"
      ],
      "versions": [
        "c2143a7f-6970-450e-8a79-0302db9220a9"
      ],
      "collections": [
        "dbcf2c22-524d-4708-99bb-601703633927"
      ],
      "franchises": [
        "e6ade589-c2e4-49a1-acdb-ea9b03e57240"
      ]
    },
    "titles": {
      "qro": "Steel: Tekketsu no Kizuna",
      "jpn": "STEEL -鉄血の絆-"
    },
    "titles_default_language": "qro",
    "title": "STEEL - Tekketsu no Kizuna",
    "year": 2016
  }
}