{
  "header": {
    "version": 4,
    "description": "Karaoke Mugen Karaoke Data File"
  },
  "medias": [
    {
      "version": "Default",
      "filename": "JPN - 5-ji Kara 9-ji Made Watashi ni Koi Shita Obousan - MV - Christmas song ~ Full Vers.mp4",
      "audiogain": -8.97,
      "loudnorm": "-8.38,-0.77,6.40,-18.62,-0.69",
      "filesize": 88967076,
      "duration": 342,
      "default": true,
      "lyrics": [
        {
          "filename": "JPN - 5-ji Kara 9-ji Made Watashi ni Koi Shita Obousan - MV - Christmas song ~ Full Vers.ass",
          "default": true,
          "version": "Default"
        }
      ]
    }
  ],
  "data": {
    "created_at": "2022-06-26T16:34:29.079Z",
    "ignoreHooks": false,
    "kid": "a19ef63a-e871-478a-bb08-263541becce3",
    "modified_at": "2022-06-26T16:57:33.516Z",
    "repository": "kara.moe",
    "tags": {
      "authors": [
        "4d71ce82-eed1-4c44-ac85-5f7255f3dad3"
      ],
      "collections": [
        "dbcf2c22-524d-4708-99bb-601703633927"
      ],
      "creators": [
        "f963181a-1214-47f8-b6f9-1705cbc33779"
      ],
      "families": [
        "5391f9fe-638c-415f-8dc9-958e3a2c5787"
      ],
      "groups": [
        "ae613721-1fbe-480d-ba6b-d6d0702b184d"
      ],
      "langs": [
        "4dcf9614-7914-42aa-99f4-dbce2e059133"
      ],
      "misc": [
        "86705d4b-24e4-4756-9687-2b9c98bcf366"
      ],
      "series": [
        "6ed00d9f-e9cc-4548-b192-b7a3a8b3f273"
      ],
      "singers": [
        "808438b7-ba98-4556-9f40-a6c4d54923d5"
      ],
      "songtypes": [
        "7be1b15c-cff8-4b37-a649-5c90f3d569a9"
      ],
      "songwriters": [
        "ace37864-d9f8-4900-ad58-4c2964d0cdd4",
        "f8554977-612d-4f07-8f67-da09505423e1"
      ],
      "versions": [
        "c2143a7f-6970-450e-8a79-0302db9220a9"
      ]
    },
    "titles": {
      "eng": "Christmas song",
      "jpn": "クリスマスソング "
    },
    "titles_default_language": "eng",
    "title": "Christmas song",
    "year": 2015
  }
}