{
  "header": {
    "version": 4,
    "description": "Karaoke Mugen Karaoke Data File"
  },
  "medias": [
    {
      "version": "Default",
      "filename": "JPN - the pillows - MV - Another Morning.mp4",
      "audiogain": -7.12,
      "loudnorm": "-8.82,0.21,0.90,-18.93,-0.86",
      "filesize": 26672035,
      "duration": 277,
      "default": true,
      "lyrics": [
        {
          "filename": "JPN - the pillows - MV - Another Morning.ass",
          "default": true,
          "version": "Default"
        }
      ]
    }
  ],
  "data": {
    "created_at": "2019-09-27T17:07:16.000Z",
    "kid": "ee52c7ce-b824-4658-bab2-c204b52efd99",
    "modified_at": "2022-06-04T00:18:42.988Z",
    "repository": "kara.moe",
    "songorder": null,
    "tags": {
      "authors": [
        "4b834f78-16da-4e4d-926f-b93968affb69"
      ],
      "creators": [
        "d2a29c19-019f-4a3d-86ad-2dae9e41a4b1"
      ],
      "families": [
        "5391f9fe-638c-415f-8dc9-958e3a2c5787"
      ],
      "groups": [
        "24db50aa-a126-4d34-a48a-e45db79c4245",
        "2b4e9972-5e17-481b-99f5-d0787c0ada56"
      ],
      "langs": [
        "4dcf9614-7914-42aa-99f4-dbce2e059133"
      ],
      "singers": [
        "278eeffa-7d51-48a4-85a7-b10843f26cdf"
      ],
      "songtypes": [
        "7be1b15c-cff8-4b37-a649-5c90f3d569a9"
      ],
      "collections": [
        "dbcf2c22-524d-4708-99bb-601703633927"
      ]
    },
    "titles": {
      "eng": "Another Morning"
    },
    "titles_default_language": "eng",
    "title": "Another Morning",
    "year": 1998
  }
}