{
  "header": {
    "version": 4,
    "description": "Karaoke Mugen Karaoke Data File"
  },
  "medias": [
    {
      "version": "Default",
      "filename": "JPN - Frozen - MOVIE IN - Let It Go ~Ari no Mama de~.mp4",
      "audiogain": 3.5,
      "loudnorm": "-21.67,-5.77,12.00,-32.12,-2.37",
      "filesize": 57724629,
      "duration": 217,
      "default": true,
      "lyrics": [
        {
          "filename": "JPN - Frozen - MOVIE IN - Let It Go ~Ari no Mama de~.ass",
          "default": true,
          "version": "Default"
        }
      ]
    }
  ],
  "data": {
    "created_at": "2019-08-27T22:40:00.000Z",
    "ignoreHooks": false,
    "kid": "6aa67201-d865-4720-a25c-5d981f107244",
    "modified_at": "2022-11-02T18:28:00.506Z",
    "repository": "kara.moe",
    "tags": {
      "authors": [
        "6dff9198-29f1-470b-bac6-8a60032ca8b8"
      ],
      "collections": [
        "c7db86a0-ff64-4044-9be4-66dd1ef1d1c1"
      ],
      "creators": [
        "53ac4d74-c9b8-4fed-bab1-cfa65b2f3142"
      ],
      "families": [
        "0377db02-3af6-43b8-9b08-c759df3d25c3"
      ],
      "groups": [
        "2b4e9972-5e17-481b-99f5-d0787c0ada56",
        "ae613721-1fbe-480d-ba6b-d6d0702b184d"
      ],
      "langs": [
        "4dcf9614-7914-42aa-99f4-dbce2e059133"
      ],
      "origins": [
        "c8ca9dea-d8b4-48fe-8427-d911653232e9"
      ],
      "series": [
        "0dd6fda0-7267-4eee-b8bb-50b9a5fb7886"
      ],
      "singers": [
        "12bea406-759a-406e-8ed3-5d46a1b2172e"
      ],
      "songtypes": [
        "5e5250d9-351a-4a82-98eb-55db50ad8962"
      ],
      "songwriters": [
        "506f076a-3358-4987-b14a-2f8a74c08a43",
        "52286fc0-27d0-4b1d-8863-03206c62c544",
        "ca012992-eb15-4440-bf41-78072f44238b"
      ],
      "franchises": [
        "0dd6fda0-7267-4eee-b8bb-50b9a5fb7886"
      ]
    },
    "titles": {
      "jpn": "Let It Go ~ありのままで~",
      "qro": "Let It Go ~Ari no Mama de~",
      "fre": "Libérée, délivrée",
      "eng": "Let It Go"
    },
    "titles_default_language": "qro",
    "title": "Let It Go ~Ari no Mama de~",
    "year": 2013
  }
}