{
  "header": {
    "version": 4,
    "description": "Karaoke Mugen Karaoke Data File"
  },
  "medias": [
    {
      "version": "Default",
      "filename": "JPN - Project SEKAI COLORFUL STAGE! - GAME MV - Nonsense Bungaku ~ Cover Full Vers.mp4",
      "audiogain": -8.67,
      "loudnorm": "-8.79,1.18,2.50,-18.83,-0.32",
      "filesize": 101398108,
      "duration": 206,
      "default": true,
      "lyrics": [
        {
          "filename": "JPN - Project SEKAI COLORFUL STAGE! - GAME MV - Nonsense Bungaku ~ Cover Full Vers.ass",
          "default": true,
          "version": "Default"
        }
      ]
    }
  ],
  "data": {
    "created_at": "2023-05-01T09:04:21.543Z",
    "ignoreHooks": false,
    "kid": "a6fcd05f-b4bd-45a0-bba1-e180e8f52f33",
    "modified_at": "2023-05-02T16:36:09.713Z",
    "parents": [
      "0832984e-e647-43a6-9832-5c65f8842202"
    ],
    "repository": "kara.moe",
    "tags": {
      "authors": [
        "a3a99b23-6c42-4d38-8863-491153187437"
      ],
      "collections": [
        "c7db86a0-ff64-4044-9be4-66dd1ef1d1c1"
      ],
      "creators": [
        "1e5648fb-22fc-474d-b865-254eb31fa000",
        "4e82237e-73b3-4b5f-b291-51de3b3d14f6",
        "92ae28c3-4c46-45e1-986e-4e5514c9b277"
      ],
      "families": [
        "0377db02-3af6-43b8-9b08-c759df3d25c3"
      ],
      "genres": [
        "45623cae-6d68-4304-a49b-896d1d6f4580"
      ],
      "groups": [
        "8e209ae4-4381-438f-89dc-1b21752027d2"
      ],
      "langs": [
        "4dcf9614-7914-42aa-99f4-dbce2e059133"
      ],
      "misc": [
        "1d6ceadf-a885-47e5-b23b-c07bf668a424",
        "ec4fee75-71fb-45b4-9772-2ca374b4b600"
      ],
      "origins": [
        "dbedd6b3-d125-4cd8-aa32-c4175e4ca3a3"
      ],
      "platforms": [
        "213a1a15-e73a-4a08-b3f6-b6e2745a82e5"
      ],
      "series": [
        "192b33fb-638a-4680-bdb2-a5adb9889849"
      ],
      "singers": [
        "48dc9597-7cd1-482f-8dc0-3e7c72f4b7c3",
        "7ce72adb-b4f2-42d9-b628-360b759a03df",
        "c889c0b5-a571-408f-8b6a-b3c1d4c6296f"
      ],
      "singergroups": [
        "3978f3e3-2631-47a9-bfc8-9d2804c1074d"
      ],
      "songtypes": [
        "7be1b15c-cff8-4b37-a649-5c90f3d569a9"
      ],
      "songwriters": [
        "a84f6a9f-4785-48bb-9f07-fdede3de7cae"
      ],
      "versions": [
        "03e1e1d2-8641-47b7-bbcb-39a3df9ff21c",
        "c2143a7f-6970-450e-8a79-0302db9220a9"
      ]
    },
    "titles": {
      "eng": "Literary Nonsense",
      "jpn": "ナンセンス文学",
      "qro": "Nonsense Bungaku"
    },
    "titles_default_language": "qro",
    "year": 2022
  }
}