{
  "header": {
    "version": 4,
    "description": "Karaoke Mugen Karaoke Data File"
  },
  "medias": [
    {
      "version": "Default",
      "filename": "JPN - Hatsukoi Monster - ED - Kimi ni Sasageru Chinkonka.mp4",
      "audiogain": 1.66,
      "loudnorm": "-18.31,-12.11,2.30,-28.34,-0.13",
      "filesize": 78223725,
      "duration": 91,
      "default": true,
      "lyrics": [
        {
          "filename": "JPN - Hatsukoi Monster - ED - Kimi ni Sasageru Chinkonka.ass",
          "default": true,
          "version": "Default",
          "subchecksum": "2a556819b5bc705ad6ba291e6469756a"
        }
      ]
    }
  ],
  "data": {
    "created_at": "2018-10-27T16:15:39.000Z",
    "kid": "2c407811-70ee-4998-8aa7-f5d59fe2be0b",
    "modified_at": "2021-02-25T11:38:04.431Z",
    "repository": "kara.moe",
    "tags": {
      "authors": [
        "b5116310-e69b-4ed4-9e47-c5c53ee69023"
      ],
      "collections": [
        "c7db86a0-ff64-4044-9be4-66dd1ef1d1c1"
      ],
      "creators": [
        "2bf7a71d-d3fc-42ba-8aa0-a94d7ca3888c"
      ],
      "families": [
        "0377db02-3af6-43b8-9b08-c759df3d25c3"
      ],
      "genres": [
        "8b6ace6f-a59e-4740-b3ff-e1618720383c"
      ],
      "groups": [
        "ae613721-1fbe-480d-ba6b-d6d0702b184d"
      ],
      "langs": [
        "4dcf9614-7914-42aa-99f4-dbce2e059133"
      ],
      "origins": [
        "938de218-5343-4865-94d3-fb33f2eaa152"
      ],
      "series": [
        "7ae7e661-7700-45dc-aa2c-f9f0600e5ef0"
      ],
      "singers": [
        "9c414b4c-422b-4857-b8fd-4556895a745c"
      ],
      "songtypes": [
        "38c77c56-2b95-4040-b676-0994a8cb0597"
      ],
      "songwriters": [
        "018390fd-2889-4b3d-8186-059f67433bfd",
        "731c9f26-b072-4f14-b3b8-ae8b04835f03"
      ]
    },
    "title": "Kimi ni Sasageru Chinkonka",
    "titles": {
      "qro": "Kimi ni Sasageru Chinkonka",
      "jpn": "君に捧げる鎮魂歌"
    },
    "year": 2016,
    "titles_default_language": "qro"
  }
}