{
  "header": {
    "version": 4,
    "description": "Karaoke Mugen Karaoke Data File"
  },
  "medias": [
    {
      "version": "Default",
      "filename": "JPN - Touhou - AUDIO - Don't let you down.mp3",
      "audiogain": -9.99,
      "loudnorm": "-7.13,2.54,5.40,-17.19,-0.65",
      "filesize": 7409348,
      "duration": 297,
      "default": true,
      "lyrics": [
        {
          "filename": "JPN - Touhou - AUDIO - Don't let you down.ass",
          "default": true,
          "version": "Default"
        }
      ]
    }
  ],
  "data": {
    "created_at": "2023-06-30T21:19:39.248Z",
    "ignoreHooks": false,
    "kid": "ca664b98-5251-475a-99e1-d407f7168d6e",
    "modified_at": "2023-06-30T21:22:35.371Z",
    "repository": "kara.moe",
    "tags": {
      "authors": [
        "56355915-6bc6-4282-acbb-dd1fdaf13d50"
      ],
      "collections": [
        "c7db86a0-ff64-4044-9be4-66dd1ef1d1c1"
      ],
      "creators": [
        "f32792be-82f3-4bba-ae48-bd1edbb4b090"
      ],
      "groups": [
        "ae613721-1fbe-480d-ba6b-d6d0702b184d",
        "df5f446f-d161-4760-8e0c-822e70ea03ae"
      ],
      "langs": [
        "4dcf9614-7914-42aa-99f4-dbce2e059133"
      ],
      "origins": [
        "ac5085db-52d8-44b4-8fbb-1697b24d2046"
      ],
      "series": [
        "1bdaa5a1-dfa6-4365-b746-7a0b194dafd6"
      ],
      "singers": [
        "2c425b5f-a30d-40b7-b26d-2f029341f1c9"
      ],
      "singergroups": [
        "d9aaaa69-b89d-4605-93e3-39b5e0a8f99d"
      ],
      "songtypes": [
        "42a262ae-acba-4ab5-a446-c5789c96c821"
      ],
      "songwriters": [
        "c281867c-0bae-4894-9744-d15e16d872c2",
        "26cb5252-8510-49e0-897c-a611a05fc056"
      ],
      "franchises": [
        "1bdaa5a1-dfa6-4365-b746-7a0b194dafd6"
      ]
    },
    "titles": {
      "eng": "Don't let you down"
    },
    "titles_default_language": "eng",
    "year": 2014
  }
}