{
  "header": {
    "version": 4,
    "description": "Karaoke Mugen Karaoke Data File"
  },
  "medias": [
    {
      "version": "Default",
      "filename": "JPN - Touhou - AUDIO - Storytellers.mp3",
      "audiogain": -12.75,
      "loudnorm": "-3.93,0.76,1.30,-14.04,-0.72",
      "filesize": 11047938,
      "duration": 237,
      "default": true,
      "lyrics": [
        {
          "filename": "JPN - Touhou - AUDIO - Storytellers.ass",
          "default": true,
          "version": "Default"
        }
      ]
    }
  ],
  "data": {
    "created_at": "2022-09-27T11:46:05.927Z",
    "ignoreHooks": false,
    "kid": "e2d03c69-a7db-44aa-b6ab-8963276ef09d",
    "modified_at": "2022-10-15T15:59:50.639Z",
    "repository": "kara.moe",
    "tags": {
      "authors": [
        "444f6842-1a6b-4ade-b8fa-e48490ebc39d"
      ],
      "collections": [
        "c7db86a0-ff64-4044-9be4-66dd1ef1d1c1"
      ],
      "creators": [
        "118022d4-b72b-42d1-a814-c031d53bebd2"
      ],
      "groups": [
        "ae613721-1fbe-480d-ba6b-d6d0702b184d"
      ],
      "langs": [
        "4dcf9614-7914-42aa-99f4-dbce2e059133"
      ],
      "series": [
        "1bdaa5a1-dfa6-4365-b746-7a0b194dafd6"
      ],
      "singers": [
        "3f9424ef-88f8-4829-91c7-827a28d9420c",
        "695b8c03-b9af-46c3-aac3-463bd341c4ba"
      ],
      "songtypes": [
        "42a262ae-acba-4ab5-a446-c5789c96c821"
      ],
      "songwriters": [
        "118022d4-b72b-42d1-a814-c031d53bebd2",
        "695b8c03-b9af-46c3-aac3-463bd341c4ba"
      ],
      "franchises": [
        "1bdaa5a1-dfa6-4365-b746-7a0b194dafd6"
      ]
    },
    "titles": {
      "eng": "Storytellers"
    },
    "titles_default_language": "eng",
    "title": "Storytellers",
    "year": 2010
  }
}