{
  "header": {
    "version": 4,
    "description": "Karaoke Mugen Karaoke Data File"
  },
  "medias": [
    {
      "version": "Default",
      "filename": "JPN - Seiken Densetsu Legend of Mana - The Teardrop Crystal - OP - Tear of Will.mp4",
      "audiogain": -0.64,
      "loudnorm": "-17.04,-7.43,7.40,-27.37,-1.33",
      "filesize": 48249966,
      "duration": 89,
      "default": true,
      "lyrics": [
        {
          "filename": "JPN - Seiken Densetsu Legend of Mana - The Teardrop Crystal - OP - Tear of Will.ass",
          "default": true,
          "version": "Default"
        }
      ]
    }
  ],
  "data": {
    "created_at": "2022-11-07T23:05:30.772Z",
    "ignoreHooks": false,
    "kid": "2d74d143-c1b3-4ae2-943a-04721c981e37",
    "modified_at": "2022-11-07T23:08:31.075Z",
    "repository": "kara.moe",
    "tags": {
      "authors": [
        "1631228b-9125-497a-aafc-66f920a44a02"
      ],
      "collections": [
        "c7db86a0-ff64-4044-9be4-66dd1ef1d1c1"
      ],
      "creators": [
        "6817ef9f-9296-475c-b1bd-f16d7438b2cf",
        "eb507394-8b26-45a4-b13d-d93849f844a3"
      ],
      "families": [
        "0377db02-3af6-43b8-9b08-c759df3d25c3"
      ],
      "groups": [
        "8c22c899-b3ed-42da-a548-ce00f950798b",
        "8e209ae4-4381-438f-89dc-1b21752027d2"
      ],
      "langs": [
        "4dcf9614-7914-42aa-99f4-dbce2e059133"
      ],
      "origins": [
        "938de218-5343-4865-94d3-fb33f2eaa152"
      ],
      "series": [
        "b6193d3b-6dbd-4c0c-b618-83d682b46dfc"
      ],
      "singers": [
        "1e2a522f-776f-491a-882a-6892d061b4a2"
      ],
      "songtypes": [
        "f02ad9b3-0bd9-4aad-85b3-9976739ba0e4"
      ],
      "songwriters": [
        "a6757f96-fac1-46c4-8746-035ff6c4be91"
      ]
    },
    "titles": {
      "eng": "Tear of Will"
    },
    "titles_default_language": "eng",
    "year": 2022
  }
}