{
  "header": {
    "version": 4,
    "description": "Karaoke Mugen Karaoke Data File"
  },
  "medias": [
    {
      "version": "Shokusu no ne",
      "filename": "JPN - Heppoko Jikken Animation Excel Saga - ED1 - Menchi Aishuu no Bolero ~ Shokusu no ne.mp4",
      "audiogain": 11.04,
      "loudnorm": "-29.76,-15.55,9.00,-40.00,-1.65",
      "filesize": 17846389,
      "duration": 89,
      "default": true,
      "lyrics": [
        {
          "filename": "JPN - Heppoko Jikken Animation Excel Saga - ED1 - Menchi Aishuu no Bolero ~ Shokusu no ne.ass",
          "default": true,
          "version": "Default",
          "subchecksum": "7f10261a65d28905584bfc47cd3d93a3"
        }
      ]
    }
  ],
  "data": {
    "created_at": "2017-10-11T17:01:43.000Z",
    "kid": "8d8070eb-e00e-43a3-a934-f35ede9286f4",
    "modified_at": "2021-02-25T11:39:49.158Z",
    "repository": "kara.moe",
    "songorder": 1,
    "tags": {
      "authors": [
        "5bdaba57-27f8-4568-8806-76a807728766"
      ],
      "collections": [
        "c7db86a0-ff64-4044-9be4-66dd1ef1d1c1"
      ],
      "creators": [
        "802a8ac8-b16f-40a4-944b-99956798c906"
      ],
      "families": [
        "0377db02-3af6-43b8-9b08-c759df3d25c3"
      ],
      "groups": [
        "24db50aa-a126-4d34-a48a-e45db79c4245"
      ],
      "langs": [
        "4dcf9614-7914-42aa-99f4-dbce2e059133"
      ],
      "origins": [
        "938de218-5343-4865-94d3-fb33f2eaa152"
      ],
      "series": [
        "24af41f6-5e42-41fe-8ea2-2779de6bc5af"
      ],
      "singers": [
        "65e3f38e-2748-4062-9b6c-07e3f5e6f740",
        "a95784ac-3769-44ee-ac74-841d21d9e5ed"
      ],
      "songtypes": [
        "38c77c56-2b95-4040-b676-0994a8cb0597"
      ],
      "songwriters": [
        "657c6e14-022d-4680-a8d8-7b87cd4f8e4c",
        "6ac30e30-c43b-4382-8bc4-00f92d4db8d7"
      ],
      "franchises": [
        "24af41f6-5e42-41fe-8ea2-2779de6bc5af"
      ]
    },
    "title": "Menchi Aishû no Bolero ~ Shokusu no ne",
    "titles": {
      "qro": "Menchi Aishû no Bolero ~ Shokusu nano ne",
      "jpn": "メンチ・哀愁のボレロ~食すのね"
    },
    "year": 1999,
    "titles_default_language": "qro"
  }
}