{
  "header": {
    "version": 4,
    "description": "Karaoke Mugen Karaoke Data File"
  },
  "medias": [
    {
      "version": "Default",
      "filename": "JPN - Soukyuu no Fafner Dead Aggressor Exodus - OP2 - DEAD OR ALIVE.mp4",
      "audiogain": -0.64,
      "loudnorm": "-16.02,-6.67,6.00,-26.19,-0.62",
      "filesize": 94385681,
      "duration": 90,
      "default": true,
      "lyrics": [
        {
          "filename": "JPN - Soukyuu no Fafner Dead Aggressor Exodus - OP2 - DEAD OR ALIVE.ass",
          "default": true,
          "version": "Default",
          "subchecksum": "17e037b73af4c88701214075c66f2e11"
        }
      ]
    }
  ],
  "data": {
    "created_at": "2020-08-15T22:03:03.595Z",
    "kid": "d03048af-0691-4fdd-8814-f34953e7d6d0",
    "modified_at": "2021-02-25T13:10:22.066Z",
    "repository": "kara.moe",
    "songorder": 2,
    "tags": {
      "authors": [
        "4d71ce82-eed1-4c44-ac85-5f7255f3dad3"
      ],
      "collections": [
        "c7db86a0-ff64-4044-9be4-66dd1ef1d1c1"
      ],
      "creators": [
        "0e26434a-c89a-4366-85b5-9e5c4b7d4195"
      ],
      "families": [
        "0377db02-3af6-43b8-9b08-c759df3d25c3"
      ],
      "genres": [
        "f60ba57d-5ef4-49e0-b93b-d0dcbcff6592"
      ],
      "groups": [
        "ae613721-1fbe-480d-ba6b-d6d0702b184d"
      ],
      "langs": [
        "4dcf9614-7914-42aa-99f4-dbce2e059133"
      ],
      "misc": [
        "fe819ff1-9db8-4a0f-85dc-0e322c9126c4"
      ],
      "origins": [
        "938de218-5343-4865-94d3-fb33f2eaa152"
      ],
      "series": [
        "133c97f2-4ba1-4df4-8aa6-7fc36f740212"
      ],
      "singers": [
        "78d91182-ac66-49fb-9561-1d330667d6c4"
      ],
      "songtypes": [
        "f02ad9b3-0bd9-4aad-85b3-9976739ba0e4"
      ],
      "songwriters": [
        "0b54e69d-4691-4415-be0e-0dd6fd5d4e1a",
        "84a20b00-fd06-43fd-b78e-9c1a2b7b7795"
      ],
      "franchises": [
        "9f12b43c-04d5-4f45-a0b0-a35453f51b0c"
      ]
    },
    "title": "DEAD OR ALIVE",
    "titles": {
      "eng": "DEAD OR ALIVE"
    },
    "year": 2015,
    "titles_default_language": "eng"
  }
}