{
  "header": {
    "version": 4,
    "description": "Karaoke Mugen Karaoke Data File"
  },
  "medias": [
    {
      "version": "Default",
      "filename": "JPN - Chuunibyou Demo KOI ga Shitai! - ED - INSIDE IDENTITY.mp4",
      "audiogain": 3.79,
      "loudnorm": "-21.42,-11.06,4.20,-31.51,-0.07",
      "filesize": 75505321,
      "duration": 91,
      "default": true,
      "lyrics": [
        {
          "filename": "JPN - Chuunibyou Demo KOI ga Shitai! - ED - INSIDE IDENTITY.ass",
          "default": true,
          "version": "Default"
        }
      ]
    }
  ],
  "data": {
    "created_at": "2017-10-11T17:02:11.000Z",
    "ignoreHooks": false,
    "kid": "e519a88b-e882-47c6-a9b4-7b5f82846c15",
    "modified_at": "2023-03-24T22:45:25.754Z",
    "repository": "kara.moe",
    "tags": {
      "authors": [
        "fa399f2f-ea1d-4902-8796-ea6d8218aff0"
      ],
      "collections": [
        "c7db86a0-ff64-4044-9be4-66dd1ef1d1c1"
      ],
      "creators": [
        "d93786af-5098-49b2-9928-37edfb3d0322"
      ],
      "families": [
        "0377db02-3af6-43b8-9b08-c759df3d25c3"
      ],
      "groups": [
        "ae613721-1fbe-480d-ba6b-d6d0702b184d",
        "f53332f8-daed-4ac5-97c9-64239b520db0"
      ],
      "langs": [
        "4dcf9614-7914-42aa-99f4-dbce2e059133"
      ],
      "misc": [
        "fe819ff1-9db8-4a0f-85dc-0e322c9126c4"
      ],
      "origins": [
        "938de218-5343-4865-94d3-fb33f2eaa152"
      ],
      "series": [
        "ed5a577a-e69a-4323-aa6f-87ca936c5723"
      ],
      "singers": [
        "1479a024-81fb-47b3-8990-02964fbda606",
        "76e244bb-99b7-4741-84ba-65ecabb9982f",
        "9332cf9e-20a6-4738-98a2-f6ef30529681",
        "bd0637b1-8912-4cbe-a36f-38d90ce9423a",
        "c4927d85-e42d-415b-9486-be693c8a8bfe"
      ],
      "songtypes": [
        "38c77c56-2b95-4040-b676-0994a8cb0597"
      ],
      "songwriters": [
        "3acbe973-912e-47ca-b5b2-6563181e0c51"
      ],
      "franchises": [
        "ed5a577a-e69a-4323-aa6f-87ca936c5723"
      ]
    },
    "titles": {
      "eng": "INSIDE IDENTITY"
    },
    "titles_default_language": "eng",
    "year": 2012
  }
}