{
  "header": {
    "version": 4,
    "description": "Karaoke Mugen Karaoke Data File"
  },
  "medias": [
    {
      "version": "Default",
      "filename": "JPN - Kin'iro no Chord Primo Passo - OP - Brand New Breeze.mp4",
      "audiogain": -5.61,
      "loudnorm": "-12.35,-0.28,4.90,-22.51,-0.97",
      "filesize": 19759351,
      "duration": 89,
      "default": true,
      "lyrics": [
        {
          "filename": "JPN - Kin'iro no Chord Primo Passo - OP - Brand New Breeze.ass",
          "default": true,
          "version": "Default",
          "subchecksum": "0de2381b18b980f6b1326170bb73bab8"
        }
      ]
    }
  ],
  "data": {
    "created_at": "2021-03-08T15:36:24.508Z",
    "kid": "776b82b9-0f1a-46a3-b7bb-51b9fbdeed9a",
    "modified_at": "2021-03-08T15:49:38.207Z",
    "repository": "kara.moe",
    "tags": {
      "authors": [
        "8605a8b9-3b45-44b9-9d98-1a25096bf702"
      ],
      "collections": [
        "c7db86a0-ff64-4044-9be4-66dd1ef1d1c1"
      ],
      "creators": [
        "314bd100-58c4-480a-8807-4458a05dc3e6"
      ],
      "families": [
        "0377db02-3af6-43b8-9b08-c759df3d25c3"
      ],
      "genres": [
        "8b6ace6f-a59e-4740-b3ff-e1618720383c"
      ],
      "groups": [
        "3c14c864-533c-49e6-a3cc-6969f1233775"
      ],
      "langs": [
        "4dcf9614-7914-42aa-99f4-dbce2e059133"
      ],
      "origins": [
        "938de218-5343-4865-94d3-fb33f2eaa152"
      ],
      "series": [
        "0cca525f-7834-4af8-884b-5310f313bd26"
      ],
      "singers": [
        "765e2203-09a3-47a0-b017-54b06bf9d3ab"
      ],
      "songtypes": [
        "f02ad9b3-0bd9-4aad-85b3-9976739ba0e4"
      ],
      "songwriters": [
        "765e2203-09a3-47a0-b017-54b06bf9d3ab"
      ]
    },
    "title": "Brand New Breeze",
    "titles": {
      "eng": "Brand New Breeze"
    },
    "year": 2006,
    "titles_default_language": "eng"
  }
}