{
  "header": {
    "version": 4,
    "description": "Karaoke Mugen Karaoke Data File"
  },
  "medias": [
    {
      "version": "Default",
      "filename": "JPN - Kuroko no Basket 3 - OP3 - Memories.mp4",
      "audiogain": 6.18,
      "loudnorm": "-22.72,-12.67,1.10,-32.75,-0.05",
      "filesize": 46755498,
      "duration": 89,
      "default": true,
      "lyrics": [
        {
          "filename": "JPN - Kuroko no Basket 3 - OP3 - Memories.ass",
          "default": true,
          "version": "Default",
          "subchecksum": "5021a84742de836bd8246ce9e630f9ee"
        }
      ]
    }
  ],
  "data": {
    "created_at": "2017-10-11T17:01:48.000Z",
    "kid": "0e16bf13-d099-4b7d-8674-0081ad2814f4",
    "modified_at": "2021-02-25T12:08:03.222Z",
    "repository": "kara.moe",
    "songorder": 3,
    "tags": {
      "authors": [
        "5bdaba57-27f8-4568-8806-76a807728766"
      ],
      "collections": [
        "c7db86a0-ff64-4044-9be4-66dd1ef1d1c1"
      ],
      "creators": [
        "20d023d6-5195-4e4f-bae3-8b28ad6334e2"
      ],
      "families": [
        "0377db02-3af6-43b8-9b08-c759df3d25c3"
      ],
      "groups": [
        "ae613721-1fbe-480d-ba6b-d6d0702b184d"
      ],
      "langs": [
        "4dcf9614-7914-42aa-99f4-dbce2e059133"
      ],
      "origins": [
        "938de218-5343-4865-94d3-fb33f2eaa152"
      ],
      "series": [
        "7766a5b7-ac6b-4cd2-b609-c5a2a3e2d79e"
      ],
      "singers": [
        "213ca674-9084-40ad-a7a8-c84d8108fce9"
      ],
      "songtypes": [
        "f02ad9b3-0bd9-4aad-85b3-9976739ba0e4"
      ],
      "songwriters": [
        "8e1f109c-a1d4-40d6-9a55-32abdb12993c",
        "b26b49e2-d439-48b3-8c0f-c7c25648c48a"
      ],
      "franchises": [
        "0e0d08c7-45a0-42c3-bd88-7289dfbac807"
      ]
    },
    "title": "Memories",
    "titles": {
      "eng": "Memories",
      "jpn": "メモリーズ"
    },
    "year": 2015,
    "titles_default_language": "eng"
  }
}