{
  "header": {
    "version": 4,
    "description": "Karaoke Mugen Karaoke Data File"
  },
  "medias": [
    {
      "version": "Default",
      "filename": "JPN - Kuroshitsuji II - OP - SHIVER.mp4",
      "audiogain": -8.81,
      "loudnorm": "-7.49,1.09,1.50,-17.51,-0.12",
      "filesize": 60508325,
      "duration": 91,
      "default": true,
      "lyrics": [
        {
          "filename": "JPN - Kuroshitsuji II - OP - SHIVER.ass",
          "default": true,
          "version": "Default",
          "subchecksum": "ece60ab7196d0eab0b0677f0893f14d2"
        }
      ]
    }
  ],
  "data": {
    "created_at": "2017-10-11T15:03:03.000Z",
    "kid": "78071d7b-1dd0-4f74-a592-26889553e999",
    "modified_at": "2021-02-25T12:08:14.014Z",
    "repository": "kara.moe",
    "tags": {
      "authors": [
        "5bdaba57-27f8-4568-8806-76a807728766"
      ],
      "collections": [
        "c7db86a0-ff64-4044-9be4-66dd1ef1d1c1"
      ],
      "creators": [
        "b96e3686-bbe0-4b9e-815a-a278d5ff31be"
      ],
      "families": [
        "0377db02-3af6-43b8-9b08-c759df3d25c3"
      ],
      "groups": [
        "ae613721-1fbe-480d-ba6b-d6d0702b184d"
      ],
      "langs": [
        "4dcf9614-7914-42aa-99f4-dbce2e059133"
      ],
      "origins": [
        "938de218-5343-4865-94d3-fb33f2eaa152"
      ],
      "series": [
        "d4e5d335-73f9-45c2-9ab4-e3143403e4f9"
      ],
      "singers": [
        "5f6f9bc9-f3ac-4463-9930-15c03feb03f2"
      ],
      "songtypes": [
        "f02ad9b3-0bd9-4aad-85b3-9976739ba0e4"
      ],
      "songwriters": [
        "5f6f9bc9-f3ac-4463-9930-15c03feb03f2",
        "fc389c0c-9fa2-448b-90da-6ebd31ef2a4c"
      ],
      "franchises": [
        "28535ddd-c12f-49e2-a006-dd3b16310a66"
      ]
    },
    "title": "SHIVER",
    "titles": {
      "eng": "SHIVER"
    },
    "year": 2010,
    "titles_default_language": "eng"
  }
}