{
  "header": {
    "version": 4,
    "description": "Karaoke Mugen Karaoke Data File"
  },
  "medias": [
    {
      "version": "Default",
      "filename": "JPN - Star Driver ~Kagayaki no Takuto~ - ED2 - PRIDE.mp4",
      "audiogain": 2.74,
      "loudnorm": "-20.83,-9.83,4.70,-30.88,-0.06",
      "filesize": 37095797,
      "duration": 90,
      "default": true,
      "lyrics": [
        {
          "filename": "JPN - Star Driver ~Kagayaki no Takuto~ - ED2 - PRIDE.ass",
          "default": true,
          "version": "Default",
          "subchecksum": "743c8b21936dab00bdcced52b6613e75"
        }
      ]
    }
  ],
  "data": {
    "created_at": "2017-10-11T17:02:09.000Z",
    "kid": "e5400feb-bd59-4eee-916b-921852f18455",
    "modified_at": "2021-02-25T13:11:25.894Z",
    "repository": "kara.moe",
    "songorder": 2,
    "tags": {
      "authors": [
        "5bdaba57-27f8-4568-8806-76a807728766"
      ],
      "collections": [
        "c7db86a0-ff64-4044-9be4-66dd1ef1d1c1"
      ],
      "creators": [
        "57ffcdd9-7e4f-4971-85ce-0fb3aa8151ac"
      ],
      "families": [
        "0377db02-3af6-43b8-9b08-c759df3d25c3"
      ],
      "genres": [
        "f60ba57d-5ef4-49e0-b93b-d0dcbcff6592"
      ],
      "groups": [
        "ae613721-1fbe-480d-ba6b-d6d0702b184d"
      ],
      "langs": [
        "4dcf9614-7914-42aa-99f4-dbce2e059133"
      ],
      "origins": [
        "938de218-5343-4865-94d3-fb33f2eaa152"
      ],
      "series": [
        "7fbbe2e7-1ba9-4e61-9df5-bbcc7e834155"
      ],
      "singers": [
        "581aad8c-8d51-44af-8b8c-4b1a507484eb"
      ],
      "songtypes": [
        "38c77c56-2b95-4040-b676-0994a8cb0597"
      ],
      "songwriters": [
        "3f6e2df3-c291-4200-89bf-dc39299f09eb",
        "65e97c05-23ed-419d-a3a8-709ec0c63b1a"
      ]
    },
    "title": "PRIDE",
    "titles": {
      "eng": "PRIDE"
    },
    "year": 2010,
    "titles_default_language": "eng"
  }
}