{
  "header": {
    "version": 4,
    "description": "Karaoke Mugen Karaoke Data File"
  },
  "medias": [
    {
      "version": "Default",
      "filename": "JPN - Love Live! Superstar!! - AUDIO - TO BE CONTINUED ~ Off Vocal Vers.mp3",
      "audiogain": -7.99,
      "loudnorm": "-8.32,0.51,3.40,-18.38,-0.21",
      "filesize": 4887246,
      "duration": 191,
      "default": true,
      "lyrics": [
        {
          "filename": "JPN - Love Live! Superstar!! - AUDIO - TO BE CONTINUED ~ Off Vocal Vers.ass",
          "default": true,
          "version": "Default"
        }
      ]
    }
  ],
  "data": {
    "created_at": "2022-11-02T23:33:54.118Z",
    "ignoreHooks": false,
    "kid": "8da11314-31e0-4b78-988f-4be497690d13",
    "modified_at": "2022-11-02T23:38:00.726Z",
    "parents": [
      "a9f0b440-c144-4b52-84bf-8b50732b7535"
    ],
    "repository": "kara.moe",
    "tags": {
      "authors": [
        "449844e4-3a1f-46e1-8a92-bf72e2d1b6f1"
      ],
      "collections": [
        "dbcf2c22-524d-4708-99bb-601703633927"
      ],
      "creators": [
        "b2805292-730e-473a-96f0-fd8e7ffd1fd7"
      ],
      "genres": [
        "caa86df2-0d59-474b-885c-f240a9e891b0"
      ],
      "groups": [
        "8e209ae4-4381-438f-89dc-1b21752027d2"
      ],
      "langs": [
        "4dcf9614-7914-42aa-99f4-dbce2e059133"
      ],
      "series": [
        "ed46191b-997b-4c2d-8088-bb30a5e6d4ca"
      ],
      "singers": [
        "4a1c9511-daa2-4172-9367-5afb3312234e",
        "4e66c19f-a55a-4be7-a948-4eb45796b71f",
        "7b8b38f7-9945-4ee3-9e38-25ddf137f1e0",
        "8a484e8b-1945-416f-b778-97a887ff24eb",
        "8b1d7f16-0b3e-4c63-82c1-bd60518b86a8",
        "a8ce4769-f4d8-4ac8-ad84-731f9895ad9f",
        "ac31fbd5-633b-4b85-8e6b-33976419c240",
        "c1fd3a67-0c3b-4d95-9cd8-f6aa2c8cc5a8",
        "d8060e7f-5362-405e-9e83-b9c854ca6e3c"
      ],
      "singergroups": [
        "f3e5b1d3-30b1-4548-95c8-6cf77216bdbd"
      ],
      "songtypes": [
        "42a262ae-acba-4ab5-a446-c5789c96c821"
      ],
      "songwriters": [
        "71f2ca71-a588-4eae-88a9-bd194e224fce",
        "d70187b8-ecb4-42d9-860d-523ff88a0525",
        "f77f4be8-1af3-4bab-9411-759dbd5bb583"
      ],
      "versions": [
        "c0cc87b9-55b9-40f0-878a-fbb9e34c151e"
      ],
      "franchises": [
        "fd5d066e-e85a-4eea-8688-2979a887450a"
      ]
    },
    "titles": {
      "eng": "TO BE CONTINUED"
    },
    "titles_default_language": "eng",
    "title": "TO BE CONTINUED",
    "year": 2022
  }
}