{
  "header": {
    "version": 4,
    "description": "Karaoke Mugen Karaoke Data File"
  },
  "medias": [
    {
      "version": "Default",
      "filename": "JPN - Touhou - AUDIO - Night Parade on the Sky.mp3",
      "audiogain": -11.93,
      "loudnorm": "-5.33,1.25,3.50,-15.46,-0.20",
      "filesize": 10677224,
      "duration": 305,
      "default": true,
      "lyrics": [
        {
          "filename": "JPN - Touhou - AUDIO - Night Parade on the Sky.ass",
          "default": true,
          "version": "Default"
        }
      ]
    }
  ],
  "data": {
    "created_at": "2021-12-07T10:14:38.139Z",
    "ignoreHooks": false,
    "kid": "da0f278b-0f30-4d97-8e58-2daf813b2c0c",
    "modified_at": "2023-06-29T22:34:24.645Z",
    "repository": "kara.moe",
    "tags": {
      "authors": [
        "db867b9b-f487-444d-9f24-142c4324a235"
      ],
      "collections": [
        "c7db86a0-ff64-4044-9be4-66dd1ef1d1c1"
      ],
      "creators": [
        "a4b42473-3b8c-4987-9e34-01d434e67302"
      ],
      "groups": [
        "ae613721-1fbe-480d-ba6b-d6d0702b184d"
      ],
      "langs": [
        "4dcf9614-7914-42aa-99f4-dbce2e059133"
      ],
      "misc": [
        "1d6ceadf-a885-47e5-b23b-c07bf668a424",
        "86705d4b-24e4-4756-9687-2b9c98bcf366"
      ],
      "origins": [
        "ac5085db-52d8-44b4-8fbb-1697b24d2046"
      ],
      "series": [
        "1bdaa5a1-dfa6-4365-b746-7a0b194dafd6"
      ],
      "singers": [
        "4fa78694-573c-4ca3-89e2-f2d6b4b9281b",
        "0af0613a-8a7b-4c6b-a4bb-783c44417279"
      ],
      "singergroups": [
        "a4b42473-3b8c-4987-9e34-01d434e67302"
      ],
      "songtypes": [
        "42a262ae-acba-4ab5-a446-c5789c96c821"
      ],
      "songwriters": [
        "26cb5252-8510-49e0-897c-a611a05fc056",
        "d2356b50-9605-4d03-9850-16371bd0610e",
        "f178e87f-1a97-4328-96eb-b11f5fc9cff0"
      ],
      "franchises": [
        "1bdaa5a1-dfa6-4365-b746-7a0b194dafd6"
      ]
    },
    "titles": {
      "eng": "Night Parade on the Sky",
      "jpn": "ナイトパレード・オン・ザ・スカイ"
    },
    "titles_default_language": "eng",
    "year": 2015
  }
}