{
  "header": {
    "version": 4,
    "description": "Karaoke Mugen Karaoke Data File"
  },
  "medias": [
    {
      "version": "Default",
      "filename": "JPN - Hoshi no Kirby - OP1 - Kirby March.mp4",
      "audiogain": -6.45,
      "loudnorm": "-11.20,-0.26,2.00,-21.23,-0.68",
      "filesize": 11299525,
      "duration": 89,
      "default": true,
      "lyrics": [
        {
          "filename": "JPN - Hoshi no Kirby - OP1 - Kirby March.ass",
          "default": true,
          "version": "Default",
          "subchecksum": "16ea3ab03086eb475e1193aeb66dc3e6"
        }
      ]
    }
  ],
  "data": {
    "created_at": "2017-10-11T17:01:43.000Z",
    "kid": "15c6fca4-4c01-413a-9de9-84388a4edaff",
    "modified_at": "2021-02-25T11:43:28.964Z",
    "repository": "kara.moe",
    "songorder": 1,
    "tags": {
      "authors": [
        "1df04771-a378-4f14-a5e1-1455187d681a"
      ],
      "collections": [
        "c7db86a0-ff64-4044-9be4-66dd1ef1d1c1"
      ],
      "creators": [
        "3bf68723-1622-47e3-ac15-66ce49858915"
      ],
      "families": [
        "0377db02-3af6-43b8-9b08-c759df3d25c3"
      ],
      "groups": [
        "3c14c864-533c-49e6-a3cc-6969f1233775"
      ],
      "langs": [
        "4dcf9614-7914-42aa-99f4-dbce2e059133"
      ],
      "origins": [
        "938de218-5343-4865-94d3-fb33f2eaa152"
      ],
      "series": [
        "f5b1ef4e-b62d-45d2-b12f-35bfd509789b"
      ],
      "singers": [
        "d8343d68-cf6e-4984-afca-6dd094ef3c39"
      ],
      "songtypes": [
        "f02ad9b3-0bd9-4aad-85b3-9976739ba0e4"
      ],
      "songwriters": [
        "8eec8511-2dd2-4b4c-8d2c-e5546b1dce81",
        "b95df6dd-de05-4d12-a6a1-31c1014d0ac6"
      ]
    },
    "title": "Kirby★March",
    "titles": {
      "qro": "Kirby★March",
      "jpn": "カービィ★マーチ"
    },
    "year": 2001,
    "titles_default_language": "qro"
  }
}