{
  "header": {
    "version": 4,
    "description": "Karaoke Mugen Karaoke Data File"
  },
  "medias": [
    {
      "version": "Default",
      "filename": "JPN - Bleach - ED9 - Baby It's You.mp4",
      "audiogain": -1.04,
      "loudnorm": "-16.16,-8.51,3.30,-26.20,-1.31",
      "filesize": 6179493,
      "duration": 91,
      "default": true,
      "lyrics": [
        {
          "filename": "JPN - Bleach - ED9 - Baby It's You.ass",
          "default": true,
          "version": "Default",
          "subchecksum": "79227fc14bdb092b06990888e7768575"
        }
      ]
    }
  ],
  "data": {
    "created_at": "2019-08-23T19:25:08.000Z",
    "kid": "fa11ea1f-1d4b-4f25-b03e-b5f6f7f4d177",
    "modified_at": "2021-02-25T10:54:09.418Z",
    "repository": "kara.moe",
    "songorder": 9,
    "tags": {
      "authors": [
        "42ff8105-afa5-49c2-93b6-7951877c956d"
      ],
      "collections": [
        "c7db86a0-ff64-4044-9be4-66dd1ef1d1c1"
      ],
      "creators": [
        "aaff4ba6-9a12-4bac-9bd0-c0cb783e4177"
      ],
      "families": [
        "0377db02-3af6-43b8-9b08-c759df3d25c3"
      ],
      "genres": [
        "a0aeef4a-6428-45ff-a6e1-468b595930c2"
      ],
      "groups": [
        "3c14c864-533c-49e6-a3cc-6969f1233775"
      ],
      "langs": [
        "4dcf9614-7914-42aa-99f4-dbce2e059133"
      ],
      "origins": [
        "938de218-5343-4865-94d3-fb33f2eaa152"
      ],
      "series": [
        "d68e6557-fdc3-4c8b-805c-9778918abd03"
      ],
      "singers": [
        "476206c4-f07c-4d0e-88cc-d9a83e5a337f"
      ],
      "songtypes": [
        "38c77c56-2b95-4040-b676-0994a8cb0597"
      ],
      "songwriters": [
        "0b5ab23b-cbcc-478e-8ba4-ff665990d011",
        "9e85a747-2a38-40d0-abd7-c16a2bc8101b"
      ],
      "franchises": [
        "d68e6557-fdc3-4c8b-805c-9778918abd03"
      ]
    },
    "title": "Baby It's You",
    "titles": {
      "eng": "Baby It's You"
    },
    "year": 2006,
    "titles_default_language": "eng"
  }
}