{
  "header": {
    "version": 4,
    "description": "Karaoke Mugen Karaoke Data File"
  },
  "medias": [
    {
      "version": "Default",
      "filename": "JPN - REOL - MV - 1,2 Fanclub ~ Cover Vers.mp4",
      "audiogain": -11.71,
      "loudnorm": "-5.49,2.28,2.10,-15.58,-0.18",
      "filesize": 28896791,
      "duration": 238,
      "default": true,
      "lyrics": [
        {
          "filename": "JPN - REOL - MV - 1,2 Fanclub ~ Cover Vers.ass",
          "default": true,
          "version": "Default"
        }
      ]
    }
  ],
  "data": {
    "created_at": "2020-01-13T15:17:05.408Z",
    "ignoreHooks": false,
    "kid": "7b6f1170-bfee-4156-a31d-662fe25236f1",
    "modified_at": "2022-10-23T17:02:35.730Z",
    "parents": [
      "88a7f740-0c8e-4812-a7a7-6d9b9d3f1c46"
    ],
    "repository": "kara.moe",
    "tags": {
      "authors": [
        "fa399f2f-ea1d-4902-8796-ea6d8218aff0"
      ],
      "collections": [
        "c7db86a0-ff64-4044-9be4-66dd1ef1d1c1"
      ],
      "creators": [
        "6d9032b7-539c-44b7-b643-6fd4fa55af05",
        "97963ece-7c35-4ec3-bd8d-1778bc0a4111",
        "d281e011-ff97-49eb-9f79-a55bc0f87b59"
      ],
      "families": [
        "0377db02-3af6-43b8-9b08-c759df3d25c3"
      ],
      "genres": [
        "45623cae-6d68-4304-a49b-896d1d6f4580"
      ],
      "groups": [
        "ae613721-1fbe-480d-ba6b-d6d0702b184d"
      ],
      "langs": [
        "4dcf9614-7914-42aa-99f4-dbce2e059133"
      ],
      "singers": [
        "466ad700-8ba6-4dea-80a7-c0b763548a72"
      ],
      "songtypes": [
        "7be1b15c-cff8-4b37-a649-5c90f3d569a9"
      ],
      "songwriters": [
        "7b3b2c24-f297-4c2a-82a5-bc9c9102567c"
      ],
      "versions": [
        "03e1e1d2-8641-47b7-bbcb-39a3df9ff21c"
      ]
    },
    "titles": {
      "eng": "1,2 Fanclub",
      "jpn": "いーあるふぁんくらぶ",
      "qro": "Ii Aru Fanclub"
    },
    "titles_default_language": "eng",
    "title": "1,2 Fanclub",
    "year": 2012
  }
}