{
  "header": {
    "version": 4,
    "description": "Karaoke Mugen Karaoke Data File"
  },
  "medias": [
    {
      "version": "Default",
      "filename": "JPN - Ring ni Kakero 1 Sekai Taikai-hen - OP2 - Asu e no Toushi ~ Alternative Vers.mp4",
      "audiogain": 3.11,
      "loudnorm": "-19.27,-7.73,1.10,-29.41,0.10",
      "filesize": 71489053,
      "duration": 90,
      "default": true,
      "lyrics": [
        {
          "filename": "JPN - Ring ni Kakero 1 Sekai Taikai-hen - OP2 - Asu e no Toushi ~ Alternative Vers.ass",
          "default": true,
          "version": "Default"
        }
      ]
    }
  ],
  "data": {
    "comment": "Ajout Opening alternatif Ring ni Kakero 2011. UniversJB",
    "created_at": "2022-05-21T21:05:26.940Z",
    "kid": "71b5bd97-1f1e-426a-86f1-7882d2b22207",
    "modified_at": "2022-07-20T11:39:43.147Z",
    "parents": [
      "68e0ef47-5b72-465b-945c-aff19ba3ec0e",
      "c3c6dea9-8af0-4a2d-990b-1c6c9f1ebe43"
    ],
    "repository": "kara.moe",
    "songorder": 2,
    "tags": {
      "authors": [
        "2eefc5c6-768c-4739-a6e0-ff4bada2a20a"
      ],
      "creators": [
        "f694bf43-b427-4244-9744-9d3f84fd8a31"
      ],
      "families": [
        "0377db02-3af6-43b8-9b08-c759df3d25c3"
      ],
      "genres": [
        "a0aeef4a-6428-45ff-a6e1-468b595930c2"
      ],
      "groups": [
        "ae613721-1fbe-480d-ba6b-d6d0702b184d"
      ],
      "langs": [
        "4dcf9614-7914-42aa-99f4-dbce2e059133"
      ],
      "origins": [
        "938de218-5343-4865-94d3-fb33f2eaa152"
      ],
      "series": [
        "d5728c7d-52b8-4fb9-836f-6f3de2c0a3a9"
      ],
      "singers": [
        "5a2d1c05-3180-4f2d-8dde-e364128f4961"
      ],
      "songtypes": [
        "f02ad9b3-0bd9-4aad-85b3-9976739ba0e4"
      ],
      "songwriters": [
        "0729e9ef-59e5-4dab-b9fc-e026baa50016",
        "33ffd898-a5e2-4aaa-96be-b3bac98c1240",
        "b4f3ad9e-642a-41fa-9ab1-548c6a90f37d"
      ],
      "versions": [
        "9f63c359-d1bf-425a-bcf5-b245c2c9211d"
      ],
      "collections": [
        "c7db86a0-ff64-4044-9be4-66dd1ef1d1c1"
      ],
      "warnings": [
        "24371984-5e4c-4485-a937-fb0c480ca23b"
      ],
      "franchises": [
        "5de588ca-8ff5-4bf8-ad6e-5bb610621454"
      ]
    },
    "titles": {
      "jpn": "明日への闘志",
      "qro": "Asu e no Toushi"
    },
    "titles_default_language": "qro",
    "title": "Asu e no Toushi",
    "year": 2011
  }
}