{
  "header": {
    "version": 4,
    "description": "Karaoke Mugen Karaoke Data File"
  },
  "medias": [
    {
      "version": "Default",
      "filename": "JPN - Hatsune Miku ~ Project DIVA F - GAME IN - Senbonzakura.mp4",
      "audiogain": -7.84,
      "loudnorm": "-9.67,0.85,3.30,-19.72,-0.24",
      "filesize": 108729074,
      "duration": 217,
      "default": true,
      "lyrics": [
        {
          "filename": "JPN - Hatsune Miku ~ Project DIVA F - GAME IN - Senbonzakura.ass",
          "default": true,
          "version": "Default"
        }
      ]
    }
  ],
  "data": {
    "created_at": "2017-10-11T17:01:45.000Z",
    "ignoreHooks": false,
    "kid": "645292dc-56e4-45f8-8db0-5dccd1797f6a",
    "modified_at": "2022-08-30T23:30:42.409Z",
    "parents": [
      "7ab22078-31ab-4983-8878-669eb062752b"
    ],
    "repository": "kara.moe",
    "tags": {
      "authors": [
        "5bdaba57-27f8-4568-8806-76a807728766"
      ],
      "collections": [
        "c7db86a0-ff64-4044-9be4-66dd1ef1d1c1"
      ],
      "creators": [
        "20b56382-518e-44f2-bcec-fe6ba945fba9",
        "b8a3778d-0864-4135-9053-1def02d3262e"
      ],
      "genres": [
        "45623cae-6d68-4304-a49b-896d1d6f4580"
      ],
      "groups": [
        "ae613721-1fbe-480d-ba6b-d6d0702b184d"
      ],
      "langs": [
        "4dcf9614-7914-42aa-99f4-dbce2e059133"
      ],
      "series": [
        "d28af18d-d544-4d0f-b955-99e6914230f2"
      ],
      "singers": [
        "4407ba0e-5de7-4add-870f-7ac95a4804c9"
      ],
      "songtypes": [
        "5e5250d9-351a-4a82-98eb-55db50ad8962"
      ],
      "songwriters": [
        "3983820b-bf9d-4263-bdf7-310753587ef8"
      ],
      "franchises": [
        "c52a4935-9040-4bce-8d4b-9f23ebaa602c",
        "d28af18d-d544-4d0f-b955-99e6914230f2"
      ],
      "origins": [
        "dbedd6b3-d125-4cd8-aa32-c4175e4ca3a3"
      ]
    },
    "titles": {
      "eng": "Thousand Cherry Blossoms",
      "qro": "Senbonzakura",
      "jpn": "千本桜"
    },
    "titles_default_language": "eng",
    "title": "Senbonzakura",
    "year": 2012,
    "titles_aliases": [
      "Thousands of Cherry Trees"
    ]
  }
}