{
  "header": {
    "version": 4,
    "description": "Karaoke Mugen Karaoke Data File"
  },
  "medias": [
    {
      "version": "Default",
      "filename": "JPN - Kidou Senshi Gundam AGE - ED3 - WHITE justice.mp4",
      "audiogain": -0.61,
      "loudnorm": "-16.01,-7.10,5.90,-26.15,-0.99",
      "filesize": 19242125,
      "duration": 90,
      "default": true,
      "lyrics": [
        {
          "filename": "JPN - Kidou Senshi Gundam AGE - ED3 - WHITE justice.ass",
          "default": true,
          "version": "Default",
          "subchecksum": "47c5b53030f29e50400b2280ff15c9f9"
        }
      ]
    }
  ],
  "data": {
    "created_at": "2020-08-19T21:11:55.294Z",
    "kid": "1278fb8e-8efd-4121-8f1d-9f782f3b240d",
    "modified_at": "2021-02-25T11:59:27.677Z",
    "repository": "kara.moe",
    "songorder": 3,
    "tags": {
      "authors": [
        "8605a8b9-3b45-44b9-9d98-1a25096bf702"
      ],
      "collections": [
        "c7db86a0-ff64-4044-9be4-66dd1ef1d1c1"
      ],
      "creators": [
        "ef8f80e1-d244-4aea-b7f0-984d6dd4b82b"
      ],
      "families": [
        "0377db02-3af6-43b8-9b08-c759df3d25c3"
      ],
      "genres": [
        "f60ba57d-5ef4-49e0-b93b-d0dcbcff6592"
      ],
      "groups": [
        "ae613721-1fbe-480d-ba6b-d6d0702b184d"
      ],
      "langs": [
        "4dcf9614-7914-42aa-99f4-dbce2e059133"
      ],
      "origins": [
        "938de218-5343-4865-94d3-fb33f2eaa152"
      ],
      "series": [
        "2d90117b-e988-4168-9611-b20ba822afb5"
      ],
      "singers": [
        "5a409393-06a2-4e1c-95bb-2f6598367099"
      ],
      "songtypes": [
        "38c77c56-2b95-4040-b676-0994a8cb0597"
      ],
      "songwriters": [
        "5a409393-06a2-4e1c-95bb-2f6598367099",
        "af3ffe51-8059-461c-bbb8-78ea388731f3"
      ],
      "franchises": [
        "e6ade589-c2e4-49a1-acdb-ea9b03e57240"
      ]
    },
    "title": "WHITE justice",
    "titles": {
      "eng": "WHITE justice"
    },
    "year": 2012,
    "titles_default_language": "eng"
  }
}