{
  "header": {
    "version": 4,
    "description": "Karaoke Mugen Karaoke Data File"
  },
  "medias": [
    {
      "version": "Default",
      "filename": "JPN - Major (2010) - OP - Kokoro e.mp4",
      "audiogain": 0.51,
      "loudnorm": "-18.70,-8.20,7.50,-28.81,-1.92",
      "filesize": 39986186,
      "duration": 99,
      "default": true,
      "lyrics": [
        {
          "filename": "JPN - Major (2010) - OP - Kokoro e.ass",
          "default": true,
          "version": "Default"
        }
      ]
    }
  ],
  "data": {
    "created_at": "2017-10-11T17:01:22.000Z",
    "ignoreHooks": false,
    "kid": "58b05888-0e65-43ac-bd44-522106dd3ff1",
    "modified_at": "2022-10-01T19:16:49.734Z",
    "parents": [
      "396494dd-76ac-4a9e-9444-7c7d73690c65"
    ],
    "repository": "kara.moe",
    "tags": {
      "authors": [
        "5bdaba57-27f8-4568-8806-76a807728766"
      ],
      "collections": [
        "c7db86a0-ff64-4044-9be4-66dd1ef1d1c1"
      ],
      "creators": [
        "89712d07-0095-46b2-8399-dfcd8c837884"
      ],
      "families": [
        "0377db02-3af6-43b8-9b08-c759df3d25c3"
      ],
      "genres": [
        "a0aeef4a-6428-45ff-a6e1-468b595930c2"
      ],
      "groups": [
        "ae613721-1fbe-480d-ba6b-d6d0702b184d"
      ],
      "langs": [
        "4dcf9614-7914-42aa-99f4-dbce2e059133"
      ],
      "origins": [
        "938de218-5343-4865-94d3-fb33f2eaa152"
      ],
      "series": [
        "88a1b265-12c0-4c12-b8b6-d7a8d118ad9e"
      ],
      "singers": [
        "09bbde2d-92ed-4ab8-a078-8324666dbaa2"
      ],
      "songtypes": [
        "f02ad9b3-0bd9-4aad-85b3-9976739ba0e4"
      ],
      "songwriters": [
        "bf4e828b-fef3-4e04-b335-e8b388451a57"
      ],
      "franchises": [
        "eaaa382d-05c9-49b3-b971-0046ff846bbf",
        "4df4d550-15ee-4380-86e6-e51b1a8160ac"
      ]
    },
    "titles": {
      "jpn": "心絵",
      "qro": "Kokoro e"
    },
    "titles_default_language": "qro",
    "titles_aliases": [
      "Kokoro he"
    ],
    "title": "Kokoro e",
    "year": 2010
  }
}