{
  "header": {
    "version": 4,
    "description": "Karaoke Mugen Karaoke Data File"
  },
  "medias": [
    {
      "version": "Default",
      "filename": "JPN - Touhou - AUDIO - Hikari sasu kaikou.mp3",
      "audiogain": -10.04,
      "loudnorm": "-6.17,2.29,2.50,-16.28,-0.62",
      "filesize": 3656203,
      "duration": 212,
      "default": true,
      "lyrics": [
        {
          "filename": "JPN - Touhou - AUDIO - Hikari sasu kaikou.ass",
          "default": true,
          "version": "Default"
        }
      ]
    }
  ],
  "data": {
    "created_at": "2023-07-18T15:28:01.460Z",
    "ignoreHooks": false,
    "kid": "88f9ebac-f60d-4e2a-87db-7d794538856f",
    "modified_at": "2023-07-18T15:28:02.020Z",
    "repository": "kara.moe",
    "tags": {
      "authors": [
        "fb28c6d3-a81e-40c0-9a4c-e3268c60a64b"
      ],
      "collections": [
        "c7db86a0-ff64-4044-9be4-66dd1ef1d1c1"
      ],
      "langs": [
        "4dcf9614-7914-42aa-99f4-dbce2e059133"
      ],
      "origins": [
        "ac5085db-52d8-44b4-8fbb-1697b24d2046"
      ],
      "series": [
        "1bdaa5a1-dfa6-4365-b746-7a0b194dafd6"
      ],
      "singers": [
        "a6e3509f-befc-4b8b-ac1c-3614e1c32447"
      ],
      "singergroups": [
        "eb49131c-b890-422d-9947-0e82292801e1"
      ],
      "songtypes": [
        "42a262ae-acba-4ab5-a446-c5789c96c821"
      ],
      "songwriters": [
        "26cb5252-8510-49e0-897c-a611a05fc056",
        "3059eca0-7b9f-41e0-a5a6-2e7e3be5d025",
        "a6e3509f-befc-4b8b-ac1c-3614e1c32447"
      ],
      "franchises": [
        "1bdaa5a1-dfa6-4365-b746-7a0b194dafd6"
      ],
      "groups": [
        "8e209ae4-4381-438f-89dc-1b21752027d2"
      ]
    },
    "titles": {
      "qro": "Hikari sasu kaikou",
      "jpn": "光差す邂逅"
    },
    "titles_default_language": "qro",
    "year": 2021
  }
}