{
  "header": {
    "version": 4,
    "description": "Karaoke Mugen Karaoke Data File"
  },
  "medias": [
    {
      "version": "Default",
      "filename": "JPN - Touhou - AMV - Hoihoi Gensou Holoism.mp4",
      "audiogain": -10.16,
      "loudnorm": "-7.37,1.72,5.80,-17.61,-0.81",
      "filesize": 146076494,
      "duration": 273,
      "default": true,
      "lyrics": [
        {
          "filename": "JPN - Touhou - AMV - Hoihoi Gensou Holoism.ass",
          "default": true,
          "version": "Default"
        }
      ]
    }
  ],
  "data": {
    "created_at": "2021-06-02T20:09:15.411Z",
    "ignoreHooks": false,
    "kid": "4926dfa6-07f9-4529-a3ee-c644e85c7a95",
    "modified_at": "2023-07-21T20:25:28.160Z",
    "repository": "kara.moe",
    "tags": {
      "authors": [
        "84157b43-8a7a-482c-95d3-516757353835"
      ],
      "collections": [
        "c7db86a0-ff64-4044-9be4-66dd1ef1d1c1"
      ],
      "creators": [
        "0263d413-17bb-4cee-a311-6dd896eda1c9",
        "2b873ad5-a3ce-4abf-9f11-6f600e6e6ba0"
      ],
      "families": [
        "0377db02-3af6-43b8-9b08-c759df3d25c3"
      ],
      "groups": [
        "8e209ae4-4381-438f-89dc-1b21752027d2"
      ],
      "langs": [
        "4dcf9614-7914-42aa-99f4-dbce2e059133"
      ],
      "origins": [
        "5106d71b-a78e-4d19-a16d-f8fb6719538a"
      ],
      "series": [
        "1bdaa5a1-dfa6-4365-b746-7a0b194dafd6"
      ],
      "singers": [
        "1631fe7d-daba-4c55-addf-eb500c847fe2",
        "1813f043-d361-4df9-9cdf-24e3d0d1044c",
        "1b0ecff9-05f5-46dd-b225-480bcf60b7bf",
        "77848990-54ab-4ef6-bba7-e1258fda78a5",
        "f8b4b7ec-2056-4f2a-b242-a29e67393654"
      ],
      "singergroups": [
        "2b873ad5-a3ce-4abf-9f11-6f600e6e6ba0"
      ],
      "songtypes": [
        "a6c79ce5-89ee-4d50-afe8-3abd7317f6c2"
      ],
      "songwriters": [
        "26cb5252-8510-49e0-897c-a611a05fc056",
        "5e9a5d91-ea80-4515-acdf-43f023a54467",
        "a76aee83-33a5-493a-9a0c-4b57d70ec877"
      ],
      "franchises": [
        "1bdaa5a1-dfa6-4365-b746-7a0b194dafd6"
      ]
    },
    "titles": {
      "jpn": "ホイホイ☆幻想ホロイズム",
      "qro": "Hoihoi☆Gensou Holoism"
    },
    "titles_default_language": "qro",
    "year": 2020
  }
}