{
  "header": {
    "version": 4,
    "description": "Karaoke Mugen Karaoke Data File"
  },
  "medias": [
    {
      "version": "Default",
      "filename": "JPN - Mahouka Koukou no Rettousei - MV - grilletto ~ Full Vers.mp4",
      "audiogain": -11.03,
      "loudnorm": "-6.69,2.41,3.80,-16.73,-1.31",
      "filesize": 78576731,
      "duration": 251,
      "default": true,
      "lyrics": [
        {
          "filename": "JPN - Mahouka Koukou no Rettousei - MV - grilletto ~ Full Vers.ass",
          "default": true,
          "version": "Default"
        }
      ]
    }
  ],
  "data": {
    "created_at": "2020-07-05T20:36:55.387Z",
    "kid": "f96ccca8-3197-43e9-9e77-e6e3fdc5be0d",
    "modified_at": "2022-06-04T00:16:19.100Z",
    "parents": [
      "8fa98198-1c53-447d-bbbc-df6117f1fcc9"
    ],
    "repository": "kara.moe",
    "songorder": null,
    "tags": {
      "authors": [
        "4d71ce82-eed1-4c44-ac85-5f7255f3dad3"
      ],
      "creators": [
        "566082ee-060d-4470-ac6f-4a537a50a613"
      ],
      "families": [
        "5391f9fe-638c-415f-8dc9-958e3a2c5787"
      ],
      "groups": [
        "ae613721-1fbe-480d-ba6b-d6d0702b184d"
      ],
      "langs": [
        "4dcf9614-7914-42aa-99f4-dbce2e059133"
      ],
      "series": [
        "9a17796f-7801-498a-adef-f397024bb9e5"
      ],
      "singers": [
        "40777238-a776-4235-9f5e-eec754c96827"
      ],
      "songtypes": [
        "7be1b15c-cff8-4b37-a649-5c90f3d569a9"
      ],
      "songwriters": [
        "30450ae7-a46f-41aa-a791-5d2c2697ee20",
        "796c4009-51ee-49a9-8947-d6cb242a9aad"
      ],
      "versions": [
        "c2143a7f-6970-450e-8a79-0302db9220a9"
      ],
      "collections": [
        "dbcf2c22-524d-4708-99bb-601703633927"
      ],
      "franchises": [
        "9a17796f-7801-498a-adef-f397024bb9e5"
      ]
    },
    "titles": {
      "ita": "grilletto"
    },
    "titles_default_language": "ita",
    "title": "grilletto",
    "year": 2014
  }
}