{
  "header": {
    "version": 4,
    "description": "Karaoke Mugen Karaoke Data File"
  },
  "medias": [
    {
      "version": "Default",
      "filename": "JPN - Touhou - MV - Endless Tewi-ma Park.mp4",
      "audiogain": -3.5,
      "loudnorm": "-14.06,-2.73,4.80,-24.10,-0.63",
      "filesize": 13026160,
      "duration": 141,
      "default": true,
      "lyrics": [
        {
          "filename": "JPN - Touhou - MV - Endless Tewi-ma Park.ass",
          "default": true,
          "version": "Default"
        }
      ]
    }
  ],
  "data": {
    "created_at": "2022-04-19T11:33:48.396Z",
    "ignoreHooks": false,
    "kid": "78a44759-d646-4e20-b0ef-b9127dafd44a",
    "modified_at": "2022-04-19T21:18:41.199Z",
    "repository": "kara.moe",
    "tags": {
      "authors": [
        "5c7df057-1721-436c-8244-17aae35ff388"
      ],
      "collections": [
        "c7db86a0-ff64-4044-9be4-66dd1ef1d1c1"
      ],
      "creators": [
        "25fc251a-0514-4bf5-a818-dd0547723f4a"
      ],
      "families": [
        "0377db02-3af6-43b8-9b08-c759df3d25c3"
      ],
      "groups": [
        "ae613721-1fbe-480d-ba6b-d6d0702b184d"
      ],
      "langs": [
        "4dcf9614-7914-42aa-99f4-dbce2e059133"
      ],
      "misc": [
        "ec4fee75-71fb-45b4-9772-2ca374b4b600"
      ],
      "origins": [
        "ac5085db-52d8-44b4-8fbb-1697b24d2046"
      ],
      "series": [
        "1bdaa5a1-dfa6-4365-b746-7a0b194dafd6"
      ],
      "singers": [
        "4350c456-ad13-41fb-9b7a-4b622a064cd1"
      ],
      "songtypes": [
        "7be1b15c-cff8-4b37-a649-5c90f3d569a9"
      ],
      "songwriters": [
        "26cb5252-8510-49e0-897c-a611a05fc056",
        "feceb592-efac-4eda-9b03-c27cf509004c"
      ],
      "franchises": [
        "1bdaa5a1-dfa6-4365-b746-7a0b194dafd6"
      ]
    },
    "titles": {
      "qro": "Endless Tewi-ma Park",
      "jpn": "エンドレス・てゐまパーク"
    },
    "titles_default_language": "qro",
    "title": "Endless Tewi-ma Park",
    "year": 2011
  }
}