{
  "header": {
    "version": 4,
    "description": "Karaoke Mugen Karaoke Data File"
  },
  "medias": [
    {
      "version": "Full.",
      "filename": "JPN - BanG Dream! - GAME AUDIO IN - Hey-day Capriccio ~ Full Vers.mp3",
      "audiogain": -11.56,
      "loudnorm": "-5.88,0.79,2.90,-15.97,-0.70",
      "filesize": 11355461,
      "duration": 234,
      "default": true,
      "lyrics": [
        {
          "filename": "JPN - BanG Dream! - GAME AUDIO IN - Hey-day Capriccio ~ Full Vers.ass",
          "default": true,
          "version": "Default",
          "subchecksum": "acec5b10f376cb3c918a570896548201"
        }
      ]
    }
  ],
  "data": {
    "created_at": "2019-10-24T03:35:39.000Z",
    "kid": "5780ba2d-a7ad-45d2-af70-dd7703879c73",
    "modified_at": "2021-05-23T22:38:24.662Z",
    "repository": "kara.moe",
    "tags": {
      "authors": [
        "8ba639a3-3640-4ffc-81a5-0b13be29f7d2"
      ],
      "collections": [
        "c7db86a0-ff64-4044-9be4-66dd1ef1d1c1"
      ],
      "creators": [
        "bd4564a8-44e5-454a-9c57-bd2a3c8a537e"
      ],
      "groups": [
        "ae613721-1fbe-480d-ba6b-d6d0702b184d"
      ],
      "langs": [
        "4dcf9614-7914-42aa-99f4-dbce2e059133"
      ],
      "platforms": [
        "213a1a15-e73a-4a08-b3f6-b6e2745a82e5"
      ],
      "series": [
        "a65e956d-39ab-4995-9ede-889c30a5cbf0"
      ],
      "singers": [
        "16c170fe-1ada-4916-a0be-42b19eca6ae3",
        "3d6abb88-f9bc-438f-8cd4-2aa844691839",
        "97f84f38-619d-4a50-9de3-dcee49de9ae2",
        "b0adee55-f63f-4b1a-b15e-edc78d184469",
        "bfa33c23-5ec9-4586-8563-816130a9a1c7",
        "f2e9d52b-1b80-4fb5-8754-628462e094e5"
      ],
      "songtypes": [
        "42a262ae-acba-4ab5-a446-c5789c96c821",
        "5e5250d9-351a-4a82-98eb-55db50ad8962"
      ],
      "songwriters": [
        "30e4f047-50d7-4ed7-8ed3-57cef0f20489",
        "60c782e0-d553-46c4-a470-bf13b3c88689"
      ],
      "versions": [
        "c2143a7f-6970-450e-8a79-0302db9220a9"
      ],
      "franchises": [
        "a65e956d-39ab-4995-9ede-889c30a5cbf0"
      ]
    },
    "title": "Hey-day Capriccio",
    "titles": {
      "qro": "Hey-day Capriccio",
      "jpn": "Hey-day狂騒曲"
    },
    "year": 2018,
    "titles_default_language": "qro"
  }
}