{
  "header": {
    "version": 4,
    "description": "Karaoke Mugen Karaoke Data File"
  },
  "medias": [
    {
      "version": "Default",
      "filename": "JPN - Oshi no Ko - OP - Idol ~ Alternative Vers.mp4",
      "audiogain": -0.36,
      "loudnorm": "-16.37,-3.12,1.40,-26.51,-0.08",
      "filesize": 40025922,
      "duration": 89,
      "default": true,
      "lyrics": [
        {
          "filename": "JPN - Oshi no Ko - OP - Idol ~ Alternative Vers.ass",
          "default": true,
          "version": "Default"
        }
      ]
    }
  ],
  "data": {
    "created_at": "2023-04-21T08:23:52.449Z",
    "ignoreHooks": false,
    "kid": "157b4234-4424-46ec-8fe7-b6979c459795",
    "modified_at": "2023-05-02T21:31:17.939Z",
    "parents": [
      "d0cbf006-717e-41c1-9343-54b060854350"
    ],
    "repository": "kara.moe",
    "tags": {
      "authors": [
        "7848b5dc-a5df-4577-b640-147be5288cec",
        "9cdf3b70-3550-457c-bdb9-038f3253c6ad"
      ],
      "collections": [
        "2fa2fe3f-bb56-45ee-aa38-eae60e76f224"
      ],
      "creators": [
        "5b10d972-08a8-419d-9663-46930cc2c347",
        "9cdf3b70-3550-457c-bdb9-038f3253c6ad"
      ],
      "families": [
        "0377db02-3af6-43b8-9b08-c759df3d25c3"
      ],
      "genres": [
        "caa86df2-0d59-474b-885c-f240a9e891b0"
      ],
      "groups": [
        "8e209ae4-4381-438f-89dc-1b21752027d2"
      ],
      "langs": [
        "4dcf9614-7914-42aa-99f4-dbce2e059133"
      ],
      "misc": [
        "fe819ff1-9db8-4a0f-85dc-0e322c9126c4"
      ],
      "origins": [
        "938de218-5343-4865-94d3-fb33f2eaa152"
      ],
      "series": [
        "2f23efae-dc36-4438-8e8d-66c0cd746cd0"
      ],
      "singers": [
        "162799fe-de2f-4f72-99a2-8c606aee4f2d",
        "59a38148-e0a8-43df-b149-a6118d9f2d4d",
        "92d1e6ad-8f3c-4ace-a028-d78798510043",
        "a14aaac9-98b8-4298-a7d6-ea4945750704"
      ],
      "singergroups": [
        "e028a7e9-d3f2-4df7-a6ba-c7f78e98b549"
      ],
      "songtypes": [
        "f02ad9b3-0bd9-4aad-85b3-9976739ba0e4"
      ],
      "songwriters": [
        "ac03c264-7085-486b-a47f-3e7574e51a33",
        "ce47006e-3639-4600-a642-612d98aee2ca",
        "e6fe203e-3d1a-4d95-9a1a-e2722586754f"
      ],
      "versions": [
        "9f63c359-d1bf-425a-bcf5-b245c2c9211d"
      ]
    },
    "titles": {
      "eng": "Idol",
      "jpn": "アイドル"
    },
    "titles_default_language": "eng",
    "year": 2023
  }
}