{
  "header": {
    "version": 4,
    "description": "Karaoke Mugen Karaoke Data File"
  },
  "medias": [
    {
      "version": "Default",
      "filename": "JPN - GARNiDELiA - MV - avra K'Davarah.mp4",
      "audiogain": -10.91,
      "loudnorm": "-5.82,3.11,2.60,-16.02,-0.21",
      "filesize": 102465597,
      "duration": 222,
      "default": true,
      "lyrics": [
        {
          "filename": "JPN - GARNiDELiA - MV - avra K'Davarah.ass",
          "default": true,
          "version": "Default"
        }
      ]
    }
  ],
  "data": {
    "created_at": "2020-08-15T23:05:43.998Z",
    "kid": "30e08446-41a7-4622-aedb-6f057303cb33",
    "modified_at": "2022-06-04T00:22:34.240Z",
    "repository": "kara.moe",
    "songorder": null,
    "tags": {
      "authors": [
        "4d71ce82-eed1-4c44-ac85-5f7255f3dad3"
      ],
      "creators": [
        "771735da-6b67-403d-8d5c-2761a0665168"
      ],
      "families": [
        "5391f9fe-638c-415f-8dc9-958e3a2c5787"
      ],
      "groups": [
        "ae613721-1fbe-480d-ba6b-d6d0702b184d"
      ],
      "langs": [
        "4dcf9614-7914-42aa-99f4-dbce2e059133"
      ],
      "singers": [
        "40777238-a776-4235-9f5e-eec754c96827"
      ],
      "songtypes": [
        "7be1b15c-cff8-4b37-a649-5c90f3d569a9"
      ],
      "songwriters": [
        "30450ae7-a46f-41aa-a791-5d2c2697ee20",
        "796c4009-51ee-49a9-8947-d6cb242a9aad"
      ],
      "collections": [
        "dbcf2c22-524d-4708-99bb-601703633927"
      ]
    },
    "titles": {
      "qro": "avra K'Davarah",
      "jpn": "アブラカダブラ"
    },
    "titles_default_language": "qro",
    "title": "avra K'Davarah",
    "year": 2018
  }
}