{
  "header": {
    "version": 4,
    "description": "Karaoke Mugen Karaoke Data File"
  },
  "medias": [
    {
      "version": "Default",
      "filename": "JPN - Meitantei Conan - OP15 - Hoshi no Kagayaki yo.mp4",
      "audiogain": -5.02,
      "loudnorm": "-14.17,-5.02,3.90,-24.41,-0.43",
      "filesize": 25422737,
      "duration": 102,
      "default": true,
      "lyrics": [
        {
          "filename": "JPN - Meitantei Conan - OP15 - Hoshi no Kagayaki yo.ass",
          "default": true,
          "version": "Default",
          "subchecksum": "780b302d0c71748f207eb05ebd9a01c3"
        }
      ]
    }
  ],
  "data": {
    "created_at": "2017-10-11T17:02:06.000Z",
    "kid": "0af5c13b-abab-4119-beca-7e3700588c6d",
    "modified_at": "2021-02-25T12:23:44.399Z",
    "repository": "kara.moe",
    "songorder": 15,
    "tags": {
      "authors": [
        "5bdaba57-27f8-4568-8806-76a807728766"
      ],
      "collections": [
        "c7db86a0-ff64-4044-9be4-66dd1ef1d1c1"
      ],
      "creators": [
        "53e900ec-a1ff-4c95-8b2d-a63995c2936f"
      ],
      "families": [
        "0377db02-3af6-43b8-9b08-c759df3d25c3"
      ],
      "groups": [
        "3c14c864-533c-49e6-a3cc-6969f1233775"
      ],
      "langs": [
        "4dcf9614-7914-42aa-99f4-dbce2e059133"
      ],
      "origins": [
        "938de218-5343-4865-94d3-fb33f2eaa152"
      ],
      "series": [
        "cfea16f2-e07f-4a2c-93e2-5de6cf659d69"
      ],
      "singers": [
        "4734d8f9-70d8-4dfd-8d35-acbb511470a9"
      ],
      "songtypes": [
        "f02ad9b3-0bd9-4aad-85b3-9976739ba0e4"
      ],
      "songwriters": [
        "5af07e7b-09ae-4ffa-a290-43fbc28c7a68",
        "bc0997f3-7027-4767-a501-6a915d5b9c2a"
      ],
      "franchises": [
        "cfea16f2-e07f-4a2c-93e2-5de6cf659d69"
      ]
    },
    "title": "Hoshi no Kagayaki yo",
    "titles": {
      "qro": "Hoshi no Kagayaki yo",
      "jpn": "星のかがやきよ"
    },
    "year": 2005,
    "titles_aliases": [
      "Hoshi no Kagayakiyo"
    ],
    "titles_default_language": "qro"
  }
}