{
  "header": {
    "version": 4,
    "description": "Karaoke Mugen Karaoke Data File"
  },
  "medias": [
    {
      "version": "Default",
      "filename": "JPN - Uchuu Senkan Yamato I - OP - Uchuu Senkan Yamato ~ Alternative Vers.avi",
      "audiogain": -4.85,
      "loudnorm": "-13.24,-3.66,9.10,-23.89,-0.67",
      "filesize": 14276618,
      "duration": 76,
      "default": true,
      "lyrics": [
        {
          "filename": "JPN - Uchuu Senkan Yamato I - OP - Uchuu Senkan Yamato ~ Alternative Vers.ass",
          "default": true,
          "version": "Default"
        }
      ]
    }
  ],
  "data": {
    "created_at": "2017-10-11T17:01:17.000Z",
    "ignoreHooks": false,
    "kid": "900ce916-efe1-40c1-ae53-f568eaf070b2",
    "modified_at": "2022-09-30T20:27:15.955Z",
    "parents": [
      "9a9a4447-34a0-4abf-9fd2-8e15ab54faa2"
    ],
    "repository": "kara.moe",
    "tags": {
      "authors": [
        "5bdaba57-27f8-4568-8806-76a807728766"
      ],
      "collections": [
        "c7db86a0-ff64-4044-9be4-66dd1ef1d1c1"
      ],
      "creators": [
        "06b98930-5c01-4bd6-9712-9d2cc1a57ea7",
        "808070cb-1ee4-4e16-8ef7-50b1e72d9248"
      ],
      "families": [
        "0377db02-3af6-43b8-9b08-c759df3d25c3"
      ],
      "groups": [
        "57e5e0c0-e02e-4871-a6cb-d48ea604ebab"
      ],
      "langs": [
        "4dcf9614-7914-42aa-99f4-dbce2e059133"
      ],
      "origins": [
        "938de218-5343-4865-94d3-fb33f2eaa152"
      ],
      "series": [
        "3eb4ff4a-d1ce-404d-8af9-5d69f2bca25b"
      ],
      "singers": [
        "00805b84-10d0-43b3-9e91-34698e85201e",
        "ed419d77-bbeb-4418-a805-319066781a51"
      ],
      "songtypes": [
        "f02ad9b3-0bd9-4aad-85b3-9976739ba0e4"
      ],
      "songwriters": [
        "db7941a6-06be-4405-8e2c-a8cdcb6ea5d8",
        "f8f1386d-6431-4ce3-9d80-3b2915cd47ee"
      ],
      "versions": [
        "9f63c359-d1bf-425a-bcf5-b245c2c9211d"
      ],
      "franchises": [
        "6589bb27-390b-4475-9dee-0a4817c57f98"
      ]
    },
    "titles": {
      "jpn": "宇宙戦艦ヤマト",
      "qro": "Uchû Senkan Yamato"
    },
    "titles_default_language": "qro",
    "title": "Uchû Senkan Yamato",
    "year": 1974,
    "titles_aliases": [
      "Uchuu"
    ]
  }
}