{
  "header": {
    "version": 4,
    "description": "Karaoke Mugen Karaoke Data File"
  },
  "medias": [
    {
      "version": "Default",
      "filename": "JPN - Love Live! Nijigasaki Gakuen School Idol Doukoukai Next Sky - IN - Go Our Way! ~ Short Vers.mp4",
      "audiogain": -1.44,
      "loudnorm": "-17.49,-5.40,7.60,-27.91,-1.98",
      "filesize": 78987613,
      "duration": 133,
      "default": true,
      "lyrics": [
        {
          "filename": "JPN - Love Live! Nijigasaki Gakuen School Idol Doukoukai Next Sky - IN - Go Our Way! ~ Short Vers.ass",
          "default": true,
          "version": "Default"
        }
      ]
    }
  ],
  "data": {
    "created_at": "2023-06-29T12:55:17.048Z",
    "ignoreHooks": false,
    "kid": "73bb346d-9bd0-43d4-a26b-4bc04f5169ec",
    "modified_at": "2023-06-29T12:55:17.048Z",
    "repository": "kara.moe",
    "tags": {
      "authors": [
        "449844e4-3a1f-46e1-8a92-bf72e2d1b6f1"
      ],
      "collections": [
        "c7db86a0-ff64-4044-9be4-66dd1ef1d1c1"
      ],
      "creators": [
        "b2805292-730e-473a-96f0-fd8e7ffd1fd7"
      ],
      "families": [
        "0377db02-3af6-43b8-9b08-c759df3d25c3"
      ],
      "genres": [
        "caa86df2-0d59-474b-885c-f240a9e891b0"
      ],
      "groups": [
        "8e209ae4-4381-438f-89dc-1b21752027d2"
      ],
      "langs": [
        "4dcf9614-7914-42aa-99f4-dbce2e059133"
      ],
      "origins": [
        "938de218-5343-4865-94d3-fb33f2eaa152"
      ],
      "series": [
        "76e77fc5-b636-439d-94a3-37b57b57a1c9"
      ],
      "singers": [
        "458ec0c5-db5e-4103-af88-b15a1699264d",
        "e73e8731-3f33-4d6a-b8f1-d2a6137480be",
        "747cd011-3914-4212-9079-0da3dd845831",
        "72bbbbbe-f187-453b-b896-61ebdad095e6",
        "0df41f72-5e97-4788-99b7-93fe4b628367",
        "178c3a64-efbc-48d4-a7d3-1847414eebc1",
        "a76efdf9-3d65-488d-bc3b-9ab329d3fb7f",
        "8f4dc795-4e05-4e8f-a5fc-61e45e229402",
        "8fb3d553-3283-4508-bc26-5968c03cb89a",
        "cd997481-e2ff-4d88-ab77-152bedb5041a",
        "0c15c047-8230-45ba-a265-1297a3617158",
        "5c5a517e-2aec-467f-b21c-3b8e73e02cb8"
      ],
      "singergroups": [
        "425f6083-f574-451a-b719-1257f1d38957"
      ],
      "songtypes": [
        "5e5250d9-351a-4a82-98eb-55db50ad8962"
      ],
      "songwriters": [
        "5f20186f-004f-4053-927a-0d2929836f3f",
        "ff1aec1d-751a-40ff-bbff-a3f0fd5e9749",
        "de321411-4a52-49c7-bb37-cdde8d8ec674",
        "0aa59f82-95a5-4c67-911f-f99d52c71cd2"
      ],
      "versions": [
        "d125c80a-86c1-4321-88e9-07b7800679b6"
      ],
      "franchises": [
        "fd5d066e-e85a-4eea-8688-2979a887450a"
      ]
    },
    "titles": {
      "eng": "Go Our Way!"
    },
    "titles_default_language": "eng",
    "year": 2023
  }
}