{
  "header": {
    "version": 4,
    "description": "Karaoke Mugen Karaoke Data File"
  },
  "medias": [
    {
      "version": "Default",
      "filename": "JPN - Senki Zesshou Symphogear G - AUDIO IN - ORBITAL BEAT (ver. ZABABA) ~ Full Off Vocal Vers.mp3",
      "audiogain": -7.42,
      "loudnorm": "-10.34,0.49,6.00,-20.41,-0.24",
      "filesize": 3643492,
      "duration": 212,
      "default": true,
      "lyrics": [
        {
          "filename": "JPN - Senki Zesshou Symphogear G - AUDIO IN - ORBITAL BEAT (ver. ZABABA) ~ Full Off Vocal Vers.ass",
          "default": true,
          "version": "Default"
        }
      ]
    }
  ],
  "data": {
    "created_at": "2022-12-07T03:48:00.028Z",
    "ignoreHooks": false,
    "kid": "1b727604-4ce5-4944-93eb-1dc2cd49e733",
    "modified_at": "2022-12-07T03:48:00.098Z",
    "parents": [
      "991389d4-7ee9-4f17-98f0-0fc94eb009d0"
    ],
    "repository": "kara.moe",
    "tags": {
      "authors": [
        "87096920-112f-485f-a310-04156cb4624d"
      ],
      "collections": [
        "c7db86a0-ff64-4044-9be4-66dd1ef1d1c1"
      ],
      "creators": [
        "0041fabf-4b82-4ecd-961b-e4c49b8c88be"
      ],
      "genres": [
        "b84e28f9-db1e-447f-b339-7954c3592523",
        "caa86df2-0d59-474b-885c-f240a9e891b0"
      ],
      "groups": [
        "60defa7b-774e-4680-8321-51b742c2e009",
        "ae613721-1fbe-480d-ba6b-d6d0702b184d"
      ],
      "langs": [
        "4dcf9614-7914-42aa-99f4-dbce2e059133"
      ],
      "misc": [
        "1d6ceadf-a885-47e5-b23b-c07bf668a424"
      ],
      "origins": [
        "938de218-5343-4865-94d3-fb33f2eaa152"
      ],
      "series": [
        "f56a6158-95bb-4dc3-a8fc-2626a9a9b89e"
      ],
      "singers": [
        "7779578c-3d4e-4aa5-8f54-77023879e8e6",
        "d2bf0734-aede-4e5c-b3a6-6d68b18192dc"
      ],
      "songtypes": [
        "42a262ae-acba-4ab5-a446-c5789c96c821",
        "5e5250d9-351a-4a82-98eb-55db50ad8962"
      ],
      "songwriters": [
        "3dddfa51-de14-4da0-8baf-2b40c94f3eb2",
        "cbd3ccbc-14c5-4f13-b461-6cfad840f5cd"
      ],
      "versions": [
        "c2143a7f-6970-450e-8a79-0302db9220a9",
        "c0cc87b9-55b9-40f0-878a-fbb9e34c151e"
      ],
      "franchises": [
        "61b24082-a6a9-482b-b126-0ad7be595791"
      ]
    },
    "titles": {
      "eng": "ORBITAL BEAT (ver. ZABABA)"
    },
    "titles_default_language": "eng",
    "year": 2013
  }
}