{
  "header": {
    "version": 4,
    "description": "Karaoke Mugen Karaoke Data File"
  },
  "medias": [
    {
      "version": "Maki & Umi.",
      "filename": "JPN - Love Live! School Idol Project - LIVE - soldier game ~ Maki & Umi Vers. ~ Full Vers.mp4",
      "audiogain": -2.35,
      "loudnorm": "-15.43,-5.62,2.70,-25.50,-0.60",
      "filesize": 137243817,
      "duration": 217,
      "default": true,
      "lyrics": [
        {
          "filename": "JPN - Love Live! School Idol Project - LIVE - soldier game ~ Maki & Umi Vers. ~ Full Vers.ass",
          "default": true,
          "version": "Default"
        }
      ]
    }
  ],
  "data": {
    "created_at": "2020-09-19T13:28:14.067Z",
    "ignoreHooks": false,
    "kid": "f4387de8-6526-454d-90c6-0a7793e3ed7b",
    "modified_at": "2023-05-31T22:53:40.334Z",
    "parents": [
      "2b8d6ebc-bba6-4a8a-88f4-56be4b7e2298"
    ],
    "repository": "kara.moe",
    "tags": {
      "authors": [
        "78d42fee-8d3e-4bd5-9c44-98ce55f7d21f",
        "90698f28-1d62-4673-82c4-33ae96b1ba97"
      ],
      "collections": [
        "dbcf2c22-524d-4708-99bb-601703633927"
      ],
      "creators": [
        "b2805292-730e-473a-96f0-fd8e7ffd1fd7"
      ],
      "families": [
        "5391f9fe-638c-415f-8dc9-958e3a2c5787"
      ],
      "genres": [
        "caa86df2-0d59-474b-885c-f240a9e891b0"
      ],
      "groups": [
        "ae613721-1fbe-480d-ba6b-d6d0702b184d"
      ],
      "langs": [
        "4dcf9614-7914-42aa-99f4-dbce2e059133"
      ],
      "origins": [
        "938de218-5343-4865-94d3-fb33f2eaa152"
      ],
      "series": [
        "dd93f278-a55d-4040-aaab-d0c50b58b087"
      ],
      "singers": [
        "1d00d52c-e265-4be6-8902-55d7f425f86c",
        "4fc68333-b1f6-44ce-b2be-ac4866b78932"
      ],
      "songtypes": [
        "a0167949-580c-4de3-bf13-497e462e02f3"
      ],
      "songwriters": [
        "595dd7ad-6df3-4757-94b3-4014f25dee23",
        "f41e7218-6c19-4e19-9b5f-4612dcd58243"
      ],
      "versions": [
        "c2143a7f-6970-450e-8a79-0302db9220a9"
      ],
      "franchises": [
        "fd5d066e-e85a-4eea-8688-2979a887450a"
      ]
    },
    "titles": {
      "eng": "soldier game ~ Maki & Umi Vers.",
      "jpn": "soldier game ~ 真姫 & 海未 Vers."
    },
    "titles_default_language": "eng",
    "year": 2012
  }
}