{
  "header": {
    "version": 4,
    "description": "Karaoke Mugen Karaoke Data File"
  },
  "medias": [
    {
      "version": "Default",
      "filename": "JPN - syudou - MV - Gambling ~ Full Off Vocal Vers.mp4",
      "audiogain": -4,
      "loudnorm": "-13.31,-0.12,5.50,-23.35,-0.18",
      "filesize": 477983988,
      "duration": 217,
      "default": true,
      "lyrics": [
        {
          "filename": "JPN - syudou - MV - Gambling ~ Full Off Vocal Vers.ass",
          "default": true,
          "version": "Default"
        }
      ]
    }
  ],
  "data": {
    "created_at": "2023-06-25T12:44:00.047Z",
    "ignoreHooks": false,
    "kid": "ead5ac14-60ec-4266-8ace-1f86d2f1630b",
    "modified_at": "2023-06-25T12:44:02.299Z",
    "parents": [
      "b8d5ea34-23d2-44bb-ad8a-e8715e98c37e"
    ],
    "repository": "kara.moe",
    "tags": {
      "authors": [
        "9cdf3b70-3550-457c-bdb9-038f3253c6ad"
      ],
      "collections": [
        "c7db86a0-ff64-4044-9be4-66dd1ef1d1c1",
        "dbcf2c22-524d-4708-99bb-601703633927"
      ],
      "creators": [
        "97963ece-7c35-4ec3-bd8d-1778bc0a4111"
      ],
      "families": [
        "0377db02-3af6-43b8-9b08-c759df3d25c3"
      ],
      "groups": [
        "8e209ae4-4381-438f-89dc-1b21752027d2"
      ],
      "langs": [
        "4dcf9614-7914-42aa-99f4-dbce2e059133"
      ],
      "singers": [
        "13c686dd-4df8-4056-a46a-39ba871cba8b"
      ],
      "songtypes": [
        "7be1b15c-cff8-4b37-a649-5c90f3d569a9"
      ],
      "songwriters": [
        "13c686dd-4df8-4056-a46a-39ba871cba8b"
      ],
      "versions": [
        "c2143a7f-6970-450e-8a79-0302db9220a9",
        "c0cc87b9-55b9-40f0-878a-fbb9e34c151e"
      ]
    },
    "titles": {
      "eng": "Gambling",
      "jpn": "ギャンブル"
    },
    "titles_default_language": "eng",
    "titles_aliases": [
      "Gamble"
    ],
    "year": 2021
  }
}