{
  "header": {
    "version": 4,
    "description": "Karaoke Mugen Karaoke Data File"
  },
  "medias": [
    {
      "version": "Default",
      "filename": "JPN - Project SEKAI COLORFUL STAGE! - GAME MV - icedrop ~ Short Vers.mp4",
      "audiogain": -8.67,
      "loudnorm": "-8.24,1.11,9.70,-18.66,-1.49",
      "filesize": 73913051,
      "duration": 110,
      "default": true,
      "lyrics": [
        {
          "filename": "JPN - Project SEKAI COLORFUL STAGE! - GAME MV - icedrop ~ Short Vers.ass",
          "default": true,
          "version": "Default"
        }
      ]
    }
  ],
  "data": {
    "created_at": "2022-09-11T10:06:08.718Z",
    "ignoreHooks": false,
    "kid": "ad92a94b-ffe4-4b82-9094-deda52265635",
    "modified_at": "2023-07-03T21:20:53.033Z",
    "parents": [
      "2f2a320a-5835-4fe8-bd5b-1d10d68c108f"
    ],
    "repository": "kara.moe",
    "tags": {
      "authors": [
        "3d0daa38-cfdf-4c60-8f2d-f08e1f915b39",
        "9e3661b6-cae5-45ef-a2d9-788d92a8deec"
      ],
      "collections": [
        "c7db86a0-ff64-4044-9be4-66dd1ef1d1c1"
      ],
      "creators": [
        "1e5648fb-22fc-474d-b865-254eb31fa000"
      ],
      "families": [
        "0377db02-3af6-43b8-9b08-c759df3d25c3"
      ],
      "genres": [
        "45623cae-6d68-4304-a49b-896d1d6f4580",
        "caa86df2-0d59-474b-885c-f240a9e891b0"
      ],
      "groups": [
        "8e209ae4-4381-438f-89dc-1b21752027d2"
      ],
      "langs": [
        "4dcf9614-7914-42aa-99f4-dbce2e059133"
      ],
      "misc": [
        "1d6ceadf-a885-47e5-b23b-c07bf668a424"
      ],
      "origins": [
        "dbedd6b3-d125-4cd8-aa32-c4175e4ca3a3"
      ],
      "platforms": [
        "213a1a15-e73a-4a08-b3f6-b6e2745a82e5"
      ],
      "series": [
        "192b33fb-638a-4680-bdb2-a5adb9889849"
      ],
      "singers": [
        "0fee5b4a-4ee0-477c-9cfe-c6f9c1d1777f",
        "5cfc37b4-4af6-455c-8319-69761dcc4d7b",
        "7ce72adb-b4f2-42d9-b628-360b759a03df",
        "b4084895-9bbd-426a-8384-feef794ca53c",
        "d7c26167-fe7e-4450-8191-65a53fc7db66"
      ],
      "singergroups": [
        "0a879283-62f0-4266-a835-73cbe7ef7c0b"
      ],
      "songtypes": [
        "7be1b15c-cff8-4b37-a649-5c90f3d569a9"
      ],
      "songwriters": [
        "68d46994-71da-477d-a368-ddf6105a50f8"
      ],
      "versions": [
        "d125c80a-86c1-4321-88e9-07b7800679b6"
      ]
    },
    "titles": {
      "eng": "icedrop",
      "jpn": "アイスドロップ"
    },
    "titles_default_language": "eng",
    "titles_aliases": [
      "Ice Drop"
    ],
    "year": 2021
  }
}