{
  "header": {
    "version": 4,
    "description": "Karaoke Mugen Karaoke Data File"
  },
  "medias": [
    {
      "version": "Default",
      "filename": "JPN - Petit Moni - MV - Pittari Shitai X'mas!.mp4",
      "audiogain": -7.89,
      "loudnorm": "-10.60,1.01,5.10,-20.73,-0.84",
      "filesize": 16789400,
      "duration": 235,
      "default": true,
      "lyrics": [
        {
          "filename": "JPN - Petit Moni - MV - Pittari Shitai X'mas!.ass",
          "default": true,
          "version": "Default"
        }
      ]
    }
  ],
  "data": {
    "created_at": "2022-12-31T12:02:57.372Z",
    "ignoreHooks": false,
    "kid": "bf4bdc04-ce99-486b-95de-afbfa19e968e",
    "modified_at": "2022-12-31T12:02:59.000Z",
    "repository": "kara.moe",
    "tags": {
      "authors": [
        "4b50fcec-273e-4cc5-83f2-b156c2300f7f"
      ],
      "collections": [
        "dbcf2c22-524d-4708-99bb-601703633927"
      ],
      "families": [
        "5391f9fe-638c-415f-8dc9-958e3a2c5787"
      ],
      "langs": [
        "4dcf9614-7914-42aa-99f4-dbce2e059133"
      ],
      "singers": [
        "4fa84abb-3cc6-45e4-bcf4-b741ba3d7b1e",
        "0f03bd20-51f6-42a5-9a5f-f14793f7a72b",
        "7e883a23-e310-4c10-8d4d-35bfd2e1ac6e"
      ],
      "singergroups": [
        "ac75bf74-b85c-4c0f-ac6f-0f817126cfd3"
      ],
      "songtypes": [
        "7be1b15c-cff8-4b37-a649-5c90f3d569a9"
      ],
      "songwriters": [
        "0f9ff3a8-53e0-41d5-9c55-9b95d9cff61b",
        "5938e181-5402-43ea-a5a0-a4ca2405705d"
      ],
      "groups": [
        "3c14c864-533c-49e6-a3cc-6969f1233775"
      ]
    },
    "titles": {
      "jpn": "ぴったりしたいX'mas!",
      "qro": "Pittari Shitai X'mas!"
    },
    "titles_default_language": "qro",
    "year": 2001
  }
}