{
  "header": {
    "version": 4,
    "description": "Karaoke Mugen Karaoke Data File"
  },
  "medias": [
    {
      "version": "Default",
      "filename": "JPN - Kokuchou no Psychedelica - GAME AUDIO - Kokuchou no Psychedelica ~ Full Vers.mp3",
      "audiogain": -6.57,
      "loudnorm": "-11.06,0.47,4.90,-21.24,-0.90",
      "filesize": 11881487,
      "duration": 289,
      "default": true,
      "lyrics": [
        {
          "filename": "JPN - Kokuchou no Psychedelica - GAME AUDIO - Kokuchou no Psychedelica ~ Full Vers.ass",
          "default": true,
          "version": "Default"
        }
      ]
    }
  ],
  "data": {
    "created_at": "2023-04-08T12:08:24.695Z",
    "ignoreHooks": false,
    "kid": "1697e90f-dcc5-45f3-84ee-b487824e0f2a",
    "modified_at": "2023-04-08T12:21:09.929Z",
    "repository": "kara.moe",
    "tags": {
      "authors": [
        "0c8a5287-3954-48ce-b8ad-3d54e54bf96e"
      ],
      "collections": [
        "c7db86a0-ff64-4044-9be4-66dd1ef1d1c1"
      ],
      "creators": [
        "a2eb054b-5c11-4dfc-90ed-b0e0f289b838"
      ],
      "genres": [
        "7025ae3c-7bd6-4787-8912-2c15063343bb"
      ],
      "groups": [
        "ae613721-1fbe-480d-ba6b-d6d0702b184d"
      ],
      "langs": [
        "4dcf9614-7914-42aa-99f4-dbce2e059133"
      ],
      "origins": [
        "2f96e82c-c61b-4413-817e-e6b247509b95",
        "dbedd6b3-d125-4cd8-aa32-c4175e4ca3a3"
      ],
      "series": [
        "9e9e553c-ec26-4eb0-9f5c-e3e26dc6a170"
      ],
      "singers": [
        "a8834015-2b85-4a09-bb3c-539ec762a2b4"
      ],
      "songtypes": [
        "42a262ae-acba-4ab5-a446-c5789c96c821"
      ],
      "songwriters": [
        "03e272ce-1c50-4706-a431-d49f48a5dd62",
        "a8834015-2b85-4a09-bb3c-539ec762a2b4"
      ],
      "versions": [
        "c2143a7f-6970-450e-8a79-0302db9220a9"
      ]
    },
    "titles": {
      "qro": "Kokuchô no Psychedelica",
      "jpn": "黒蝶のサイケデリカ"
    },
    "titles_default_language": "qro",
    "titles_aliases": [
      "Kokuchou"
    ],
    "year": 2015
  }
}