{
  "header": {
    "version": 4,
    "description": "Karaoke Mugen Karaoke Data File"
  },
  "medias": [
    {
      "version": "Full.",
      "filename": "JPN - Chihayafuru - AUDIO ED - Soshite Ima ~ Full Vers.mp3",
      "audiogain": -5.4,
      "loudnorm": "-13.53,-3.38,10.60,-23.75,-1.58",
      "filesize": 11880609,
      "duration": 265,
      "default": true,
      "lyrics": [
        {
          "filename": "JPN - Chihayafuru - AUDIO ED - Soshite Ima ~ Full Vers.ass",
          "default": true,
          "version": "Default",
          "subchecksum": "72b4a3c41de1d79117c2bba7846d4ab4"
        }
      ]
    }
  ],
  "data": {
    "created_at": "2020-07-19T19:32:17.378Z",
    "kid": "8ec176ee-a04f-4db4-9dcd-1ad12e4de5c0",
    "modified_at": "2021-05-23T22:38:24.741Z",
    "parents": [
      "54e735a8-8b0d-453b-9a97-4f69aa54b404"
    ],
    "repository": "kara.moe",
    "tags": {
      "authors": [
        "65761521-3090-419e-846a-a6160d8a9f22"
      ],
      "collections": [
        "c7db86a0-ff64-4044-9be4-66dd1ef1d1c1"
      ],
      "groups": [
        "60defa7b-774e-4680-8321-51b742c2e009",
        "ae613721-1fbe-480d-ba6b-d6d0702b184d"
      ],
      "langs": [
        "4dcf9614-7914-42aa-99f4-dbce2e059133"
      ],
      "origins": [
        "938de218-5343-4865-94d3-fb33f2eaa152"
      ],
      "series": [
        "689cd51e-e763-46d5-856c-25e228a532ce"
      ],
      "singers": [
        "00671aa0-d38b-445e-bc8e-ae8f5a3fe133"
      ],
      "songtypes": [
        "38c77c56-2b95-4040-b676-0994a8cb0597",
        "42a262ae-acba-4ab5-a446-c5789c96c821"
      ],
      "songwriters": [
        "4a117a6a-7bde-409e-b393-ec809fe3a757"
      ],
      "versions": [
        "c2143a7f-6970-450e-8a79-0302db9220a9"
      ],
      "franchises": [
        "689cd51e-e763-46d5-856c-25e228a532ce"
      ]
    },
    "title": "Soshite Ima",
    "titles": {
      "qro": "Soshite Ima",
      "jpn": "そしていま"
    },
    "year": 2011,
    "titles_default_language": "qro"
  }
}