{
  "header": {
    "version": 4,
    "description": "Karaoke Mugen Karaoke Data File"
  },
  "medias": [
    {
      "version": "Default",
      "filename": "JPN - Haikyuu!! Karasuno Koukou vs Shiratorizawa Gakuen Koukou - OP - Hikari Are.mp4",
      "audiogain": -1.94,
      "loudnorm": "-16.11,-7.29,5.00,-26.14,-1.14",
      "filesize": 35097358,
      "duration": 92,
      "default": true,
      "lyrics": [
        {
          "filename": "JPN - Haikyuu!! Karasuno Koukou vs Shiratorizawa Gakuen Koukou - OP - Hikari Are.ass",
          "default": true,
          "version": "Default",
          "subchecksum": "95e9a5ec6e8618fcb33247ae2b484b44"
        }
      ]
    }
  ],
  "data": {
    "created_at": "2017-10-11T17:02:44.000Z",
    "kid": "121fc9e5-3428-43d8-aebf-5e92e6b0b4f5",
    "modified_at": "2021-02-25T11:35:37.451Z",
    "repository": "kara.moe",
    "tags": {
      "authors": [
        "8adb31b3-a25c-4897-8410-5526d47a0230"
      ],
      "collections": [
        "c7db86a0-ff64-4044-9be4-66dd1ef1d1c1"
      ],
      "creators": [
        "20d023d6-5195-4e4f-bae3-8b28ad6334e2"
      ],
      "families": [
        "0377db02-3af6-43b8-9b08-c759df3d25c3"
      ],
      "genres": [
        "a0aeef4a-6428-45ff-a6e1-468b595930c2"
      ],
      "groups": [
        "8c22c899-b3ed-42da-a548-ce00f950798b",
        "9a8e0fbc-dcae-4989-be82-7cad3436f1f5",
        "ae613721-1fbe-480d-ba6b-d6d0702b184d"
      ],
      "langs": [
        "4dcf9614-7914-42aa-99f4-dbce2e059133"
      ],
      "misc": [
        "fe819ff1-9db8-4a0f-85dc-0e322c9126c4"
      ],
      "origins": [
        "938de218-5343-4865-94d3-fb33f2eaa152"
      ],
      "series": [
        "5a444177-3bc0-4d94-bd13-6cf79968c6aa"
      ],
      "singers": [
        "00b1f396-3c50-4135-9300-a0d8d4dcc2d2"
      ],
      "songtypes": [
        "f02ad9b3-0bd9-4aad-85b3-9976739ba0e4"
      ],
      "songwriters": [
        "cdedeeab-6067-4b78-9299-3a131423641a"
      ],
      "franchises": [
        "0d698d58-0e52-45a0-83e9-43c2c215554c"
      ]
    },
    "title": "Hikari Are",
    "titles": {
      "qro": "Hikari Are",
      "jpn": "ヒカリアレ"
    },
    "year": 2016,
    "titles_default_language": "qro"
  }
}