{
  "header": {
    "version": 4,
    "description": "Karaoke Mugen Karaoke Data File"
  },
  "medias": [
    {
      "version": "Default",
      "filename": "JPN - Rin Kagamine - MV - Migikata no Chou.mp4",
      "audiogain": -11.54,
      "loudnorm": "-5.49,3.18,4.40,-15.63,-0.92",
      "filesize": 13700501,
      "duration": 270,
      "default": true,
      "lyrics": [
        {
          "filename": "JPN - Rin Kagamine - MV - Migikata no Chou.ass",
          "default": true,
          "version": "Default"
        }
      ]
    }
  ],
  "data": {
    "created_at": "2023-03-24T16:07:49.095Z",
    "ignoreHooks": false,
    "kid": "2b81cdda-891b-47af-b50e-0062a37f0311",
    "modified_at": "2023-03-24T16:07:49.254Z",
    "repository": "kara.moe",
    "tags": {
      "authors": [
        "a3a99b23-6c42-4d38-8863-491153187437"
      ],
      "collections": [
        "c7db86a0-ff64-4044-9be4-66dd1ef1d1c1"
      ],
      "creators": [
        "8da56750-72e9-4489-a6e5-b78ce4779e85"
      ],
      "families": [
        "0377db02-3af6-43b8-9b08-c759df3d25c3"
      ],
      "genres": [
        "45623cae-6d68-4304-a49b-896d1d6f4580"
      ],
      "groups": [
        "3c14c864-533c-49e6-a3cc-6969f1233775"
      ],
      "langs": [
        "4dcf9614-7914-42aa-99f4-dbce2e059133"
      ],
      "singers": [
        "dbb8d613-a120-46c7-bb42-bc6c1efb61f7"
      ],
      "songtypes": [
        "7be1b15c-cff8-4b37-a649-5c90f3d569a9"
      ],
      "songwriters": [
        "07d192ba-bd58-4f44-8014-0cd5fb3fbffa",
        "b57bca46-3fed-4181-8291-e1fe3a286045"
      ]
    },
    "titles": {
      "jpn": "右肩の蝶",
      "qro": "Migikata no Chou",
      "eng": "Butterfly on your Right Shoulder"
    },
    "titles_default_language": "qro",
    "titles_aliases": [
      "Butterfly of the Right Shoulder"
    ],
    "year": 2009
  }
}