{
  "header": {
    "version": 4,
    "description": "Karaoke Mugen Karaoke Data File"
  },
  "medias": [
    {
      "version": "Default",
      "filename": "JPN - My Next Life as a Villainess All Routes Lead to Doom! X - OP - Andante ni Koi wo Shite.mp4",
      "audiogain": 1.07,
      "loudnorm": "-19.23,-7.77,4.20,-29.44,-0.65",
      "filesize": 63217296,
      "duration": 89,
      "default": true,
      "lyrics": [
        {
          "filename": "JPN - My Next Life as a Villainess All Routes Lead to Doom! X - OP - Andante ni Koi wo Shite.ass",
          "default": true,
          "version": "Default",
          "subchecksum": "a51823b6bca36924619396d6989c65f2"
        }
      ]
    }
  ],
  "data": {
    "created_at": "2021-07-14T17:11:16.671Z",
    "kid": "361af0cf-7909-4530-ba8f-d96f0487b673",
    "modified_at": "2021-07-14T17:16:25.388Z",
    "repository": "kara.moe",
    "tags": {
      "authors": [
        "e568de19-c003-4d37-8978-98f29ea61cb3"
      ],
      "collections": [
        "c7db86a0-ff64-4044-9be4-66dd1ef1d1c1"
      ],
      "creators": [
        "bee26a9b-bc7b-4cdc-9317-6c9ee6707706"
      ],
      "families": [
        "0377db02-3af6-43b8-9b08-c759df3d25c3"
      ],
      "groups": [
        "8e209ae4-4381-438f-89dc-1b21752027d2"
      ],
      "langs": [
        "4dcf9614-7914-42aa-99f4-dbce2e059133"
      ],
      "origins": [
        "938de218-5343-4865-94d3-fb33f2eaa152"
      ],
      "series": [
        "adec1a42-66f3-41e2-a362-fb1b07471f71"
      ],
      "singers": [
        "78d91182-ac66-49fb-9561-1d330667d6c4"
      ],
      "songtypes": [
        "f02ad9b3-0bd9-4aad-85b3-9976739ba0e4"
      ],
      "songwriters": [
        "0b54e69d-4691-4415-be0e-0dd6fd5d4e1a",
        "84a20b00-fd06-43fd-b78e-9c1a2b7b7795"
      ],
      "franchises": [
        "1a710169-6808-4171-a5f3-beb1ce914d9f"
      ]
    },
    "title": "Andante ni Koi wo Shite",
    "titles": {
      "qro": "Andante ni Koi wo Shite",
      "jpn": "アンダンテに恋をして!"
    },
    "year": 2021,
    "titles_default_language": "qro"
  }
}