{
  "header": {
    "version": 4,
    "description": "Karaoke Mugen Karaoke Data File"
  },
  "medias": [
    {
      "version": "Default",
      "filename": "JPN - NHK ni Youkoso! - AUDIO IN - Ashita ha Tabun Daijoubu.mp3",
      "audiogain": -9.81,
      "loudnorm": "-7.17,1.60,1.80,-17.28,-0.22",
      "filesize": 6921896,
      "duration": 166,
      "default": true,
      "lyrics": [
        {
          "filename": "JPN - NHK ni Youkoso! - AUDIO IN - Ashita ha Tabun Daijoubu.ass",
          "default": true,
          "version": "Default",
          "subchecksum": "864f3b92c1ec0ad135d67e9ec7299aa3"
        }
      ]
    }
  ],
  "data": {
    "created_at": "2020-07-17T10:11:59.299Z",
    "kid": "5734fb8d-4dcd-416f-9171-2d6f3cc24e97",
    "modified_at": "2021-02-25T12:35:35.196Z",
    "repository": "kara.moe",
    "tags": {
      "authors": [
        "60defa7b-774e-4680-8321-51b742c2e009"
      ],
      "collections": [
        "c7db86a0-ff64-4044-9be4-66dd1ef1d1c1"
      ],
      "groups": [
        "3c14c864-533c-49e6-a3cc-6969f1233775",
        "60defa7b-774e-4680-8321-51b742c2e009"
      ],
      "langs": [
        "4dcf9614-7914-42aa-99f4-dbce2e059133"
      ],
      "origins": [
        "938de218-5343-4865-94d3-fb33f2eaa152"
      ],
      "series": [
        "eb59011d-bc0d-4eb1-aa22-e8cb4e1675a1"
      ],
      "singers": [
        "ae36335b-4eee-46b8-8bcd-89f339b85fbf"
      ],
      "songtypes": [
        "42a262ae-acba-4ab5-a446-c5789c96c821",
        "5e5250d9-351a-4a82-98eb-55db50ad8962"
      ],
      "songwriters": [
        "ae36335b-4eee-46b8-8bcd-89f339b85fbf",
        "c5ba238e-e3b4-4599-b70d-a7a2da493cac"
      ]
    },
    "title": "Ashita ha Tabun Daijoubu",
    "titles": {
      "qro": "Ashita wa Tabun Daijoubu",
      "jpn": "明日はたぶん大丈夫"
    },
    "year": 2006,
    "titles_default_language": "qro"
  }
}