{
  "header": {
    "version": 4,
    "description": "Karaoke Mugen Karaoke Data File"
  },
  "medias": [
    {
      "version": "Default",
      "filename": "JPN - Love Live! Sunshine!! - LIVE - Kiseki Hikaru ~ Full Vers.mp4",
      "audiogain": 0.68,
      "loudnorm": "-17.31,-2.04,7.40,-27.42,-0.04",
      "filesize": 188492564,
      "duration": 309,
      "default": true,
      "lyrics": [
        {
          "filename": "JPN - Love Live! Sunshine!! - LIVE - Kiseki Hikaru ~ Full Vers.ass",
          "default": true,
          "version": "Default"
        }
      ]
    }
  ],
  "data": {
    "created_at": "2022-06-06T19:08:08.653Z",
    "ignoreHooks": false,
    "kid": "b4e8ced4-3e9e-4b42-b075-31d01525d430",
    "modified_at": "2022-12-21T22:36:37.425Z",
    "repository": "kara.moe",
    "tags": {
      "authors": [
        "278c6742-0b75-43dd-b317-2ea112952b4a"
      ],
      "collections": [
        "dbcf2c22-524d-4708-99bb-601703633927"
      ],
      "creators": [
        "b2805292-730e-473a-96f0-fd8e7ffd1fd7"
      ],
      "families": [
        "5391f9fe-638c-415f-8dc9-958e3a2c5787"
      ],
      "genres": [
        "caa86df2-0d59-474b-885c-f240a9e891b0"
      ],
      "groups": [
        "8c22c899-b3ed-42da-a548-ce00f950798b",
        "ae613721-1fbe-480d-ba6b-d6d0702b184d"
      ],
      "langs": [
        "4dcf9614-7914-42aa-99f4-dbce2e059133"
      ],
      "misc": [
        "86705d4b-24e4-4756-9687-2b9c98bcf366"
      ],
      "series": [
        "63466536-1102-4f91-b167-4380d274e2a3"
      ],
      "singers": [
        "0bbc3f71-4849-4e38-9980-2331d0293168",
        "18b9be9d-c627-47d1-ab88-56201f59a609",
        "2dcdc517-a816-496e-8bc8-8ce976e608c4",
        "5db2e941-73cc-4374-af8e-a078458645ca",
        "81f96b53-701d-4886-80ba-71f256e051a2",
        "8f1cdf03-baf0-4294-bfdf-fdeedcdbeac5",
        "9cd8d2dd-4328-4186-9d11-d5b021ae9fc0",
        "b4084895-9bbd-426a-8384-feef794ca53c",
        "e3ef4054-6292-4b5f-ad14-1008bae5e375"
      ],
      "singergroups": [
        "b34161c7-a60d-4f1a-8436-11abc0875436"
      ],
      "songtypes": [
        "a0167949-580c-4de3-bf13-497e462e02f3"
      ],
      "songwriters": [
        "03537d59-35c7-493e-a807-54263253a072",
        "f41e7218-6c19-4e19-9b5f-4612dcd58243"
      ],
      "versions": [
        "c2143a7f-6970-450e-8a79-0302db9220a9"
      ],
      "franchises": [
        "fd5d066e-e85a-4eea-8688-2979a887450a"
      ]
    },
    "titles": {
      "jpn": "キセキヒカル",
      "qro": "Kiseki Hikaru"
    },
    "titles_default_language": "qro",
    "year": 2018
  }
}