{
  "header": {
    "version": 4,
    "description": "Karaoke Mugen Karaoke Data File"
  },
  "medias": [
    {
      "version": "Default",
      "filename": "JPN - BEAST - MV - Midnight -Hoshi wo Kazoeru Yoru-.mp4",
      "audiogain": -7.06,
      "loudnorm": "-10.43,0.72,8.80,-20.65,-1.13",
      "filesize": 156040524,
      "duration": 236,
      "default": true,
      "lyrics": [
        {
          "filename": "JPN - BEAST - MV - Midnight -Hoshi wo Kazoeru Yoru-.ass",
          "default": true,
          "version": "Default"
        }
      ]
    }
  ],
  "data": {
    "created_at": "2019-09-14T11:57:14.000Z",
    "kid": "e3a027fc-bfbc-4235-b838-6af79a6b7638",
    "modified_at": "2022-05-26T16:19:24.701Z",
    "repository": "kara.moe",
    "songorder": null,
    "tags": {
      "authors": [
        "622e2a6d-e4e8-4ff5-b218-890e8d7a3abf"
      ],
      "creators": [
        "6b8ffb9d-bc6a-4de7-b8a7-b4c6b4c2f475"
      ],
      "families": [
        "5391f9fe-638c-415f-8dc9-958e3a2c5787"
      ],
      "groups": [
        "2b4e9972-5e17-481b-99f5-d0787c0ada56",
        "ae613721-1fbe-480d-ba6b-d6d0702b184d"
      ],
      "langs": [
        "4dcf9614-7914-42aa-99f4-dbce2e059133"
      ],
      "singers": [
        "e89fecfd-cde2-443a-9dd7-74232f7bef6e"
      ],
      "songtypes": [
        "7be1b15c-cff8-4b37-a649-5c90f3d569a9"
      ],
      "songwriters": [
        "03170ac6-8322-4ec4-a9d0-61ab1136d274",
        "8dfe5b2d-bc27-40b2-852e-a801e1dc0250",
        "d11faafc-f6c0-4c07-9d48-2c088b23e439"
      ],
      "collections": [
        "dbcf2c22-524d-4708-99bb-601703633927"
      ]
    },
    "titles": {
      "qro": "Midnight -Hoshi wo Kazoeru Yoru-",
      "jpn": "Midnight -星を数える夜-"
    },
    "titles_default_language": "qro",
    "title": "Midnight -Hoshi wo Kazoeru Yoru-",
    "year": 2012
  }
}