{
  "header": {
    "version": 4,
    "description": "Karaoke Mugen Karaoke Data File"
  },
  "medias": [
    {
      "version": "Default",
      "filename": "JPN - Kaguya-sama wa Kokurasetai question_mark Tensai-tachi no Ren'ai Zunousen - AUDIO OP - DADDY! DADDY! DO! covered by Yuu Ishigami & Miko Iino ~ Alternative Cover Vers.mp3",
      "audiogain": -9.37,
      "loudnorm": "-7.63,0.81,3.70,-17.67,-0.10",
      "filesize": 10593981,
      "duration": 257,
      "default": true,
      "lyrics": [
        {
          "filename": "JPN - Kaguya-sama wa Kokurasetai question_mark Tensai-tachi no Ren'ai Zunousen - AUDIO OP - DADDY! DADDY! DO! covered by Yuu Ishigami & Miko Iino ~ Alternative Cover Vers.ass",
          "default": true,
          "version": "Default"
        }
      ]
    }
  ],
  "data": {
    "created_at": "2023-01-12T01:00:52.059Z",
    "ignoreHooks": false,
    "kid": "4c22c70d-63bf-4034-9c6c-4b1f5930972d",
    "modified_at": "2023-01-12T04:51:52.917Z",
    "parents": [
      "533e8a7d-b766-4e3a-bc73-33aa258d5ebc"
    ],
    "repository": "kara.moe",
    "tags": {
      "authors": [
        "7848b5dc-a5df-4577-b640-147be5288cec",
        "87096920-112f-485f-a310-04156cb4624d"
      ],
      "collections": [
        "c7db86a0-ff64-4044-9be4-66dd1ef1d1c1"
      ],
      "creators": [
        "b96e3686-bbe0-4b9e-815a-a278d5ff31be"
      ],
      "groups": [
        "60defa7b-774e-4680-8321-51b742c2e009",
        "8e209ae4-4381-438f-89dc-1b21752027d2"
      ],
      "langs": [
        "4dcf9614-7914-42aa-99f4-dbce2e059133"
      ],
      "origins": [
        "938de218-5343-4865-94d3-fb33f2eaa152"
      ],
      "series": [
        "7aee9ab1-78f7-4c37-b767-53a673083a1c"
      ],
      "singers": [
        "234427ad-0afe-4027-8d89-c2b45dd79c96",
        "24bfad52-ccfe-42b7-b3dd-c06e7660d1dc"
      ],
      "songtypes": [
        "42a262ae-acba-4ab5-a446-c5789c96c821",
        "f02ad9b3-0bd9-4aad-85b3-9976739ba0e4"
      ],
      "songwriters": [
        "52944693-acb2-44bf-86bb-5057d837def8",
        "9440a48e-d17c-45af-9340-f3f77042ea4e"
      ],
      "versions": [
        "03e1e1d2-8641-47b7-bbcb-39a3df9ff21c",
        "9f63c359-d1bf-425a-bcf5-b245c2c9211d",
        "c2143a7f-6970-450e-8a79-0302db9220a9"
      ],
      "franchises": [
        "4898cebc-d830-4917-9651-1e80225bd02e"
      ]
    },
    "titles": {
      "eng": "DADDY! DADDY! DO! covered by Yû Ishigami and Miko Iino",
      "jpn": "DADDY! DADDY! DO! covered by 石上優&伊井野ミコ",
      "qro": "DADDY! DADDY! DO! covered by Yû Ishigami & Miko Iino"
    },
    "titles_default_language": "qro",
    "titles_aliases": [
      "Yuu"
    ],
    "year": 2020
  }
}