{
  "header": {
    "version": 4,
    "description": "Karaoke Mugen Karaoke Data File"
  },
  "medias": [
    {
      "version": "Default",
      "filename": "JPN - Lime-iro Senkitan - OP - Rinka.avi",
      "audiogain": -5.22,
      "loudnorm": "-13.80,-0.85,4.70,-24.01,-0.10",
      "filesize": 22007206,
      "duration": 99,
      "default": true,
      "lyrics": [
        {
          "filename": "JPN - Lime-iro Senkitan - OP - Rinka.ass",
          "default": true,
          "version": "Default",
          "subchecksum": "55d4913b2984ce953cfa556167511850"
        }
      ]
    }
  ],
  "data": {
    "created_at": "2017-10-11T17:02:16.000Z",
    "kid": "285deeac-e88c-4ec9-9a22-32814d5c9809",
    "modified_at": "2021-02-25T12:10:12.274Z",
    "repository": "kara.moe",
    "tags": {
      "authors": [
        "5bdaba57-27f8-4568-8806-76a807728766"
      ],
      "collections": [
        "c7db86a0-ff64-4044-9be4-66dd1ef1d1c1"
      ],
      "creators": [
        "875713d0-9b1c-4743-b0f9-0752715ddd5a"
      ],
      "families": [
        "0377db02-3af6-43b8-9b08-c759df3d25c3"
      ],
      "groups": [
        "3c14c864-533c-49e6-a3cc-6969f1233775"
      ],
      "langs": [
        "4dcf9614-7914-42aa-99f4-dbce2e059133"
      ],
      "origins": [
        "938de218-5343-4865-94d3-fb33f2eaa152"
      ],
      "series": [
        "36215834-5013-4c8f-b5b7-eb24d7e661bb"
      ],
      "singers": [
        "26e281cf-4692-4d8a-85f5-4ae10bcd6826",
        "2c37f161-4d43-4a62-9cfc-06fc90248970",
        "312a2b1a-55b3-4160-afe1-d61ba2d9d0f5",
        "97870a7c-c04e-4fe5-83a4-542882d2c66d",
        "e79b6b4d-e2eb-4f8f-82d3-d5daa59ef8db"
      ],
      "songtypes": [
        "f02ad9b3-0bd9-4aad-85b3-9976739ba0e4"
      ],
      "songwriters": [
        "23fd1a4d-1b0c-4236-a8cf-f134e1f47024",
        "f0c9b7ae-e4e8-47c1-a100-8edd97b2c562"
      ]
    },
    "title": "Rinka",
    "titles": {
      "qro": "Rinka",
      "jpn": "凛花"
    },
    "year": 2003,
    "titles_default_language": "qro"
  }
}