{
  "header": {
    "version": 4,
    "description": "Karaoke Mugen Karaoke Data File"
  },
  "medias": [
    {
      "version": "Default",
      "filename": "JPN - Gintama. Porori-hen - OP1 - VS.mp4",
      "audiogain": 7.18,
      "loudnorm": "-23.18,-12.33,1.10,-33.21,-0.45",
      "filesize": 46160049,
      "duration": 89,
      "default": true,
      "lyrics": [
        {
          "filename": "JPN - Gintama. Porori-hen - OP1 - VS.ass",
          "default": true,
          "version": "Default"
        }
      ]
    }
  ],
  "data": {
    "created_at": "2022-02-03T01:22:21.872Z",
    "ignoreHooks": false,
    "kid": "33f88638-dd8d-4804-b2e6-f3da36e1faf1",
    "modified_at": "2022-02-20T01:18:56.338Z",
    "repository": "kara.moe",
    "songorder": 1,
    "tags": {
      "authors": [
        "e4cf4923-113a-4d74-a0b5-277b6090bd6f"
      ],
      "collections": [
        "c7db86a0-ff64-4044-9be4-66dd1ef1d1c1"
      ],
      "creators": [
        "4d17b0cf-92fd-4ab3-8035-8a260a772e51"
      ],
      "families": [
        "0377db02-3af6-43b8-9b08-c759df3d25c3"
      ],
      "groups": [
        "ae613721-1fbe-480d-ba6b-d6d0702b184d"
      ],
      "langs": [
        "4dcf9614-7914-42aa-99f4-dbce2e059133"
      ],
      "series": [
        "5c553850-83ec-4b1e-9ae9-5ea61979752c"
      ],
      "singers": [
        "fa13197d-df5f-4c5d-b621-ea4e12474f3d"
      ],
      "songtypes": [
        "f02ad9b3-0bd9-4aad-85b3-9976739ba0e4"
      ],
      "songwriters": [
        "03583181-330d-460c-90b8-6f8bb238c287",
        "fa13197d-df5f-4c5d-b621-ea4e12474f3d"
      ],
      "franchises": [
        "0433ab0b-74bb-4837-8f1b-fd17a9e0c526"
      ]
    },
    "titles": {
      "eng": "VS"
    },
    "title": "VS",
    "year": 2017,
    "titles_default_language": "eng"
  }
}