{
  "header": {
    "version": 4,
    "description": "Karaoke Mugen Karaoke Data File"
  },
  "medias": [
    {
      "version": "Default",
      "filename": "JPN - Project SEKAI COLORFUL STAGE! - GAME MV - Parasol Cider ~ Full Vers.mp4",
      "audiogain": -10.28,
      "loudnorm": "-7.15,3.31,4.30,-17.19,-0.31",
      "filesize": 104553742,
      "duration": 213,
      "default": true,
      "lyrics": [
        {
          "filename": "JPN - Project SEKAI COLORFUL STAGE! - GAME MV - Parasol Cider ~ Full Vers.ass",
          "default": true,
          "version": "Default"
        }
      ]
    }
  ],
  "data": {
    "created_at": "2022-10-08T16:49:53.535Z",
    "ignoreHooks": false,
    "kid": "7bd8609b-acd0-4254-977c-8f800edf3780",
    "modified_at": "2022-12-26T21:29:48.439Z",
    "repository": "kara.moe",
    "tags": {
      "authors": [
        "3d0daa38-cfdf-4c60-8f2d-f08e1f915b39"
      ],
      "collections": [
        "c7db86a0-ff64-4044-9be4-66dd1ef1d1c1"
      ],
      "creators": [
        "1e5648fb-22fc-474d-b865-254eb31fa000",
        "3ac0f36b-8e7b-4c51-b172-b923ebaabf97",
        "db2cdeac-f0da-430c-a0d6-2221f5089925"
      ],
      "families": [
        "0377db02-3af6-43b8-9b08-c759df3d25c3"
      ],
      "genres": [
        "45623cae-6d68-4304-a49b-896d1d6f4580",
        "caa86df2-0d59-474b-885c-f240a9e891b0"
      ],
      "groups": [
        "8e209ae4-4381-438f-89dc-1b21752027d2"
      ],
      "langs": [
        "4dcf9614-7914-42aa-99f4-dbce2e059133"
      ],
      "misc": [
        "1d6ceadf-a885-47e5-b23b-c07bf668a424"
      ],
      "platforms": [
        "213a1a15-e73a-4a08-b3f6-b6e2745a82e5"
      ],
      "series": [
        "192b33fb-638a-4680-bdb2-a5adb9889849"
      ],
      "singers": [
        "0fee5b4a-4ee0-477c-9cfe-c6f9c1d1777f",
        "5cfc37b4-4af6-455c-8319-69761dcc4d7b",
        "79f710d5-270e-4b17-957e-037ff0eae3fe",
        "b4084895-9bbd-426a-8384-feef794ca53c",
        "d7c26167-fe7e-4450-8191-65a53fc7db66"
      ],
      "singergroups": [
        "0a879283-62f0-4266-a835-73cbe7ef7c0b"
      ],
      "songtypes": [
        "7be1b15c-cff8-4b37-a649-5c90f3d569a9"
      ],
      "songwriters": [
        "7e0d886f-3302-4ab5-9dfc-ad90738a5a7c",
        "bd2e9d67-d583-409f-8450-5d351448e9dd"
      ],
      "versions": [
        "c2143a7f-6970-450e-8a79-0302db9220a9"
      ],
      "origins": [
        "dbedd6b3-d125-4cd8-aa32-c4175e4ca3a3"
      ]
    },
    "titles": {
      "qjr": "Parasol Cider"
    },
    "titles_default_language": "qjr",
    "year": 2022
  }
}