{
  "header": {
    "version": 4,
    "description": "Karaoke Mugen Karaoke Data File"
  },
  "medias": [
    {
      "version": "Default",
      "filename": "JPN - Haikyuu!! To the Top 2nd Season - OP - Toppakou.mp4",
      "audiogain": 0.89,
      "loudnorm": "-17.28,-8.74,1.70,-27.37,0.05",
      "filesize": 30685351,
      "duration": 90,
      "default": true,
      "lyrics": [
        {
          "filename": "JPN - Haikyuu!! To the Top 2nd Season - OP - Toppakou.ass",
          "default": true,
          "version": "Default"
        }
      ]
    }
  ],
  "data": {
    "created_at": "2020-10-21T17:32:00.240Z",
    "ignoreHooks": false,
    "kid": "b6a50157-4553-42f6-b32e-fd1cad263c49",
    "modified_at": "2022-10-01T10:05:44.763Z",
    "repository": "kara.moe",
    "tags": {
      "authors": [
        "faa8becc-83b6-45d9-a3d0-a4c2c8b336c8"
      ],
      "collections": [
        "c7db86a0-ff64-4044-9be4-66dd1ef1d1c1"
      ],
      "creators": [
        "20d023d6-5195-4e4f-bae3-8b28ad6334e2"
      ],
      "families": [
        "0377db02-3af6-43b8-9b08-c759df3d25c3"
      ],
      "genres": [
        "a0aeef4a-6428-45ff-a6e1-468b595930c2"
      ],
      "groups": [
        "8c22c899-b3ed-42da-a548-ce00f950798b",
        "8e209ae4-4381-438f-89dc-1b21752027d2"
      ],
      "langs": [
        "4dcf9614-7914-42aa-99f4-dbce2e059133"
      ],
      "origins": [
        "938de218-5343-4865-94d3-fb33f2eaa152"
      ],
      "series": [
        "b8d14f94-41dc-4486-8f10-d33dea0cff17"
      ],
      "singers": [
        "4f94235c-01e9-4cbb-b9d0-8666fda712f3"
      ],
      "songtypes": [
        "f02ad9b3-0bd9-4aad-85b3-9976739ba0e4"
      ],
      "songwriters": [
        "2e85a5a3-5a4e-4928-8a09-8d0bac999edb",
        "4f94235c-01e9-4cbb-b9d0-8666fda712f3"
      ],
      "franchises": [
        "0d698d58-0e52-45a0-83e9-43c2c215554c"
      ]
    },
    "titles": {
      "jpn": "突破口",
      "qro": "Toppakô"
    },
    "titles_default_language": "qro",
    "title": "Toppakô",
    "year": 2020,
    "titles_aliases": [
      "Toppakou"
    ]
  }
}