{
  "header": {
    "version": 4,
    "description": "Karaoke Mugen Karaoke Data File"
  },
  "medias": [
    {
      "version": "Default",
      "filename": "JPN - Miku Hatsune - MV - Kagerou Daze.mp4",
      "audiogain": -10.92,
      "loudnorm": "-6.19,1.11,5.10,-16.35,-0.31",
      "filesize": 52595829,
      "duration": 232,
      "default": true,
      "lyrics": [
        {
          "filename": "JPN - Miku Hatsune - MV - Kagerou Daze.ass",
          "default": true,
          "version": "Default"
        }
      ]
    }
  ],
  "data": {
    "created_at": "2019-08-31T12:41:09.000Z",
    "ignoreHooks": false,
    "kid": "d075c41b-c1ea-4998-849b-91e9ad01f7ba",
    "modified_at": "2022-09-30T20:08:26.234Z",
    "repository": "kara.moe",
    "tags": {
      "authors": [
        "2b4e9972-5e17-481b-99f5-d0787c0ada56"
      ],
      "collections": [
        "c7db86a0-ff64-4044-9be4-66dd1ef1d1c1"
      ],
      "creators": [
        "0bce4d58-89c6-4bb3-9ce0-170d49fa5e2c"
      ],
      "families": [
        "0377db02-3af6-43b8-9b08-c759df3d25c3"
      ],
      "genres": [
        "45623cae-6d68-4304-a49b-896d1d6f4580"
      ],
      "groups": [
        "2b4e9972-5e17-481b-99f5-d0787c0ada56",
        "ae613721-1fbe-480d-ba6b-d6d0702b184d"
      ],
      "langs": [
        "4dcf9614-7914-42aa-99f4-dbce2e059133"
      ],
      "singers": [
        "4407ba0e-5de7-4add-870f-7ac95a4804c9"
      ],
      "songtypes": [
        "7be1b15c-cff8-4b37-a649-5c90f3d569a9"
      ],
      "songwriters": [
        "e47047f1-9428-41db-9eb2-a32ba03c5ac1"
      ]
    },
    "titles": {
      "jpn": "カゲロウデイズ\"",
      "qro": "Kagerô Daze"
    },
    "titles_default_language": "qro",
    "title": "Kagerô Daze",
    "year": 2011,
    "titles_aliases": [
      "Kagerou"
    ]
  }
}