{
  "header": {
    "description": "Karaoke Mugen Karaoke Data File",
    "version": 4
  },
  "medias": [
    {
      "version": "Default",
      "filename": "JPN - Touhou - REMIX GAME MV - Choujin Hijiri no Air Muscle.mp4",
      "audiogain": -3.59,
      "loudnorm": "-14.36,-5.18,3.30,-24.49,-0.94",
      "filesize": 11593528,
      "duration": 110,
      "default": true,
      "lyrics": [
        {
          "filename": "JPN - Touhou - REMIX GAME MV - Choujin Hijiri no Air Muscle.ass",
          "default": true,
          "version": "Default"
        }
      ]
    }
  ],
  "data": {
    "created_at": "2022-10-09T19:52:13.696Z",
    "kid": "ecd512ef-321e-4aa8-a583-b775a8d0a867",
    "modified_at": "2022-10-09T19:52:13.696Z",
    "tags": {
      "authors": [
        "1fbfef73-6731-40df-ba51-65a54b9d1605"
      ],
      "collections": [
        "c7db86a0-ff64-4044-9be4-66dd1ef1d1c1"
      ],
      "creators": [
        "25fc251a-0514-4bf5-a818-dd0547723f4a"
      ],
      "groups": [
        "ae613721-1fbe-480d-ba6b-d6d0702b184d"
      ],
      "langs": [
        "4dcf9614-7914-42aa-99f4-dbce2e059133"
      ],
      "misc": [
        "ec4360fa-3e3c-4f6f-b0e1-fb8b12b6dd18"
      ],
      "origins": [
        "ac5085db-52d8-44b4-8fbb-1697b24d2046",
        "dbedd6b3-d125-4cd8-aa32-c4175e4ca3a3"
      ],
      "series": [
        "1bdaa5a1-dfa6-4365-b746-7a0b194dafd6"
      ],
      "singers": [
        "5e9a5d91-ea80-4515-acdf-43f023a54467"
      ],
      "songtypes": [
        "7be1b15c-cff8-4b37-a649-5c90f3d569a9"
      ],
      "songwriters": [
        "feceb592-efac-4eda-9b03-c27cf509004c",
        "26cb5252-8510-49e0-897c-a611a05fc056",
        "8a479c05-b37e-49cd-a57c-4e6e13ac5785"
      ],
      "franchises": [
        "1bdaa5a1-dfa6-4365-b746-7a0b194dafd6"
      ]
    },
    "titles": {
      "jpn": "超人ひじりのエアマッソー",
      "qro": "Choujin Hijiri no Air Muscle",
      "eng": "Superhuman Hijiri's air muscle"
    },
    "titles_default_language": "qro",
    "titles_aliases": [],
    "title": "Choujin Hijiri no Air Muscle",
    "year": "2011",
    "repository": "kara.moe"
  }
}