{
  "header": {
    "version": 4,
    "description": "Karaoke Mugen Karaoke Data File"
  },
  "medias": [
    {
      "version": "Default",
      "filename": "JPN - Shugo Chara!! Doki - OP4 - School Days.mp4",
      "audiogain": -9.83,
      "loudnorm": "-9.22,0.16,3.00,-19.35,-0.48",
      "filesize": 17010586,
      "duration": 89,
      "default": true,
      "lyrics": [
        {
          "filename": "JPN - Shugo Chara!! Doki - OP4 - School Days.ass",
          "default": true,
          "version": "Default"
        }
      ]
    }
  ],
  "data": {
    "created_at": "2017-10-11T17:01:17.000Z",
    "ignoreHooks": false,
    "kid": "41713f61-2da8-48b1-917c-769d2deb6436",
    "modified_at": "2022-09-25T08:54:09.632Z",
    "repository": "kara.moe",
    "songorder": 4,
    "tags": {
      "authors": [
        "5bdaba57-27f8-4568-8806-76a807728766"
      ],
      "collections": [
        "c7db86a0-ff64-4044-9be4-66dd1ef1d1c1"
      ],
      "creators": [
        "0041fabf-4b82-4ecd-961b-e4c49b8c88be"
      ],
      "families": [
        "0377db02-3af6-43b8-9b08-c759df3d25c3"
      ],
      "genres": [
        "b84e28f9-db1e-447f-b339-7954c3592523"
      ],
      "groups": [
        "3c14c864-533c-49e6-a3cc-6969f1233775"
      ],
      "langs": [
        "4dcf9614-7914-42aa-99f4-dbce2e059133"
      ],
      "origins": [
        "938de218-5343-4865-94d3-fb33f2eaa152"
      ],
      "series": [
        "80e213a2-fbd2-4718-9eb6-30397a05595c"
      ],
      "singers": [
        "4bddc7f0-eecc-44cb-ad33-ee859dac99d8",
        "940de049-34db-4bde-936a-61b6e6e51ac2",
        "94a76b24-6914-4440-b0f5-a28e31970c34",
        "b70e94a7-b75b-466e-96d3-6a768e1942f9",
        "ff8f357d-11f4-47eb-b8a9-3c142e51a451"
      ],
      "songtypes": [
        "f02ad9b3-0bd9-4aad-85b3-9976739ba0e4"
      ],
      "songwriters": [
        "7fef22a0-6ecd-4d53-b33c-8751c3e819f2",
        "dc26c201-943f-46f0-8195-19d80b3761dc"
      ],
      "franchises": [
        "f494e2ac-e2ec-4867-85d7-e7f16c2dcf5f"
      ]
    },
    "titles": {
      "eng": "School Days"
    },
    "titles_default_language": "eng",
    "title": "School Days",
    "year": 2008
  }
}