{
  "header": {
    "version": 4,
    "description": "Karaoke Mugen Karaoke Data File"
  },
  "medias": [
    {
      "version": "Default",
      "filename": "JPN - Code Geass Hangyaku no Lelouch - MV - COLORS ~ Full Off Vocal Vers.mp4",
      "audiogain": -7.65,
      "loudnorm": "-9.05,0.86,4.90,-19.14,-0.92",
      "filesize": 14160647,
      "duration": 222,
      "default": true,
      "lyrics": [
        {
          "filename": "JPN - Code Geass Hangyaku no Lelouch - MV - COLORS ~ Full Off Vocal Vers.ass",
          "default": true,
          "version": "Default"
        }
      ]
    }
  ],
  "data": {
    "created_at": "2023-07-10T16:04:22.364Z",
    "ignoreHooks": false,
    "kid": "c2409ac9-509d-4c2c-a54a-17036e2b6ca3",
    "modified_at": "2023-07-10T16:04:22.444Z",
    "parents": [
      "5785f80a-8f03-43a1-907e-e076b8b69a17"
    ],
    "repository": "kara.moe",
    "tags": {
      "authors": [
        "61865310-cb97-496c-a722-364b0a9ba90d"
      ],
      "collections": [
        "dbcf2c22-524d-4708-99bb-601703633927"
      ],
      "creators": [
        "6df34030-d5ec-4480-a1c2-20103a7c0b63"
      ],
      "families": [
        "5391f9fe-638c-415f-8dc9-958e3a2c5787"
      ],
      "groups": [
        "3c14c864-533c-49e6-a3cc-6969f1233775",
        "8c22c899-b3ed-42da-a548-ce00f950798b"
      ],
      "langs": [
        "4dcf9614-7914-42aa-99f4-dbce2e059133"
      ],
      "series": [
        "1cb3b851-435a-4078-8619-8711f963a92f"
      ],
      "singergroups": [
        "fa3c1f40-c7ef-4ba2-9630-f540bcf94b43"
      ],
      "songtypes": [
        "7be1b15c-cff8-4b37-a649-5c90f3d569a9"
      ],
      "songwriters": [
        "059c908e-e210-4405-a509-04ae79271c6e",
        "6a88984a-ec66-4027-b53c-66fb74ea3ab9",
        "ad341f74-d55c-43fb-829a-c41927619998"
      ],
      "versions": [
        "c2143a7f-6970-450e-8a79-0302db9220a9",
        "c0cc87b9-55b9-40f0-878a-fbb9e34c151e"
      ],
      "franchises": [
        "1cb3b851-435a-4078-8619-8711f963a92f"
      ]
    },
    "titles": {
      "eng": "COLORS"
    },
    "titles_default_language": "eng",
    "year": 2006
  }
}