{
  "header": {
    "version": 4,
    "description": "Karaoke Mugen Karaoke Data File"
  },
  "medias": [
    {
      "version": "Default",
      "filename": "JPN - Touhou - AMV - Unbind ~ Short Vers.mp4",
      "audiogain": -11.68,
      "loudnorm": "-6.20,1.81,6.50,-16.41,-1.26",
      "filesize": 22039046,
      "duration": 89,
      "default": true,
      "lyrics": [
        {
          "filename": "JPN - Touhou - AMV - Unbind ~ Short Vers.ass",
          "default": true,
          "version": "Default"
        }
      ]
    }
  ],
  "data": {
    "created_at": "2023-06-29T22:32:41.576Z",
    "ignoreHooks": false,
    "kid": "aeaabea7-e65e-48b1-a033-c385d95a37ef",
    "modified_at": "2023-06-29T22:35:39.024Z",
    "repository": "kara.moe",
    "tags": {
      "authors": [
        "0d6a6894-c57e-47aa-90b1-8a673e277813"
      ],
      "collections": [
        "c7db86a0-ff64-4044-9be4-66dd1ef1d1c1"
      ],
      "creators": [
        "a4b42473-3b8c-4987-9e34-01d434e67302"
      ],
      "groups": [
        "ae613721-1fbe-480d-ba6b-d6d0702b184d",
        "df5f446f-d161-4760-8e0c-822e70ea03ae"
      ],
      "langs": [
        "4dcf9614-7914-42aa-99f4-dbce2e059133"
      ],
      "series": [
        "1bdaa5a1-dfa6-4365-b746-7a0b194dafd6"
      ],
      "singers": [
        "0af0613a-8a7b-4c6b-a4bb-783c44417279"
      ],
      "singergroups": [
        "a4b42473-3b8c-4987-9e34-01d434e67302"
      ],
      "songtypes": [
        "a6c79ce5-89ee-4d50-afe8-3abd7317f6c2"
      ],
      "songwriters": [
        "d2356b50-9605-4d03-9850-16371bd0610e",
        "f178e87f-1a97-4328-96eb-b11f5fc9cff0"
      ],
      "versions": [
        "d125c80a-86c1-4321-88e9-07b7800679b6"
      ],
      "franchises": [
        "1bdaa5a1-dfa6-4365-b746-7a0b194dafd6"
      ]
    },
    "titles": {
      "eng": "Unbind"
    },
    "titles_default_language": "eng",
    "year": 2015
  }
}