{
  "header": {
    "version": 4,
    "description": "Karaoke Mugen Karaoke Data File"
  },
  "medias": [
    {
      "version": "Default",
      "filename": "JPN - World Dai Star - IN - Etoile.mp4",
      "audiogain": -7.15,
      "loudnorm": "-11.20,0.92,7.70,-21.32,-2.06",
      "filesize": 66146836,
      "duration": 89,
      "default": true,
      "lyrics": [
        {
          "filename": "JPN - World Dai Star - IN - Etoile.ass",
          "default": true,
          "version": "Default"
        }
      ]
    }
  ],
  "data": {
    "created_at": "2023-07-05T21:24:59.787Z",
    "ignoreHooks": false,
    "kid": "557e2d82-8bb2-4435-9dcf-4fdc1fc4a4d2",
    "modified_at": "2023-07-05T21:24:59.892Z",
    "repository": "kara.moe",
    "tags": {
      "authors": [
        "7848b5dc-a5df-4577-b640-147be5288cec"
      ],
      "collections": [
        "c7db86a0-ff64-4044-9be4-66dd1ef1d1c1"
      ],
      "creators": [
        "20a71a02-6670-4e6a-a5be-ad8d71df94f7"
      ],
      "families": [
        "0377db02-3af6-43b8-9b08-c759df3d25c3"
      ],
      "genres": [
        "caa86df2-0d59-474b-885c-f240a9e891b0"
      ],
      "groups": [
        "8e209ae4-4381-438f-89dc-1b21752027d2"
      ],
      "langs": [
        "4dcf9614-7914-42aa-99f4-dbce2e059133"
      ],
      "origins": [
        "938de218-5343-4865-94d3-fb33f2eaa152"
      ],
      "series": [
        "2c110cf5-c605-4d05-9893-6a6d06dbe311"
      ],
      "singers": [
        "b563ef47-6af0-46cd-a6b8-0bc7d7951b05"
      ],
      "songtypes": [
        "5e5250d9-351a-4a82-98eb-55db50ad8962"
      ],
      "songwriters": [
        "45a59005-19a1-4a99-94d3-e445fbe1ce8e",
        "7e72484d-b638-4d9a-95f2-5947c59d721b"
      ],
      "franchises": [
        "04483789-101b-4d59-94e2-09be1fb8b9d3"
      ]
    },
    "titles": {
      "fre": "Etoile"
    },
    "titles_default_language": "fre",
    "titles_aliases": [
      "Étoile"
    ],
    "year": 2023
  }
}