{
  "header": {
    "version": 4,
    "description": "Karaoke Mugen Karaoke Data File"
  },
  "medias": [
    {
      "version": "Default",
      "filename": "JPN - Hagane no Renkinjutsushi - MV - I will ~ Full Vers.mp4",
      "audiogain": -4.98,
      "loudnorm": "-12.42,-1.68,5.50,-22.60,-0.72",
      "filesize": 12536039,
      "duration": 255,
      "default": true,
      "lyrics": [
        {
          "filename": "JPN - Hagane no Renkinjutsushi - MV - I will ~ Full Vers.ass",
          "default": true,
          "version": "Default"
        }
      ]
    }
  ],
  "data": {
    "created_at": "2020-03-26T21:40:28.907Z",
    "kid": "424544a8-3813-4884-b29b-f83093f88d3c",
    "modified_at": "2022-06-04T00:22:44.657Z",
    "repository": "kara.moe",
    "songorder": null,
    "tags": {
      "authors": [
        "1db1738f-acdc-42fc-aec3-60f4bddf660d"
      ],
      "creators": [
        "566082ee-060d-4470-ac6f-4a537a50a613"
      ],
      "families": [
        "5391f9fe-638c-415f-8dc9-958e3a2c5787"
      ],
      "groups": [
        "3c14c864-533c-49e6-a3cc-6969f1233775"
      ],
      "langs": [
        "4dcf9614-7914-42aa-99f4-dbce2e059133"
      ],
      "series": [
        "3df1aaa7-e69a-4a6f-86cb-75544f0dd48a"
      ],
      "singers": [
        "3f6e80f6-0630-4bd5-838c-d65d669b8759"
      ],
      "songtypes": [
        "7be1b15c-cff8-4b37-a649-5c90f3d569a9"
      ],
      "songwriters": [
        "ad9de3e0-673e-459b-ac88-178ae5e04341",
        "f1a49c25-3212-41c1-9ee7-e0845aa8e670"
      ],
      "versions": [
        "c2143a7f-6970-450e-8a79-0302db9220a9"
      ],
      "collections": [
        "dbcf2c22-524d-4708-99bb-601703633927"
      ],
      "franchises": [
        "3df1aaa7-e69a-4a6f-86cb-75544f0dd48a"
      ]
    },
    "titles": {
      "eng": "I Will"
    },
    "titles_default_language": "eng",
    "title": "I will",
    "year": 2003
  }
}