{
  "header": {
    "version": 4,
    "description": "Karaoke Mugen Karaoke Data File"
  },
  "medias": [
    {
      "version": "Default",
      "filename": "JPN - NANA - OP1 - rose.mp4",
      "audiogain": -0.07,
      "loudnorm": "-18.08,-8.29,5.70,-28.14,-0.94",
      "filesize": 53707332,
      "duration": 88,
      "default": true,
      "lyrics": [
        {
          "filename": "JPN - NANA - OP1 - rose.ass",
          "default": true,
          "version": "Default"
        }
      ]
    }
  ],
  "data": {
    "comment": "Audio nettement mieux. Codec vidéo peut-être étrange? En tout cas, mes oreilles apprécient davantage. Aussi ajout du tag creditless.",
    "created_at": "2017-10-11T17:02:11.000Z",
    "ignoreHooks": false,
    "kid": "9efcba7b-3a91-47d4-aff9-68ba2c8a28a7",
    "modified_at": "2022-11-08T21:15:55.703Z",
    "repository": "kara.moe",
    "songorder": 1,
    "tags": {
      "authors": [
        "5bdaba57-27f8-4568-8806-76a807728766"
      ],
      "collections": [
        "c7db86a0-ff64-4044-9be4-66dd1ef1d1c1"
      ],
      "creators": [
        "9c5cf6ba-0bc8-4cfe-a63c-e9be3a14e9fd"
      ],
      "families": [
        "0377db02-3af6-43b8-9b08-c759df3d25c3"
      ],
      "groups": [
        "3c14c864-533c-49e6-a3cc-6969f1233775"
      ],
      "langs": [
        "4dcf9614-7914-42aa-99f4-dbce2e059133"
      ],
      "misc": [
        "fe819ff1-9db8-4a0f-85dc-0e322c9126c4"
      ],
      "origins": [
        "938de218-5343-4865-94d3-fb33f2eaa152"
      ],
      "series": [
        "6393edba-8ecb-44e6-8a1d-e80b6e007a12"
      ],
      "singers": [
        "79fe6a77-a6a7-4aba-aa82-600b1baed8e4"
      ],
      "songtypes": [
        "f02ad9b3-0bd9-4aad-85b3-9976739ba0e4"
      ],
      "songwriters": [
        "79fe6a77-a6a7-4aba-aa82-600b1baed8e4",
        "9b700920-91ff-4f43-9ebc-5d584792a1d4"
      ]
    },
    "titles": {
      "eng": "rose"
    },
    "titles_default_language": "eng",
    "year": 2006
  }
}