{
  "header": {
    "version": 4,
    "description": "Karaoke Mugen Karaoke Data File"
  },
  "medias": [
    {
      "version": "Default",
      "filename": "JPN - Naruto Shippuuden - MV - Cascade ~ Full Vers.mp4",
      "audiogain": 2.65,
      "loudnorm": "-20.31,-8.25,6.10,-30.42,-0.86",
      "filesize": 110930955,
      "duration": 233,
      "default": true,
      "lyrics": [
        {
          "filename": "JPN - Naruto Shippuuden - MV - Cascade ~ Full Vers.ass",
          "default": true,
          "version": "Default"
        }
      ]
    }
  ],
  "data": {
    "created_at": "2020-08-18T14:46:00.237Z",
    "kid": "56ba163e-0be9-47d4-8a41-0cdd4b024977",
    "modified_at": "2022-06-04T00:14:56.059Z",
    "parents": [
      "88d24704-26ea-4b6c-ae86-c24a954f6465"
    ],
    "repository": "kara.moe",
    "songorder": null,
    "tags": {
      "authors": [
        "4d71ce82-eed1-4c44-ac85-5f7255f3dad3"
      ],
      "creators": [
        "6fa9de67-21cf-420b-9ddb-57edb5abe523"
      ],
      "families": [
        "5391f9fe-638c-415f-8dc9-958e3a2c5787"
      ],
      "groups": [
        "ae613721-1fbe-480d-ba6b-d6d0702b184d"
      ],
      "langs": [
        "4dcf9614-7914-42aa-99f4-dbce2e059133"
      ],
      "series": [
        "afd38f79-188d-47e4-95c6-f74c38895574"
      ],
      "singers": [
        "18298e48-28a3-4e3e-bb89-f6aafa77a70c"
      ],
      "songtypes": [
        "7be1b15c-cff8-4b37-a649-5c90f3d569a9"
      ],
      "songwriters": [
        "3ad4dc06-0d1d-4873-a844-74b7684a4faa",
        "bb6f2237-2324-4145-828c-071c67fe5390"
      ],
      "versions": [
        "c2143a7f-6970-450e-8a79-0302db9220a9"
      ],
      "collections": [
        "dbcf2c22-524d-4708-99bb-601703633927"
      ],
      "franchises": [
        "3201e723-3e75-46f9-bb21-d991f4f7731e"
      ]
    },
    "titles": {
      "eng": "Cascade",
      "jpn": "カスケード"
    },
    "titles_default_language": "eng",
    "title": "Cascade",
    "year": 2012
  }
}