{
  "header": {
    "version": 4,
    "description": "Karaoke Mugen Karaoke Data File"
  },
  "medias": [
    {
      "version": "Ep. 13.",
      "filename": "JPN - Ore no Imouto ga Konna ni Kawaii Wake ga Nai 2 - OP1 - reunion ~ Ep. 13 Vers.mp4",
      "audiogain": 3.78,
      "loudnorm": "-21.24,-8.91,4.00,-31.28,-1.06",
      "filesize": 20511401,
      "duration": 89,
      "default": true,
      "lyrics": [
        {
          "filename": "JPN - Ore no Imouto ga Konna ni Kawaii Wake ga Nai 2 - OP1 - reunion ~ Ep. 13 Vers.ass",
          "default": true,
          "version": "Default",
          "subchecksum": "83eca183668777c2bd3fcfe68118542a"
        }
      ]
    }
  ],
  "data": {
    "created_at": "2017-10-11T17:01:15.000Z",
    "kid": "f78fc98f-f586-4c00-9acb-239bac68455f",
    "modified_at": "2021-02-25T12:42:27.471Z",
    "repository": "kara.moe",
    "songorder": 1,
    "tags": {
      "authors": [
        "8c22c899-b3ed-42da-a548-ce00f950798b"
      ],
      "collections": [
        "c7db86a0-ff64-4044-9be4-66dd1ef1d1c1"
      ],
      "creators": [
        "b96e3686-bbe0-4b9e-815a-a278d5ff31be"
      ],
      "families": [
        "0377db02-3af6-43b8-9b08-c759df3d25c3"
      ],
      "groups": [
        "8c22c899-b3ed-42da-a548-ce00f950798b",
        "ae613721-1fbe-480d-ba6b-d6d0702b184d"
      ],
      "langs": [
        "4dcf9614-7914-42aa-99f4-dbce2e059133"
      ],
      "origins": [
        "938de218-5343-4865-94d3-fb33f2eaa152"
      ],
      "series": [
        "b984c6d9-fa96-40d4-9ef1-9d8d23740ac0"
      ],
      "singers": [
        "ff590105-5f65-4b1f-adf9-2cfb5b789428"
      ],
      "songtypes": [
        "f02ad9b3-0bd9-4aad-85b3-9976739ba0e4"
      ],
      "songwriters": [
        "0098edaf-b60b-4b75-bc82-ccf824f506ce"
      ],
      "versions": [
        "9f63c359-d1bf-425a-bcf5-b245c2c9211d"
      ],
      "franchises": [
        "abae2fb3-81e2-4938-95ef-c8e4d4098f17"
      ]
    },
    "title": "reunion ~ Ep. 13 Vers.",
    "titles": {
      "eng": "reunion ~ Ep. 13 Vers."
    },
    "year": 2013,
    "titles_default_language": "eng"
  }
}