{
  "header": {
    "version": 4,
    "description": "Karaoke Mugen Karaoke Data File"
  },
  "medias": [
    {
      "version": "Default",
      "filename": "JPN - Paripi Koumei - AUDIO ED - Kibun Joujou UpUp ~ Full Off Vocal Vers.mp3",
      "audiogain": -8.46,
      "loudnorm": "-9.22,-0.52,4.80,-19.29,-0.62",
      "filesize": 8269417,
      "duration": 232,
      "default": true,
      "lyrics": [
        {
          "filename": "JPN - Paripi Koumei - AUDIO ED - Kibun Joujou UpUp ~ Full Off Vocal Vers.ass",
          "default": true,
          "version": "Default"
        }
      ]
    }
  ],
  "data": {
    "created_at": "2022-09-11T12:43:00.314Z",
    "ignoreHooks": false,
    "kid": "4cd0f22a-c7da-40ee-97c6-11f9907d0b84",
    "modified_at": "2022-09-11T14:21:50.822Z",
    "parents": [
      "5429453f-5e16-48de-aaa8-798cc64b31dc"
    ],
    "repository": "kara.moe",
    "tags": {
      "authors": [
        "9cdf3b70-3550-457c-bdb9-038f3253c6ad"
      ],
      "collections": [
        "c7db86a0-ff64-4044-9be4-66dd1ef1d1c1"
      ],
      "creators": [
        "54259fe3-ce0c-4eca-855e-383f2c5be3a9"
      ],
      "groups": [
        "2b4e9972-5e17-481b-99f5-d0787c0ada56",
        "8e209ae4-4381-438f-89dc-1b21752027d2"
      ],
      "langs": [
        "4dcf9614-7914-42aa-99f4-dbce2e059133"
      ],
      "origins": [
        "938de218-5343-4865-94d3-fb33f2eaa152"
      ],
      "series": [
        "cee09d3c-75e6-4501-9fda-cb4a6b4755c7"
      ],
      "singers": [
        "32c304d7-49ff-482f-a586-7223aba33639",
        "ddd17e71-911e-4df4-b414-5dce382a6af0"
      ],
      "songtypes": [
        "38c77c56-2b95-4040-b676-0994a8cb0597",
        "42a262ae-acba-4ab5-a446-c5789c96c821"
      ],
      "songwriters": [
        "18b06c3d-62b8-421b-8e51-f3a07a16487b",
        "7c57935d-4ec3-45fe-a636-1c6de1a9e036",
        "d333281f-ec6a-4c0e-ae26-fd5c97fa10ff",
        "de1e3398-5529-4f8b-b9f8-8b88bb5d59b3",
        "f461dca9-d025-49eb-b211-435ca67dc681"
      ],
      "versions": [
        "c0cc87b9-55b9-40f0-878a-fbb9e34c151e",
        "c2143a7f-6970-450e-8a79-0302db9220a9"
      ]
    },
    "titles": {
      "jpn": "気分上々↑↑",
      "qro": "Kibun Jôjô ￪￪"
    },
    "titles_default_language": "qro",
    "titles_aliases": [
      "Joujou",
      "Joujô"
    ],
    "title": "Kibun Jôjô ￪￪",
    "year": 2022
  }
}