{
  "header": {
    "version": 4,
    "description": "Karaoke Mugen Karaoke Data File"
  },
  "medias": [
    {
      "version": "Default",
      "filename": "JPN - Urusei Yatsura (2022) - OP2 - Ai wana muchuu.mp4",
      "audiogain": -4.12,
      "loudnorm": "-13.31,-4.18,4.50,-23.46,-0.99",
      "filesize": 33099819,
      "duration": 90,
      "default": true,
      "lyrics": [
        {
          "filename": "JPN - Urusei Yatsura (2022) - OP2 - Ai wana muchuu.ass",
          "default": true,
          "version": "Default"
        }
      ]
    }
  ],
  "data": {
    "created_at": "2023-01-06T12:56:07.288Z",
    "ignoreHooks": false,
    "kid": "79ad5e5d-b2a9-424f-8dac-a9a6ae59aba6",
    "modified_at": "2023-05-09T14:50:53.476Z",
    "repository": "kara.moe",
    "songorder": 2,
    "tags": {
      "authors": [
        "06852e02-b77e-4106-b6f7-2d03942ad0ea"
      ],
      "collections": [
        "c7db86a0-ff64-4044-9be4-66dd1ef1d1c1"
      ],
      "creators": [
        "31087ed3-5edd-4d32-8379-ab70bf5db185"
      ],
      "families": [
        "0377db02-3af6-43b8-9b08-c759df3d25c3"
      ],
      "genres": [
        "a0aeef4a-6428-45ff-a6e1-468b595930c2"
      ],
      "groups": [
        "8e209ae4-4381-438f-89dc-1b21752027d2"
      ],
      "langs": [
        "4dcf9614-7914-42aa-99f4-dbce2e059133"
      ],
      "misc": [
        "fe819ff1-9db8-4a0f-85dc-0e322c9126c4"
      ],
      "origins": [
        "938de218-5343-4865-94d3-fb33f2eaa152"
      ],
      "series": [
        "08379702-f5a0-40ae-8bf9-cc680d30b10b"
      ],
      "singers": [
        "2faef0d8-c3ec-4f81-b130-1985b2010d00",
        "73871a7b-3a4e-45bc-9e70-ff0a7c784c16"
      ],
      "singergroups": [
        "d6dec49a-04e3-4fa6-86e8-d4bb8f911f52"
      ],
      "songtypes": [
        "f02ad9b3-0bd9-4aad-85b3-9976739ba0e4"
      ],
      "songwriters": [
        "73871a7b-3a4e-45bc-9e70-ff0a7c784c16"
      ],
      "franchises": [
        "586300dc-7488-4530-8d86-e7db5e474dec"
      ]
    },
    "titles": {
      "jpn": "アイワナムチュー",
      "qro": "Ai wana muchuu"
    },
    "titles_default_language": "qro",
    "titles_aliases": [
      "I wanna muchu",
      "I wanna mooch you"
    ],
    "year": 2023
  }
}