{
  "header": {
    "version": 4,
    "description": "Karaoke Mugen Karaoke Data File"
  },
  "medias": [
    {
      "version": "Default",
      "filename": "JPN - Junketsu no Maria - ED1 - Ailes.mp4",
      "audiogain": 2.87,
      "loudnorm": "-20.90,-7.91,8.20,-31.12,-1.64",
      "filesize": 19177282,
      "duration": 92,
      "default": true,
      "lyrics": [
        {
          "filename": "JPN - Junketsu no Maria - ED1 - Ailes.ass",
          "default": true,
          "version": "Default",
          "subchecksum": "58d471bd2d2eb393d170c8011f287400"
        }
      ]
    }
  ],
  "data": {
    "created_at": "2017-10-11T17:03:14.000Z",
    "kid": "8437429d-6ace-4bdd-b355-ea045e182ac9",
    "modified_at": "2021-02-25T11:50:11.043Z",
    "repository": "kara.moe",
    "songorder": 1,
    "tags": {
      "authors": [
        "5bdaba57-27f8-4568-8806-76a807728766"
      ],
      "collections": [
        "c7db86a0-ff64-4044-9be4-66dd1ef1d1c1"
      ],
      "creators": [
        "20d023d6-5195-4e4f-bae3-8b28ad6334e2"
      ],
      "families": [
        "0377db02-3af6-43b8-9b08-c759df3d25c3"
      ],
      "groups": [
        "ae613721-1fbe-480d-ba6b-d6d0702b184d"
      ],
      "langs": [
        "4dcf9614-7914-42aa-99f4-dbce2e059133"
      ],
      "origins": [
        "938de218-5343-4865-94d3-fb33f2eaa152"
      ],
      "series": [
        "08247b3b-9f37-425c-870a-28964d25a41e"
      ],
      "singers": [
        "61c5e3d4-6a0e-46b6-b622-06f5bc6d3294"
      ],
      "songtypes": [
        "38c77c56-2b95-4040-b676-0994a8cb0597"
      ],
      "songwriters": [
        "03537d59-35c7-493e-a807-54263253a072",
        "7e72484d-b638-4d9a-95f2-5947c59d721b"
      ]
    },
    "title": "Ailes",
    "titles": {
      "fre": "ailes"
    },
    "year": 2015,
    "titles_default_language": "fre"
  }
}