{
  "header": {
    "version": 4,
    "description": "Karaoke Mugen Karaoke Data File"
  },
  "medias": [
    {
      "version": "Default",
      "filename": "JPN - the pillows - MV - Scarecrow.mp4",
      "audiogain": -9.19,
      "loudnorm": "-7.65,0.25,4.60,-17.71,-1.47",
      "filesize": 14325077,
      "duration": 286,
      "default": true,
      "lyrics": [
        {
          "filename": "JPN - the pillows - MV - Scarecrow.ass",
          "default": true,
          "version": "Default"
        }
      ]
    }
  ],
  "data": {
    "created_at": "2019-09-27T18:46:48.000Z",
    "kid": "82ce87b5-a8c1-4d0b-b4dd-8ce3cfa3c1cb",
    "modified_at": "2022-06-04T00:21:26.753Z",
    "repository": "kara.moe",
    "songorder": null,
    "tags": {
      "authors": [
        "4b834f78-16da-4e4d-926f-b93968affb69"
      ],
      "creators": [
        "90caf15e-bc86-46e1-8793-9af7906c8310"
      ],
      "families": [
        "5391f9fe-638c-415f-8dc9-958e3a2c5787"
      ],
      "groups": [
        "2b4e9972-5e17-481b-99f5-d0787c0ada56",
        "3c14c864-533c-49e6-a3cc-6969f1233775"
      ],
      "langs": [
        "4dcf9614-7914-42aa-99f4-dbce2e059133"
      ],
      "singers": [
        "278eeffa-7d51-48a4-85a7-b10843f26cdf"
      ],
      "songtypes": [
        "7be1b15c-cff8-4b37-a649-5c90f3d569a9"
      ],
      "songwriters": [
        "2e1412e6-9db8-40f5-a4dd-a8afc37f285d"
      ],
      "collections": [
        "dbcf2c22-524d-4708-99bb-601703633927"
      ]
    },
    "titles": {
      "eng": "Scarecrow",
      "jpn": "スケアクロウ"
    },
    "titles_default_language": "eng",
    "title": "Scarecrow",
    "year": 2007
  }
}