{
  "header": {
    "version": 4,
    "description": "Karaoke Mugen Karaoke Data File"
  },
  "medias": [
    {
      "version": "Default",
      "filename": "JPN - Re Zero kara Hajimeru Isekai Seikatsu - MV - STYX HELIX ~ Full Vers.mp4",
      "audiogain": -8.66,
      "loudnorm": "-7.63,1.56,5.80,-17.95,-0.83",
      "filesize": 80824953,
      "duration": 285,
      "default": true,
      "lyrics": [
        {
          "filename": "JPN - Re Zero kara Hajimeru Isekai Seikatsu - MV - STYX HELIX ~ Full Vers.ass",
          "default": true,
          "version": "Default"
        }
      ]
    }
  ],
  "data": {
    "created_at": "2021-05-24T16:29:32.505Z",
    "kid": "61449662-2b9b-4b47-a937-299fcced20f3",
    "modified_at": "2022-06-04T00:23:19.800Z",
    "parents": [
      "f2c8feef-e9bf-4dbb-911b-84b07ad5f676"
    ],
    "repository": "kara.moe",
    "songorder": null,
    "tags": {
      "authors": [
        "4d71ce82-eed1-4c44-ac85-5f7255f3dad3"
      ],
      "creators": [
        "b60930ce-3418-4af7-be9c-c07390f50565"
      ],
      "families": [
        "5391f9fe-638c-415f-8dc9-958e3a2c5787"
      ],
      "groups": [
        "ae613721-1fbe-480d-ba6b-d6d0702b184d"
      ],
      "langs": [
        "4dcf9614-7914-42aa-99f4-dbce2e059133"
      ],
      "series": [
        "6339add6-b9a3-46c4-9488-2660caa30487"
      ],
      "singers": [
        "80421b19-c148-48d8-af54-ac45aae600c6"
      ],
      "songtypes": [
        "7be1b15c-cff8-4b37-a649-5c90f3d569a9"
      ],
      "songwriters": [
        "80421b19-c148-48d8-af54-ac45aae600c6"
      ],
      "versions": [
        "c2143a7f-6970-450e-8a79-0302db9220a9"
      ],
      "collections": [
        "dbcf2c22-524d-4708-99bb-601703633927"
      ],
      "franchises": [
        "6339add6-b9a3-46c4-9488-2660caa30487"
      ]
    },
    "titles": {
      "eng": "STYX HELIX"
    },
    "titles_default_language": "eng",
    "title": "STYX HELIX",
    "year": 2016
  }
}