{
  "header": {
    "version": 4,
    "description": "Karaoke Mugen Karaoke Data File"
  },
  "medias": [
    {
      "version": "Default",
      "filename": "JPN - Mudazumo Naki Kaikaku The Legend of Koizumi - OVA AUDIO ED - Mudazumo Naki Kaikaku Shouri no Koizumi Jun'ichirou ~ Full Vers.mp3",
      "audiogain": -11.15,
      "loudnorm": "-6.41,1.52,2.10,-16.50,-0.53",
      "filesize": 9195419,
      "duration": 217,
      "default": true,
      "lyrics": [
        {
          "filename": "JPN - Mudazumo Naki Kaikaku The Legend of Koizumi - OVA AUDIO ED - Mudazumo Naki Kaikaku Shouri no Koizumi Jun'ichirou ~ Full Vers.ass",
          "default": true,
          "version": "Default"
        }
      ]
    }
  ],
  "data": {
    "created_at": "2020-07-17T09:55:54.294Z",
    "ignoreHooks": false,
    "kid": "4da9e01e-57a5-4d64-bcdf-4517d42cdcd5",
    "modified_at": "2022-10-01T20:36:27.311Z",
    "repository": "kara.moe",
    "tags": {
      "authors": [
        "60defa7b-774e-4680-8321-51b742c2e009"
      ],
      "collections": [
        "c7db86a0-ff64-4044-9be4-66dd1ef1d1c1"
      ],
      "groups": [
        "60defa7b-774e-4680-8321-51b742c2e009",
        "ae613721-1fbe-480d-ba6b-d6d0702b184d"
      ],
      "langs": [
        "4dcf9614-7914-42aa-99f4-dbce2e059133"
      ],
      "origins": [
        "2a6ef087-a000-4f8e-aeb5-9a7968756a36"
      ],
      "series": [
        "a9d5501b-a1fc-4a00-8083-8d2a0274bcad"
      ],
      "singers": [
        "996959ed-c6e0-4eb9-b2f3-411a9122dfd0"
      ],
      "songtypes": [
        "38c77c56-2b95-4040-b676-0994a8cb0597",
        "42a262ae-acba-4ab5-a446-c5789c96c821"
      ],
      "songwriters": [
        "94487238-4feb-42e3-929d-3158cf6e0ef4",
        "ab074050-3c96-4b63-9327-1f4c952388ee"
      ],
      "versions": [
        "c2143a7f-6970-450e-8a79-0302db9220a9"
      ]
    },
    "titles": {
      "jpn": "ムダヅモ無き改革 〜勝利の闘牌ジュンイチロー〜",
      "qro": "Mudazumo Naki Kaikaku: Shôri no Koizumi Jun'ichirô"
    },
    "titles_default_language": "qro",
    "titles_aliases": [
      "Jun'ichirou",
      "Junichirou",
      "Shouri"
    ],
    "title": "Mudazumo Naki Kaikaku: Shôri no Koizumi Jun'ichirô",
    "year": 2010
  }
}