{
  "header": {
    "version": 4,
    "description": "Karaoke Mugen Karaoke Data File"
  },
  "medias": [
    {
      "version": "Default",
      "filename": "JPN - Seikai Suru Kado - ED - Eien no Kotae.mp4",
      "audiogain": 6.41,
      "loudnorm": "-23.42,-12.98,5.50,-33.50,-1.64",
      "filesize": 27228514,
      "duration": 89,
      "default": true,
      "lyrics": [
        {
          "filename": "JPN - Seikai Suru Kado - ED - Eien no Kotae.ass",
          "default": true,
          "version": "Default",
          "subchecksum": "de0a68c7a900b860ace42d55b5c83c51"
        }
      ]
    }
  ],
  "data": {
    "created_at": "2018-04-21T21:43:30.000Z",
    "kid": "e0979587-4001-4a7a-aace-1b37569f19bd",
    "modified_at": "2021-02-25T12:58:38.712Z",
    "repository": "kara.moe",
    "tags": {
      "authors": [
        "b5116310-e69b-4ed4-9e47-c5c53ee69023"
      ],
      "collections": [
        "c7db86a0-ff64-4044-9be4-66dd1ef1d1c1"
      ],
      "creators": [
        "f694bf43-b427-4244-9744-9d3f84fd8a31"
      ],
      "families": [
        "0377db02-3af6-43b8-9b08-c759df3d25c3"
      ],
      "groups": [
        "ae613721-1fbe-480d-ba6b-d6d0702b184d"
      ],
      "langs": [
        "4dcf9614-7914-42aa-99f4-dbce2e059133"
      ],
      "origins": [
        "938de218-5343-4865-94d3-fb33f2eaa152"
      ],
      "series": [
        "45915df9-fbce-46fe-850f-fd92c4815016"
      ],
      "singers": [
        "bfc4ee2f-d124-4c1f-a9fa-b5dde945c013"
      ],
      "songtypes": [
        "38c77c56-2b95-4040-b676-0994a8cb0597"
      ],
      "songwriters": [
        "25792642-7da1-4014-aa17-c0365b2d49fd",
        "766f32cd-092f-4e03-bae1-c204cca0d267"
      ]
    },
    "title": "Eien no Kotae",
    "titles": {
      "qro": "Eien no Kotae",
      "jpn": "永遠のこたえ"
    },
    "year": 2017,
    "titles_default_language": "qro"
  }
}