{
  "header": {
    "version": 4,
    "description": "Karaoke Mugen Karaoke Data File"
  },
  "medias": [
    {
      "version": "Default",
      "filename": "JPN - Miku Hatsune - MV - Garando.mp4",
      "audiogain": -11.17,
      "loudnorm": "-6.41,1.51,3.00,-16.55,-0.52",
      "filesize": 6881798,
      "duration": 171,
      "default": true,
      "lyrics": [
        {
          "filename": "JPN - Miku Hatsune - MV - Garando.ass",
          "default": true,
          "version": "Default"
        }
      ]
    }
  ],
  "data": {
    "created_at": "2020-04-13T20:18:47.657Z",
    "kid": "7f0d3ed6-afff-4ecc-8835-1052d02a5f91",
    "modified_at": "2021-12-28T20:46:04.893Z",
    "repository": "kara.moe",
    "tags": {
      "authors": [
        "87096920-112f-485f-a310-04156cb4624d"
      ],
      "collections": [
        "c7db86a0-ff64-4044-9be4-66dd1ef1d1c1"
      ],
      "creators": [
        "f868c86f-8964-491c-a481-0143e8d3093e"
      ],
      "families": [
        "0377db02-3af6-43b8-9b08-c759df3d25c3"
      ],
      "genres": [
        "45623cae-6d68-4304-a49b-896d1d6f4580"
      ],
      "groups": [
        "60defa7b-774e-4680-8321-51b742c2e009",
        "ae613721-1fbe-480d-ba6b-d6d0702b184d"
      ],
      "langs": [
        "4dcf9614-7914-42aa-99f4-dbce2e059133"
      ],
      "singers": [
        "4407ba0e-5de7-4add-870f-7ac95a4804c9"
      ],
      "songtypes": [
        "7be1b15c-cff8-4b37-a649-5c90f3d569a9"
      ],
      "songwriters": [
        "f868c86f-8964-491c-a481-0143e8d3093e"
      ]
    },
    "titles": {
      "eng": "Airhead",
      "qro": "Garando",
      "jpn": "ガランド\""
    },
    "title": "Garando",
    "year": 2018,
    "titles_default_language": "eng"
  }
}