{
  "header": {
    "version": 4,
    "description": "Karaoke Mugen Karaoke Data File"
  },
  "medias": [
    {
      "version": "Default",
      "filename": "JPN - SMAP - AMV - Sekai ni Hitotsu Dake no Hana.mp4",
      "audiogain": -0.07,
      "loudnorm": "-17.06,-7.27,3.60,-27.10,-0.47",
      "filesize": 85430163,
      "duration": 280,
      "default": true,
      "lyrics": [
        {
          "filename": "JPN - SMAP - AMV - Sekai ni Hitotsu Dake no Hana.ass",
          "default": true,
          "version": "Default"
        }
      ]
    }
  ],
  "data": {
    "created_at": "2022-11-26T17:23:01.099Z",
    "ignoreHooks": false,
    "kid": "354a7678-3728-41dc-a509-57fab81d81c9",
    "modified_at": "2022-11-26T17:31:11.347Z",
    "repository": "kara.moe",
    "tags": {
      "authors": [
        "61865310-cb97-496c-a722-364b0a9ba90d"
      ],
      "collections": [
        "dbcf2c22-524d-4708-99bb-601703633927"
      ],
      "creators": [
        "e8da43a3-7058-4162-9d31-2f331dee993e"
      ],
      "families": [
        "5391f9fe-638c-415f-8dc9-958e3a2c5787"
      ],
      "groups": [
        "3c14c864-533c-49e6-a3cc-6969f1233775",
        "8c22c899-b3ed-42da-a548-ce00f950798b"
      ],
      "langs": [
        "4dcf9614-7914-42aa-99f4-dbce2e059133"
      ],
      "singers": [
        "ab915358-7324-4d1e-9c96-7cd707e10991"
      ],
      "songtypes": [
        "a6c79ce5-89ee-4d50-afe8-3abd7317f6c2"
      ],
      "songwriters": [
        "4878fd36-73f9-4d94-9a65-2ba10209491f"
      ]
    },
    "titles": {
      "jpn": "世界に一つだけの花",
      "qro": "Sekai ni Hitotsu Dake no Hana"
    },
    "titles_default_language": "qro",
    "year": 2003
  }
}