{
  "header": {
    "version": 4,
    "description": "Karaoke Mugen Karaoke Data File"
  },
  "medias": [
    {
      "version": "Default",
      "filename": "JPN - Touhou - MV - Taiyou no Hana.mp4",
      "audiogain": -10.57,
      "loudnorm": "-5.92,1.42,2.70,-16.04,-2.06",
      "filesize": 111370582,
      "duration": 195,
      "default": true,
      "lyrics": [
        {
          "filename": "JPN - Touhou - MV - Taiyou no Hana.ass",
          "default": true,
          "version": "Default"
        }
      ]
    }
  ],
  "data": {
    "created_at": "2021-12-15T14:42:09.764Z",
    "kid": "c56fe039-3fa9-4cc2-bbfc-43a3ed4d85ec",
    "modified_at": "2022-09-30T20:15:31.240Z",
    "repository": "kara.moe",
    "tags": {
      "series": [
        "1bdaa5a1-dfa6-4365-b746-7a0b194dafd6"
      ],
      "singers": [
        "65860881-335a-4551-8df8-fa56ee102579"
      ],
      "songtypes": [
        "7be1b15c-cff8-4b37-a649-5c90f3d569a9"
      ],
      "creators": [
        "18885a1b-6e2e-420e-adb9-b322e5b9c72f",
        "25fc251a-0514-4bf5-a818-dd0547723f4a",
        "dfdca219-b7f2-4e7b-a18a-0229108ff1cd"
      ],
      "langs": [
        "4dcf9614-7914-42aa-99f4-dbce2e059133"
      ],
      "authors": [
        "db867b9b-f487-444d-9f24-142c4324a235"
      ],
      "songwriters": [
        "26cb5252-8510-49e0-897c-a611a05fc056",
        "b722bb12-a0f3-4f13-984f-10630694b18b",
        "feceb592-efac-4eda-9b03-c27cf509004c",
        "826126a7-31a4-4dbe-a072-112b731dc065"
      ],
      "groups": [
        "3c14c864-533c-49e6-a3cc-6969f1233775"
      ],
      "families": [
        "0377db02-3af6-43b8-9b08-c759df3d25c3"
      ],
      "origins": [
        "ac5085db-52d8-44b4-8fbb-1697b24d2046"
      ],
      "collections": [
        "c7db86a0-ff64-4044-9be4-66dd1ef1d1c1"
      ],
      "franchises": [
        "1bdaa5a1-dfa6-4365-b746-7a0b194dafd6"
      ]
    },
    "titles": {
      "qro": "Taiyô no Hana",
      "jpn": "タイヨウノハナ"
    },
    "titles_default_language": "eng",
    "titles_aliases": [
      "Taiyou"
    ],
    "title": "Taiyô no Hana",
    "year": 2008,
    "titles_default_language": "qro"
  }
}