{
  "header": {
    "version": 4,
    "description": "Karaoke Mugen Karaoke Data File"
  },
  "medias": [
    {
      "version": "Default",
      "filename": "JPN - Koukyoushihen Eureka Seven - MV - DAYS ~ Full Vers.mp4",
      "audiogain": -9.3,
      "loudnorm": "-7.73,0.23,3.20,-17.92,-0.54",
      "filesize": 18660939,
      "duration": 256,
      "default": true,
      "lyrics": [
        {
          "filename": "JPN - Koukyoushihen Eureka Seven - MV - DAYS ~ Full Vers.ass",
          "default": true,
          "version": "Default"
        }
      ]
    }
  ],
  "data": {
    "created_at": "2020-01-12T22:30:45.034Z",
    "ignoreHooks": false,
    "kid": "cffb0967-702c-4ea8-918e-38682cd8741f",
    "modified_at": "2023-03-04T01:33:18.534Z",
    "repository": "kara.moe",
    "tags": {
      "authors": [
        "06852e02-b77e-4106-b6f7-2d03942ad0ea",
        "1db1738f-acdc-42fc-aec3-60f4bddf660d"
      ],
      "collections": [
        "dbcf2c22-524d-4708-99bb-601703633927"
      ],
      "creators": [
        "6df34030-d5ec-4480-a1c2-20103a7c0b63"
      ],
      "families": [
        "5391f9fe-638c-415f-8dc9-958e3a2c5787"
      ],
      "groups": [
        "3c14c864-533c-49e6-a3cc-6969f1233775"
      ],
      "langs": [
        "4dcf9614-7914-42aa-99f4-dbce2e059133"
      ],
      "series": [
        "31008550-33c4-45b1-a3f4-990d388cceb0"
      ],
      "singergroups": [
        "fa3c1f40-c7ef-4ba2-9630-f540bcf94b43"
      ],
      "songtypes": [
        "7be1b15c-cff8-4b37-a649-5c90f3d569a9"
      ],
      "songwriters": [
        "059c908e-e210-4405-a509-04ae79271c6e",
        "6a88984a-ec66-4027-b53c-66fb74ea3ab9",
        "ad341f74-d55c-43fb-829a-c41927619998"
      ],
      "versions": [
        "c2143a7f-6970-450e-8a79-0302db9220a9"
      ],
      "franchises": [
        "ff285d6c-0ae5-4cc6-8226-fbf5effb2277"
      ]
    },
    "titles": {
      "eng": "DAYS"
    },
    "titles_default_language": "eng",
    "year": 2005
  }
}