{
  "header": {
    "version": 4,
    "description": "Karaoke Mugen Karaoke Data File"
  },
  "medias": [
    {
      "version": "Default",
      "filename": "JPN - Eve - MV - Airhead ~ Cover Vers.mp4",
      "audiogain": -12.98,
      "loudnorm": "-4.49,2.00,2.40,-14.57,-0.32",
      "filesize": 6212829,
      "duration": 171,
      "default": true,
      "lyrics": [
        {
          "filename": "JPN - Eve - MV - Airhead ~ Cover Vers.ass",
          "default": true,
          "version": "Default"
        }
      ]
    }
  ],
  "data": {
    "created_at": "2020-04-13T20:33:24.651Z",
    "ignoreHooks": false,
    "kid": "77c1768b-0ba2-4879-9653-b88cd9f6ed2f",
    "modified_at": "2022-11-23T23:30:52.585Z",
    "parents": [
      "7f0d3ed6-afff-4ecc-8835-1052d02a5f91"
    ],
    "repository": "kara.moe",
    "tags": {
      "authors": [
        "87096920-112f-485f-a310-04156cb4624d"
      ],
      "collections": [
        "c7db86a0-ff64-4044-9be4-66dd1ef1d1c1"
      ],
      "creators": [
        "f868c86f-8964-491c-a481-0143e8d3093e"
      ],
      "families": [
        "0377db02-3af6-43b8-9b08-c759df3d25c3"
      ],
      "groups": [
        "60defa7b-774e-4680-8321-51b742c2e009",
        "ae613721-1fbe-480d-ba6b-d6d0702b184d"
      ],
      "langs": [
        "4dcf9614-7914-42aa-99f4-dbce2e059133"
      ],
      "singers": [
        "a84f6a9f-4785-48bb-9f07-fdede3de7cae"
      ],
      "songtypes": [
        "7be1b15c-cff8-4b37-a649-5c90f3d569a9"
      ],
      "songwriters": [
        "f868c86f-8964-491c-a481-0143e8d3093e"
      ],
      "versions": [
        "03e1e1d2-8641-47b7-bbcb-39a3df9ff21c"
      ]
    },
    "titles": {
      "jpn": "ガランド",
      "qro": "Garando",
      "eng": "Airhead"
    },
    "titles_default_language": "eng",
    "year": 2018
  }
}