{
  "header": {
    "version": 4,
    "description": "Karaoke Mugen Karaoke Data File"
  },
  "medias": [
    {
      "version": "Default",
      "filename": "JPN - IDOLiSH7 - GAME MV - DIAMOND FUSION.mp4",
      "audiogain": -8.95,
      "loudnorm": "-7.25,2.15,2.50,-17.29,-0.25",
      "filesize": 23884089,
      "duration": 221,
      "default": true,
      "lyrics": [
        {
          "filename": "JPN - IDOLiSH7 - GAME MV - DIAMOND FUSION.ass",
          "default": true,
          "version": "Default"
        }
      ]
    }
  ],
  "data": {
    "created_at": "2019-12-19T16:22:42.558Z",
    "ignoreHooks": false,
    "kid": "47f30aa9-eb2b-4f45-9f3c-b254eb69c379",
    "modified_at": "2022-10-14T20:54:41.708Z",
    "repository": "kara.moe",
    "tags": {
      "authors": [
        "2a9bbf75-0722-4b4a-9935-caa92f38fdd1"
      ],
      "collections": [
        "c7db86a0-ff64-4044-9be4-66dd1ef1d1c1"
      ],
      "creators": [
        "3564a06f-167e-4708-be2e-c05bc5b2be5a"
      ],
      "genres": [
        "caa86df2-0d59-474b-885c-f240a9e891b0"
      ],
      "groups": [
        "ae613721-1fbe-480d-ba6b-d6d0702b184d"
      ],
      "langs": [
        "4dcf9614-7914-42aa-99f4-dbce2e059133"
      ],
      "platforms": [
        "213a1a15-e73a-4a08-b3f6-b6e2745a82e5"
      ],
      "series": [
        "f10b60e8-7eb3-483e-be70-e31721a08c61"
      ],
      "singers": [
        "018e56c5-e1a5-4fcb-a760-a1020e17099f",
        "d2f62ef5-bf39-4c23-9c99-fe3d14f2bdd2",
        "d72701c8-4aa0-4619-a4ea-aea77d37422c"
      ],
      "singergroups": [
        "68344dd3-3510-4fcd-b8dd-3e796391a880"
      ],
      "songtypes": [
        "7be1b15c-cff8-4b37-a649-5c90f3d569a9"
      ],
      "songwriters": [
        "acf1000c-da9d-4fe4-9722-966cf2c7914e",
        "b5a9ff97-087c-4f78-809c-133ee3966df2"
      ],
      "origins": [
        "dbedd6b3-d125-4cd8-aa32-c4175e4ca3a3"
      ]
    },
    "titles": {
      "eng": "DIAMOND FUSION"
    },
    "titles_default_language": "eng",
    "title": "DIAMOND FUSION",
    "year": 2018
  }
}