{
  "header": {
    "version": 4,
    "description": "Karaoke Mugen Karaoke Data File"
  },
  "medias": [
    {
      "version": "Default",
      "filename": "JPN - Ado - MV - Kinmokusei.mp4",
      "audiogain": -9.27,
      "loudnorm": "-7.86,1.19,10.20,-18.15,-1.37",
      "filesize": 4680501,
      "duration": 140,
      "default": true,
      "lyrics": [
        {
          "filename": "JPN - Ado - MV - Kinmokusei.ass",
          "default": true,
          "version": "Default"
        }
      ]
    }
  ],
  "data": {
    "created_at": "2023-07-13T09:31:32.263Z",
    "ignoreHooks": false,
    "kid": "47cd5cec-2abb-4bd1-ae2c-dea282192808",
    "modified_at": "2023-07-13T09:31:32.614Z",
    "repository": "kara.moe",
    "tags": {
      "authors": [
        "79e0aa7d-da9a-4e9a-aa2b-64056a83b49b"
      ],
      "collections": [
        "c7db86a0-ff64-4044-9be4-66dd1ef1d1c1"
      ],
      "families": [
        "0377db02-3af6-43b8-9b08-c759df3d25c3"
      ],
      "groups": [
        "ae613721-1fbe-480d-ba6b-d6d0702b184d"
      ],
      "langs": [
        "4dcf9614-7914-42aa-99f4-dbce2e059133"
      ],
      "singers": [
        "98152dec-f25d-410b-b827-fd9fe2ac5a15"
      ],
      "songtypes": [
        "7be1b15c-cff8-4b37-a649-5c90f3d569a9"
      ],
      "songwriters": [
        "fe86d502-b283-40b6-867f-a54f65e5ce47"
      ]
    },
    "titles": {
      "jpn": "金木犀",
      "qro": "Kinmokusei",
      "eng": "Osmanthus"
    },
    "titles_default_language": "qro",
    "year": 2019
  }
}