{
  "header": {
    "version": 4,
    "description": "Karaoke Mugen Karaoke Data File"
  },
  "medias": [
    {
      "version": "Default",
      "filename": "KOR - Huayu Hakgyo 2015 - AMV - Love Song.mp4",
      "audiogain": -4.28,
      "loudnorm": "-13.37,-3.64,12.60,-23.88,-1.33",
      "filesize": 22092927,
      "duration": 224,
      "default": true,
      "lyrics": [
        {
          "filename": "KOR - Huayu Hakgyo 2015 - AMV - Love Song.ass",
          "default": true,
          "version": "Default"
        }
      ]
    }
  ],
  "data": {
    "created_at": "2019-10-08T20:32:25.000Z",
    "kid": "53f22e23-51e7-4caf-b1b9-c1bf667798c2",
    "modified_at": "2022-05-26T16:30:19.661Z",
    "repository": "kara.moe",
    "songorder": null,
    "tags": {
      "authors": [
        "622e2a6d-e4e8-4ff5-b218-890e8d7a3abf"
      ],
      "creators": [
        "6e6b0884-aee9-446a-83f0-e9990d12efd2"
      ],
      "families": [
        "5391f9fe-638c-415f-8dc9-958e3a2c5787"
      ],
      "groups": [
        "2b4e9972-5e17-481b-99f5-d0787c0ada56",
        "ae613721-1fbe-480d-ba6b-d6d0702b184d"
      ],
      "langs": [
        "3b9e2749-27d0-4a78-873d-ea91a9ee9a25"
      ],
      "origins": [
        "938de218-5343-4865-94d3-fb33f2eaa152"
      ],
      "series": [
        "c2b426ec-6f4b-46ae-a596-d95a89395400"
      ],
      "singers": [
        "94dd6a0d-ed39-4aae-a53c-255335fe8919",
        "b2c4fcf5-7c95-483e-9447-bc3d69bec72e"
      ],
      "songtypes": [
        "a6c79ce5-89ee-4d50-afe8-3abd7317f6c2"
      ],
      "collections": [
        "dbcf2c22-524d-4708-99bb-601703633927"
      ],
      "genres": [
        "28650021-2b2a-4a55-aff4-85dd4896c687"
      ]
    },
    "titles": {
      "eng": "Love Song"
    },
    "titles_default_language": "eng",
    "title": "Love Song",
    "year": 2015
  }
}