{
  "header": {
    "version": 4,
    "description": "Karaoke Mugen Karaoke Data File"
  },
  "medias": [
    {
      "version": "Default",
      "filename": "KOR - PENTAGON - MV - Young.mp4",
      "audiogain": -9.7,
      "loudnorm": "-7.38,2.47,5.60,-17.92,-0.78",
      "filesize": 83932725,
      "duration": 189,
      "default": true,
      "lyrics": [
        {
          "filename": "KOR - PENTAGON - MV - Young.ass",
          "default": true,
          "version": "Default"
        }
      ]
    }
  ],
  "data": {
    "created_at": "2019-06-23T16:18:45.000Z",
    "kid": "e2e88b23-6f5b-4a33-a7f1-139684489169",
    "modified_at": "2022-05-26T16:31:51.124Z",
    "repository": "kara.moe",
    "songorder": null,
    "tags": {
      "authors": [
        "622e2a6d-e4e8-4ff5-b218-890e8d7a3abf"
      ],
      "creators": [
        "6b8ffb9d-bc6a-4de7-b8a7-b4c6b4c2f475"
      ],
      "families": [
        "5391f9fe-638c-415f-8dc9-958e3a2c5787"
      ],
      "groups": [
        "2b4e9972-5e17-481b-99f5-d0787c0ada56",
        "ae613721-1fbe-480d-ba6b-d6d0702b184d"
      ],
      "langs": [
        "3b9e2749-27d0-4a78-873d-ea91a9ee9a25"
      ],
      "singers": [
        "a04de5b7-d6e3-4d6b-9b6c-e303bf4b1847"
      ],
      "songtypes": [
        "7be1b15c-cff8-4b37-a649-5c90f3d569a9"
      ],
      "songwriters": [
        "a04de5b7-d6e3-4d6b-9b6c-e303bf4b1847"
      ],
      "collections": [
        "dbcf2c22-524d-4708-99bb-601703633927"
      ]
    },
    "titles": {
      "eng": "Young"
    },
    "titles_default_language": "eng",
    "title": "Young",
    "year": 2016
  }
}