{
  "header": {
    "version": 4,
    "description": "Karaoke Mugen Karaoke Data File"
  },
  "medias": [
    {
      "version": "Default",
      "filename": "KOR - BTOB - LIVE - Hello Mello ~ Full Vers.mp4",
      "audiogain": -1.88,
      "loudnorm": "-15.77,-3.34,4.50,-25.87,-0.29",
      "filesize": 57355967,
      "duration": 223,
      "default": true,
      "lyrics": [
        {
          "filename": "KOR - BTOB - LIVE - Hello Mello ~ Full Vers.ass",
          "default": true,
          "version": "Default"
        }
      ]
    }
  ],
  "data": {
    "created_at": "2019-10-06T15:58:33.000Z",
    "ignoreHooks": false,
    "kid": "ec721235-4847-4304-8c63-7e3e59472550",
    "modified_at": "2022-12-21T22:36:29.657Z",
    "repository": "kara.moe",
    "tags": {
      "authors": [
        "622e2a6d-e4e8-4ff5-b218-890e8d7a3abf"
      ],
      "collections": [
        "dbcf2c22-524d-4708-99bb-601703633927"
      ],
      "creators": [
        "0635fc01-24ee-40db-b419-7b9c81f23b0c"
      ],
      "families": [
        "5391f9fe-638c-415f-8dc9-958e3a2c5787"
      ],
      "groups": [
        "2b4e9972-5e17-481b-99f5-d0787c0ada56",
        "ae613721-1fbe-480d-ba6b-d6d0702b184d"
      ],
      "langs": [
        "3b9e2749-27d0-4a78-873d-ea91a9ee9a25"
      ],
      "singers": [
        "e29ca23d-958f-47c3-892c-605e38dd0b41"
      ],
      "songtypes": [
        "a0167949-580c-4de3-bf13-497e462e02f3"
      ],
      "songwriters": [
        "12b2a0ef-add4-4578-9a65-e7d9d88aa264",
        "350c41e1-b239-4aa7-bee8-a9ec23295a01",
        "544038b8-f71e-40f1-ae90-b5502a0e1bad"
      ],
      "versions": [
        "c2143a7f-6970-450e-8a79-0302db9220a9"
      ]
    },
    "titles": {
      "eng": "Hello Mello"
    },
    "titles_default_language": "eng",
    "year": 2016
  }
}