{
  "header": {
    "version": 4,
    "description": "Karaoke Mugen Karaoke Data File"
  },
  "medias": [
    {
      "version": "Default",
      "filename": "KOR - Sseulsseulhago Chanlanhasin Dokkaebi - MV - Stay with Me.mp4",
      "audiogain": -9.43,
      "loudnorm": "-8.14,0.73,4.90,-18.30,-0.74",
      "filesize": 58701664,
      "duration": 192,
      "default": true,
      "lyrics": [
        {
          "filename": "KOR - Sseulsseulhago Chanlanhasin Dokkaebi - MV - Stay with Me.ass",
          "default": true,
          "version": "Default"
        }
      ]
    }
  ],
  "data": {
    "created_at": "2019-09-22T09:41:49.000Z",
    "kid": "d55d19cb-6ac7-4737-a420-00907613c071",
    "modified_at": "2022-05-26T16:30:21.407Z",
    "repository": "kara.moe",
    "songorder": null,
    "tags": {
      "authors": [
        "52241b4a-b141-406d-9166-9f6a50d7734b"
      ],
      "creators": [
        "f82e902e-39b3-475c-8021-7b43213f65b4"
      ],
      "families": [
        "5391f9fe-638c-415f-8dc9-958e3a2c5787"
      ],
      "groups": [
        "ae613721-1fbe-480d-ba6b-d6d0702b184d"
      ],
      "langs": [
        "3b9e2749-27d0-4a78-873d-ea91a9ee9a25"
      ],
      "origins": [
        "938de218-5343-4865-94d3-fb33f2eaa152"
      ],
      "series": [
        "361a5867-8a81-4543-8d36-f003fa73a85b"
      ],
      "singers": [
        "50012d58-263d-4dc0-8cc3-d1a7502d1b96",
        "7f44d869-2962-4297-aeb1-cfba25238496"
      ],
      "songtypes": [
        "7be1b15c-cff8-4b37-a649-5c90f3d569a9"
      ],
      "songwriters": [
        "cb1e6d41-5291-4934-a761-e93a7eff5f5a"
      ],
      "collections": [
        "dbcf2c22-524d-4708-99bb-601703633927"
      ],
      "genres": [
        "28650021-2b2a-4a55-aff4-85dd4896c687"
      ]
    },
    "titles": {
      "eng": "Stay with Me"
    },
    "titles_default_language": "eng",
    "title": "Stay with Me",
    "year": 2016
  }
}