{
  "header": {
    "version": 4,
    "description": "Karaoke Mugen Karaoke Data File"
  },
  "medias": [
    {
      "version": "Default",
      "filename": "KOR - TWICE - MV - I CAN'T STOP ME.mp4",
      "audiogain": -9.08,
      "loudnorm": "-7.50,2.39,6.00,-17.74,-0.67",
      "filesize": 98841665,
      "duration": 220,
      "default": true,
      "lyrics": [
        {
          "filename": "KOR - TWICE - MV - I CAN'T STOP ME.ass",
          "default": true,
          "version": "Default"
        }
      ]
    }
  ],
  "data": {
    "created_at": "2022-01-24T19:31:22.164Z",
    "kid": "5bdfced7-5f94-4016-b987-1b5addffb976",
    "modified_at": "2022-05-26T16:31:22.196Z",
    "repository": "kara.moe",
    "songorder": null,
    "tags": {
      "authors": [
        "1d7745a8-73ea-40bb-ad99-826af98f6e41"
      ],
      "creators": [
        "e1a9a889-9e39-49c9-8ff7-7d7d16331ee5"
      ],
      "families": [
        "5391f9fe-638c-415f-8dc9-958e3a2c5787"
      ],
      "groups": [
        "8e209ae4-4381-438f-89dc-1b21752027d2"
      ],
      "langs": [
        "3b9e2749-27d0-4a78-873d-ea91a9ee9a25"
      ],
      "singers": [
        "fe421082-61b7-4758-bcf2-71b03dd52a1d"
      ],
      "songtypes": [
        "7be1b15c-cff8-4b37-a649-5c90f3d569a9"
      ],
      "songwriters": [
        "8b0a2ae0-faea-458e-b3a1-2b793296ae05",
        "c3b9cc6c-c314-4c25-b26f-655bf72a00b6"
      ],
      "collections": [
        "dbcf2c22-524d-4708-99bb-601703633927"
      ]
    },
    "titles": {
      "eng": "I CAN'T STOP ME"
    },
    "titles_default_language": "eng",
    "title": "I CAN'T STOP ME",
    "year": 2020
  }
}