{
  "header": {
    "version": 4,
    "description": "Karaoke Mugen Karaoke Data File"
  },
  "medias": [
    {
      "version": "Default",
      "filename": "KOR - IZ ONE - MV - FIESTA.mp4",
      "audiogain": -12.18,
      "loudnorm": "-4.98,2.89,4.00,-15.13,-1.12",
      "filesize": 99868019,
      "duration": 217,
      "default": true,
      "lyrics": [
        {
          "filename": "KOR - IZ ONE - MV - FIESTA.ass",
          "default": true,
          "version": "Default"
        }
      ]
    }
  ],
  "data": {
    "comment": "aled les 12 codes couleurs",
    "created_at": "2022-12-13T23:44:59.960Z",
    "ignoreHooks": false,
    "kid": "51d4fc4a-ecfc-4c49-a400-56023de1afcd",
    "modified_at": "2022-12-14T23:16:00.917Z",
    "repository": "kara.moe",
    "tags": {
      "authors": [
        "dd4f1279-de1b-4d06-b80d-29c4878bfd8e"
      ],
      "collections": [
        "dbcf2c22-524d-4708-99bb-601703633927"
      ],
      "creators": [
        "ec6ec63e-9dbc-4af3-bf97-99d826311f88",
        "ffdf8826-6236-4e88-8086-795ba2aed81d"
      ],
      "families": [
        "5391f9fe-638c-415f-8dc9-958e3a2c5787"
      ],
      "genres": [
        "caa86df2-0d59-474b-885c-f240a9e891b0"
      ],
      "groups": [
        "8c22c899-b3ed-42da-a548-ce00f950798b",
        "8e209ae4-4381-438f-89dc-1b21752027d2"
      ],
      "langs": [
        "3b9e2749-27d0-4a78-873d-ea91a9ee9a25"
      ],
      "singers": [
        "18d41737-c93f-42c7-acfe-0ebf2f6d89cf",
        "26d5a27f-5132-42a4-8f12-b31e306d4290",
        "2a76d578-5c70-423d-b780-0e9667813b46",
        "70a00bbf-74f7-4b5c-a2bd-6b9429fc7d0d",
        "7a098b55-e3c6-4134-8637-19fbe5407199",
        "942a282e-db55-441c-8c63-a8086a3a8d14",
        "a78e2ef8-8143-4140-a4b5-29e7b30dc1ad",
        "a8d1c779-9221-4db7-a44f-754fd338cf07",
        "aabf1a41-76bc-42d7-8d9a-be272cfe2e02",
        "d4fad199-d556-4adb-bb33-fe17e512fb6b",
        "ebec8ce6-1c59-42ec-ba8b-11f404a87eb7",
        "fdccb166-f6c0-47e0-85d2-145314786c5d"
      ],
      "singergroups": [
        "bf9b2bbd-8ede-48da-ab2a-f79af059af8d"
      ],
      "songtypes": [
        "7be1b15c-cff8-4b37-a649-5c90f3d569a9"
      ],
      "songwriters": [
        "8cf1b1a0-41e0-403a-b793-21321087cfb6",
        "b3a07175-76e1-42f1-ae2a-74504a0f293c",
        "cae4394b-41d5-41d2-a268-7e5260c4c5fb",
        "d00d6b8d-875f-4a41-83bc-06f6b487be40"
      ]
    },
    "titles": {
      "eng": "FIESTA"
    },
    "titles_default_language": "eng",
    "year": 2020
  }
}