{
  "header": {
    "version": 4,
    "description": "Karaoke Mugen Karaoke Data File"
  },
  "medias": [
    {
      "version": "Default",
      "filename": "KOR - CLC - MV - High Heels.mp4",
      "audiogain": -10.41,
      "loudnorm": "-6.46,2.25,5.60,-16.74,-0.96",
      "filesize": 73460357,
      "duration": 226,
      "default": true,
      "lyrics": [
        {
          "filename": "KOR - CLC - MV - High Heels.ass",
          "default": true,
          "version": "Default"
        }
      ]
    }
  ],
  "data": {
    "created_at": "2019-09-22T10:41:37.000Z",
    "kid": "124ffc8d-0bab-4fdc-8e00-e6f751ddb195",
    "modified_at": "2022-05-26T16:31:07.440Z",
    "repository": "kara.moe",
    "songorder": null,
    "tags": {
      "authors": [
        "622e2a6d-e4e8-4ff5-b218-890e8d7a3abf"
      ],
      "creators": [
        "6b8ffb9d-bc6a-4de7-b8a7-b4c6b4c2f475"
      ],
      "families": [
        "5391f9fe-638c-415f-8dc9-958e3a2c5787"
      ],
      "groups": [
        "2b4e9972-5e17-481b-99f5-d0787c0ada56",
        "ae613721-1fbe-480d-ba6b-d6d0702b184d"
      ],
      "langs": [
        "3b9e2749-27d0-4a78-873d-ea91a9ee9a25"
      ],
      "singers": [
        "cea5e706-0134-4bbb-b228-c9479e2b4fd4"
      ],
      "songtypes": [
        "7be1b15c-cff8-4b37-a649-5c90f3d569a9"
      ],
      "songwriters": [
        "c80a491e-18d1-4cc8-8bbf-2c6d27864136",
        "ce2deb2e-05c3-4358-8bba-f4f44ebf1b59"
      ],
      "collections": [
        "dbcf2c22-524d-4708-99bb-601703633927"
      ]
    },
    "titles": {
      "eng": "High Heels"
    },
    "titles_default_language": "eng",
    "title": "High Heels",
    "year": 2016
  }
}