{
  "header": {
    "version": 4,
    "description": "Karaoke Mugen Karaoke Data File"
  },
  "medias": [
    {
      "version": "Default",
      "filename": "KOR - BIG BANG - MV - FANTASTIC BABY ~ Off Vocal Vers.mp4",
      "audiogain": -5.9,
      "loudnorm": "-9.74,2.56,5.00,-19.89,-0.87",
      "filesize": 112520404,
      "duration": 239,
      "default": true,
      "lyrics": [
        {
          "filename": "KOR - BIG BANG - MV - FANTASTIC BABY ~ Off Vocal Vers.ass",
          "default": true,
          "version": "Default"
        }
      ]
    }
  ],
  "data": {
    "created_at": "2023-07-10T13:35:55.229Z",
    "ignoreHooks": false,
    "kid": "d6b64deb-59df-4a40-a5cc-59191161e7ac",
    "modified_at": "2023-07-10T13:35:55.314Z",
    "parents": [
      "7870b467-fc1f-459c-96bf-b46f61c8068d"
    ],
    "repository": "kara.moe",
    "tags": {
      "authors": [
        "4d71ce82-eed1-4c44-ac85-5f7255f3dad3"
      ],
      "collections": [
        "dbcf2c22-524d-4708-99bb-601703633927"
      ],
      "creators": [
        "b4ac6a4a-0d54-460b-a56d-f3c97aaeb45e"
      ],
      "families": [
        "5391f9fe-638c-415f-8dc9-958e3a2c5787"
      ],
      "groups": [
        "ae613721-1fbe-480d-ba6b-d6d0702b184d"
      ],
      "langs": [
        "3b9e2749-27d0-4a78-873d-ea91a9ee9a25"
      ],
      "singers": [
        "258c0d24-f669-44cf-ac3f-606017be10e8"
      ],
      "songtypes": [
        "7be1b15c-cff8-4b37-a649-5c90f3d569a9"
      ],
      "songwriters": [
        "209cdc0a-9333-48d0-944f-15fdf6eb1997",
        "28c35a41-536a-4c2f-b8a6-90cc6e8cc558",
        "b1d5ce39-0015-4026-a8bf-d00efd9064ec"
      ],
      "versions": [
        "c0cc87b9-55b9-40f0-878a-fbb9e34c151e"
      ]
    },
    "titles": {
      "eng": "FANTASTIC BABY"
    },
    "titles_default_language": "eng",
    "year": 2012
  }
}