{
  "header": {
    "version": 4,
    "description": "Karaoke Mugen Karaoke Data File"
  },
  "medias": [
    {
      "version": "Default",
      "filename": "ZXX - Wooser no Sono Higurashi - OP - Wooser no Sono Higurashi.mp4",
      "audiogain": 5.58,
      "loudnorm": "-21.34,-12.01,2.60,-31.37,-0.72",
      "filesize": 3633255,
      "duration": 20,
      "default": true,
      "lyrics": []
    }
  ],
  "data": {
    "created_at": "2017-10-11T17:01:19.000Z",
    "kid": "c230ecf2-10ad-46d5-825e-2d06b974877e",
    "modified_at": "2021-02-25T13:51:06.323Z",
    "repository": "kara.moe",
    "tags": {
      "authors": [
        "5bdaba57-27f8-4568-8806-76a807728766"
      ],
      "collections": [
        "c7db86a0-ff64-4044-9be4-66dd1ef1d1c1"
      ],
      "creators": [
        "4e1122b4-c09f-445f-bdfa-cbad9581f2dc"
      ],
      "families": [
        "0377db02-3af6-43b8-9b08-c759df3d25c3"
      ],
      "groups": [
        "ae613721-1fbe-480d-ba6b-d6d0702b184d"
      ],
      "langs": [
        "51e68bf8-01ab-4210-8e1f-26cbf2bd68be"
      ],
      "origins": [
        "938de218-5343-4865-94d3-fb33f2eaa152"
      ],
      "series": [
        "563536cc-02cc-4573-89e8-ce2a095e4fbb"
      ],
      "songtypes": [
        "f02ad9b3-0bd9-4aad-85b3-9976739ba0e4"
      ],
      "songwriters": [
        "edd2c1df-4a5f-4675-b73e-99b4b6203352",
        "fe2d71bb-85bd-4055-a213-ef6d3ddd07e1"
      ],
      "franchises": [
        "563536cc-02cc-4573-89e8-ce2a095e4fbb"
      ]
    },
    "title": "Wooser no Sono Higurashi",
    "titles": {
      "eng": "Wooser no Sono Higurashi"
    },
    "year": 2012
  }
}