{
  "header": {
    "description": "Karaoke Mugen Tag File",
    "version": 1
  },
  "tag": {
    "i18n": {
      "eng": "*(Asterisk)"
    },
    "name": "*(Asterisk)",
    "tid": "7d4460a9-2a9d-4576-9ae2-a1daf94ceb7a",
    "types": [
      "singers",
      "2"
    ],
    "repository": "kara.moe",
    "modified_at": "2020-03-31T19:04:33.219Z"
  }
}