{
  "header": {
    "description": "Karaoke Mugen Tag File",
    "version": 1
  },
  "tag": {
    "i18n": {
      "eng": "1024"
    },
    "name": "1024",
    "repository": "kara.moe",
    "tid": "7d9176a6-4cba-4866-bd66-59198da4fb41",
    "types": [
      "creators",
      "4"
    ]
  }
}