{
  "header": {
    "description": "Karaoke Mugen Tag File",
    "version": 1
  },
  "tag": {
    "i18n": {
      "fre": "13e Rue"
    },
    "modified_at": "2020-05-31T21:25:29.264Z",
    "name": "13e Rue",
    "repository": "kara.moe",
    "tid": "a3db3a9d-aec2-4bb6-a325-62a81e1b9d03",
    "types": [
      "series",
      "1",
      "creators",
      "4"
    ]
  }
}