{
  "header": {
    "description": "Karaoke Mugen Tag File",
    "version": 1
  },
  "tag": {
    "i18n": {
      "eng": "24"
    },
    "modified_at": "2021-05-10T11:26:17.060Z",
    "name": "24",
    "repository": "kara.moe",
    "tid": "6339f99c-80bb-4730-948a-83d979c73b3d",
    "types": [
      "songwriters",
      "8"
    ]
  }
}