{
  "header": {
    "description": "Karaoke Mugen Tag File",
    "version": 1
  },
  "tag": {
    "aliases": [
      "3-gatsu no Lion (2017)",
      "3-gatsu no Lion S2",
      "Sangatsu no Lion 2"
    ],
    "external_database_ids": {
      "anilist": 98478,
      "myanimelist": 35180,
      "kitsu": 13401
    },
    "i18n": {
      "eng": "March Comes In Like a Lion 2nd Season",
      "jpn": "3月のライオン (2017)",
      "kor": "3월의 라이온 2기",
      "qro": "3-gatsu no Lion 2nd Season"
    },
    "modified_at": "2020-03-31T19:04:30.866Z",
    "name": "3-gatsu no Lion 2nd Season",
    "repository": "kara.moe",
    "tid": "9cf346ca-e045-44ab-87df-4675892c1650",
    "types": [
      "series",
      "1"
    ]
  }
}