{
  "header": {
    "description": "Karaoke Mugen Tag File",
    "version": 1
  },
  "tag": {
    "external_database_ids": {
      "anilist": 100526,
      "myanimelist": 36793,
      "kitsu": 14276
    },
    "i18n": {
      "eng": "Real Girl",
      "fre": "3D Kanojo: Real Girl",
      "jpn": "3D彼女 リアルガール",
      "kor": "3D 여자친구: 리얼 걸",
      "qro": "3D Kanojo: Real Girl"
    },
    "modified_at": "2020-03-31T19:04:30.870Z",
    "name": "3D Kanojo: Real Girl",
    "repository": "kara.moe",
    "tid": "e3234457-eccb-4cd0-8865-8b9e3730b36b",
    "types": [
      "series",
      "1"
    ]
  }
}