{
  "header": {
    "description": "Karaoke Mugen Tag File",
    "version": 1
  },
  "tag": {
    "i18n": {
      "eng": "3L"
    },
    "name": "3L",
    "repository": "kara.moe",
    "tid": "65860881-335a-4551-8df8-fa56ee102579",
    "types": [
      "songwriters",
      "8",
      "singers",
      "2"
    ]
  }
}