{
  "header": {
    "description": "Karaoke Mugen Tag File",
    "version": 1
  },
  "tag": {
    "aliases": [
      "40mP"
    ],
    "i18n": {
      "eng": "40meterP"
    },
    "modified_at": "2021-08-12T10:38:20.696Z",
    "name": "40meterP",
    "repository": "kara.moe",
    "tid": "ca0ed795-716a-4e9b-ae11-2f3f1c7f63a9",
    "types": [
      "songwriters",
      "8"
    ]
  }
}