{
  "header": {
    "description": "Karaoke Mugen Tag File",
    "version": 1
  },
  "tag": {
    "i18n": {
      "eng": "4minute"
    },
    "name": "4minute",
    "tid": "780f9a73-bceb-4924-af1d-b327188d4e50",
    "types": [
      "singers",
      "2"
    ],
    "repository": "kara.moe",
    "modified_at": "2020-03-31T19:04:33.239Z"
  }
}