{
  "header": {
    "description": "Karaoke Mugen Tag File",
    "version": 1
  },
  "tag": {
    "i18n": {
      "eng": "77: And Two Stars Meet Again",
      "jpn": "77（セブンズ） ～And, two stars meet again～",
      "qro": "77 (Sevens) ~And Two Stars Meet Again~"
    },
    "modified_at": "2020-03-31T19:04:30.870Z",
    "name": "77 (Sevens) ~And Two Stars Meet Again~",
    "repository": "kara.moe",
    "tid": "4ee3ee87-59b2-4f04-9c2a-a83cb33942a2",
    "types": [
      "series",
      "1"
    ]
  }
}