{
  "header": {
    "description": "Karaoke Mugen Tag File",
    "version": 1
  },
  "tag": {
    "aliases": [
      "80 Days Around the World With Willy Fog",
      "80日間世界一周",
      "Anime Hachi-Juu Nichikan Sekai Isshuu",
      "Around the World in Eighty Days",
      "Dookoła świata z Willym Fogiem",
      "Hachijunichikan Sekai Isshû",
      "Willy Fog: W osiemdziesiąt dni dookoła świata",
      "Вокруг света за 80 дней",
      "Около Света за 80 дни с Уоли Фог",
      "ثمانون يوم حول العالم",
      "isshuu"
    ],
    "external_database_ids": {
      "anilist": 2579,
      "myanimelist": 2579,
      "kitsu": 2344
    },
    "i18n": {
      "ara": "السبع المدهش",
      "cze": "Willy Fog na cestě kolem světa",
      "eng": "Around the World with Willy Fog",
      "fin": "Maailman ympäri 80 päivässä",
      "fre": "Le tour du monde en 80 jours",
      "ger": "Um die Welt mit Willy Fog",
      "gre": "Ο Γύρος του κόσμου σε 80 μέρες",
      "heb": "מסביב לעולם עם ווילי פוג",
      "hun": "80 nap alatt a Föld körül Willy Foggal",
      "ice": "Umhverfis jörðina á áttatíu dögum",
      "ita": "Il giro del mondo di Willy Fog",
      "jpn": "アニメ 80日間世界一周",
      "pol": "W osiemdziesiąt dni dookoła świata",
      "por": "A Volta ao Mundo em 80 Dias com Willy Fog",
      "rum": "Ocolul pământului în 80 de zile cu Willy Fog",
      "spa": "La vuelta al mundo de Willy Fog",
      "qro": "80-nichikan Sekai Isshû"
    },
    "modified_at": "2020-03-31T19:04:30.871Z",
    "name": "80-nichikan Sekai Isshû",
    "repository": "kara.moe",
    "tid": "eef616d0-e23d-4347-a777-21b04ab984cc",
    "types": [
      "series",
      "1"
    ]
  }
}