{
  "header": {
    "description": "Karaoke Mugen Tag File",
    "version": 1
  },
  "tag": {
    "aliases": [
      "Eighty Six"
    ],
    "external_database_ids": {
      "anilist": 116589,
      "myanimelist": 41457,
      "kitsu": 43066
    },
    "i18n": {
      "eng": "86 Eighty-Six",
      "fre": "86 EIGHTY-SIX",
      "jpn": "86 エイティシックス",
      "qro": "86"
    },
    "modified_at": "2021-11-27T20:37:36.207Z",
    "name": "86",
    "repository": "kara.moe",
    "tid": "ccbd0573-27f4-4dbb-aef8-5282ede76a8c",
    "types": [
      "series",
      "1"
    ]
  }
}