{
  "header": {
    "description": "Karaoke Mugen Tag File",
    "version": 1
  },
  "tag": {
    "i18n": {
      "eng": "96"
    },
    "name": "96",
    "repository": "kara.moe",
    "tid": "466686df-c207-4979-9126-93d949edbd82",
    "types": [
      "singers",
      "2"
    ]
  }
}