{
  "header": {
    "description": "Karaoke Mugen Tag File",
    "version": 1
  },
  "tag": {
    "aliases": [
      "Act! Addict! Actors!"
    ],
    "external_database_ids": {
      "anilist": 107651,
      "myanimelist": 39184,
      "kitsu": 42146
    },
    "i18n": {
      "eng": "A3!",
      "jpn": "エースリー",
      "qro": "A3!"
    },
    "modified_at": "2020-03-31T19:04:30.876Z",
    "name": "A3!",
    "repository": "kara.moe",
    "tid": "9867d3f4-fe37-4dc7-bd6a-ca4cbd5c029d",
    "types": [
      "series",
      "1",
      "franchises",
      "18"
    ]
  }
}