{
  "header": {
    "description": "Karaoke Mugen Tag File",
    "version": 1
  },
  "tag": {
    "i18n": {
      "eng": "ACTRock"
    },
    "modified_at": "2021-02-13T22:00:48.847Z",
    "name": "ACTRock",
    "repository": "kara.moe",
    "tid": "3c027018-54fc-4402-b3eb-46c34d07a56b",
    "types": [
      "songwriters",
      "8"
    ]
  }
}