{
  "header": {
    "description": "Karaoke Mugen Tag File",
    "version": 1
  },
  "tag": {
    "i18n": {
      "eng": "Adam Levine"
    },
    "name": "Adam Levine",
    "repository": "kara.moe",
    "tid": "425be669-b67b-414f-87e2-372d961df6dd",
    "types": [
      "songwriters",
      "8"
    ]
  }
}