{
  "header": {
    "description": "Karaoke Mugen Tag File",
    "version": 1
  },
  "tag": {
    "i18n": {
      "eng": "Aenyx"
    },
    "name": "Aenyx",
    "repository": "kara.moe",
    "tid": "5e689d8c-57ca-480c-8f10-94016be12826",
    "types": [
      "authors",
      "6"
    ]
  }
}