{
  "header": {
    "description": "Karaoke Mugen Tag File",
    "version": 1
  },
  "tag": {
    "i18n": {
      "eng": "Æon Studios"
    },
    "name": "Æon Studios",
    "tid": "e52c20b7-389a-4c61-a71c-bff31fecb51f",
    "types": [
      "creators",
      "4"
    ],
    "repository": "kara.moe",
    "modified_at": "2020-03-31T19:04:33.294Z"
  }
}