{
  "header": {
    "description": "Karaoke Mugen Tag File",
    "version": 1
  },
  "tag": {
    "i18n": {
      "eng": "Aerosmith"
    },
    "name": "Aerosmith",
    "repository": "kara.moe",
    "tid": "52c7a718-7f69-42ab-8e54-f76e369a10c2",
    "types": [
      "singers",
      "2"
    ]
  }
}