{
  "header": {
    "description": "Karaoke Mugen Tag File",
    "version": 1
  },
  "tag": {
    "i18n": {
      "eng": "Affective Synergy"
    },
    "name": "Affective Synergy",
    "tid": "524ffe83-5d0e-46d6-b4ff-56e8a82ee507",
    "types": [
      "singers",
      "2"
    ],
    "repository": "kara.moe",
    "modified_at": "2020-03-31T19:04:33.295Z"
  }
}