{
  "header": {
    "description": "Karaoke Mugen Tag File",
    "version": 1
  },
  "tag": {
    "i18n": {
      "eng": "Agalloch"
    },
    "name": "Agalloch",
    "repository": "kara.moe",
    "tid": "88b43244-da54-4f53-a97e-495d73adb29e",
    "types": [
      "singers",
      "2",
      "songwriters",
      "8"
    ]
  }
}