{
  "header": {
    "description": "Karaoke Mugen Tag File",
    "version": 1
  },
  "tag": {
    "external_database_ids": {
      "anilist": 5053,
      "myanimelist": 5053,
      "kitsu": 3907
    },
    "i18n": {
      "eng": "Love City",
      "fre": "Nom de code : Love City",
      "jpn": "アイ・シティ",
      "por": "Terror em Love City",
      "qro": "Ai City"
    },
    "modified_at": "2020-03-31T19:04:30.894Z",
    "name": "Ai City",
    "repository": "kara.moe",
    "tid": "45267f60-19c4-4a49-9f56-2cb261716e77",
    "types": [
      "series",
      "1"
    ]
  }
}