{
  "header": {
    "description": "Karaoke Mugen Tag File",
    "version": 1
  },
  "tag": {
    "i18n": {
      "eng": "Ai Hirosaka"
    },
    "name": "Ai Hirosaka",
    "tid": "3df94af8-4189-4f99-9980-354f93ee5110",
    "types": [
      "singers",
      "2"
    ],
    "repository": "kara.moe",
    "modified_at": "2020-03-31T19:04:33.303Z"
  }
}