{
  "header": {
    "description": "Karaoke Mugen Tag File",
    "version": 1
  },
  "tag": {
    "i18n": {
      "eng": "Ai Kawashima"
    },
    "name": "Ai Kawashima",
    "tid": "d2784508-1b0d-48c3-b584-b29d955e5c03",
    "types": [
      "songwriters",
      "8",
      "singers",
      "2"
    ],
    "repository": "kara.moe",
    "modified_at": "2020-03-31T19:04:33.304Z"
  }
}