{
  "header": {
    "description": "Karaoke Mugen Tag File",
    "version": 1
  },
  "tag": {
    "i18n": {
      "eng": "Ai Ujita"
    },
    "name": "Ai Ujita",
    "tid": "94bdfa7b-8a18-4889-ac68-06c82a70e4a3",
    "types": [
      "songwriters",
      "8"
    ],
    "repository": "kara.moe",
    "modified_at": "2020-03-31T19:04:33.311Z"
  }
}