{
  "header": {
    "description": "Karaoke Mugen Tag File",
    "version": 1
  },
  "tag": {
    "aliases": [
      "寺川 愛美"
    ],
    "i18n": {
      "jpn": "愛美",
      "qro": "Aimi"
    },
    "name": "Aimi Terakawa",
    "repository": "kara.moe",
    "tid": "360a527f-69b3-47e2-b028-d2b176bfaaa2",
    "types": [
      "singers",
      "2"
    ]
  }
}