{
  "header": {
    "description": "Karaoke Mugen Tag File",
    "version": 1
  },
  "tag": {
    "i18n": {
      "eng": "Aimie"
    },
    "name": "Aimie",
    "repository": "kara.moe",
    "tid": "85217d09-0c30-4cdd-bee5-4bde9ad85e66",
    "types": [
      "songwriters",
      "8"
    ]
  }
}