{
  "header": {
    "description": "Karaoke Mugen Tag File",
    "version": 1
  },
  "tag": {
    "i18n": {
      "eng": "Aina Suzuki"
    },
    "name": "Aina Suzuki",
    "tid": "e3ef4054-6292-4b5f-ad14-1008bae5e375",
    "types": [
      "singers",
      "2"
    ],
    "repository": "kara.moe",
    "modified_at": "2020-03-31T19:04:33.328Z"
  }
}