{
  "header": {
    "description": "Karaoke Mugen Tag File",
    "version": 1
  },
  "tag": {
    "i18n": {
      "eng": "Aiobahn"
    },
    "modified_at": "2020-08-08T12:24:51.334Z",
    "name": "Aiobahn",
    "repository": "kara.moe",
    "tid": "17d8bcf5-b197-41fd-9e23-2b8826f83995",
    "types": [
      "songwriters",
      "8",
      "singers",
      "2"
    ]
  }
}