{
  "header": {
    "description": "Karaoke Mugen Tag File",
    "version": 1
  },
  "tag": {
    "i18n": {
      "eng": "Aircraft Designer"
    },
    "name": "Aircraft Designer",
    "repository": "kara.moe",
    "tid": "67687fec-3f9c-485b-9453-829353c34812",
    "types": [
      "creators",
      "4"
    ]
  }
}