{
  "header": {
    "description": "Karaoke Mugen Tag File",
    "version": 1
  },
  "tag": {
    "i18n": {
      "eng": "Airu Shiozaki"
    },
    "name": "Airu Shiozaki",
    "repository": "kara.moe",
    "tid": "60de477d-2a58-439a-9251-8f251b72bb8b",
    "types": [
      "singers",
      "2"
    ]
  }
}