{
  "header": {
    "description": "Karaoke Mugen Tag File",
    "version": 1
  },
  "tag": {
    "aliases": [
      "AiBaby",
      "Aishiteruze Baby",
      "Aishiteruze Beibe",
      "I Love Ya Baby",
      "I Love You Baby",
      "Seni Seviyorum Bebek",
      "ai baby",
      "azb",
      "Люблю тебя малышка",
      "Обичам те мъниче!",
      "寶貝我愛你",
      "我愛你Baby",
      "사랑해 Baby★★"
    ],
    "external_database_ids": {
      "anilist": 102,
      "myanimelist": 102,
      "kitsu": 81
    },
    "i18n": {
      "chi": "型仔湊女記",
      "eng": "Babe, My Love",
      "fre": "Babe My Love",
      "jpn": "愛してるぜベイベ★★",
      "qro": "Aishiteru ze Baby"
    },
    "modified_at": "2020-03-31T19:04:30.905Z",
    "name": "Aishiteru ze Baby",
    "repository": "kara.moe",
    "tid": "6642f234-2189-4c3b-bb66-8ee574089661",
    "types": [
      "series",
      "1"
    ]
  }
}