{
  "header": {
    "description": "Karaoke Mugen Tag File",
    "version": 1
  },
  "tag": {
    "i18n": {
      "eng": "ak.homma"
    },
    "name": "ak.homma",
    "tid": "1a13bd29-e614-4410-81ac-5261972d76f3",
    "types": [
      "songwriters",
      "8"
    ],
    "repository": "kara.moe",
    "modified_at": "2020-03-31T19:04:33.335Z"
  }
}