{
  "header": {
    "description": "Karaoke Mugen Tag File",
    "version": 1
  },
  "tag": {
    "i18n": {
      "eng": "aka"
    },
    "name": "aka",
    "tid": "d281e011-ff97-49eb-9f79-a55bc0f87b59",
    "types": [
      "creators",
      "4"
    ],
    "repository": "kara.moe",
    "modified_at": "2020-03-31T19:04:33.337Z"
  }
}