{
  "header": {
    "description": "Karaoke Mugen Tag File",
    "version": 1
  },
  "tag": {
    "aliases": [
      "AkaKill",
      "murder city",
      "Убийца Акаме",
      "Убийцата Акаме"
    ],
    "external_database_ids": {
      "anilist": 20613,
      "myanimelist": 22199,
      "kitsu": 8270
    },
    "i18n": {
      "bul": "Червенооката убийца",
      "chi": "斩! 赤红之瞳",
      "eng": "Akame ga Kill!",
      "fre": "Red Eyes Sword ‒ Akame ga Kill",
      "ger": "Akame ga Kill!",
      "jpn": "アカメが斬る!",
      "qro": "Akame ga Kill!"
    },
    "modified_at": "2020-03-31T19:04:30.913Z",
    "name": "Akame ga Kill!",
    "repository": "kara.moe",
    "tid": "4d6e59ba-b53b-45fc-87a8-144f0aac55f1",
    "types": [
      "series",
      "1"
    ]
  }
}