{
  "header": {
    "description": "Karaoke Mugen Tag File",
    "version": 1
  },
  "tag": {
    "aliases": [
      "AkaAka",
      "Akaya Akashiya Ayakashino"
    ],
    "i18n": {
      "eng": "Of the Red, the Light, and the Ayakashi",
      "fre": "Akaya Akashiya Ayakashino",
      "jpn": "あかやあかしやあやかしの",
      "qro": "Akaya Akashiya Ayakashi no"
    },
    "modified_at": "2020-06-21T23:45:31.966Z",
    "name": "Akaya Akashiya Ayakashi no",
    "repository": "kara.moe",
    "tid": "e35250f7-4247-4dc0-80e5-6ea7c29620b9",
    "types": [
      "series",
      "1"
    ]
  }
}