{
  "header": {
    "description": "Karaoke Mugen Tag File",
    "version": 1
  },
  "tag": {
    "i18n": {
      "eng": "AKB48"
    },
    "name": "AKB48",
    "tid": "0efdee07-82c8-47e8-8872-b0c279007c30",
    "types": [
      "singers",
      "2"
    ],
    "repository": "kara.moe",
    "modified_at": "2020-03-31T19:04:33.351Z"
  }
}