{
  "header": {
    "description": "Karaoke Mugen Tag File",
    "version": 1
  },
  "tag": {
    "i18n": {
      "eng": "Akifumi Tada"
    },
    "name": "Akifumi Tada",
    "tid": "a7ca3b47-2352-4fbd-8415-5cfe4a96545c",
    "types": [
      "songwriters",
      "8"
    ],
    "repository": "kara.moe",
    "modified_at": "2020-03-31T19:04:33.367Z"
  }
}