{
  "header": {
    "description": "Karaoke Mugen Tag File",
    "version": 1
  },
  "tag": {
    "i18n": {
      "eng": "Akihiro Komori"
    },
    "name": "Akihiro Komori",
    "tid": "53cac46a-35b2-475a-8c27-e401daad3ff8",
    "types": [
      "songwriters",
      "8"
    ],
    "repository": "kara.moe",
    "modified_at": "2020-03-31T19:04:33.372Z"
  }
}