{
  "header": {
    "description": "Karaoke Mugen Tag File",
    "version": 1
  },
  "tag": {
    "i18n": {
      "eng": "Akiko Mizuhara"
    },
    "name": "Akiko Mizuhara",
    "tid": "6e3154fc-7907-4b36-a299-6cd1e5715858",
    "types": [
      "singers",
      "2"
    ],
    "repository": "kara.moe",
    "modified_at": "2020-03-31T19:04:33.378Z"
  }
}