{
  "header": {
    "description": "Karaoke Mugen Tag File",
    "version": 1
  },
  "tag": {
    "i18n": {
      "eng": "Akio Shimizu"
    },
    "name": "Akio Shimizu",
    "tid": "c4674a35-e7ef-43c4-93ef-e913fd00bad9",
    "types": [
      "songwriters",
      "8"
    ],
    "repository": "kara.moe",
    "modified_at": "2020-03-31T19:04:33.387Z"
  }
}