{
  "header": {
    "description": "Karaoke Mugen Tag File",
    "version": 1
  },
  "tag": {
    "i18n": {
      "eng": "Akio Suyama"
    },
    "name": "Akio Suyama",
    "tid": "d2799c9f-4284-491a-bc75-9adf509a7e1e",
    "types": [
      "singers",
      "2"
    ],
    "repository": "kara.moe",
    "modified_at": "2020-03-31T19:04:33.388Z"
  }
}