{
  "header": {
    "description": "Karaoke Mugen Tag File",
    "version": 1
  },
  "tag": {
    "i18n": {
      "eng": "Akito Matsumoto"
    },
    "name": "Akito Matsumoto",
    "tid": "637dfa3e-0d24-48a0-a737-8f02dc80c72d",
    "types": [
      "songwriters",
      "8"
    ],
    "repository": "kara.moe",
    "modified_at": "2020-03-31T19:04:33.409Z"
  }
}