{
  "header": {
    "description": "Karaoke Mugen Tag File",
    "version": 1
  },
  "tag": {
    "aliases": [
      "AnR",
      "悪魔のリドル"
    ],
    "external_database_ids": {
      "anilist": 19429,
      "myanimelist": 19429,
      "kitsu": 7844
    },
    "i18n": {
      "chi": "恶魔的谜语",
      "eng": "Riddle Story of Devil",
      "fre": "Akuma no Riddle",
      "ger": "Akuma no Riddle",
      "jpn": "悪魔のリドル riddle story of devil",
      "qro": "Akuma no Riddle"
    },
    "modified_at": "2020-03-31T19:04:30.925Z",
    "name": "Akuma no Riddle",
    "repository": "kara.moe",
    "tid": "a2813243-ee6b-4c77-a56b-5a831b613f33",
    "types": [
      "series",
      "1"
    ]
  }
}