{
  "header": {
    "description": "Karaoke Mugen Tag File",
    "version": 1
  },
  "tag": {
    "i18n": {
      "eng": "Akumaizer 3",
      "jpn": "アクマイザー3",
      "qro": "Akumaizer 3"
    },
    "modified_at": "2020-03-31T19:04:30.926Z",
    "name": "Akumaizer 3",
    "repository": "kara.moe",
    "tid": "0236caab-36c4-435c-9d82-efe56ded4055",
    "types": [
      "series",
      "1"
    ]
  }
}