{
  "header": {
    "description": "Karaoke Mugen Tag File",
    "version": 1
  },
  "tag": {
    "i18n": {
      "eng": "Akuta Utsuro"
    },
    "name": "Akuta Utsuro",
    "tid": "a5f4fa0f-a370-4758-95bb-df3bf2b832fe",
    "types": [
      "songwriters",
      "8"
    ],
    "repository": "kara.moe",
    "modified_at": "2020-03-31T19:04:33.415Z"
  }
}