{
  "header": {
    "description": "Karaoke Mugen Tag File",
    "version": 1
  },
  "tag": {
    "i18n": {
      "eng": "Al McKay"
    },
    "name": "Al McKay",
    "repository": "kara.moe",
    "tid": "7edae09b-c85e-4c05-8f82-ba6b046f2dde",
    "types": [
      "songwriters",
      "8"
    ],
    "modified_at": "2020-03-31T19:04:33.416Z"
  }
}