{
  "header": {
    "description": "Karaoke Mugen Tag File",
    "version": 1
  },
  "tag": {
    "i18n": {
      "eng": "Alecia Beth Moore"
    },
    "name": "Alecia Beth Moore",
    "repository": "kara.moe",
    "tid": "cf55f935-6b3b-45bd-951a-3c691f31ab22",
    "types": [
      "songwriters",
      "8"
    ]
  }
}