{
  "header": {
    "description": "Karaoke Mugen Tag File",
    "version": 1
  },
  "tag": {
    "i18n": {
      "eng": "Alfa System"
    },
    "name": "Alfa System",
    "tid": "251c66ab-4c4e-4d37-9038-9ed004ee20ec",
    "types": [
      "creators",
      "4"
    ],
    "repository": "kara.moe",
    "modified_at": "2020-03-31T19:04:33.436Z"
  }
}