{
  "header": {
    "description": "Karaoke Mugen Tag File",
    "version": 1
  },
  "tag": {
    "i18n": {
      "eng": "Amado Jaén"
    },
    "modified_at": "2021-10-14T18:07:52.265Z",
    "name": "Amado Jaén",
    "repository": "kara.moe",
    "tid": "210cb22b-bd81-4cf5-a2e2-1cf869a279be",
    "types": [
      "singers",
      "2"
    ]
  }
}