{
  "header": {
    "description": "Karaoke Mugen Tag File",
    "version": 1
  },
  "tag": {
    "aliases": [
      "Ah! My Buddha",
      "Amaenaideyo!!",
      "Не приставай ко мне!!",
      "极乐天师"
    ],
    "external_database_ids": {
      "anilist": 591,
      "myanimelist": 591,
      "kitsu": 546
    },
    "i18n": {
      "eng": "Ah My Buddha!!",
      "fre": "Amaenaide yo!!",
      "jpn": "あまえないでよっ!!",
      "qro": "Amaenaide yo!!"
    },
    "modified_at": "2020-03-31T19:04:30.934Z",
    "name": "Amaenaide yo!!",
    "repository": "kara.moe",
    "tid": "769e612f-8e9f-4530-83c2-b0d4c63ebba4",
    "types": [
      "series",
      "1"
    ]
  }
}