{
  "header": {
    "description": "Karaoke Mugen Tag File",
    "version": 1
  },
  "tag": {
    "i18n": {
      "eng": "amatsuki"
    },
    "modified_at": "2021-09-09T13:08:06.364Z",
    "name": "amatsuki",
    "repository": "kara.moe",
    "tid": "e4fb3c8c-1232-4545-84c4-efea41b68a88",
    "types": [
      "singers",
      "2",
      "songwriters",
      "8"
    ]
  }
}