{
  "header": {
    "description": "Karaoke Mugen Tag File",
    "version": 1
  },
  "tag": {
    "i18n": {
      "eng": "Amatsutsumi",
      "jpn": "アマツツミ",
      "qro": "Amatsutsumi"
    },
    "modified_at": "2020-03-31T19:04:30.941Z",
    "name": "Amatsutsumi",
    "repository": "kara.moe",
    "tid": "4323c63e-f664-4eaf-9d03-5a1ecabfb46e",
    "types": [
      "series",
      "1"
    ]
  }
}