{
  "header": {
    "description": "Karaoke Mugen Tag File",
    "version": 1
  },
  "tag": {
    "i18n": {
      "eng": "Ame no Parade"
    },
    "modified_at": "2020-04-18T20:38:25.503Z",
    "name": "Ame no Parade",
    "repository": "kara.moe",
    "tid": "949321da-c86d-478d-b47b-97c892fc3474",
    "types": [
      "singers",
      "2"
    ]
  }
}