{
  "header": {
    "description": "Karaoke Mugen Tag File",
    "version": 1
  },
  "tag": {
    "aliases": [
      "Hyouryuu"
    ],
    "external_database_ids": {
      "anilist": 139643,
      "myanimelist": 49938,
      "kitsu": 45247
    },
    "i18n": {
      "eng": "Drifting Home",
      "jpn": "雨を告げる漂流団地 ",
      "qro": "Ame wo Tsugeru Hyôryû Danchi",
      "fre": "Les Murs Vagabonds"
    },
    "name": "Ame wo Tsugeru Hyôryû Danchi",
    "repository": "kara.moe",
    "tid": "0d7126d0-eac3-48ee-806f-9194fbd0921e",
    "types": [
      "series",
      "1"
    ]
  }
}