{
  "header": {
    "description": "Karaoke Mugen Tag File",
    "version": 1
  },
  "tag": {
    "aliases": [
      "Ame-iro Cocoa Rainy Color e Youkoso",
      "Ameiro Cocoa Rainy Color e Youkoso",
      "Rainy Cocoa: Season 2",
      "youkoso"
    ],
    "external_database_ids": {
      "anilist": 21285,
      "myanimelist": 31139,
      "kitsu": 11158
    },
    "i18n": {
      "eng": "Rainy Cocoa: Welcome to Rainy Color",
      "fre": "Ame-iro Cocoa: Rainy Color e Yôkoso",
      "jpn": "雨色ココア Rainy colorへようこそ!",
      "qro": "Ame-iro Cocoa: Rainy Color e Yôkoso"
    },
    "modified_at": "2020-03-31T19:04:30.941Z",
    "name": "Ame-iro Cocoa: Rainy Color e Yôkoso",
    "repository": "kara.moe",
    "tid": "23cca7b6-03e0-4256-b8ce-3877f8bd2755",
    "types": [
      "series",
      "1"
    ]
  }
}