{
  "header": {
    "description": "Karaoke Mugen Tag File",
    "version": 1
  },
  "tag": {
    "i18n": {
      "eng": "Ami Maeshima"
    },
    "name": "Ami Maeshima",
    "tid": "5bc28f95-9eb2-47d1-be88-954f5ce3f5c6",
    "types": [
      "singers",
      "2"
    ],
    "repository": "kara.moe",
    "modified_at": "2020-03-31T19:04:33.460Z"
  }
}