{
  "header": {
    "description": "Karaoke Mugen Tag File",
    "version": 1
  },
  "tag": {
    "i18n": {
      "eng": "Ami"
    },
    "name": "Ami",
    "tid": "1ec09246-8e86-49bc-9bd6-6bc4b36bd3c4",
    "types": [
      "singers",
      "2"
    ],
    "repository": "kara.moe",
    "modified_at": "2020-03-31T19:04:33.464Z"
  }
}