{
  "header": {
    "description": "Karaoke Mugen Tag File",
    "version": 1
  },
  "tag": {
    "aliases": [
      "Амнезия",
      "アムネシア"
    ],
    "external_database_ids": {
      "anilist": 15085,
      "myanimelist": 15085,
      "kitsu": 7209
    },
    "i18n": {
      "eng": "Amnesia",
      "jpn": "AMNESIA",
      "kor": "암네시아",
      "qro": "Amnesia"
    },
    "modified_at": "2020-03-31T19:04:30.946Z",
    "name": "Amnesia",
    "repository": "kara.moe",
    "tid": "3d4461c5-d245-4e40-82bc-b2978fa936d7",
    "types": [
      "series",
      "1",
      "franchises",
      "18"
    ]
  }
}