{
  "header": {
    "description": "Karaoke Mugen Tag File",
    "version": 1
  },
  "tag": {
    "i18n": {
      "eng": "AMOYAMO"
    },
    "name": "AMOYAMO",
    "tid": "a9170d79-5ab0-4910-b45d-1f663eb1367d",
    "types": [
      "singers",
      "2"
    ],
    "repository": "kara.moe",
    "modified_at": "2020-03-31T19:04:33.469Z"
  }
}