{
  "header": {
    "description": "Karaoke Mugen Tag File",
    "version": 1
  },
  "tag": {
    "i18n": {
      "eng": "AMRA"
    },
    "name": "AMRA",
    "tid": "7269d5a3-32de-4ce1-9ce7-60ec17b80d9d",
    "types": [
      "creators",
      "4"
    ],
    "repository": "kara.moe",
    "modified_at": "2020-03-31T19:04:33.470Z"
  }
}