{
  "header": {
    "description": "Karaoke Mugen Tag File",
    "version": 1
  },
  "tag": {
    "i18n": {
      "eng": "Amy Heard"
    },
    "modified_at": "2021-01-13T18:12:33.085Z",
    "name": "Amy Heard",
    "repository": "kara.moe",
    "tid": "c9b3f7cd-7077-4719-acb3-c08907d17a83",
    "types": [
      "creators",
      "4"
    ]
  }
}