{
  "header": {
    "description": "Karaoke Mugen Tag File",
    "version": 1
  },
  "tag": {
    "i18n": {
      "eng": "Andora"
    },
    "name": "Andora",
    "repository": "kara.moe",
    "tid": "b618fbb1-b319-4d17-bb87-644566beaa41",
    "types": [
      "songwriters",
      "8"
    ]
  }
}