{
  "header": {
    "description": "Karaoke Mugen Tag File",
    "version": 1
  },
  "tag": {
    "i18n": {
      "eng": "Andrew DeCaro"
    },
    "name": "Andrew DeCaro",
    "repository": "kara.moe",
    "tid": "9027b175-f500-4efe-a64e-6fc82a4b2ca5",
    "types": [
      "songwriters",
      "8"
    ]
  }
}