{
  "header": {
    "description": "Karaoke Mugen Tag File",
    "version": 1
  },
  "tag": {
    "i18n": {
      "eng": "Andrew"
    },
    "name": "Andrew",
    "repository": "kara.moe",
    "tid": "17de3e21-4306-4684-93d2-a9c6982a2c4b",
    "types": [
      "authors",
      "6"
    ]
  }
}