{
  "header": {
    "description": "Karaoke Mugen Tag File",
    "version": 1
  },
  "tag": {
    "i18n": {
      "eng": "Angelique Retour",
      "jpn": "アンジェーリーク ルトゥール",
      "qro": "Angelique Retour"
    },
    "modified_at": "2020-03-31T19:04:30.952Z",
    "name": "Angelique Retour",
    "repository": "kara.moe",
    "tid": "e1e665ae-a0cd-4f90-a24c-07ea145f9998",
    "types": [
      "series",
      "1"
    ]
  }
}