{
  "header": {
    "description": "Karaoke Mugen Tag File",
    "version": 1
  },
  "tag": {
    "i18n": {
      "eng": "Angor"
    },
    "name": "Angor",
    "tid": "34fb11c3-d473-4bb4-b185-d9ab528da1ea",
    "types": [
      "authors",
      "6"
    ],
    "repository": "kara.moe",
    "modified_at": "2020-03-31T19:04:33.488Z"
  }
}