{
  "header": {
    "description": "Karaoke Mugen Tag File",
    "version": 1
  },
  "tag": {
    "i18n": {
      "eng": "Animal Crossing: New Horizons",
      "jpn": "あつまれ どうぶつの森",
      "qro": "Atsumare dôbutsu no mori"
    },
    "name": "Animal Crossing: New Horizons",
    "repository": "kara.moe",
    "tid": "b9e824a3-c023-4e2f-a000-50e7595f18f6",
    "types": [
      "series",
      "1"
    ]
  }
}