{
  "header": {
    "description": "Karaoke Mugen Tag File",
    "version": 1
  },
  "tag": {
    "i18n": {
      "eng": "Annyu"
    },
    "name": "Annyu",
    "tid": "f2e5d42d-7a22-4b6f-a5c6-3b6fb89e1103",
    "types": [
      "songwriters",
      "8"
    ],
    "repository": "kara.moe",
    "modified_at": "2020-03-31T19:04:33.504Z"
  }
}