{
  "header": {
    "description": "Karaoke Mugen Tag File",
    "version": 1
  },
  "tag": {
    "i18n": {
      "eng": "Anonymous;Code"
    },
    "name": "Anonymous;Code",
    "repository": "kara.moe",
    "tid": "d56d85dd-93cf-46b5-923a-dcf390b961f4",
    "types": [
      "series",
      "1"
    ]
  }
}