{
  "header": {
    "description": "Karaoke Mugen Tag File",
    "version": 1
  },
  "tag": {
    "aliases": [
      "A.C.E.3"
    ],
    "i18n": {
      "eng": "Another Century's Episode 3: The Final",
      "jpn": "アナザーセンチュリーズエピソード 3 THE FINAL",
      "qro": "Another Century's Episode 3: The Final"
    },
    "modified_at": "2020-03-31T19:04:30.961Z",
    "name": "Another Century's Episode 3: The Final",
    "repository": "kara.moe",
    "tid": "a502ba37-2be4-4150-95a9-6cbf0d0f43d7",
    "types": [
      "series",
      "1"
    ]
  }
}