{
  "header": {
    "description": "Karaoke Mugen Tag File",
    "version": 1
  },
  "tag": {
    "aliases": [
      "A.C.E."
    ],
    "i18n": {
      "chi": "異世紀機器人大戰",
      "eng": "Another Century's Episode",
      "jpn": "アナザーセンチュリーズエピソード",
      "qro": "Another Century's Episode"
    },
    "modified_at": "2020-03-31T19:04:30.961Z",
    "name": "Another Century's Episode",
    "repository": "kara.moe",
    "tid": "00724e3d-38b0-4034-a1df-1a1c63ceeac8",
    "types": [
      "series",
      "1",
      "franchises",
      "18"
    ]
  }
}