{
  "header": {
    "description": "Karaoke Mugen Tag File",
    "version": 1
  },
  "tag": {
    "i18n": {
      "eng": "Antenne 2"
    },
    "name": "Antenne 2",
    "tid": "9472cadf-cc7c-4966-9f40-67b76660df81",
    "types": [
      "creators",
      "4"
    ],
    "repository": "kara.moe",
    "modified_at": "2020-03-31T19:04:33.508Z"
  }
}