{
  "header": {
    "description": "Karaoke Mugen Tag File",
    "version": 1
  },
  "tag": {
    "aliases": [
      "aoashi"
    ],
    "external_database_ids": {
      "anilist": 134732,
      "myanimelist": 49052,
      "kitsu": 44629
    },
    "i18n": {
      "eng": "Ao Ashi",
      "fre": "Ao Ashi - Playmaker",
      "jpn": "アオアシ"
    },
    "name": "Ao Ashi",
    "repository": "kara.moe",
    "tid": "a8a05a73-9487-4ab5-a939-8c723effda3e",
    "types": [
      "series",
      "1"
    ]
  }
}