{
  "header": {
    "description": "Karaoke Mugen Tag File",
    "version": 1
  },
  "tag": {
    "i18n": {
      "eng": "Applique"
    },
    "name": "Applique",
    "tid": "69677f28-499c-42ab-ac2e-ef86a350a2a5",
    "types": [
      "creators",
      "4"
    ],
    "repository": "kara.moe",
    "modified_at": "2020-03-31T19:04:33.527Z"
  }
}