{
  "header": {
    "description": "Karaoke Mugen Tag File",
    "version": 1
  },
  "tag": {
    "i18n": {
      "eng": "Apricot*",
      "jpn": "あぷりこっと＊",
      "qro": "Apricot*"
    },
    "name": "Apricot*",
    "repository": "kara.moe",
    "tid": "ad26c2b7-b0eb-4a64-bbfd-4eb655795a18",
    "types": [
      "creators",
      "4"
    ]
  }
}