{
  "header": {
    "description": "Karaoke Mugen Tag File",
    "version": 1
  },
  "tag": {
    "i18n": {
      "eng": "AQUASTYLE"
    },
    "name": "AQUASTYLE",
    "repository": "kara.moe",
    "tid": "9aa90129-fcd1-46f7-b7fe-80bf66a89308",
    "types": [
      "creators",
      "4"
    ]
  }
}