{
  "header": {
    "description": "Karaoke Mugen Tag File",
    "version": 1
  },
  "tag": {
    "aliases": [
      "Zero meter. The place where two persons are the nearest.",
      "アクア"
    ],
    "i18n": {
      "jpn": "Aqua",
      "qro": "Aqua"
    },
    "modified_at": "2020-03-31T19:04:30.973Z",
    "name": "Aqua",
    "repository": "kara.moe",
    "tid": "94eabece-79fa-4a46-8704-a5bee639dd2d",
    "types": [
      "series",
      "1"
    ]
  }
}