{
  "header": {
    "description": "Karaoke Mugen Tag File",
    "version": 1
  },
  "tag": {
    "i18n": {
      "eng": "Arista Records"
    },
    "modified_at": "2021-09-12T13:37:07.299Z",
    "name": "Arista Records",
    "repository": "kara.moe",
    "tid": "e9f734dc-1c41-4087-99a6-badb07a87a3d",
    "types": [
      "creators",
      "4"
    ]
  }
}