{
  "header": {
    "description": "Karaoke Mugen Tag File",
    "version": 1
  },
  "tag": {
    "i18n": {
      "eng": "Arkifix"
    },
    "name": "Arkifix",
    "repository": "kara.moe",
    "tid": "7f623bc1-2c78-4369-9f58-efde4742741e",
    "types": [
      "authors",
      "6"
    ]
  }
}