{
  "header": {
    "description": "Karaoke Mugen Tag File",
    "version": 1
  },
  "tag": {
    "i18n": {
      "afr": "Armeense",
      "alb": "Armen",
      "amh": "የአርማንያ",
      "ara": "الأرمنية",
      "arm": ".",
      "aze": "Ermənistan",
      "bak": "Әрмәнстан",
      "baq": "Armenian",
      "bel": "Арменіі",
      "ben": "আর্মেনিয়ান",
      "bos": "Jermenski",
      "bul": "Армения",
      "cat": "Armènia",
      "chi": "亚美尼亚",
      "cze": "Arménská",
      "dan": "Armenske",
      "dut": "Armeens",
      "eng": "Armenian",
      "epo": "Armena",
      "est": "Armeenia",
      "fin": "Armenian",
      "fre": "Arménien",
      "geo": "სომხური",
      "ger": "Armenisch",
      "gla": "Airmeinis",
      "gle": "Dram",
      "glg": "Dron",
      "gre": "Αρμενίων",
      "guj": "આર્મેનિયન",
      "hat": "Amenyen",
      "heb": "ארמני",
      "hin": "अर्मेनियाई",
      "hrv": "Armenija",
      "hun": "Örmény",
      "ice": "Armenska",
      "ind": "Armenia",
      "ita": "Armeno",
      "jav": "Armenia",
      "jpn": "アルメニア語",
      "kan": "ಅರ್ಮೇನಿಯನ್",
      "kaz": "Армения",
      "kir": "Армениянын",
      "kor": "아르메니아",
      "lat": "Armenius",
      "lav": "Armēņu",
      "lit": "Armėnų",
      "mac": "Ерменски",
      "mal": "അർമേനിയൻ",
      "mao": "Armenian",
      "mar": "Armenian",
      "may": "Armenia",
      "mlg": "Armeniana",
      "mlt": "Armenja",
      "mon": "Армений",
      "nep": "आर्मेनियाली",
      "nor": "Armenske",
      "pan": "ਅਰਮੀਨੀਆਈ",
      "per": "ارمنستان",
      "pol": "Armenii",
      "por": "Arménio",
      "rum": "Armean",
      "rus": "Армении",
      "sin": "ආර්මේනියානු",
      "slo": "Arménske",
      "slv": "Armenski",
      "spa": "Armenia",
      "srp": "Јерменски",
      "sun": "Arménia",
      "swa": "Muarmeni",
      "swe": "Armeniska",
      "tam": "Armenian",
      "tat": "Әрмәнстан",
      "tel": "అర్మేనియన్",
      "tgk": "Арманистон",
      "tgl": "Armenian",
      "tha": "ภาษาอาร์เมเนีย name",
      "tur": "Ermeni",
      "ukr": "Вірменії",
      "urd": "ارمینی",
      "uzb": "Arman",
      "vie": "Armenia",
      "wel": "Dram",
      "xho": "Uqu.",
      "yid": "ארמאניש"
    },
    "name": "arm",
    "repository": "kara.moe",
    "tid": "ebd0e2d4-308d-4980-b160-b60da269370d",
    "types": [
      "langs",
      "5"
    ]
  }
}