{
  "header": {
    "description": "Karaoke Mugen Tag File",
    "version": 1
  },
  "tag": {
    "i18n": {
      "eng": "ARM"
    },
    "name": "ARM",
    "repository": "kara.moe",
    "tid": "feceb592-efac-4eda-9b03-c27cf509004c",
    "types": [
      "songwriters",
      "8",
      "singers",
      "2"
    ]
  }
}