{
  "header": {
    "description": "Karaoke Mugen Tag File",
    "version": 1
  },
  "tag": {
    "i18n": {
      "eng": "ARMADILLO"
    },
    "modified_at": "2020-06-01T16:55:45.301Z",
    "name": "ARMADILLO",
    "repository": "kara.moe",
    "tid": "851d20dc-8c99-428b-bbb1-d48b53366340",
    "types": [
      "songwriters",
      "8"
    ]
  }
}