{
  "header": {
    "description": "Karaoke Mugen Tag File",
    "version": 1
  },
  "tag": {
    "aliases": [
      "Arthur Conant Lounsbery"
    ],
    "i18n": {
      "eng": "Arthur Lounsbery"
    },
    "modified_at": "2021-12-03T21:00:07.616Z",
    "name": "Arthur Lounsbery",
    "repository": "kara.moe",
    "tid": "8713d8eb-9dc2-4016-bef8-e875f9030da1",
    "types": [
      "singers",
      "2"
    ]
  }
}