{
  "header": {
    "description": "Karaoke Mugen Tag File",
    "version": 1
  },
  "tag": {
    "i18n": {
      "eng": "ArtiSTARs"
    },
    "name": "ArtiSTARs",
    "repository": "kara.moe",
    "tid": "fe5deb68-4d40-46ff-a44c-e6c3176c08d5",
    "types": [
      "singergroups",
      "17"
    ]
  }
}