{
  "header": {
    "description": "Karaoke Mugen Tag File",
    "version": 1
  },
  "tag": {
    "i18n": {
      "eng": "Aruku Seikyôiku"
    },
    "modified_at": "2020-11-26T00:51:28.970Z",
    "name": "Aruku Seikyôiku",
    "repository": "kara.moe",
    "tid": "f5390b2b-1b6a-4f5f-b52e-bf2ab398ec96",
    "types": [
      "singers",
      "2"
    ]
  }
}