{
  "header": {
    "description": "Karaoke Mugen Tag File",
    "version": 1
  },
  "tag": {
    "i18n": {
      "eng": "Arushi"
    },
    "name": "Arushi",
    "repository": "kara.moe",
    "tid": "4398592a-2e71-4122-ad12-1c6d7505450d",
    "types": [
      "creators",
      "4"
    ]
  }
}