{
  "header": {
    "description": "Karaoke Mugen Tag File",
    "version": 1
  },
  "tag": {
    "i18n": {
      "eng": "Asa Chang"
    },
    "name": "Asa Chang",
    "tid": "c5b74429-e4e2-4750-837c-1ee0fd5ddee6",
    "types": [
      "songwriters",
      "8"
    ],
    "repository": "kara.moe",
    "modified_at": "2020-03-31T19:04:33.551Z"
  }
}