{
  "header": {
    "description": "Karaoke Mugen Tag File",
    "version": 1
  },
  "tag": {
    "i18n": {
      "eng": "Asahina Matsuri"
    },
    "name": "Asahina Matsuri",
    "repository": "kara.moe",
    "tid": "61e75db5-d498-4834-8bad-0b6e33b9fdeb",
    "types": [
      "singers",
      "2"
    ]
  }
}