{
  "header": {
    "description": "Karaoke Mugen Tag File",
    "version": 1
  },
  "tag": {
    "i18n": {
      "eng": "Asaka Asai"
    },
    "name": "Asaka Asai",
    "tid": "63d1d5a6-c210-4449-86fa-ab971bce1a34",
    "types": [
      "singers",
      "2"
    ],
    "repository": "kara.moe",
    "modified_at": "2020-03-31T19:04:33.554Z"
  }
}