{
  "header": {
    "description": "Karaoke Mugen Tag File",
    "version": 1
  },
  "tag": {
    "i18n": {
      "eng": "Asakoshi Satomi"
    },
    "modified_at": "2020-08-25T22:00:45.956Z",
    "name": "Asakoshi Satomi",
    "repository": "kara.moe",
    "tid": "a43d2673-c0b5-4dea-879c-1d39dabcf911",
    "types": [
      "songwriters",
      "8"
    ]
  }
}