{
  "header": {
    "description": "Karaoke Mugen Tag File",
    "version": 1
  },
  "tag": {
    "i18n": {
      "eng": "Asaki"
    },
    "name": "Asaki",
    "tid": "25f87cf1-f749-4bf0-ad37-618e80a0abf8",
    "types": [
      "songwriters",
      "8"
    ],
    "repository": "kara.moe",
    "modified_at": "2020-03-31T19:04:33.555Z"
  }
}