{
  "header": {
    "description": "Karaoke Mugen Tag File",
    "version": 1
  },
  "tag": {
    "i18n": {
      "eng": "Asami Tano"
    },
    "name": "Asami Tano",
    "tid": "29774a6a-2bba-440d-b7e2-d033a3cca0cc",
    "types": [
      "singers",
      "2"
    ],
    "repository": "kara.moe",
    "modified_at": "2020-03-31T19:04:33.561Z"
  }
}