{
  "header": {
    "description": "Karaoke Mugen Tag File",
    "version": 1
  },
  "tag": {
    "i18n": {
      "eng": "Asami Shimoda"
    },
    "name": "Asami Shimoda",
    "tid": "de5be408-bbf9-48a5-913b-0e1e82872585",
    "types": [
      "singers",
      "2",
      "songwriters",
      "8"
    ],
    "repository": "kara.moe",
    "modified_at": "2020-03-31T19:04:33.560Z"
  }
}