{
  "header": {
    "description": "Karaoke Mugen Tag File",
    "version": 1
  },
  "tag": {
    "i18n": {
      "eng": "asb"
    },
    "modified_at": "2021-10-02T16:26:05.598Z",
    "name": "asb",
    "repository": "kara.moe",
    "tid": "df82c984-d5d6-40bb-b1d7-7dd2a08d4004",
    "types": [
      "authors",
      "6"
    ]
  }
}