{
  "header": {
    "description": "Karaoke Mugen Tag File",
    "version": 1
  },
  "tag": {
    "i18n": {
      "eng": "ASCA"
    },
    "name": "ASCA",
    "tid": "eb7d3e69-1bee-48b5-be58-af2495c32778",
    "types": [
      "singers",
      "2",
      "songwriters",
      "8"
    ],
    "repository": "kara.moe",
    "modified_at": "2020-03-31T19:04:33.564Z"
  }
}