{
  "header": {
    "description": "Karaoke Mugen Tag File",
    "version": 1
  },
  "tag": {
    "i18n": {
      "eng": "ascension"
    },
    "name": "ascension",
    "tid": "ef8ff4c5-246e-4803-bef3-1741b0cfc3dd",
    "types": [
      "creators",
      "4"
    ],
    "repository": "kara.moe",
    "modified_at": "2020-03-31T19:04:33.565Z"
  }
}