{
  "header": {
    "description": "Karaoke Mugen Tag File",
    "version": 1
  },
  "tag": {
    "aliases": [
      "Nadja of Tomorrow",
      "Nádia",
      "Tomorrow's Nadja",
      "نادجا الغد",
      "明日的娜嘉"
    ],
    "external_database_ids": {
      "anilist": 1946,
      "myanimelist": 1946,
      "kitsu": 1754
    },
    "i18n": {
      "eng": "Tomorrow's Nadja",
      "fre": "Nadja Applefields",
      "ita": "Nadja Applefield",
      "jpn": "明日のナージャ",
      "por": "Nadja Apple Fields",
      "spa": "Nadja del mañana",
      "qro": "Ashita no Nadja"
    },
    "modified_at": "2020-06-21T23:45:31.966Z",
    "name": "Ashita no Nadja",
    "repository": "kara.moe",
    "tid": "c5a88a6f-51b9-4451-b014-425ded17e837",
    "types": [
      "series",
      "1"
    ]
  }
}