{
  "header": {
    "description": "Karaoke Mugen Tag File",
    "version": 1
  },
  "tag": {
    "description": {
      "eng": "Music from Asian countries (Japan, South Korea, China, etc.)",
      "fre": "Musique venant des pays d'Asie (Japon, Corée du Sud, Chine, etc.)"
    },
    "i18n": {
      "eng": "Asia"
    },
    "name": "Asia",
    "repository": "kara.moe",
    "tid": "dbcf2c22-524d-4708-99bb-601703633927",
    "types": [
      "collections",
      "16"
    ]
  }
}