{
  "header": {
    "description": "Karaoke Mugen Tag File",
    "version": 1
  },
  "tag": {
    "i18n": {
      "eng": "Aslak Lefèvre"
    },
    "name": "Aslak Lefèvre",
    "repository": "kara.moe",
    "tid": "f956f4e7-d328-4173-adec-3a1903022746",
    "types": [
      "creators",
      "4"
    ]
  }
}