{
  "header": {
    "description": "Karaoke Mugen Tag File",
    "version": 1
  },
  "tag": {
    "aliases": [
      "Doumei"
    ],
    "i18n": {
      "jpn": "ASOBI同盟",
      "qro": "Asobi Dômei"
    },
    "name": "Asobi Dômei",
    "repository": "kara.moe",
    "tid": "c300e3d7-8f93-488e-8868-8004ff8447e5",
    "types": [
      "singergroups",
      "17"
    ]
  }
}