{
  "header": {
    "description": "Karaoke Mugen Tag File",
    "version": 1
  },
  "tag": {
    "i18n": {
      "ara": "أستريكس و كليوباترا",
      "dut": "Asterix en Cleopatra",
      "eng": "Asterix and Cleopatra",
      "fre": "Astérix et Cléopâtre",
      "ger": "Asterix und Kleopatra",
      "ita": "Asterix e Cleopatra",
      "rus": "Астерикс и Клеопатра",
      "spa": "Astérix y Cleopatra"
    },
    "modified_at": "2020-03-31T19:04:31.003Z",
    "name": "Astérix et Cléopâtre",
    "repository": "kara.moe",
    "tid": "fe09458a-3611-49a6-b18d-5c545eea8842",
    "types": [
      "series",
      "1"
    ]
  }
}