{
  "header": {
    "description": "Karaoke Mugen Tag File",
    "version": 1
  },
  "tag": {
    "i18n": {
      "eng": "Asuka Kozuka"
    },
    "name": "Asuka Kozuka",
    "repository": "kara.moe",
    "tid": "6746abef-7f7c-43f3-8771-97b00cf357ee",
    "types": [
      "singers",
      "2"
    ]
  }
}