{
  "header": {
    "description": "Karaoke Mugen Tag File",
    "version": 1
  },
  "tag": {
    "i18n": {
      "eng": "AUGUST"
    },
    "name": "AUGUST",
    "tid": "c561cfc4-2d33-4271-97ef-954456fc2fb1",
    "types": [
      "creators",
      "4"
    ],
    "repository": "kara.moe",
    "modified_at": "2020-03-31T19:04:33.600Z"
  }
}