{
  "header": {
    "description": "Karaoke Mugen Tag File",
    "version": 1
  },
  "tag": {
    "i18n": {
      "eng": "Austin Luther"
    },
    "modified_at": "2020-08-25T15:20:22.921Z",
    "name": "Austin Luther",
    "repository": "kara.moe",
    "tid": "ccb7cf47-3d81-4d58-bdf5-e3ee32c1ef44",
    "types": [
      "songwriters",
      "8"
    ]
  }
}