{
  "header": {
    "description": "Karaoke Mugen Tag File",
    "version": 1
  },
  "tag": {
    "i18n": {
      "eng": "awoko"
    },
    "name": "awoko",
    "repository": "kara.moe",
    "tid": "8962c4fc-8851-4647-9d64-5fe515a9aea5",
    "types": [
      "creators",
      "4"
    ]
  }
}