{
  "header": {
    "description": "Karaoke Mugen Tag File",
    "version": 1
  },
  "tag": {
    "aliases": [
      "ひらの あや"
    ],
    "i18n": {
      "eng": "Aya Hirano",
      "jpn": "平野綾",
      "qro": "Aya Hirano"
    },
    "name": "Aya Hirano",
    "repository": "kara.moe",
    "tid": "488aea99-01a0-4c2c-b475-b61d99efe994",
    "types": [
      "songwriters",
      "8",
      "singers",
      "2"
    ]
  }
}