{
  "header": {
    "description": "Karaoke Mugen Tag File",
    "version": 1
  },
  "tag": {
    "i18n": {
      "eng": "Aya Kamiki"
    },
    "name": "Aya Kamiki",
    "tid": "44ef61df-2cb4-436c-a1a9-513780e68f1a",
    "types": [
      "singers",
      "2",
      "songwriters",
      "8"
    ],
    "repository": "kara.moe",
    "modified_at": "2020-03-31T19:04:33.611Z"
  }
}