{
  "header": {
    "description": "Karaoke Mugen Tag File",
    "version": 1
  },
  "tag": {
    "i18n": {
      "eng": "Ayaka Tatamino"
    },
    "name": "Ayaka Tatamino",
    "repository": "kara.moe",
    "tid": "53df0987-46e5-4854-85a8-3f7c6150f8cb",
    "types": [
      "songwriters",
      "8"
    ]
  }
}