{
  "header": {
    "description": "Karaoke Mugen Tag File",
    "version": 1
  },
  "tag": {
    "i18n": {
      "eng": "Ayako Kawasumi"
    },
    "name": "Ayako Kawasumi",
    "tid": "9fc27af5-fe11-434d-8171-0ede4f359ad5",
    "types": [
      "singers",
      "2"
    ],
    "repository": "kara.moe",
    "modified_at": "2020-03-31T19:04:33.624Z"
  }
}