{
  "header": {
    "description": "Karaoke Mugen Tag File",
    "version": 1
  },
  "tag": {
    "i18n": {
      "eng": "Ayako Nakanomori"
    },
    "modified_at": "2020-11-22T16:38:09.477Z",
    "name": "Ayako Nakanomori",
    "repository": "kara.moe",
    "tid": "230cdc90-971f-4c84-ab3f-a4c90f448a38",
    "types": [
      "songwriters",
      "8"
    ]
  }
}