{
  "header": {
    "description": "Karaoke Mugen Tag File",
    "version": 1
  },
  "tag": {
    "i18n": {
      "eng": "ayami"
    },
    "name": "ayami",
    "tid": "a04466c5-f45a-4063-a180-447ba2966685",
    "types": [
      "singers",
      "2"
    ],
    "repository": "kara.moe",
    "modified_at": "2020-03-31T19:04:33.627Z"
  }
}