{
  "header": {
    "description": "Karaoke Mugen Tag File",
    "version": 1
  },
  "tag": {
    "i18n": {
      "eng": "Ayami Fujino"
    },
    "name": "Ayami Fujino",
    "repository": "kara.moe",
    "tid": "e059cf0f-cf3a-4578-aa5e-27a3f21e4624",
    "types": [
      "singers",
      "2"
    ]
  }
}