{
  "header": {
    "description": "Karaoke Mugen Tag File",
    "version": 1
  },
  "tag": {
    "aliases": [
      "Ayumayu Alternative",
      "Muv-Luv Alternative Chronicles"
    ],
    "i18n": {
      "eng": "Ayu Mayu Alternative",
      "jpn": "アユマユ オルタネイティヴ",
      "qro": "Ayu Mayu Alternative"
    },
    "modified_at": "2020-03-31T19:04:31.015Z",
    "name": "Ayu Mayu Alternative",
    "repository": "kara.moe",
    "tid": "fce33cde-079f-4c4a-9eaf-16182d951129",
    "types": [
      "series",
      "1"
    ]
  }
}