{
  "header": {
    "description": "Karaoke Mugen Tag File",
    "version": 1
  },
  "tag": {
    "i18n": {
      "eng": "Azari"
    },
    "name": "Azari",
    "repository": "kara.moe",
    "tid": "5b4cbd48-18fe-44f2-84d9-445132823852",
    "types": [
      "creators",
      "4",
      "songwriters",
      "8"
    ]
  }
}