{
  "header": {
    "description": "Karaoke Mugen Tag File",
    "version": 1
  },
  "tag": {
    "i18n": {
      "eng": "B-Komachi"
    },
    "name": "B-Komachi",
    "repository": "kara.moe",
    "tid": "e9d18df2-6893-483d-ab73-d7e1d4ca70e9",
    "types": [
      "singergroups",
      "17"
    ]
  }
}