{
  "header": {
    "description": "Karaoke Mugen Tag File",
    "version": 1
  },
  "tag": {
    "i18n": {
      "eng": "B. Tibaldi"
    },
    "name": "B. Tibaldi",
    "tid": "f4beb791-59c8-4cfa-b08f-f3d8b90247b3",
    "types": [
      "songwriters",
      "8"
    ],
    "repository": "kara.moe",
    "modified_at": "2020-03-31T19:04:33.658Z"
  }
}