{
  "header": {
    "description": "Karaoke Mugen Tag File",
    "version": 1
  },
  "tag": {
    "i18n": {
      "eng": "B.B.Queens"
    },
    "name": "B.B.Queens",
    "tid": "75d1147c-dd13-44cd-8cff-320d3ef214cd",
    "types": [
      "singers",
      "2"
    ],
    "repository": "kara.moe",
    "modified_at": "2020-03-31T19:04:33.658Z"
  }
}