{
  "header": {
    "description": "Karaoke Mugen Tag File",
    "version": 1
  },
  "tag": {
    "i18n": {
      "eng": "Babyraids"
    },
    "name": "Babyraids",
    "tid": "317f3c9b-7645-4c71-9789-dfce2763ed24",
    "types": [
      "singers",
      "2"
    ],
    "repository": "kara.moe",
    "modified_at": "2020-03-31T19:04:33.664Z"
  }
}