{
  "header": {
    "description": "Karaoke Mugen Tag File",
    "version": 1
  },
  "tag": {
    "i18n": {
      "eng": "Baka-Saru"
    },
    "name": "Baka-Saru",
    "tid": "036b1b57-bcd1-47ad-926a-56f353a0f105",
    "types": [
      "authors",
      "6"
    ],
    "repository": "kara.moe",
    "modified_at": "2020-03-31T19:04:33.673Z"
  }
}