{
  "header": {
    "description": "Karaoke Mugen Tag File",
    "version": 1
  },
  "tag": {
    "aliases": [
      "バルドフォース",
      "バルドフォースエグゼ"
    ],
    "i18n": {
      "eng": "Baldr Force",
      "jpn": "バルドフォース",
      "qro": "Baldr Force"
    },
    "modified_at": "2020-03-31T19:04:31.037Z",
    "name": "Baldr Force",
    "repository": "kara.moe",
    "tid": "86bbe16c-acd6-47ed-a526-bb74b252dfe9",
    "types": [
      "series",
      "1"
    ]
  }
}