{
  "header": {
    "description": "Karaoke Mugen Tag File",
    "version": 1
  },
  "tag": {
    "aliases": [
      "BanG Dream! Garupa Pico",
      "BanG Dream! Girls Band Party! PICO ",
      "BanG Dream! Girls Band Party!☆PICO ",
      "Bandori Garupa Pico",
      "garupa pico"
    ],
    "external_database_ids": {
      "anilist": 101632,
      "myanimelist": 37873,
      "kitsu": 41292
    },
    "i18n": {
      "eng": "BanG Dream! Garupa☆Pico",
      "jpn": "BanG Dream! ガルパ☆ピコ",
      "qro": "BanG Dream! Garupa☆Pico"
    },
    "modified_at": "2020-03-31T19:04:31.044Z",
    "name": "BanG Dream! Garupa☆Pico",
    "repository": "kara.moe",
    "tid": "9a5e1da0-e9fd-4d18-b61d-5eb8c4c38867",
    "types": [
      "series",
      "1"
    ]
  }
}