{
  "header": {
    "description": "Karaoke Mugen Tag File",
    "version": 1
  },
  "tag": {
    "i18n": {
      "eng": "BANSHEE ALIOUXCE"
    },
    "name": "BANSHEE ALIOUXCE",
    "tid": "f7770b75-8005-4b78-8147-8174d93ee836",
    "types": [
      "songwriters",
      "8"
    ],
    "repository": "kara.moe",
    "modified_at": "2020-03-31T19:04:33.687Z"
  }
}