{
  "header": {
    "description": "Karaoke Mugen Tag File",
    "version": 1
  },
  "tag": {
    "i18n": {
      "eng": "Barnum Studio"
    },
    "name": "Barnum Studio",
    "tid": "a48739be-05c2-4154-90f7-c562b0b129a7",
    "types": [
      "creators",
      "4"
    ],
    "repository": "kara.moe",
    "modified_at": "2020-03-31T19:04:33.689Z"
  }
}