{
  "header": {
    "description": "Karaoke Mugen Tag File",
    "version": 1
  },
  "tag": {
    "i18n": {
      "eng": "Base Ball Bear"
    },
    "name": "Base Ball Bear",
    "tid": "1beb77b2-8d7a-48ea-89dc-df1321742b3e",
    "types": [
      "singers",
      "2"
    ],
    "repository": "kara.moe",
    "modified_at": "2020-03-31T19:04:33.690Z"
  }
}