{
  "header": {
    "description": "Karaoke Mugen Tag File",
    "version": 1
  },
  "tag": {
    "aliases": [
      "basquash",
      "باسكواش!",
      "飞篮扣杀"
    ],
    "external_database_ids": {
      "anilist": 5675,
      "myanimelist": 5675,
      "kitsu": 4238
    },
    "i18n": {
      "eng": "Basquash!",
      "jpn": "バスカッシュ!",
      "per": "باسکواش",
      "qro": "Basquash!"
    },
    "modified_at": "2020-03-31T19:04:31.050Z",
    "name": "Basquash!",
    "repository": "kara.moe",
    "tid": "57b3c4f5-7fa3-45fd-967a-d550b097a891",
    "types": [
      "series",
      "1"
    ]
  }
}