{
  "header": {
    "description": "Karaoke Mugen Tag File",
    "version": 1
  },
  "tag": {
    "i18n": {
      "eng": "Battlefleet Gothic: Armada"
    },
    "modified_at": "2020-03-31T19:04:31.055Z",
    "name": "Battlefleet Gothic: Armada",
    "repository": "kara.moe",
    "tid": "241987c3-28e5-4384-8c31-5dcea7647791",
    "types": [
      "series",
      "1"
    ]
  }
}