{
  "header": {
    "description": "Karaoke Mugen Tag File",
    "version": 1
  },
  "tag": {
    "i18n": {
      "eng": "batta"
    },
    "name": "batta",
    "tid": "c30466e7-05e8-4c48-9e4b-dda3654c5ce4",
    "types": [
      "singers",
      "2"
    ],
    "repository": "kara.moe",
    "modified_at": "2020-03-31T19:04:33.693Z"
  }
}