{
  "header": {
    "description": "Karaoke Mugen Tag File",
    "version": 1
  },
  "tag": {
    "i18n": {
      "eng": "BEAST MUSIC"
    },
    "name": "BEAST MUSIC",
    "tid": "428bb52d-19e4-4e7a-83f9-dae042e8e4db",
    "types": [
      "creators",
      "4"
    ],
    "repository": "kara.moe",
    "modified_at": "2020-03-31T19:04:33.695Z"
  }
}