{
  "header": {
    "description": "Karaoke Mugen Tag File",
    "version": 1
  },
  "tag": {
    "aliases": [
      "ビースターズ (2021)"
    ],
    "external_database_ids": {
      "anilist": 114194,
      "myanimelist": 40935,
      "kitsu": 42904
    },
    "i18n": {
      "eng": "Beastars 2nd Season",
      "jpn": "BEASTARS 2期",
      "qro": "Beastars (2021)"
    },
    "modified_at": "2021-03-25T18:44:13.878Z",
    "name": "Beastars (2021)",
    "repository": "kara.moe",
    "tid": "750ebbb7-fc20-446e-a792-ab103d257850",
    "types": [
      "series",
      "1"
    ]
  }
}