{
  "header": {
    "description": "Karaoke Mugen Tag File",
    "version": 1
  },
  "tag": {
    "aliases": [
      "ビートレス"
    ],
    "external_database_ids": {
      "anilist": 100245,
      "myanimelist": 36516,
      "kitsu": 13939
    },
    "i18n": {
      "eng": "Beatless",
      "jpn": "BEATLESS",
      "qro": "Beatless"
    },
    "modified_at": "2020-03-31T19:04:31.057Z",
    "name": "Beatless",
    "repository": "kara.moe",
    "tid": "f62c05a7-ecbd-4eac-a4d4-52824aa4802f",
    "types": [
      "series",
      "1"
    ]
  }
}