{
  "header": {
    "description": "Karaoke Mugen Tag File",
    "version": 1
  },
  "tag": {
    "i18n": {
      "eng": "BEE MEDIA"
    },
    "name": "BEE MEDIA",
    "tid": "29a9143c-1500-4d97-a590-d1e6062e5966",
    "types": [
      "creators",
      "4"
    ],
    "repository": "kara.moe",
    "modified_at": "2020-03-31T19:04:33.703Z"
  }
}