{
  "header": {
    "description": "Karaoke Mugen Tag File",
    "version": 1
  },
  "tag": {
    "i18n": {
      "eng": "Beijing Huihuang Animation Company"
    },
    "name": "Beijing Huihuang Animation Company",
    "tid": "3714a13a-5487-41f2-a04f-581ce28244fb",
    "types": [
      "creators",
      "4"
    ],
    "repository": "kara.moe",
    "modified_at": "2020-03-31T19:04:33.706Z"
  }
}