{
  "header": {
    "description": "Karaoke Mugen Tag File",
    "version": 1
  },
  "tag": {
    "i18n": {
      "eng": "Ben 10"
    },
    "name": "Ben 10",
    "repository": "kara.moe",
    "tid": "a75b86ca-5fbd-4f08-8f7d-0df6a9243a8b",
    "types": [
      "series",
      "1"
    ]
  }
}