{
  "header": {
    "description": "Karaoke Mugen Tag File",
    "version": 1
  },
  "tag": {
    "i18n": {
      "eng": "Benjamin Morgaine"
    },
    "modified_at": "2020-06-21T20:59:02.971Z",
    "name": "Benjamin Morgaine",
    "repository": "kara.moe",
    "tid": "372588e7-df05-4039-a6a1-99b388305057",
    "types": [
      "songwriters",
      "8"
    ]
  }
}