{
  "header": {
    "description": "Karaoke Mugen Tag File",
    "version": 1
  },
  "tag": {
    "i18n": {
      "eng": "Benny Andersson"
    },
    "name": "Benny Andersson",
    "repository": "kara.moe",
    "tid": "a7015d78-357a-468c-91d5-5bd23ee48656",
    "types": [
      "songwriters",
      "8"
    ]
  }
}