{
  "header": {
    "description": "Karaoke Mugen Tag File",
    "version": 1
  },
  "tag": {
    "i18n": {
      "eng": "Benny Blanco"
    },
    "name": "Benny Blanco",
    "repository": "kara.moe",
    "tid": "8529011b-0e39-44e4-8a17-38749049f864",
    "types": [
      "songwriters",
      "8"
    ]
  }
}