{
  "header": {
    "description": "Karaoke Mugen Tag File",
    "version": 1
  },
  "tag": {
    "i18n": {
      "eng": "Beverly"
    },
    "name": "Beverly",
    "tid": "b383f5ea-39e0-4040-bc3f-3dff46b93cd4",
    "types": [
      "singers",
      "2",
      "songwriters",
      "8"
    ],
    "repository": "kara.moe",
    "modified_at": "2020-03-31T19:04:33.725Z"
  }
}