{
  "header": {
    "description": "Karaoke Mugen Tag File",
    "version": 1
  },
  "tag": {
    "i18n": {
      "eng": "Bill Nye"
    },
    "name": "Bill Nye",
    "tid": "ad17a9ef-bb11-4d8e-bafd-fb65af35c6d8",
    "types": [
      "singers",
      "2"
    ],
    "repository": "kara.moe",
    "modified_at": "2020-03-31T19:04:33.734Z"
  }
}