{
  "header": {
    "description": "Karaoke Mugen Tag File",
    "version": 1
  },
  "tag": {
    "i18n": {
      "eng": "Bill Kaulitz"
    },
    "modified_at": "2021-07-18T18:02:46.417Z",
    "name": "Bill Kaulitz",
    "repository": "kara.moe",
    "tid": "6012ee1f-89e0-4ecb-aa6f-af3a2711d6b8",
    "types": [
      "songwriters",
      "8"
    ]
  }
}