{
  "header": {
    "description": "Karaoke Mugen Tag File",
    "version": 1
  },
  "tag": {
    "aliases": [
      "Bishoujo Senshi Sailor Moon Super S",
      "Pretty Guardian Sailor Moon Super S",
      "Pretty Soldier Sailor Moon Super S",
      "SM SS",
      "SMSS",
      "bishoujo"
    ],
    "external_database_ids": {
      "anilist": 1239,
      "myanimelist": 1239,
      "kitsu": 1115
    },
    "i18n": {
      "eng": "Sailor Moon Super S",
      "fre": "Sailor Moon Super S",
      "ger": "Sailor Moon Super S",
      "hun": "Varázslatos Álmok Super S",
      "ita": "Sailor Moon e il mistero dei sogni",
      "jpn": "美少女戦士セーラームーンSuperS",
      "pol": "Czarodziejka z Księżyca: Sailor Moon Super S",
      "por": "Sailor Moon SuperS",
      "rum": "Sailor Moon Super S",
      "rus": "Сейлормун",
      "spa": "Sailor Moon Super S",
      "tha": "เซเลอร์มูน SuperS",
      "qro": "Bishôjo Senshi Sailor Moon Super S"
    },
    "modified_at": "2020-03-31T19:04:31.077Z",
    "name": "Bishôjo Senshi Sailor Moon Super S",
    "repository": "kara.moe",
    "tid": "69922106-fe4f-4345-a905-aeec201e5cd7",
    "types": [
      "series",
      "1"
    ]
  }
}