{
  "header": {
    "description": "Karaoke Mugen Tag File",
    "version": 1
  },
  "tag": {
    "i18n": {
      "eng": "Black Lilith"
    },
    "name": "Black Lilith",
    "tid": "aea22ed1-d3b5-44fe-99e1-d1fd689f9226",
    "types": [
      "creators",
      "4"
    ],
    "repository": "kara.moe",
    "modified_at": "2020-03-31T19:04:33.743Z"
  }
}