{
  "header": {
    "description": "Karaoke Mugen Tag File",
    "version": 1
  },
  "tag": {
    "aliases": [
      "BRS",
      "B★RS",
      "Juodoji Roko Šaulė",
      "brs",
      "brstv",
      "Стрелок с Чёрной скалы",
      "Стрілець з Чорної Скелі",
      "Чорний Кам'яний Стрілець",
      "black rock"
    ],
    "external_database_ids": {
      "anilist": 12079,
      "myanimelist": 12079,
      "kitsu": 6661
    },
    "i18n": {
      "eng": "Black★Rock Shooter",
      "ger": "Black★Rock Shooter",
      "jpn": "ブラック★ロックシューター (2012)",
      "qro": "Black★Rock Shooter"
    },
    "modified_at": "2020-06-21T23:45:31.966Z",
    "name": "Black★Rock Shooter",
    "repository": "kara.moe",
    "tid": "19f34f2a-7fdc-4e04-acc7-f521f64ccc2f",
    "types": [
      "series",
      "1",
      "franchises",
      "18"
    ]
  }
}