{
  "header": {
    "description": "Karaoke Mugen Tag File",
    "version": 1
  },
  "tag": {
    "i18n": {
      "eng": "Black Wolves Saga -Weiβ und Schwarz-",
      "jpn": "BLACK WOLVES SAGA -Weiβ und Schwarz- 通常版",
      "qro": "Black Wolves Saga -Weiβ und Schwarz-"
    },
    "modified_at": "2020-03-31T19:04:31.090Z",
    "name": "Black Wolves Saga -Weiβ und Schwarz-",
    "repository": "kara.moe",
    "tid": "27750e28-556c-49db-bf95-acb5e227ec8c",
    "types": [
      "series",
      "1"
    ]
  }
}