{
  "header": {
    "description": "Karaoke Mugen Tag File",
    "version": 1
  },
  "tag": {
    "i18n": {
      "eng": "Blend-A"
    },
    "name": "Blend-A",
    "tid": "9d04a908-18c1-4d27-9f92-e2aa7c6966ff",
    "types": [
      "singers",
      "2"
    ],
    "repository": "kara.moe",
    "modified_at": "2020-03-31T19:04:33.746Z"
  }
}