{
  "header": {
    "description": "Karaoke Mugen Tag File",
    "version": 1
  },
  "tag": {
    "i18n": {
      "eng": "Blico"
    },
    "name": "Blico",
    "tid": "c07a73c1-603f-470b-9863-a7de943b8151",
    "types": [
      "singers",
      "2"
    ],
    "repository": "kara.moe",
    "modified_at": "2020-03-31T19:04:33.748Z"
  }
}