{
  "header": {
    "description": "Karaoke Mugen Tag File",
    "version": 1
  },
  "tag": {
    "i18n": {
      "eng": "Block B"
    },
    "name": "Block B",
    "tid": "dbe4ad6f-f967-4d20-8cc4-2e968889e72d",
    "types": [
      "singers",
      "2"
    ],
    "repository": "kara.moe",
    "modified_at": "2020-03-31T19:04:33.749Z"
  }
}