{
  "header": {
    "description": "Karaoke Mugen Tag File",
    "version": 1
  },
  "tag": {
    "external_database_ids": {
      "anilist": 11633,
      "myanimelist": 11633,
      "kitsu": 6552
    },
    "i18n": {
      "chi": "BLOOD LAD 血意少年",
      "eng": "Blood Lad",
      "fre": "Blood Lad",
      "ger": "Blood Lad",
      "jpn": "ブラッドラッド",
      "per": "پسر خون",
      "qro": "Blood Lad"
    },
    "modified_at": "2020-03-31T19:04:31.099Z",
    "name": "Blood Lad",
    "repository": "kara.moe",
    "tid": "2e45ca18-0641-4afa-b0f1-031af85e9015",
    "types": [
      "series",
      "1"
    ]
  }
}