{
  "header": {
    "description": "Karaoke Mugen Tag File",
    "version": 1
  },
  "tag": {
    "external_database_ids": {
      "anilist": 10490,
      "myanimelist": 10490,
      "kitsu": 6203
    },
    "i18n": {
      "eng": "BLOOD-C",
      "ger": "Blood-C",
      "jpn": "BLOOD-C",
      "spa": "Blood-C",
      "qro": "Blood-C"
    },
    "modified_at": "2020-03-31T19:04:31.101Z",
    "name": "Blood-C",
    "repository": "kara.moe",
    "tid": "7390bfcb-7b0b-4e43-8af6-bc0031907a31",
    "types": [
      "series",
      "1"
    ]
  }
}