{
  "header": {
    "description": "Karaoke Mugen Tag File",
    "version": 1
  },
  "tag": {
    "i18n": {
      "eng": "Bob Bryar"
    },
    "name": "Bob Bryar",
    "repository": "kara.moe",
    "tid": "c7c4f5cc-9d32-4619-972f-190d75a8be7e",
    "types": [
      "songwriters",
      "8"
    ]
  }
}