{
  "header": {
    "description": "Karaoke Mugen Tag File",
    "version": 1
  },
  "tag": {
    "i18n": {
      "eng": "bohning"
    },
    "name": "bohning",
    "repository": "kara.moe",
    "tid": "7929a2fc-a502-4ba2-bdf8-1dba341f9b5a",
    "types": [
      "authors",
      "6"
    ]
  }
}