{
  "header": {
    "description": "Karaoke Mugen Tag File",
    "version": 1
  },
  "tag": {
    "i18n": {
      "eng": "My Hero Academia the Movie: World Heroes` Mission",
      "jpn": "僕のヒーローアカデミア THE MOVIE ワールド ヒーローズ ミッション",
      "qro": "Boku no Hero Academia the Movie: World Heroes` Mission"
    },
    "name": "Boku no Hero Academia the Movie: World Heroes` Mission",
    "repository": "kara.moe",
    "tid": "f0daedf2-7ac8-494e-b9a4-e43c80180470",
    "types": [
      "series",
      "1"
    ]
  }
}