{
  "header": {
    "description": "Karaoke Mugen Tag File",
    "version": 1
  },
  "tag": {
    "aliases": [
      "BokuHero",
      "HeroAca",
      "MHA",
      "heroaca",
      "Моя геройская академия",
      "Моята академия на героите",
      "ヒロアカ"
    ],
    "external_database_ids": {
      "anilist": 21459,
      "myanimelist": 31964,
      "kitsu": 11469
    },
    "i18n": {
      "eng": "My Hero Academia",
      "fre": "My Hero Academia (saison 1)",
      "jpn": "僕のヒーローアカデミア",
      "qro": "Boku no Hero Academia"
    },
    "modified_at": "2020-03-31T19:04:31.108Z",
    "name": "Boku no Hero Academia",
    "repository": "kara.moe",
    "tid": "b3b97169-60a7-4cc6-8738-d47bff14eb67",
    "types": [
      "series",
      "1"
    ]
  }
}