{
  "header": {
    "description": "Karaoke Mugen Tag File",
    "version": 1
  },
  "tag": {
    "i18n": {
      "eng": "BOYSTYLE"
    },
    "name": "BOYSTYLE",
    "tid": "3932b2e1-92da-4ea4-8658-09c8eec8e8a8",
    "types": [
      "singers",
      "2"
    ],
    "repository": "kara.moe",
    "modified_at": "2020-03-31T19:04:33.775Z"
  }
}