{
  "header": {
    "description": "Karaoke Mugen Tag File",
    "version": 1
  },
  "tag": {
    "i18n": {
      "eng": "Brad Breeck"
    },
    "name": "Brad Breeck",
    "tid": "df203b50-63f3-4749-8a63-3a82707f78ff",
    "types": [
      "songwriters",
      "8",
      "singers",
      "2"
    ],
    "repository": "kara.moe",
    "modified_at": "2020-03-31T19:04:33.777Z"
  }
}