{
  "header": {
    "description": "Karaoke Mugen Tag File",
    "version": 1
  },
  "tag": {
    "i18n": {
      "eng": "Brad Holmes"
    },
    "name": "Brad Holmes",
    "tid": "34dc3b1a-59f4-4bed-b300-353a1f1edbd4",
    "types": [
      "singers",
      "2",
      "songwriters",
      "8"
    ],
    "repository": "kara.moe",
    "modified_at": "2020-03-31T19:04:33.777Z"
  }
}