{
  "header": {
    "description": "Karaoke Mugen Tag File",
    "version": 1
  },
  "tag": {
    "aliases": [
      "ビー・エヌ・エー"
    ],
    "external_database_ids": {
      "anilist": 110354,
      "myanimelist": 40060,
      "kitsu": 42434
    },
    "i18n": {
      "eng": "BNA: Brand New Animal",
      "jpn": "BNA",
      "qro": "Brand New Animal"
    },
    "modified_at": "2020-03-31T19:04:31.124Z",
    "name": "Brand New Animal",
    "repository": "kara.moe",
    "tid": "a43941b6-9d7e-48eb-a1e6-37a153c0688c",
    "types": [
      "series",
      "1"
    ]
  }
}