{
  "header": {
    "description": "Karaoke Mugen Tag File",
    "version": 1
  },
  "tag": {
    "i18n": {
      "eng": "Brown Eyed Girls"
    },
    "name": "Brown Eyed Girls",
    "repository": "kara.moe",
    "tid": "d4d17c0c-b6b1-4718-bc1b-bec82af17f34",
    "types": [
      "singergroups",
      "17"
    ]
  }
}