{
  "header": {
    "description": "Karaoke Mugen Tag File",
    "version": 1
  },
  "tag": {
    "i18n": {
      "eng": "Bruce Gaitsch"
    },
    "name": "Bruce Gaitsch",
    "repository": "kara.moe",
    "tid": "686edc8a-7e75-458e-85c2-4022143529de",
    "types": [
      "songwriters",
      "8"
    ]
  }
}