{
  "header": {
    "description": "Karaoke Mugen Tag File",
    "version": 1
  },
  "tag": {
    "external_database_ids": {
      "anilist": 142455,
      "myanimelist": 50549,
      "kitsu": 45559
    },
    "i18n": {
      "eng": "Bubble",
      "jpn": "バブル"
    },
    "name": "Bubble",
    "repository": "kara.moe",
    "tid": "51a44637-4248-4ddb-9bca-c64551a682bb",
    "types": [
      "series",
      "1"
    ]
  }
}