{
  "header": {
    "description": "Karaoke Mugen Tag File",
    "version": 1
  },
  "tag": {
    "aliases": [
      "BGC",
      "Bubblegum Crisis 2032",
      "Bubblegum Crisis 2033",
      "Кризис каждый день"
    ],
    "external_database_ids": {
      "anilist": 1347,
      "myanimelist": 1347,
      "kitsu": 1202
    },
    "i18n": {
      "eng": "Bubblegum Crisis",
      "fre": "Bubblegum Crisis",
      "ger": "Bubblegum Crisis",
      "jpn": "バブルガムクライシス",
      "qro": "Bubblegum Crisis"
    },
    "modified_at": "2020-03-31T19:04:31.135Z",
    "name": "Bubblegum Crisis",
    "repository": "kara.moe",
    "tid": "9034bb8e-c9e2-46bc-9e7d-ffa3a7b5ecdd",
    "types": [
      "series",
      "1",
      "franchises",
      "18"
    ]
  }
}