{
  "header": {
    "description": "Karaoke Mugen Tag File",
    "version": 1
  },
  "tag": {
    "i18n": {
      "eng": "Buki",
      "jpn": "ぶき"
    },
    "modified_at": "2021-10-03T11:57:16.558Z",
    "name": "Buki",
    "repository": "kara.moe",
    "tid": "7a633888-09e1-43af-b38b-198de8474590",
    "types": [
      "creators",
      "4"
    ]
  }
}