{
  "header": {
    "description": "Karaoke Mugen Tag File",
    "version": 1
  },
  "tag": {
    "aliases": [
      "BSD",
      "Bungou Stray Dogs",
      "Bungou Stray Dogs 2nd Season",
      "bungou"
    ],
    "external_database_ids": {
      "anilist": 21679,
      "myanimelist": 32867,
      "kitsu": 11882
    },
    "i18n": {
      "eng": "Bungo Stray Dogs 2",
      "fre": "Bungô Stray Dogs 2",
      "jpn": "文豪ストレイドッグス (2016)",
      "qro": "Bungô Stray Dogs S2"
    },
    "modified_at": "2020-03-31T19:04:31.138Z",
    "name": "Bungô Stray Dogs S2",
    "repository": "kara.moe",
    "tid": "24a075e9-b00e-4d6c-9f8c-e05e5d00a22d",
    "types": [
      "series",
      "1"
    ]
  }
}