{
  "header": {
    "description": "Karaoke Mugen Tag File",
    "version": 1
  },
  "tag": {
    "i18n": {
      "eng": "Bushiroad"
    },
    "name": "Bushiroad",
    "tid": "bd4564a8-44e5-454a-9c57-bd2a3c8a537e",
    "types": [
      "creators",
      "4"
    ],
    "repository": "kara.moe",
    "modified_at": "2020-03-31T19:04:33.820Z"
  }
}