{
  "header": {
    "description": "Karaoke Mugen Tag File",
    "version": 1
  },
  "tag": {
    "i18n": {
      "fre": "C'est pas sorcier"
    },
    "modified_at": "2020-03-31T19:04:31.143Z",
    "name": "C'est pas sorcier",
    "repository": "kara.moe",
    "tid": "f247ce8b-44a5-463c-a6af-dd2ee1c157ec",
    "types": [
      "series",
      "1"
    ]
  }
}