{
  "header": {
    "description": "Karaoke Mugen Tag File",
    "version": 1
  },
  "tag": {
    "i18n": {
      "eng": "C.CLOSE"
    },
    "modified_at": "2020-08-28T19:37:33.398Z",
    "name": "C.CLOSE",
    "repository": "kara.moe",
    "tid": "c5e15981-cc2a-4dc4-a2de-1487814e7ebe",
    "types": [
      "songwriters",
      "8"
    ]
  }
}