{
  "header": {
    "description": "Karaoke Mugen Tag File",
    "version": 1
  },
  "tag": {
    "i18n": {
      "eng": "c3dric49"
    },
    "name": "c3dric49",
    "repository": "kara.moe",
    "tid": "8658d979-4028-484e-a308-92a628a81c0b",
    "types": [
      "authors",
      "6"
    ]
  }
}