{
  "header": {
    "description": "Karaoke Mugen Tag File",
    "version": 1
  },
  "tag": {
    "i18n": {
      "eng": "Captain Tsubasa"
    },
    "name": "Captain Tsubasa",
    "repository": "kara.moe",
    "tid": "967c4a26-7302-4894-a48b-60d12147d730",
    "types": [
      "franchises",
      "18"
    ]
  }
}