{
  "header": {
    "description": "Karaoke Mugen Tag File",
    "version": 1
  },
  "tag": {
    "aliases": [
      "CCS",
      "CCS TV",
      "CCSTV",
      "Card Captor Sakura",
      "Cardcaptors",
      "Clow Master Sakura",
      "Sakura chasseuse de cartes",
      "Ловец карт Сакура",
      "Сакура - мисливець за картами",
      "Сакура - собирательница карт",
      "آسرة البطاقات ساكورا",
      "魔卡少女樱",
      "카드캡터 사쿠라"
    ],
    "external_database_ids": {
      "anilist": 232,
      "kitsu": 207,
      "myanimelist": 232
    },
    "i18n": {
      "eng": "Cardcaptor Sakura",
      "gre": "Οι Περιπέτειες της Νίκης",
      "heb": "סאקורה",
      "ita": "Pesca la tua carta Sakura",
      "jpn": "カードキャプターさくら",
      "kor": "카드캡터 체리",
      "pol": "Zdobywczyni kart Sakura",
      "por": "Sakura, a Caçadora de Cartas",
      "rum": "Sakura , Stăpâna Cărţilor Magice",
      "spa": "Sakura, Cazadora de Cartas",
      "tha": "การ์ดแคปเตอร์ ซากุระ",
      "vie": "Thủ lĩnh thẻ bài"
    },
    "name": "Cardcaptor Sakura",
    "repository": "kara.moe",
    "tid": "e18e6f53-efcc-4f1c-8919-eef475ae4af6",
    "types": [
      "series",
      "1",
      "franchises",
      "18"
    ]
  }
}