{
  "header": {
    "description": "Karaoke Mugen Tag File",
    "version": 1
  },
  "tag": {
    "aliases": [
      "カードファイト!! ヴァンガード"
    ],
    "external_database_ids": {
      "anilist": 9539,
      "myanimelist": 9539,
      "kitsu": 5781
    },
    "i18n": {
      "eng": "Cardfight!! Vanguard (2011)",
      "jpn": "CARDFIGHT!! ヴァンガード",
      "qro": "Cardfight!! Vanguard"
    },
    "modified_at": "2020-03-31T19:04:31.160Z",
    "name": "Cardfight!! Vanguard",
    "repository": "kara.moe",
    "tid": "1eaed7a8-0067-4889-9450-10cbc84e9564",
    "types": [
      "series",
      "1"
    ]
  }
}