{
  "header": {
    "description": "Karaoke Mugen Tag File",
    "version": 1
  },
  "tag": {
    "external_database_ids": {
      "anilist": 20810,
      "myanimelist": 23991,
      "kitsu": 8655
    },
    "i18n": {
      "jpn": "Cardfight!! Vanguard Movie: Neon Messiah",
      "qro": "Cardfight!! Vanguard Movie: Neon Messiah"
    },
    "modified_at": "2020-03-31T19:04:31.159Z",
    "name": "Cardfight!! Vanguard Movie: Neon Messiah",
    "repository": "kara.moe",
    "tid": "a756dca2-8526-4c0d-8ce4-6c5c36353cd7",
    "types": [
      "series",
      "1"
    ]
  }
}