{
  "header": {
    "description": "Karaoke Mugen Tag File",
    "version": 1
  },
  "tag": {
    "i18n": {
      "eng": "Cardfight!! Vanguard"
    },
    "name": "Cardfight!! Vanguard",
    "repository": "kara.moe",
    "tid": "eb019fe4-8aef-4d22-a86a-459d8f472dc2",
    "types": [
      "franchises",
      "18"
    ]
  }
}