{
  "header": {
    "description": "Karaoke Mugen Tag File",
    "version": 1
  },
  "tag": {
    "aliases": [
      "カードファイト!! ヴァンガードG ストライドゲート編"
    ],
    "external_database_ids": {
      "anilist": 21664,
      "myanimelist": 32802,
      "kitsu": 11857
    },
    "i18n": {
      "eng": "Cardfight!! Vanguard G Stride Gate",
      "jpn": "CARDFIGHT!! ヴァンガードG ストライドゲート編",
      "qro": "Cardfight!! Vanguard G: Stride Gate Hen"
    },
    "modified_at": "2020-03-31T19:04:31.156Z",
    "name": "Cardfight!! Vanguard G: Stride Gate Hen",
    "repository": "kara.moe",
    "tid": "a2ea0dcb-f769-464d-9ccc-06f866fc7004",
    "types": [
      "series",
      "1"
    ]
  }
}