{
  "header": {
    "description": "Karaoke Mugen Tag File",
    "version": 1
  },
  "tag": {
    "i18n": {
      "eng": "Carl Burnett"
    },
    "name": "Carl Burnett",
    "repository": "kara.moe",
    "tid": "1cfb3cad-89fb-4a43-8398-1b9c084f21e7",
    "types": [
      "songwriters",
      "8"
    ]
  }
}