{
  "header": {
    "description": "Karaoke Mugen Tag File",
    "version": 1
  },
  "tag": {
    "i18n": {
      "eng": "Caroline Szatapski"
    },
    "name": "Caroline Szatapski",
    "tid": "079ac359-14c7-4d23-8111-6bee2a0fb474",
    "types": [
      "songwriters",
      "8",
      "singers",
      "2"
    ],
    "repository": "kara.moe",
    "modified_at": "2020-03-31T19:04:33.849Z"
  }
}