{
  "header": {
    "description": "Karaoke Mugen Tag File",
    "version": 1
  },
  "tag": {
    "i18n": {
      "eng": "Casablanca"
    },
    "modified_at": "2020-07-11T23:25:21.496Z",
    "name": "Casablanca",
    "repository": "kara.moe",
    "tid": "5ac82b42-28b8-4335-888a-f49ca379da38",
    "types": [
      "creators",
      "4"
    ]
  }
}