{
  "header": {
    "description": "Karaoke Mugen Tag File",
    "version": 1
  },
  "tag": {
    "i18n": {
      "eng": "CASCADE"
    },
    "name": "CASCADE",
    "tid": "a1bd809e-fd5e-4226-bb75-df5a1cf5755f",
    "types": [
      "singers",
      "2"
    ],
    "repository": "kara.moe",
    "modified_at": "2020-03-31T19:04:33.852Z"
  }
}