{
  "header": {
    "description": "Karaoke Mugen Tag File",
    "version": 1
  },
  "tag": {
    "i18n": {
      "eng": "Cascada"
    },
    "modified_at": "2021-05-23T23:18:56.141Z",
    "name": "Cascada",
    "repository": "kara.moe",
    "tid": "eac4b7fe-9a46-464a-bebb-34ae73729eb4",
    "types": [
      "singers",
      "2"
    ]
  }
}