{
  "header": {
    "description": "Karaoke Mugen Tag File",
    "version": 1
  },
  "tag": {
    "i18n": {
      "eng": "Cassie Ewulu"
    },
    "modified_at": "2020-12-12T15:18:38.692Z",
    "name": "Cassie Ewulu",
    "repository": "kara.moe",
    "tid": "41b12a9a-0ad9-40aa-af88-25d21f5bd4ec",
    "types": [
      "songwriters",
      "8",
      "singers",
      "2"
    ]
  }
}