{
  "header": {
    "description": "Karaoke Mugen Tag File",
    "version": 1
  },
  "tag": {
    "aliases": [
      "Cats Eye",
      "Ein Supertrio - Cat's Eye",
      "Katzenauge",
      "عين القط"
    ],
    "external_database_ids": {
      "anilist": 2043,
      "myanimelist": 2043,
      "kitsu": 1842
    },
    "i18n": {
      "eng": "Cat's Eye",
      "fre": "Signé Cat's Eye",
      "ger": "Ein Supertrio",
      "ita": "Occhi di Gatto",
      "jpn": "キャッツ・アイ",
      "qro": "Cat's Eye"
    },
    "modified_at": "2020-03-31T19:04:31.164Z",
    "name": "Cat's Eye",
    "repository": "kara.moe",
    "tid": "7e05aab8-a24e-47da-9eec-da567059f000",
    "types": [
      "series",
      "1"
    ]
  }
}