{
  "header": {
    "description": "Karaoke Mugen Tag File",
    "version": 1
  },
  "tag": {
    "i18n": {
      "eng": "CatDog",
      "fre": "Michat-Michien"
    },
    "modified_at": "2021-02-14T16:28:23.439Z",
    "name": "CatDog",
    "repository": "kara.moe",
    "tid": "7b349f93-3e64-4937-a8f7-6d88e4092d1f",
    "types": [
      "series",
      "1"
    ]
  }
}