{
  "header": {
    "description": "Karaoke Mugen Tag File",
    "version": 1
  },
  "tag": {
    "i18n": {
      "eng": "Catherine Ringer"
    },
    "modified_at": "2020-07-11T20:56:07.907Z",
    "name": "Catherine Ringer",
    "repository": "kara.moe",
    "tid": "9552c421-98b8-45e0-ab02-3e3ef5af3a2c",
    "types": [
      "songwriters",
      "8"
    ]
  }
}