{
  "header": {
    "description": "Karaoke Mugen Tag File",
    "version": 1
  },
  "tag": {
    "i18n": {
      "eng": "CEKAI"
    },
    "modified_at": "2021-02-17T21:23:21.707Z",
    "name": "CEKAI",
    "repository": "kara.moe",
    "tid": "00111c01-0dae-489d-95b9-c005d182dfda",
    "types": [
      "creators",
      "4"
    ]
  }
}