{
  "header": {
    "description": "Karaoke Mugen Tag File",
    "version": 1
  },
  "tag": {
    "i18n": {
      "eng": "Celeste"
    },
    "name": "Celeste",
    "repository": "kara.moe",
    "tid": "8febe70f-72a9-4130-98b7-de2168deba3b",
    "types": [
      "creators",
      "4"
    ]
  }
}