{
  "header": {
    "description": "Karaoke Mugen Tag File",
    "version": 1
  },
  "tag": {
    "i18n": {
      "eng": "Centurione"
    },
    "name": "Centurione",
    "tid": "410a8956-7bf6-42a3-acc7-eb2064fc083c",
    "types": [
      "creators",
      "4"
    ],
    "repository": "kara.moe",
    "modified_at": "2020-03-31T19:04:33.864Z"
  }
}