{
  "header": {
    "description": "Karaoke Mugen Tag File",
    "version": 1
  },
  "tag": {
    "aliases": [
      "Centaur's Worries",
      "Centaur's Worries"
    ],
    "external_database_ids": {
      "anilist": 98519,
      "myanimelist": 34525,
      "kitsu": 13270
    },
    "i18n": {
      "eng": "A Centaur's Life",
      "fre": "Centaur no Nayami",
      "jpn": "セントールの悩み",
      "kor": "센토루의 고민",
      "qro": "Centaur no Nayami"
    },
    "modified_at": "2020-03-31T19:04:31.167Z",
    "name": "Centaur no Nayami",
    "repository": "kara.moe",
    "tid": "134c8fac-599f-447d-937d-72a21a260300",
    "types": [
      "series",
      "1"
    ]
  }
}