{
  "header": {
    "description": "Karaoke Mugen Tag File",
    "version": 1
  },
  "tag": {
    "i18n": {
      "eng": "centimillimental"
    },
    "name": "centimillimental",
    "tid": "17909931-df25-4e29-be2a-e05a087936fa",
    "types": [
      "singers",
      "2",
      "songwriters",
      "8"
    ],
    "repository": "kara.moe",
    "modified_at": "2020-03-31T19:04:33.864Z"
  }
}