{
  "header": {
    "description": "Karaoke Mugen Tag File",
    "version": 1
  },
  "tag": {
    "i18n": {
      "eng": "ChangSang"
    },
    "modified_at": "2021-02-14T17:58:13.414Z",
    "name": "ChangSang",
    "repository": "kara.moe",
    "tid": "a9cedfea-a980-42f0-abb8-8e0ad4170c9f",
    "types": [
      "creators",
      "4"
    ]
  }
}