{
  "header": {
    "description": "Karaoke Mugen Tag File",
    "version": 1
  },
  "tag": {
    "i18n": {
      "eng": "Charatta Imurapon"
    },
    "name": "Charatta Imurapon",
    "tid": "01837879-2e9d-40e4-93e1-536367162401",
    "types": [
      "singers",
      "2"
    ],
    "repository": "kara.moe",
    "modified_at": "2020-03-31T19:04:33.875Z"
  }
}