{
  "header": {
    "description": "Karaoke Mugen Tag File",
    "version": 1
  },
  "tag": {
    "aliases": [
      "シャーロット"
    ],
    "external_database_ids": {
      "anilist": 20997,
      "myanimelist": 28999,
      "kitsu": 10103
    },
    "i18n": {
      "eng": "Charlotte",
      "fre": "Charlotte",
      "jpn": "Charlotte",
      "kor": "샬럿",
      "qro": "Charlotte"
    },
    "modified_at": "2020-03-31T19:04:31.174Z",
    "name": "Charlotte",
    "repository": "kara.moe",
    "tid": "2b6a7825-c54d-452c-80bc-d505b27c2517",
    "types": [
      "series",
      "1"
    ]
  }
}