{
  "header": {
    "description": "Karaoke Mugen Tag File",
    "version": 1
  },
  "tag": {
    "i18n": {
      "eng": "Charlotte Buonomano"
    },
    "name": "Charlotte Buonomano",
    "tid": "5b718eeb-f6ae-40ea-ae66-3e3e728ebe4e",
    "types": [
      "singers",
      "2"
    ],
    "repository": "kara.moe",
    "modified_at": "2020-03-31T19:04:33.879Z"
  }
}