{
  "header": {
    "description": "Karaoke Mugen Tag File",
    "version": 1
  },
  "tag": {
    "aliases": [
      "One Lesson One Fight",
      "チーティングクラフト",
      "一課一練"
    ],
    "external_database_ids": {
      "anilist": 97609,
      "myanimelist": 33771,
      "kitsu": 12542
    },
    "i18n": {
      "eng": "Cheating Craft",
      "jpn": "CHEATING CRAFT",
      "qro": "Cheating Craft"
    },
    "modified_at": "2020-03-31T19:04:31.174Z",
    "name": "Cheating Craft",
    "repository": "kara.moe",
    "tid": "cef1e8c9-72f0-4b13-a50a-97aa568c16e4",
    "types": [
      "series",
      "1"
    ]
  }
}