{
  "header": {
    "description": "Karaoke Mugen Tag File",
    "version": 1
  },
  "tag": {
    "i18n": {
      "eng": "Chiai Fujikawa",
      "jpn": "藤川千愛",
      "qro": "Chiai Fujikawa"
    },
    "modified_at": "2020-04-05T11:37:03.218Z",
    "name": "Chiai Fujikawa",
    "repository": "kara.moe",
    "tid": "4e9bfc37-529d-435e-ba88-a7e60c784da4",
    "types": [
      "singers",
      "2",
      "songwriters",
      "8"
    ]
  }
}