{
  "header": {
    "description": "Karaoke Mugen Tag File",
    "version": 1
  },
  "tag": {
    "i18n": {
      "eng": "ChibaNyan"
    },
    "name": "ChibaNyan",
    "repository": "kara.moe",
    "tid": "c23e46ef-cb83-46b7-a012-362b5e726814",
    "types": [
      "songwriters",
      "8"
    ]
  }
}