{
  "header": {
    "description": "Karaoke Mugen Tag File",
    "version": 1
  },
  "tag": {
    "i18n": {
      "eng": "chica"
    },
    "name": "chica",
    "tid": "853e257f-f6b1-44d3-8216-da5dcaf93bc6",
    "types": [
      "songwriters",
      "8"
    ],
    "repository": "kara.moe",
    "modified_at": "2020-03-31T19:04:33.896Z"
  }
}