{
  "header": {
    "description": "Karaoke Mugen Tag File",
    "version": 1
  },
  "tag": {
    "aliases": [
      "M.Meg"
    ],
    "i18n": {
      "eng": "Chie Kajiura"
    },
    "modified_at": "2020-08-19T17:41:11.031Z",
    "name": "Chie Kajiura",
    "repository": "kara.moe",
    "tid": "00051843-4129-427f-883d-c1eb8e9fe98b",
    "types": [
      "singers",
      "2",
      "songwriters",
      "8"
    ]
  }
}