{
  "header": {
    "description": "Karaoke Mugen Tag File",
    "version": 1
  },
  "tag": {
    "aliases": [
      "شوریده 2"
    ],
    "external_database_ids": {
      "anilist": 14397,
      "myanimelist": 14397,
      "kitsu": 7123
    },
    "i18n": {
      "chi": "花牌情缘 2",
      "eng": "Chihayafuru 2",
      "jpn": "ちはやふる2",
      "kor": "치하야후루 2기",
      "per": "چیهایافورو 2",
      "qro": "Chihayafuru 2"
    },
    "modified_at": "2020-03-31T19:04:31.179Z",
    "name": "Chihayafuru 2",
    "repository": "kara.moe",
    "tid": "7f5eb0c0-4574-4331-8133-cfabbf7701d0",
    "types": [
      "series",
      "1"
    ]
  }
}