{
  "header": {
    "description": "Karaoke Mugen Tag File",
    "version": 1
  },
  "tag": {
    "i18n": {
      "eng": "Chihiro Tamaki"
    },
    "name": "Chihiro Tamaki",
    "tid": "996acae7-ef97-432e-ba16-0e8bb005eb95",
    "types": [
      "songwriters",
      "8"
    ],
    "repository": "kara.moe",
    "modified_at": "2020-03-31T19:04:33.913Z"
  }
}