{
  "header": {
    "description": "Karaoke Mugen Tag File",
    "version": 1
  },
  "tag": {
    "i18n": {
      "eng": "Chiharu Hokaze"
    },
    "name": "Chiharu Hokaze",
    "repository": "kara.moe",
    "tid": "81864e00-0f6e-4daf-b6b6-3e8efb031368",
    "types": [
      "singers",
      "2"
    ],
    "modified_at": "2020-03-31T19:04:33.906Z"
  }
}