{
  "header": {
    "description": "Karaoke Mugen Tag File",
    "version": 1
  },
  "tag": {
    "i18n": {
      "eng": "Chiko"
    },
    "name": "Chiko",
    "repository": "kara.moe",
    "tid": "49ef8a8f-2169-416f-b45c-06a385aad707",
    "types": [
      "authors",
      "6"
    ]
  }
}