{
  "header": {
    "description": "Karaoke Mugen Tag File",
    "version": 1
  },
  "tag": {
    "i18n": {
      "eng": "Chisa Tanabe"
    },
    "name": "Chisa Tanabe",
    "tid": "38e2407f-e820-4cfc-a866-99454e901138",
    "types": [
      "songwriters",
      "8"
    ],
    "repository": "kara.moe",
    "modified_at": "2020-03-31T19:04:33.930Z"
  }
}