{
  "header": {
    "description": "Karaoke Mugen Tag File",
    "version": 1
  },
  "tag": {
    "aliases": [
      "Fortaleza Superdimensional Macross",
      "Guerra das Galáxias",
      "Macross Super Dimensional Fortress",
      "Robotech The Macross Saga",
      "Robotech: The Macross Saga",
      "SDF Macross",
      "SDFM",
      "Space Fortress Macross",
      "Superfortaleza Dimensional Macross",
      "Макрос",
      "قلعة الأبعاد الخارقة ماكروس",
      "超时空要塞",
      "chou",
      "jikuu",
      "yousai"
    ],
    "external_database_ids": {
      "anilist": 1088,
      "myanimelist": 1088,
      "kitsu": 973
    },
    "i18n": {
      "eng": "Super Dimension Fortress Macross",
      "fre": "Super Dimension Fortress Macross",
      "gre": "Robotech",
      "ita": "Fortezza superdimensionale Macross",
      "jpn": "超時空要塞マクロス",
      "por": "Macross",
      "rus": "Макросс",
      "spa": "Robotech: La Saga de Macross",
      "qro": "Chô Jikû Yôsai Macross"
    },
    "modified_at": "2020-03-31T19:04:31.197Z",
    "name": "Chô Jikû Yôsai Macross",
    "repository": "kara.moe",
    "tid": "e5fc67a0-69e1-4d5e-9d63-191c44dd44e8",
    "types": [
      "series",
      "1"
    ]
  }
}