{
  "header": {
    "description": "Karaoke Mugen Tag File",
    "version": 1
  },
  "tag": {
    "aliases": [
      "Chou"
    ],
    "i18n": {
      "jpn": "超ときめき♡宣伝部",
      "qro": "Chô Tokimeki♡Sendenbu"
    },
    "name": "Chô Tokimeki Sendenbu",
    "repository": "kara.moe",
    "tid": "fffacd99-c1ae-461e-b1d1-cf555c5dba83",
    "types": [
      "singergroups",
      "17"
    ]
  }
}