{
  "header": {
    "description": "Karaoke Mugen Tag File",
    "version": 1
  },
  "tag": {
    "aliases": [
      "Choujinki Metalder",
      "choujinki"
    ],
    "i18n": {
      "eng": "Metalder",
      "jpn": "超人機メタルダ",
      "qro": "Chôjinki Metalder"
    },
    "modified_at": "2020-03-31T19:04:31.207Z",
    "name": "Chôjinki Metalder",
    "repository": "kara.moe",
    "tid": "62eb7341-7a1c-4075-8a4d-1e64f67a9692",
    "types": [
      "series",
      "1"
    ]
  }
}