{
  "header": {
    "description": "Karaoke Mugen Tag File",
    "version": 1
  },
  "tag": {
    "aliases": [
      "Chou Denji Robo Combattler V",
      "Super Electromagnetic Robo Combattler V",
      "Ultra Electromagnetic Robot Combattler V",
      "chou"
    ],
    "external_database_ids": {
      "anilist": 1068,
      "myanimelist": 1068,
      "kitsu": 955
    },
    "i18n": {
      "ara": "البطل خماسي",
      "eng": "Super Electromagnetic Robo Combattler V",
      "ita": "Combattler V",
      "jpn": "超電磁ロボ コン・バトラーV",
      "qro": "Chô Denji Robo Combattler V"
    },
    "modified_at": "2020-06-21T23:45:31.966Z",
    "name": "Chô Denji Robo Combattler V",
    "repository": "kara.moe",
    "tid": "4f0ab5c7-6801-40a6-90aa-2e6ef6f2c28c",
    "types": [
      "series",
      "1"
    ]
  }
}