{
  "header": {
    "description": "Karaoke Mugen Tag File",
    "version": 1
  },
  "tag": {
    "i18n": {
      "eng": "Chôcho Kiritani"
    },
    "modified_at": "2020-05-18T21:05:59.240Z",
    "name": "Chôcho Kiritani",
    "repository": "kara.moe",
    "tid": "517067cb-b132-4b3c-8e31-6d10607ce888",
    "types": [
      "singers",
      "2"
    ]
  }
}