{
  "header": {
    "description": "Karaoke Mugen Tag File",
    "version": 1
  },
  "tag": {
    "aliases": [
      "Chouyaku Hyakunin Isshu Uta Koi",
      "Utakoi",
      "chouyaku"
    ],
    "external_database_ids": {
      "anilist": 13349,
      "myanimelist": 13349,
      "kitsu": 6943
    },
    "i18n": {
      "eng": "Utakoi",
      "jpn": "超訳百人一首 うた恋い.",
      "qro": "Chôyaku Hyakunin Isshu: Uta Koi."
    },
    "modified_at": "2020-03-31T19:04:31.211Z",
    "name": "Chôyaku Hyakunin Isshu: Uta Koi.",
    "repository": "kara.moe",
    "tid": "46eb2e3b-a3b2-41a7-8d43-560b99a6789f",
    "types": [
      "series",
      "1"
    ]
  }
}