{
  "header": {
    "description": "Karaoke Mugen Tag File",
    "version": 1
  },
  "tag": {
    "i18n": {
      "eng": "Christopher Stewart"
    },
    "name": "Christopher Stewart",
    "repository": "kara.moe",
    "tid": "bb833344-d11c-4268-8b9e-c3b1148d6709",
    "types": [
      "songwriters",
      "8"
    ]
  }
}