{
  "header": {
    "description": "Karaoke Mugen Tag File",
    "version": 1
  },
  "tag": {
    "i18n": {
      "eng": "Christian Lorenz"
    },
    "modified_at": "2020-07-11T15:27:01.492Z",
    "name": "Christian Lorenz",
    "repository": "kara.moe",
    "tid": "859de12f-b53c-4bc4-8206-2f7b167d9d7c",
    "types": [
      "songwriters",
      "8"
    ]
  }
}