{
  "header": {
    "description": "Karaoke Mugen Tag File",
    "version": 1
  },
  "tag": {
    "i18n": {
      "eng": "Chris Rörland"
    },
    "modified_at": "2021-10-23T20:52:21.843Z",
    "name": "Chris Rörland",
    "repository": "kara.moe",
    "tid": "2ee25ec6-2224-4032-9bc5-97693d7d2df7",
    "types": [
      "songwriters",
      "8"
    ]
  }
}