{
  "header": {
    "description": "Karaoke Mugen Tag File",
    "version": 1
  },
  "tag": {
    "i18n": {
      "eng": "Christophe Voisin-Boisvinet"
    },
    "name": "Christophe Voisin-Boisvinet",
    "repository": "kara.moe",
    "tid": "ec4405d7-a185-47c2-98d7-3e4f4de0b756",
    "types": [
      "songwriters",
      "8"
    ]
  }
}