{
  "header": {
    "description": "Karaoke Mugen Tag File",
    "version": 1
  },
  "tag": {
    "i18n": {
      "eng": "Christina Peyser"
    },
    "name": "Christina Peyser",
    "tid": "8853050e-e053-4a4b-b71c-b699e7367b96",
    "types": [
      "singers",
      "2"
    ],
    "repository": "kara.moe",
    "modified_at": "2020-03-31T19:04:33.958Z"
  }
}