{
  "header": {
    "description": "Karaoke Mugen Tag File",
    "version": 1
  },
  "tag": {
    "i18n": {
      "eng": "Ci"
    },
    "modified_at": "2021-11-13T12:57:40.993Z",
    "name": "Ci",
    "repository": "kara.moe",
    "tid": "c67ca6b5-3cb2-4ef0-be4a-0bcff0871d44",
    "types": [
      "songwriters",
      "8"
    ]
  }
}