{
  "header": {
    "description": "Karaoke Mugen Tag File",
    "version": 1
  },
  "tag": {
    "i18n": {
      "eng": "CIEL"
    },
    "name": "CIEL",
    "repository": "kara.moe",
    "tid": "154e1391-b040-402a-9cc8-4a1339ba0bf4",
    "types": [
      "singers",
      "2"
    ]
  }
}