{
  "header": {
    "description": "Karaoke Mugen Tag File",
    "version": 1
  },
  "tag": {
    "i18n": {
      "eng": "cittan*"
    },
    "modified_at": "2021-02-28T15:07:32.596Z",
    "name": "cittan*",
    "repository": "kara.moe",
    "tid": "3b6f9d12-8e35-4c78-9316-8d27fb35d19b",
    "types": [
      "songwriters",
      "8"
    ]
  }
}