{
  "header": {
    "description": "Karaoke Mugen Tag File",
    "version": 1
  },
  "tag": {
    "i18n": {
      "eng": "City Hunter"
    },
    "name": "City Hunter",
    "repository": "kara.moe",
    "tid": "eacc01a8-19e0-4f69-97ec-54b93ee649c2",
    "types": [
      "franchises",
      "18"
    ]
  }
}