{
  "header": {
    "description": "Karaoke Mugen Tag File",
    "version": 1
  },
  "tag": {
    "i18n": {
      "eng": "CIVILIAN"
    },
    "modified_at": "2020-08-24T13:26:23.566Z",
    "name": "CIVILIAN",
    "repository": "kara.moe",
    "tid": "2dad92ed-4299-4553-9df8-7397b2fd3da2",
    "types": [
      "singers",
      "2",
      "songwriters",
      "8"
    ]
  }
}