{
  "header": {
    "description": "Karaoke Mugen Tag File",
    "version": 1
  },
  "tag": {
    "i18n": {
      "eng": "Classroom of the Elite"
    },
    "name": "Classroom of the Elite",
    "repository": "kara.moe",
    "tid": "3a058251-aad4-4075-9de5-1989f0ec227e",
    "types": [
      "franchises",
      "18"
    ]
  }
}