{
  "header": {
    "description": "Karaoke Mugen Tag File",
    "version": 1
  },
  "tag": {
    "i18n": {
      "eng": "Claude Laydu"
    },
    "name": "Claude Laydu",
    "tid": "bc47536c-e439-44e6-88ea-817dbb131243",
    "types": [
      "creators",
      "4"
    ],
    "repository": "kara.moe",
    "modified_at": "2020-03-31T19:04:33.975Z"
  }
}