{
  "header": {
    "description": "Karaoke Mugen Tag File",
    "version": 1
  },
  "tag": {
    "i18n": {
      "eng": "cloudica"
    },
    "name": "cloudica",
    "tid": "bf2685fe-a187-45be-a140-c3881b385f43",
    "types": [
      "singers",
      "2"
    ],
    "repository": "kara.moe",
    "modified_at": "2020-03-31T19:04:33.983Z"
  }
}