{
  "header": {
    "description": "Karaoke Mugen Tag File",
    "version": 1
  },
  "tag": {
    "i18n": {
      "eng": "Coach&Sendo"
    },
    "modified_at": "2020-08-17T22:45:41.214Z",
    "name": "Coach&Sendo",
    "repository": "kara.moe",
    "tid": "e1a64ba2-288a-4109-806a-5512fed8f165",
    "types": [
      "songwriters",
      "8"
    ]
  }
}