{
  "header": {
    "description": "Karaoke Mugen Tag File",
    "version": 1
  },
  "tag": {
    "i18n": {
      "eng": "Code"
    },
    "name": "Code",
    "tid": "6ebabf8e-eaec-4c2e-a4c7-31ee52e73a34",
    "types": [
      "creators",
      "4"
    ],
    "repository": "kara.moe",
    "modified_at": "2020-03-31T19:04:33.992Z"
  }
}