{
  "header": {
    "description": "Karaoke Mugen Tag File",
    "version": 1
  },
  "tag": {
    "i18n": {
      "eng": "Coktel Vision"
    },
    "name": "Coktel Vision",
    "repository": "kara.moe",
    "tid": "482d6010-488f-431a-aa6b-8df93e67b6e9",
    "types": [
      "creators",
      "4"
    ]
  }
}