{
  "header": {
    "description": "Karaoke Mugen Tag File",
    "version": 1
  },
  "tag": {
    "i18n": {
      "eng": "COLON 8BIT MUSIC"
    },
    "modified_at": "2021-10-10T01:03:39.288Z",
    "name": "COLON 8BIT MUSIC",
    "repository": "kara.moe",
    "tid": "5cd2f527-62df-4563-9a5b-7efca588c806",
    "types": [
      "creators",
      "4"
    ]
  }
}