{
  "header": {
    "description": "Karaoke Mugen Tag File",
    "version": 1
  },
  "tag": {
    "external_database_ids": {
      "anilist": 21275,
      "myanimelist": 31318,
      "kitsu": 11234
    },
    "i18n": {
      "eng": "Comet Lucifer",
      "fre": "Comet Lucifer",
      "jpn": "コメット・ルシファー",
      "qro": "Comet Lucifer"
    },
    "modified_at": "2020-03-31T19:04:31.239Z",
    "name": "Comet Lucifer",
    "repository": "kara.moe",
    "tid": "94543513-e098-4b77-884f-291378bdf270",
    "types": [
      "series",
      "1"
    ]
  }
}