{
  "header": {
    "description": "Karaoke Mugen Tag File",
    "version": 1
  },
  "tag": {
    "i18n": {
      "eng": "CoMix Wave Films"
    },
    "name": "CoMix Wave Films",
    "tid": "855072bc-b53e-4b85-b692-668294b4e151",
    "types": [
      "creators",
      "4"
    ],
    "repository": "kara.moe",
    "modified_at": "2020-03-31T19:04:34.001Z"
  }
}