{
  "header": {
    "description": "Karaoke Mugen Tag File",
    "version": 1
  },
  "tag": {
    "i18n": {
      "eng": "Coolon"
    },
    "name": "Coolon",
    "tid": "aee365ce-4fc2-4e98-9ff8-86085782fbe9",
    "types": [
      "singers",
      "2",
      "songwriters",
      "8"
    ],
    "repository": "kara.moe",
    "modified_at": "2020-03-31T19:04:34.006Z"
  }
}