{
  "header": {
    "description": "Karaoke Mugen Tag File",
    "version": 1
  },
  "tag": {
    "i18n": {
      "eng": "Cory in the House"
    },
    "modified_at": "2020-12-12T16:12:22.870Z",
    "name": "Cory in the House",
    "repository": "kara.moe",
    "tid": "957324a4-1cd3-4b03-834d-79c24f583691",
    "types": [
      "series",
      "1"
    ]
  }
}