{
  "header": {
    "description": "Karaoke Mugen Tag File",
    "version": 1
  },
  "tag": {
    "i18n": {
      "eng": "Corynne Charby"
    },
    "name": "Corynne Charby",
    "repository": "kara.moe",
    "tid": "9a71d5b2-9276-4be1-88e9-6d6b0fb9bcab",
    "types": [
      "singers",
      "2"
    ]
  }
}