{
  "header": {
    "description": "Karaoke Mugen Tag File",
    "version": 1
  },
  "tag": {
    "i18n": {
      "eng": "CosmicLatte"
    },
    "modified_at": "2021-10-02T16:12:41.020Z",
    "name": "CosmicLatte",
    "repository": "kara.moe",
    "tid": "008d934d-6f8f-4da4-ae99-98560e9792fe",
    "types": [
      "creators",
      "4"
    ]
  }
}