{
  "header": {
    "description": "Karaoke Mugen Tag File",
    "version": 1
  },
  "tag": {
    "i18n": {
      "eng": "Cosmo Productions"
    },
    "name": "Cosmo Productions",
    "tid": "b061c8db-4d0b-476a-b2bc-66acb6933f1a",
    "types": [
      "creators",
      "4"
    ],
    "repository": "kara.moe",
    "modified_at": "2020-03-31T19:04:34.012Z"
  }
}