{
  "header": {
    "description": "Karaoke Mugen Tag File",
    "version": 1
  },
  "tag": {
    "i18n": {
      "eng": "Cossack Maeda"
    },
    "name": "Cossack Maeda",
    "tid": "87843548-cab2-4aef-b1e9-3e6bd7a4fe79",
    "types": [
      "songwriters",
      "8"
    ],
    "repository": "kara.moe",
    "modified_at": "2020-03-31T19:04:34.014Z"
  }
}