{
  "header": {
    "description": "Karaoke Mugen Tag File",
    "version": 1
  },
  "tag": {
    "external_database_ids": {
      "anilist": 3205,
      "myanimelist": 3205,
      "kitsu": 2856
    },
    "i18n": {
      "jpn": "くりぃむレモン レモンエンジェル",
      "eng": "Cream Lemon: Lemon Angel",
      "qro": "Cream Lemon: Lemon Angel"
    },
    "modified_at": "2020-05-15T20:20:39.135Z",
    "name": "Cream Lemon: Lemon Angel",
    "repository": "kara.moe",
    "tid": "70729e84-51b3-41fa-a031-2987fe49cc1c",
    "types": [
      "series",
      "1"
    ]
  }
}