{
  "header": {
    "description": "Karaoke Mugen Tag File",
    "version": 1
  },
  "tag": {
    "i18n": {
      "eng": "Creatural"
    },
    "name": "Creatural",
    "repository": "kara.moe",
    "tid": "7d77f1ba-5eb2-44a7-b89d-815ced57f7f3",
    "types": [
      "creators",
      "4"
    ]
  }
}