{
  "header": {
    "description": "Karaoke Mugen Tag File",
    "version": 1
  },
  "tag": {
    "i18n": {
      "eng": "Creepy Nuts"
    },
    "name": "Creepy Nuts",
    "repository": "kara.moe",
    "tid": "0fb20f65-a924-450b-93a9-0beabd19b354",
    "types": [
      "singers",
      "2",
      "songwriters",
      "8"
    ]
  }
}