{
  "header": {
    "description": "Karaoke Mugen Tag File",
    "version": 1
  },
  "tag": {
    "i18n": {
      "eng": "Cristiano Macrì"
    },
    "name": "Cristiano Macrì",
    "tid": "2d05e92f-fece-4e45-be8b-989b229e6b77",
    "types": [
      "songwriters",
      "8"
    ],
    "repository": "kara.moe",
    "modified_at": "2020-03-31T19:04:34.022Z"
  }
}