{
  "header": {
    "description": "Karaoke Mugen Tag File",
    "version": 1
  },
  "tag": {
    "i18n": {
      "eng": "Crux"
    },
    "name": "Crux",
    "repository": "kara.moe",
    "tid": "136af881-fe55-4490-8550-6e2cee1af164",
    "types": [
      "creators",
      "4"
    ]
  }
}