{
  "header": {
    "description": "Karaoke Mugen Tag File",
    "version": 1
  },
  "tag": {
    "i18n": {
      "eng": "Cunnah"
    },
    "name": "Cunnah",
    "tid": "3ccd3736-4731-40c9-bb4a-60a1164e6d1b",
    "types": [
      "songwriters",
      "8"
    ],
    "repository": "kara.moe",
    "modified_at": "2020-03-31T19:04:34.032Z"
  }
}