{
  "header": {
    "description": "Karaoke Mugen Tag File",
    "version": 1
  },
  "tag": {
    "external_database_ids": {
      "anilist": 120377,
      "myanimelist": 42310,
      "kitsu": 43248
    },
    "i18n": {
      "eng": "Cyberpunk: Edgerunners"
    },
    "name": "Cyberpunk: Edgerunners",
    "repository": "kara.moe",
    "tid": "3d8c0056-fca0-4b5d-a7ba-32d4ca1ae0ef",
    "types": [
      "series",
      "1"
    ]
  }
}