{
  "header": {
    "description": "Karaoke Mugen Tag File",
    "version": 1
  },
  "tag": {
    "aliases": [
      "Devilman (2015)",
      "デビルマン (2015)",
      "人造人009VS惡魔人"
    ],
    "external_database_ids": {
      "anilist": 21231,
      "myanimelist": 31050,
      "kitsu": 11114
    },
    "i18n": {
      "eng": "Cyborg 009 vs. Devilman",
      "jpn": "サイボーグ009VSデビルマン",
      "qro": "Cyborg 009 vs. Devilman"
    },
    "modified_at": "2020-03-31T19:04:31.265Z",
    "name": "Cyborg 009 vs. Devilman",
    "repository": "kara.moe",
    "tid": "61d9951d-480d-4dd0-96b6-f2ba7a0bca7f",
    "types": [
      "series",
      "1"
    ]
  }
}