{
  "header": {
    "description": "Karaoke Mugen Tag File",
    "version": 1
  },
  "tag": {
    "aliases": [
      "人造人009"
    ],
    "external_database_ids": {},
    "i18n": {
      "eng": "Cyborg 009",
      "jpn": "サイボーグ009"
    },
    "name": "Cyborg 009",
    "repository": "kara.moe",
    "tid": "79f66102-d4ea-47c6-8b81-991c99e646d5",
    "types": [
      "franchises",
      "18"
    ]
  }
}