{
  "header": {
    "description": "Karaoke Mugen Tag File",
    "version": 1
  },
  "tag": {
    "aliases": [
      "DC3"
    ],
    "external_database_ids": {
      "anilist": 14827,
      "myanimelist": 14827,
      "kitsu": 7172
    },
    "i18n": {
      "eng": "D.C. III ~Da Capo III~",
      "jpn": "D.C.III ～ダ・カーポIII～",
      "qro": "D.C. III ~Da Capo III~"
    },
    "modified_at": "2020-03-31T19:04:31.267Z",
    "name": "D.C. III ~Da Capo III~",
    "repository": "kara.moe",
    "tid": "d08d5bc6-3013-43f6-815d-77c53d63c22b",
    "types": [
      "series",
      "1"
    ]
  }
}