{
  "header": {
    "description": "Karaoke Mugen Tag File",
    "version": 1
  },
  "tag": {
    "aliases": [
      "Dig Delight Direct Drive DJ",
      "ディーフォーディージェー"
    ],
    "external_database_ids": {
      "anilist": 115069,
      "myanimelist": 39681,
      "kitsu": 43557
    },
    "i18n": {
      "eng": "D4DJ First Mix",
      "jpn": "D4DJ First Mix",
      "qro": "D4DJ First Mix"
    },
    "modified_at": "2020-12-28T21:02:35.712Z",
    "name": "D4DJ First Mix",
    "repository": "kara.moe",
    "tid": "a1dc6d85-b224-4030-b16a-5ccf6b557522",
    "types": [
      "series",
      "1"
    ]
  }
}