{
  "header": {
    "description": "Karaoke Mugen Tag File",
    "version": 1
  },
  "tag": {
    "aliases": [
      "Dig Delight Direct Drive DJ",
      "ディーフォーディージェー"
    ],
    "external_database_ids": {},
    "i18n": {
      "eng": "D4DJ"
    },
    "name": "D4DJ",
    "repository": "kara.moe",
    "tid": "e2e9382c-e3bd-4db9-abaf-194d09099ab0",
    "types": [
      "franchises",
      "18"
    ]
  }
}