{
  "header": {
    "description": "Karaoke Mugen Tag File",
    "version": 1
  },
  "tag": {
    "aliases": [
      "DOPYU＆ATTACKパンツ"
    ],
    "i18n": {
      "eng": "DA Pantsu!!",
      "jpn": "DAパンツ！！",
      "qro": "DA Pantsu!!"
    },
    "modified_at": "2020-03-31T19:04:31.272Z",
    "name": "DA Pantsu!!",
    "repository": "kara.moe",
    "tid": "89593b8f-5fe2-4bbe-8b71-6d4cb1a57fbb",
    "types": [
      "series",
      "1"
    ]
  }
}