{
  "header": {
    "description": "Karaoke Mugen Tag File",
    "version": 1
  },
  "tag": {
    "i18n": {
      "eng": "Daichi Kanbara"
    },
    "name": "Daichi Kanbara",
    "tid": "3c663d90-cf7f-45c9-833b-42cd1826b33d",
    "types": [
      "singers",
      "2"
    ],
    "repository": "kara.moe",
    "modified_at": "2020-03-31T19:04:34.053Z"
  }
}