{
  "header": {
    "description": "Karaoke Mugen Tag File",
    "version": 1
  },
  "tag": {
    "i18n": {
      "eng": "Daiju Takato"
    },
    "name": "Daiju Takato",
    "repository": "kara.moe",
    "tid": "4eaba16b-2344-41b0-a5cb-0c72e1979d5a",
    "types": [
      "songwriters",
      "8"
    ]
  }
}