{
  "header": {
    "description": "Karaoke Mugen Tag File",
    "version": 1
  },
  "tag": {
    "aliases": [
      "Daikou"
    ],
    "i18n": {
      "eng": "Daikô Nagato",
      "jpn": "長戸大幸",
      "qro": "Daikô Nagato"
    },
    "name": "Daikô Nagato",
    "repository": "kara.moe",
    "tid": "151f0c79-0031-4bd4-84a8-5056b00b9821",
    "types": [
      "songwriters",
      "8"
    ]
  }
}