{
  "header": {
    "description": "Karaoke Mugen Tag File",
    "version": 1
  },
  "tag": {
    "i18n": {
      "eng": "Daisuke Suzuki"
    },
    "name": "Daisuke Suzuki",
    "tid": "b8e3a14b-7348-489d-a482-35a400889a4f",
    "types": [
      "songwriters",
      "8"
    ],
    "repository": "kara.moe",
    "modified_at": "2020-03-31T19:04:34.073Z"
  }
}