{
  "header": {
    "description": "Karaoke Mugen Tag File",
    "version": 1
  },
  "tag": {
    "i18n": {
      "eng": "Daisuke Hinata"
    },
    "name": "Daisuke Hinata",
    "tid": "59970ca6-7a34-4399-a649-c32f96884c38",
    "types": [
      "songwriters",
      "8"
    ],
    "repository": "kara.moe",
    "modified_at": "2020-03-31T19:04:34.061Z"
  }
}