{
  "header": {
    "description": "Karaoke Mugen Tag File",
    "version": 1
  },
  "tag": {
    "i18n": {
      "eng": "Damien Saez"
    },
    "name": "Damien Saez",
    "repository": "kara.moe",
    "tid": "acf6a9fe-30e5-456b-9942-0777806c649f",
    "types": [
      "singers",
      "2",
      "songwriters",
      "8"
    ]
  }
}