{
  "header": {
    "description": "Karaoke Mugen Tag File",
    "version": 1
  },
  "tag": {
    "aliases": [
      "Leigh Daniel Avidan",
      "Danny Sexbang"
    ],
    "i18n": {
      "eng": "Dan Avidan"
    },
    "modified_at": "2020-12-13T12:03:47.348Z",
    "name": "Dan Avidan",
    "repository": "kara.moe",
    "tid": "b2d270b1-fef8-4d9f-9d52-8278d448f05a",
    "types": [
      "songwriters",
      "8",
      "singers",
      "2"
    ]
  }
}