{
  "header": {
    "description": "Karaoke Mugen Tag File",
    "version": 1
  },
  "tag": {
    "i18n": {
      "eng": "Dan Platzman"
    },
    "modified_at": "2020-07-03T22:43:30.263Z",
    "name": "Dan Platzman",
    "repository": "kara.moe",
    "tid": "928a0e61-8d45-4542-91e1-9eebf30256ac",
    "types": [
      "songwriters",
      "8"
    ]
  }
}