{
  "header": {
    "description": "Karaoke Mugen Tag File",
    "version": 1
  },
  "tag": {
    "i18n": {
      "eng": "Dan Negovan"
    },
    "name": "Dan Negovan",
    "tid": "00178442-164a-457c-9452-9ad357a2abbb",
    "types": [
      "songwriters",
      "8"
    ],
    "repository": "kara.moe",
    "modified_at": "2020-03-31T19:04:34.082Z"
  }
}