{
  "header": {
    "description": "Karaoke Mugen Tag File",
    "version": 1
  },
  "tag": {
    "i18n": {
      "eng": "Daniel Balavoine"
    },
    "modified_at": "2020-08-15T19:32:23.397Z",
    "name": "Daniel Balavoine",
    "repository": "kara.moe",
    "tid": "c7f13ac7-c592-4fc0-888d-aeee059bf9f3",
    "types": [
      "songwriters",
      "8",
      "singers",
      "2"
    ]
  }
}