{
  "header": {
    "description": "Karaoke Mugen Tag File",
    "version": 1
  },
  "tag": {
    "i18n": {
      "eng": "Danke"
    },
    "name": "Danke",
    "repository": "kara.moe",
    "tid": "f8325f1d-bcf0-461b-8033-ad4bd49d27eb",
    "types": [
      "songwriters",
      "8"
    ]
  }
}