{
  "header": {
    "description": "Karaoke Mugen Tag File",
    "version": 1
  },
  "tag": {
    "i18n": {
      "eng": "Danny Wiessner"
    },
    "name": "Danny Wiessner",
    "tid": "882c6dd5-4390-4997-b6a2-14cb8167220a",
    "types": [
      "singers",
      "2",
      "songwriters",
      "8"
    ],
    "repository": "kara.moe",
    "modified_at": "2020-03-31T19:04:34.099Z"
  }
}