{
  "header": {
    "description": "Karaoke Mugen Tag File",
    "version": 1
  },
  "tag": {
    "aliases": [
      "Daniel Murcia"
    ],
    "i18n": {
      "eng": "Danny Mercer"
    },
    "name": "Danny Mercer",
    "repository": "kara.moe",
    "tid": "8ac1678b-d377-4030-a746-077dd3ffdb9d",
    "types": [
      "songwriters",
      "8"
    ]
  }
}