{
  "header": {
    "description": "Karaoke Mugen Tag File",
    "version": 1
  },
  "tag": {
    "aliases": [
      "Bibliotheca Mystica de Dantalian",
      "Dantalian's Bookshelf",
      "Містична бібліотека Данталіан",
      "Таинственная библиотека Данталиан",
      "Тайнствената библиотека на Данталиан"
    ],
    "external_database_ids": {
      "anilist": 8915,
      "myanimelist": 8915,
      "kitsu": 5530
    },
    "i18n": {
      "chi": "丹特麗安的書架",
      "eng": "The Mystic Archives of Dantalian",
      "fre": "The Mystic Archives of Dantalian",
      "jpn": "ダンタリアンの書架",
      "kor": "단탈리안의 서가",
      "qro": "Dantalian no Shoka"
    },
    "modified_at": "2020-03-31T19:04:31.293Z",
    "name": "Dantalian no Shoka",
    "repository": "kara.moe",
    "tid": "2b807fbf-43fe-447a-8c64-a54d1188bb15",
    "types": [
      "series",
      "1"
    ]
  }
}