{
  "header": {
    "description": "Karaoke Mugen Tag File",
    "version": 1
  },
  "tag": {
    "i18n": {
      "eng": "DashingRKO619"
    },
    "modified_at": "2020-07-16T16:41:41.937Z",
    "name": "DashingRKO619",
    "repository": "kara.moe",
    "tid": "4c317add-47ed-451a-93d8-b490bcfefa8b",
    "types": [
      "creators",
      "4"
    ]
  }
}