{
  "header": {
    "description": "Karaoke Mugen Tag File",
    "version": 1
  },
  "tag": {
    "external_database_ids": {
      "anilist": 116605,
      "myanimelist": 41461,
      "kitsu": 43065
    },
    "i18n": {
      "eng": "Date A Live IV",
      "jpn": "デート・ア・ライブⅣ"
    },
    "name": "Date A Live IV",
    "repository": "kara.moe",
    "tid": "cf9aed12-4bc8-4f66-9437-595e0030aceb",
    "types": [
      "series",
      "1"
    ]
  }
}