{
  "header": {
    "description": "Karaoke Mugen Tag File",
    "version": 1
  },
  "tag": {
    "i18n": {
      "eng": "Date a Live: Rinne Utopia",
      "jpn": "デート・ア・ライブ 凛祢ユートピア",
      "qro": "Date a Live: Rinne Utopia"
    },
    "modified_at": "2020-03-31T19:04:31.298Z",
    "name": "Date a Live: Rinne Utopia",
    "repository": "kara.moe",
    "tid": "1ac3ddc7-c280-4914-b18c-741db273d5b5",
    "types": [
      "series",
      "1"
    ]
  }
}