{
  "header": {
    "description": "Karaoke Mugen Tag File",
    "version": 1
  },
  "tag": {
    "i18n": {
      "eng": "Dave Porter"
    },
    "modified_at": "2021-01-15T22:49:31.482Z",
    "name": "Dave Porter",
    "repository": "kara.moe",
    "tid": "f6dceec8-ea4d-4b0e-949d-10d4891025ba",
    "types": [
      "songwriters",
      "8"
    ]
  }
}