{
  "header": {
    "description": "Karaoke Mugen Tag File",
    "version": 1
  },
  "tag": {
    "i18n": {
      "eng": "Dave Farrell"
    },
    "name": "Dave Farrell",
    "repository": "kara.moe",
    "tid": "d192fb10-3afc-4ad4-b673-c23fcd640d11",
    "types": [
      "songwriters",
      "8"
    ]
  }
}