{
  "header": {
    "description": "Karaoke Mugen Tag File",
    "version": 1
  },
  "tag": {
    "i18n": {
      "eng": "David Paich"
    },
    "name": "David Paich",
    "repository": "kara.moe",
    "tid": "a14a4ec4-bdae-4a38-8d51-ee76b1785cee",
    "types": [
      "songwriters",
      "8"
    ]
  }
}