{
  "header": {
    "description": "Karaoke Mugen Tag File",
    "version": 1
  },
  "tag": {
    "i18n": {
      "eng": "David Wesley Haywood"
    },
    "name": "David Wesley Haywood",
    "repository": "kara.moe",
    "tid": "125e44b0-7709-4675-a431-3c5512acc7ee",
    "types": [
      "songwriters",
      "8"
    ]
  }
}