{
  "header": {
    "description": "Karaoke Mugen Tag File",
    "version": 1
  },
  "tag": {
    "i18n": {
      "eng": "David Marcé"
    },
    "modified_at": "2021-05-30T09:00:51.102Z",
    "name": "David Marcé",
    "repository": "kara.moe",
    "tid": "8406e2c8-faba-4e5c-a1fa-2639c1a64807",
    "types": [
      "singers",
      "2"
    ]
  }
}