{
  "header": {
    "description": "Karaoke Mugen Tag File",
    "version": 1
  },
  "tag": {
    "i18n": {
      "eng": "David Manet"
    },
    "name": "David Manet",
    "tid": "e99d9612-0327-49c8-a507-1dda0444eea6",
    "types": [
      "singers",
      "2"
    ],
    "repository": "kara.moe",
    "modified_at": "2020-03-31T19:04:34.114Z"
  }
}