{
  "header": {
    "description": "Karaoke Mugen Tag File",
    "version": 1
  },
  "tag": {
    "i18n": {
      "eng": "DAX Production"
    },
    "modified_at": "2020-05-10T18:52:45.060Z",
    "name": "DAX Production",
    "repository": "kara.moe",
    "tid": "e5b395ce-a8b3-4a62-83cd-c3e19af145cf",
    "types": [
      "creators",
      "4"
    ]
  }
}