{
  "header": {
    "description": "Karaoke Mugen Tag File",
    "version": 1
  },
  "tag": {
    "i18n": {
      "eng": "Daym Drops"
    },
    "name": "Daym Drops",
    "tid": "67f48b1b-67cc-466f-be6c-bb33bffcf2b6",
    "types": [
      "singers",
      "2",
      "songwriters",
      "8"
    ],
    "repository": "kara.moe",
    "modified_at": "2020-03-31T19:04:34.122Z"
  }
}