{
  "header": {
    "description": "Karaoke Mugen Tag File",
    "version": 1
  },
  "tag": {
    "i18n": {
      "eng": "DEARDROPS"
    },
    "name": "DEARDROPS",
    "tid": "772c54e8-7bab-4acc-b5aa-a9033f36c3a2",
    "types": [
      "songwriters",
      "8",
      "singers",
      "2"
    ],
    "repository": "kara.moe",
    "modified_at": "2020-03-31T19:04:34.126Z"
  }
}