{
  "header": {
    "description": "Karaoke Mugen Tag File",
    "version": 1
  },
  "tag": {
    "external_database_ids": {
      "anilist": 126047,
      "kitsu": 44200,
      "myanimelist": 43814
    },
    "i18n": {
      "jpn": "出会って5秒でバトル",
      "qro": "Deatte 5-byou de Battle",
      "eng": "Battle Game in 5 Seconds"
    },
    "name": "Deatte 5-byou de Battle",
    "repository": "kara.moe",
    "tid": "510ff7e7-bf92-4328-9bb4-36cb28c253a1",
    "types": [
      "series",
      "1"
    ]
  }
}