{
  "header": {
    "description": "Karaoke Mugen Tag File",
    "version": 1
  },
  "tag": {
    "i18n": {
      "eng": "Debra Zeer"
    },
    "name": "Debra Zeer",
    "tid": "e39fd78e-a402-4588-9756-862ea1e2952e",
    "types": [
      "singers",
      "2"
    ],
    "repository": "kara.moe",
    "modified_at": "2020-03-31T19:04:34.128Z"
  }
}