{
  "header": {
    "description": "Karaoke Mugen Tag File",
    "version": 1
  },
  "tag": {
    "i18n": {
      "eng": "Début de soirée"
    },
    "name": "Début de soirée",
    "repository": "kara.moe",
    "tid": "e03427c0-4c88-4835-9014-d1750bce6776",
    "types": [
      "singers",
      "2"
    ]
  }
}