{
  "header": {
    "description": "Karaoke Mugen Tag File",
    "version": 1
  },
  "tag": {
    "i18n": {
      "eng": "DELiGHTWORKS"
    },
    "name": "DELiGHTWORKS",
    "tid": "b5089155-c514-471a-9d77-1bf1bbdaf8c5",
    "types": [
      "creators",
      "4"
    ],
    "repository": "kara.moe",
    "modified_at": "2020-03-31T19:04:34.133Z"
  }
}