{
  "header": {
    "description": "Karaoke Mugen Tag File",
    "version": 1
  },
  "tag": {
    "i18n": {
      "eng": "Dengeki Sentai Changeman",
      "jpn": "電撃戦隊チェンジマン",
      "qro": "Dengeki Sentai Changeman"
    },
    "modified_at": "2020-03-31T19:04:31.309Z",
    "name": "Dengeki Sentai Changeman",
    "repository": "kara.moe",
    "tid": "bdb62477-bc34-4ffa-af9b-13216f0b7085",
    "types": [
      "series",
      "1"
    ]
  }
}