{
  "header": {
    "description": "Karaoke Mugen Tag File",
    "version": 1
  },
  "tag": {
    "aliases": [
      "Densetsu Kyoujin Ideon: Hatsudou-hen",
      "El Ideon: La Invocación",
      "Space Runaway Ideon: Be Invoked",
      "The Ideon: Be Invoked",
      "hatsudou"
    ],
    "external_database_ids": {
      "anilist": 2761,
      "myanimelist": 2761,
      "kitsu": 2521
    },
    "i18n": {
      "eng": "Space Runaway Ideon: Be Invoked ",
      "jpn": "伝説巨神イデオン 発動篇",
      "qro": "Densetsu Kyojin Ideon Hatsudô Hen"
    },
    "modified_at": "2020-03-31T19:04:31.314Z",
    "name": "Densetsu Kyojin Ideon Hatsudô Hen",
    "repository": "kara.moe",
    "tid": "8f3f38e6-8360-4930-8cc6-a2c66c75a98c",
    "types": [
      "series",
      "1"
    ]
  }
}