{
  "header": {
    "description": "Karaoke Mugen Tag File",
    "version": 1
  },
  "tag": {
    "aliases": [
      "Devilman (1987)",
      "Devilman - The Birth",
      "Devilman Tanjou Hen",
      "Devilman Tanjouhen",
      "デビルマン (1987)",
      "tanjou"
    ],
    "external_database_ids": {
      "anilist": 2354,
      "myanimelist": 2354,
      "kitsu": 2133
    },
    "i18n": {
      "eng": "Devilman: The Birth",
      "fin": "Devilman : Syntymä",
      "fre": "Devilman : La naissance",
      "ita": "Devilman : La genesi",
      "jpn": "デビルマン 誕生編",
      "qro": "Devilman: Tanjô Hen"
    },
    "modified_at": "2020-03-31T19:04:31.322Z",
    "name": "Devilman: Tanjô Hen",
    "repository": "kara.moe",
    "tid": "7f32557c-b29b-4424-a497-f76ee7e83288",
    "types": [
      "series",
      "1"
    ]
  }
}