{
  "header": {
    "description": "Karaoke Mugen Tag File",
    "version": 1
  },
  "tag": {
    "aliases": [
      "デビルサバイバー2"
    ],
    "external_database_ids": {
      "anilist": 16512,
      "myanimelist": 16512,
      "kitsu": 7446
    },
    "i18n": {
      "eng": "Devil Survivor 2 the Animation",
      "fre": "Devil Survivor 2: The Animation",
      "ger": "Devil Survivor 2 The Animation",
      "jpn": "デビルサバイバー２ THE ANIMATION",
      "per": "نجات یافته اهریمنی 2",
      "qro": "Devil Survivor 2 The Animation"
    },
    "modified_at": "2020-03-31T19:04:31.322Z",
    "name": "Devil Survivor 2 The Animation",
    "repository": "kara.moe",
    "tid": "386a821c-53d0-4881-8884-e34ebae1f1e3",
    "types": [
      "series",
      "1"
    ]
  }
}