{
  "header": {
    "description": "Karaoke Mugen Tag File",
    "version": 1
  },
  "tag": {
    "i18n": {
      "eng": "Dexter"
    },
    "modified_at": "2021-01-15T21:38:42.895Z",
    "name": "Dexter",
    "repository": "kara.moe",
    "tid": "27443962-fe01-491d-aec6-b8c28acca275",
    "types": [
      "series",
      "1"
    ]
  }
}