{
  "header": {
    "description": "Karaoke Mugen Tag File",
    "version": 1
  },
  "tag": {
    "i18n": {
      "eng": "Diabolik Lovers: Dark Fate",
      "jpn": "ディアボリックラヴァーズ ダークフェイト",
      "qro": "Diabolik Lovers: Dark Fate"
    },
    "modified_at": "2020-03-31T19:04:31.327Z",
    "name": "Diabolik Lovers: Dark Fate",
    "repository": "kara.moe",
    "tid": "c8d2ef47-654f-4ac0-8af5-be812f385249",
    "types": [
      "series",
      "1"
    ]
  }
}