{
  "header": {
    "description": "Karaoke Mugen Tag File",
    "version": 1
  },
  "tag": {
    "aliases": [
      "Daiya no A",
      "Daiya no Ace",
      "Dia no A",
      "Dia no Ace"
    ],
    "external_database_ids": {
      "anilist": 18689,
      "myanimelist": 18689,
      "kitsu": 7699
    },
    "i18n": {
      "eng": "Ace of Diamond",
      "jpn": "ダイヤのA[エース]",
      "qro": "Diamond no Ace"
    },
    "modified_at": "2020-03-31T19:04:31.334Z",
    "name": "Diamond no Ace",
    "repository": "kara.moe",
    "tid": "f2b3ead1-ddc8-4b6f-afde-6d445d2478e5",
    "types": [
      "series",
      "1",
      "franchises",
      "18"
    ]
  }
}