{
  "header": {
    "description": "Karaoke Mugen Tag File",
    "version": 1
  },
  "tag": {
    "i18n": {
      "eng": "Diao ye zong",
      "jpn": "凋叶棕"
    },
    "name": "Diao ye zong",
    "repository": "kara.moe",
    "tid": "551690a1-6c76-4376-a64c-8bbef223a304",
    "types": [
      "singergroups",
      "17",
      "creators",
      "4"
    ]
  }
}