{
  "header": {
    "description": "Karaoke Mugen Tag File",
    "version": 1
  },
  "tag": {
    "i18n": {
      "eng": "DIC Entertainment"
    },
    "name": "DIC Entertainment",
    "tid": "5fafca8e-03a2-4bd5-a57d-0739639f798b",
    "types": [
      "creators",
      "4"
    ],
    "repository": "kara.moe",
    "modified_at": "2020-03-31T19:04:34.148Z"
  }
}