{
  "header": {
    "description": "Karaoke Mugen Tag File",
    "version": 1
  },
  "tag": {
    "i18n": {
      "eng": "Didier Julia"
    },
    "name": "Didier Julia",
    "tid": "29372b82-691c-4b78-adb4-8a9eb7a8a6fb",
    "types": [
      "songwriters",
      "8"
    ],
    "repository": "kara.moe",
    "modified_at": "2020-03-31T19:04:34.150Z"
  }
}