{
  "header": {
    "description": "Karaoke Mugen Tag File",
    "version": 1
  },
  "tag": {
    "i18n": {
      "eng": "Diego Ayala Raffali"
    },
    "name": "Diego Ayala Raffali",
    "tid": "abfdda7f-c692-4b77-ba3c-e5464d6c527f",
    "types": [
      "singers",
      "2",
      "songwriters",
      "8"
    ],
    "repository": "kara.moe",
    "modified_at": "2020-03-31T19:04:34.152Z"
  }
}