{
  "header": {
    "description": "Karaoke Mugen Tag File",
    "version": 1
  },
  "tag": {
    "aliases": [
      "Digimon Cross Wars",
      "Digimon Fusion Battles",
      "Digital Monsters",
      "digimon6",
      "digixw"
    ],
    "external_database_ids": {
      "anilist": 8624,
      "myanimelist": 8624,
      "kitsu": 5404
    },
    "i18n": {
      "eng": "Digimon Fusion",
      "ger": "Digimon Xros Wars",
      "ita": "Digimon Fusion",
      "jpn": "デジモンクロスウォーズ",
      "por": "Digimon Fusion",
      "spa": "Digimon Fusion",
      "qro": "Digimon Xros Wars"
    },
    "modified_at": "2020-03-31T19:04:31.340Z",
    "name": "Digimon Xros Wars",
    "repository": "kara.moe",
    "tid": "d072174c-ba1f-4393-bf68-b9f0e3b4c2da",
    "types": [
      "series",
      "1"
    ]
  }
}