{
  "header": {
    "description": "Karaoke Mugen Tag File",
    "version": 1
  },
  "tag": {
    "i18n": {
      "eng": "Dirk Lüdemann"
    },
    "name": "Dirk Lüdemann",
    "repository": "kara.moe",
    "tid": "08549e83-5328-4bb5-adbf-199fd9018df1",
    "types": [
      "singers",
      "2"
    ]
  }
}