{
  "header": {
    "description": "Karaoke Mugen Tag File",
    "version": 1
  },
  "tag": {
    "i18n": {
      "eng": "Disques Flèche"
    },
    "modified_at": "2021-09-05T20:36:39.865Z",
    "name": "Disques Flèche",
    "repository": "kara.moe",
    "tid": "77f4c8c4-bb8f-4ff1-aabb-637ae49aeec3",
    "types": [
      "creators",
      "4"
    ]
  }
}