{
  "header": {
    "description": "Karaoke Mugen Tag File",
    "version": 1
  },
  "tag": {
    "i18n": {
      "eng": "Disturbed"
    },
    "name": "Disturbed",
    "tid": "98c06735-89cd-49e5-9840-d939f469a7b5",
    "types": [
      "singers",
      "2"
    ],
    "repository": "kara.moe",
    "modified_at": "2020-03-31T19:04:34.159Z"
  }
}