{
  "header": {
    "description": "Karaoke Mugen Tag File",
    "version": 1
  },
  "tag": {
    "i18n": {
      "eng": "DIVELA"
    },
    "name": "DIVELA",
    "repository": "kara.moe",
    "tid": "afab92ec-4aef-496d-8d95-0e105752d3bd",
    "types": [
      "songwriters",
      "8"
    ]
  }
}