{
  "header": {
    "description": "Karaoke Mugen Tag File",
    "version": 1
  },
  "tag": {
    "external_database_ids": {
      "anilist": 97921,
      "myanimelist": 34543,
      "kitsu": 13007
    },
    "i18n": {
      "eng": "DIVE!!",
      "jpn": "DIVE!!",
      "qro": "DIVE!!"
    },
    "modified_at": "2020-03-31T19:04:31.345Z",
    "name": "DIVE!!",
    "repository": "kara.moe",
    "tid": "1758339d-7d9b-4108-af44-44414bfa43f4",
    "types": [
      "series",
      "1"
    ]
  }
}