{
  "header": {
    "description": "Karaoke Mugen Tag File",
    "version": 1
  },
  "tag": {
    "i18n": {
      "eng": "DJ CLAZZIQUAI"
    },
    "name": "DJ CLAZZIQUAI",
    "tid": "c9283447-c577-4a10-8a57-df6866564d52",
    "types": [
      "songwriters",
      "8"
    ],
    "repository": "kara.moe",
    "modified_at": "2020-03-31T19:04:34.163Z"
  }
}