{
  "header": {
    "description": "Karaoke Mugen Tag File",
    "version": 1
  },
  "tag": {
    "i18n": {
      "eng": "DJ first"
    },
    "modified_at": "2020-05-04T15:36:34.176Z",
    "name": "DJ first",
    "repository": "kara.moe",
    "tid": "9cc61ab4-b106-40b2-9918-b07f514f1611",
    "types": [
      "songwriters",
      "8"
    ]
  }
}