{
  "header": {
    "description": "Karaoke Mugen Tag File",
    "version": 1
  },
  "tag": {
    "i18n": {
      "eng": "DJMAX Respect V"
    },
    "name": "DJMAX Respect V",
    "repository": "kara.moe",
    "tid": "d1e4e970-e72f-45fa-a2e3-bd4f0e99d5d6",
    "types": [
      "series",
      "1"
    ]
  }
}