{
  "header": {
    "description": "Karaoke Mugen Tag File",
    "version": 1
  },
  "tag": {
    "i18n": {
      "eng": "Dominique Farrugia"
    },
    "name": "Dominique Farrugia",
    "tid": "12fdbc24-b0eb-4248-a937-5cb5d2928d40",
    "types": [
      "singers",
      "2"
    ],
    "repository": "kara.moe",
    "modified_at": "2020-03-31T19:04:34.178Z"
  }
}