{
  "header": {
    "description": "Karaoke Mugen Tag File",
    "version": 1
  },
  "tag": {
    "i18n": {
      "eng": "Dorothée"
    },
    "name": "Dorothée",
    "tid": "ef8a395c-1965-466c-936f-af1823adb039",
    "types": [
      "singers",
      "2"
    ],
    "repository": "kara.moe",
    "modified_at": "2020-03-31T19:04:34.188Z"
  }
}