{
  "header": {
    "description": "Karaoke Mugen Tag File",
    "version": 1
  },
  "tag": {
    "i18n": {
      "eng": "Doubutsu Biscuits"
    },
    "name": "Doubutsu Biscuits",
    "tid": "a767fbe2-230f-478b-92f0-73ac76d3ffd1",
    "types": [
      "singers",
      "2"
    ],
    "repository": "kara.moe",
    "modified_at": "2020-03-31T19:04:34.191Z"
  }
}