{
  "header": {
    "description": "Karaoke Mugen Tag File",
    "version": 1
  },
  "tag": {
    "i18n": {
      "eng": "dps"
    },
    "name": "dps",
    "repository": "kara.moe",
    "tid": "bbda889d-6a8e-4518-aabd-7bd5f75189e7",
    "types": [
      "singers",
      "2"
    ]
  }
}