{
  "header": {
    "description": "Karaoke Mugen Tag File",
    "version": 1
  },
  "tag": {
    "i18n": {
      "eng": "Dr. Seuss"
    },
    "modified_at": "2021-03-23T22:50:49.653Z",
    "name": "Dr. Seuss",
    "repository": "kara.moe",
    "tid": "5f1dba8d-ad70-46a3-943f-9f0b299a0b1b",
    "types": [
      "songwriters",
      "8"
    ]
  }
}