{
  "header": {
    "description": "Karaoke Mugen Tag File",
    "version": 1
  },
  "tag": {
    "aliases": [
      "Luke Gottwald",
      "KaSZ",
      "Lukasz Sebastian Gottwald"
    ],
    "i18n": {
      "eng": "Dr. Luke"
    },
    "name": "Dr. Luke",
    "repository": "kara.moe",
    "tid": "6e38c155-4a30-4429-aa29-5c215b087f40",
    "types": [
      "songwriters",
      "8"
    ]
  }
}