{
  "header": {
    "description": "Karaoke Mugen Tag File",
    "version": 1
  },
  "tag": {
    "aliases": [
      "Doctor Stone",
      "Docteur Stone"
    ],
    "external_database_ids": {
      "anilist": 105333,
      "myanimelist": 38691,
      "kitsu": 42080
    },
    "i18n": {
      "eng": "Dr. Stone",
      "jpn": "ドクターストーン",
      "qro": "Dr. Stone"
    },
    "modified_at": "2021-10-10T14:46:34.544Z",
    "name": "Dr. Stone",
    "repository": "kara.moe",
    "tid": "0462d1d6-c28c-4dc2-8693-fef403bcd250",
    "types": [
      "series",
      "1",
      "franchises",
      "18"
    ]
  }
}