{
  "header": {
    "description": "Karaoke Mugen Tag File",
    "version": 1
  },
  "tag": {
    "aliases": [
      "Dragon Crisis",
      "dc!",
      "Драконова криза!",
      "ドラクラ!"
    ],
    "external_database_ids": {
      "anilist": 9330,
      "myanimelist": 9330,
      "kitsu": 5678
    },
    "i18n": {
      "eng": "Dragon Crisis!",
      "jpn": "ドラゴンクライシス!",
      "qro": "Dragon Crisis!"
    },
    "modified_at": "2020-03-31T19:04:31.377Z",
    "name": "Dragon Crisis!",
    "repository": "kara.moe",
    "tid": "8d81eb58-0467-44b9-bc82-867183d59e5d",
    "types": [
      "series",
      "1"
    ]
  }
}