{
  "header": {
    "description": "Karaoke Mugen Tag File",
    "version": 1
  },
  "tag": {
    "aliases": [
      "DBZ Film 6",
      "Dragon Ball Z: Fight! 10 Billion Power Warriors",
      "Metal Cooler"
    ],
    "external_database_ids": {
      "anilist": 899,
      "myanimelist": 899,
      "kitsu": 799
    },
    "i18n": {
      "eng": "Dragon Ball Z: The Return of Cooler",
      "fre": "Dragon Ball Z : Cent-mille guerriers de métal",
      "jpn": "ドラゴンボールZ 激突!!100億パワーの戦士たち",
      "qro": "Dragon Ball Z Movie 6: Gekitotsu!! Hyaku-Oku Power no Senshi-tachi"
    },
    "modified_at": "2020-03-31T19:04:31.373Z",
    "name": "Dragon Ball Z Movie 6: Gekitotsu!! Hyaku-Oku Power no Senshi-tachi",
    "repository": "kara.moe",
    "tid": "3a6c994a-95a4-4650-8b50-625d9e43baa2",
    "types": [
      "series",
      "1"
    ]
  }
}