{
  "header": {
    "description": "Karaoke Mugen Tag File",
    "version": 1
  },
  "tag": {
    "aliases": [
      "DRIFTERS Battle in a Brand-new World War",
      "Скитальцы"
    ],
    "external_database_ids": {
      "anilist": 21123,
      "myanimelist": 31339,
      "kitsu": 11028
    },
    "i18n": {
      "eng": "Drifters",
      "jpn": "ドリフターズ",
      "qro": "Drifters"
    },
    "modified_at": "2020-03-31T19:04:31.381Z",
    "name": "Drifters",
    "repository": "kara.moe",
    "tid": "fa8e2cd7-961c-4113-b600-83a4cb2d643d",
    "types": [
      "series",
      "1"
    ]
  }
}