{
  "header": {
    "description": "Karaoke Mugen Tag File",
    "version": 1
  },
  "tag": {
    "i18n": {
      "eng": "DS"
    },
    "name": "DS",
    "repository": "kara.moe",
    "tid": "e1d94c83-3855-46ed-8476-7721c76f3668",
    "types": [
      "authors",
      "6"
    ]
  }
}