{
  "header": {
    "description": "Karaoke Mugen Tag File",
    "version": 1
  },
  "tag": {
    "aliases": [
      "Dual! Una Historia Paralela",
      "Опасные приключения в параллельной реальности"
    ],
    "external_database_ids": {
      "anilist": 992,
      "myanimelist": 992,
      "kitsu": 882
    },
    "i18n": {
      "eng": "Dual! Parallel Trouble Adventures",
      "fre": "Dual",
      "jpn": "デュアル! ぱられルンルン物語",
      "qro": "Dual! Parallel Runrun Monogatari"
    },
    "modified_at": "2020-03-31T19:04:31.382Z",
    "name": "Dual! Parallel Runrun Monogatari",
    "repository": "kara.moe",
    "tid": "3b0d27b1-23be-446a-a8e8-d6df668a039b",
    "types": [
      "series",
      "1"
    ]
  }
}