{
  "header": {
    "description": "Karaoke Mugen Tag File",
    "version": 1
  },
  "tag": {
    "aliases": [
      "dsd",
      "dsj",
      "デュエル・セイヴァー"
    ],
    "i18n": {
      "eng": "Duel Savior",
      "jpn": "Duel Savior",
      "qro": "Duel Savior"
    },
    "name": "Duel Savior",
    "repository": "kara.moe",
    "tid": "8f2d4074-70cf-41d5-b6b3-f4ba8d832776",
    "types": [
      "series",
      "1"
    ]
  }
}