{
  "header": {
    "description": "Karaoke Mugen Tag File",
    "version": 1
  },
  "tag": {
    "aliases": [
      "Dumbbell kilogram"
    ],
    "external_database_ids": {
      "anilist": 107226,
      "myanimelist": 39026,
      "kitsu": 42134
    },
    "i18n": {
      "eng": "How Heavy Are the Dumbbells You Lift?",
      "fre": "Dumbbell : Combien tu peux soulever ?",
      "jpn": "ダンベル何キロ持てる?",
      "qro": "Dumbbell Nan Kilo Moteru?"
    },
    "modified_at": "2020-03-31T19:04:31.385Z",
    "name": "Dumbbell Nan Kilo Moteru?",
    "repository": "kara.moe",
    "tid": "64101b19-6382-4ca2-9c25-bfdcfe812124",
    "types": [
      "series",
      "1"
    ]
  }
}