{
  "header": {
    "description": "Karaoke Mugen Tag File",
    "version": 1
  },
  "tag": {
    "i18n": {
      "eng": "Dyes Iwasaki"
    },
    "modified_at": "2021-09-29T23:17:17.785Z",
    "name": "Dyes Iwasaki",
    "repository": "kara.moe",
    "tid": "52f8519f-6bcd-450a-b119-805b8dd591db",
    "types": [
      "songwriters",
      "8"
    ]
  }
}