{
  "header": {
    "description": "Karaoke Mugen Tag File",
    "version": 1
  },
  "tag": {
    "i18n": {
      "eng": "E'Dawn"
    },
    "name": "E'Dawn",
    "tid": "beec692c-647b-4d16-b52e-b827601de7db",
    "types": [
      "songwriters",
      "8"
    ],
    "repository": "kara.moe",
    "modified_at": "2020-03-31T19:04:34.215Z"
  }
}