{
  "header": {
    "description": "Karaoke Mugen Tag File",
    "version": 1
  },
  "tag": {
    "i18n": {
      "eng": "E. Kidd Bogart"
    },
    "name": "E. Kidd Bogart",
    "repository": "kara.moe",
    "tid": "dea8bc4a-d4ce-4660-a860-dfc9cdc58d98",
    "types": [
      "songwriters",
      "8"
    ],
    "modified_at": "2020-03-31T19:04:34.217Z"
  }
}