{
  "header": {
    "description": "Karaoke Mugen Tag File",
    "version": 1
  },
  "tag": {
    "i18n": {
      "eng": "EA Los Angeles"
    },
    "name": "EA Los Angeles",
    "tid": "475e5cab-d515-4414-925b-da935f8bc2ca",
    "types": [
      "creators",
      "4"
    ],
    "repository": "kara.moe",
    "modified_at": "2020-03-31T19:04:34.218Z"
  }
}