{
  "header": {
    "description": "Karaoke Mugen Tag File",
    "version": 1
  },
  "tag": {
    "i18n": {
      "eng": "EARTHSHAKER"
    },
    "name": "EARTHSHAKER",
    "tid": "2bc3a900-154f-4989-88cf-045093af6606",
    "types": [
      "singers",
      "2"
    ],
    "repository": "kara.moe",
    "modified_at": "2020-03-31T19:04:34.221Z"
  }
}