{
  "header": {
    "description": "Karaoke Mugen Tag File",
    "version": 1
  },
  "tag": {
    "i18n": {
      "eng": "eba"
    },
    "name": "eba",
    "tid": "7eecb89b-1985-4fd9-927e-a43cc24f03a5",
    "types": [
      "creators",
      "4",
      "songwriters",
      "8"
    ],
    "repository": "kara.moe",
    "modified_at": "2020-03-31T19:04:34.222Z"
  }
}