{
  "header": {
    "description": "Karaoke Mugen Tag File",
    "version": 1
  },
  "tag": {
    "i18n": {
      "eng": "EchoMotion"
    },
    "name": "EchoMotion",
    "repository": "kara.moe",
    "tid": "b550b1ca-31c2-49c0-a81a-333e1d4a8c3c",
    "types": [
      "creators",
      "4"
    ]
  }
}