{
  "header": {
    "description": "Karaoke Mugen Tag File",
    "version": 1
  },
  "tag": {
    "i18n": {
      "eng": "Ed Robertson"
    },
    "modified_at": "2021-10-08T21:42:53.643Z",
    "name": "Ed Robertson",
    "repository": "kara.moe",
    "tid": "2695a211-0510-4001-9daa-b86a42e1f532",
    "types": [
      "songwriters",
      "8"
    ]
  }
}