{
  "header": {
    "description": "Karaoke Mugen Tag File",
    "version": 1
  },
  "tag": {
    "i18n": {
      "eng": "√Effect"
    },
    "name": "√Effect",
    "tid": "695ad88a-9e9a-450c-b727-a358047bc5bc",
    "types": [
      "creators",
      "4"
    ],
    "repository": "kara.moe",
    "modified_at": "2020-03-31T19:04:34.232Z"
  }
}