{
  "header": {
    "description": "Karaoke Mugen Tag File",
    "version": 1
  },
  "tag": {
    "i18n": {
      "eng": "Ehmz"
    },
    "name": "Ehmz",
    "repository": "kara.moe",
    "tid": "fff3c258-5e08-4569-97e9-71c56f564d01",
    "types": [
      "singers",
      "2"
    ]
  }
}