{
  "header": {
    "description": "Karaoke Mugen Tag File",
    "version": 1
  },
  "tag": {
    "i18n": {
      "eng": "Eiji Miyashita"
    },
    "name": "Eiji Miyashita",
    "tid": "3245f263-9e69-40c1-9960-8f4d7a25e012",
    "types": [
      "singers",
      "2"
    ],
    "repository": "kara.moe",
    "modified_at": "2020-03-31T19:04:34.241Z"
  }
}