{
  "header": {
    "description": "Karaoke Mugen Tag File",
    "version": 1
  },
  "tag": {
    "i18n": {
      "eng": "Eiko Shimamiya"
    },
    "name": "Eiko Shimamiya",
    "tid": "a8834015-2b85-4a09-bb3c-539ec762a2b4",
    "types": [
      "singers",
      "2",
      "songwriters",
      "8"
    ],
    "repository": "kara.moe",
    "modified_at": "2020-03-31T19:04:34.246Z"
  }
}