{
  "header": {
    "description": "Karaoke Mugen Tag File",
    "version": 1
  },
  "tag": {
    "i18n": {
      "eng": "Eiko Kyo"
    },
    "name": "Eiko Kyo",
    "tid": "a4982ec9-9c77-4556-b8c3-75ac525a6e87",
    "types": [
      "songwriters",
      "8"
    ],
    "repository": "kara.moe",
    "modified_at": "2020-03-31T19:04:34.244Z"
  }
}