{
  "header": {
    "description": "Karaoke Mugen Tag File",
    "version": 1
  },
  "tag": {
    "aliases": [
      "Eiyuu Densetsu Sora no Kiseki First Chapter",
      "TLoH",
      "eiyuu"
    ],
    "i18n": {
      "eng": "The Legend of Heroes: Trails in the Sky First Chapter",
      "jpn": "英雄伝説VI 空の軌跡FC",
      "qro": "Eiyû Densetsu: Sora no Kiseki First Chapter"
    },
    "modified_at": "2020-03-31T19:04:31.396Z",
    "name": "Eiyû Densetsu: Sora no Kiseki First Chapter",
    "repository": "kara.moe",
    "tid": "8f255c31-ad61-4b02-afc8-5520e143f5f2",
    "types": [
      "series",
      "1"
    ]
  }
}