{
  "header": {
    "description": "Karaoke Mugen Tag File",
    "version": 1
  },
  "tag": {
    "i18n": {
      "eng": "EKACHI EPILKA"
    },
    "name": "EKACHI EPILKA",
    "tid": "04fa0c68-31d9-44ba-8462-73ee723dd7df",
    "types": [
      "creators",
      "4"
    ],
    "repository": "kara.moe",
    "modified_at": "2020-03-31T19:04:34.251Z"
  }
}