{
  "header": {
    "description": "Karaoke Mugen Tag File",
    "version": 1
  },
  "tag": {
    "i18n": {
      "eng": "Elektra"
    },
    "modified_at": "2020-07-03T20:55:39.685Z",
    "name": "Elektra",
    "repository": "kara.moe",
    "tid": "5ed42d66-4b81-4a4e-9b2a-f94a729579ee",
    "types": [
      "creators",
      "4"
    ]
  }
}