{
  "header": {
    "description": "Karaoke Mugen Tag File",
    "version": 1
  },
  "tag": {
    "i18n": {
      "eng": "ELLEGARDEN"
    },
    "name": "ELLEGARDEN",
    "tid": "06922e39-3450-443e-a722-62efd0714d3a",
    "types": [
      "singers",
      "2"
    ],
    "repository": "kara.moe",
    "modified_at": "2020-03-31T19:04:34.258Z"
  }
}