{
  "header": {
    "description": "Karaoke Mugen Tag File",
    "version": 1
  },
  "tag": {
    "i18n": {
      "eng": "em.me"
    },
    "modified_at": "2020-11-22T12:33:06.805Z",
    "name": "em.me",
    "repository": "kara.moe",
    "tid": "caeb2ce2-8f99-4d98-bff7-66644ad99dde",
    "types": [
      "songwriters",
      "8"
    ]
  }
}