{
  "header": {
    "description": "Karaoke Mugen Tag File",
    "version": 1
  },
  "tag": {
    "i18n": {
      "eng": "Emi Okamoto"
    },
    "modified_at": "2021-02-08T22:23:44.310Z",
    "name": "Emi Okamoto",
    "repository": "kara.moe",
    "tid": "8cd01f2f-464d-494f-8c08-c491d9ba0971",
    "types": [
      "songwriters",
      "8"
    ]
  }
}