{
  "header": {
    "description": "Karaoke Mugen Tag File",
    "version": 1
  },
  "tag": {
    "i18n": {
      "eng": "Emi Nishida"
    },
    "name": "Emi Nishida",
    "tid": "8ff45f62-2b60-4763-b839-a021546bd350",
    "types": [
      "songwriters",
      "8"
    ],
    "repository": "kara.moe",
    "modified_at": "2020-03-31T19:04:34.267Z"
  }
}