{
  "header": {
    "description": "Karaoke Mugen Tag File",
    "version": 1
  },
  "tag": {
    "i18n": {
      "eng": "Emi Shinohara"
    },
    "name": "Emi Shinohara",
    "tid": "b92ee9db-d974-49fe-9d58-1471f2948702",
    "types": [
      "singers",
      "2"
    ],
    "repository": "kara.moe",
    "modified_at": "2020-03-31T19:04:34.269Z"
  }
}