{
  "header": {
    "description": "Karaoke Mugen Tag File",
    "version": 1
  },
  "tag": {
    "i18n": {
      "eng": "Emilh Tigerlantz"
    },
    "name": "Emilh Tigerlantz",
    "tid": "8a34dde1-ed39-4f61-8b6f-fe7956ada48f",
    "types": [
      "songwriters",
      "8"
    ],
    "repository": "kara.moe",
    "modified_at": "2020-03-31T19:04:34.271Z"
  }
}