{
  "header": {
    "description": "Karaoke Mugen Tag File",
    "version": 1
  },
  "tag": {
    "i18n": {
      "eng": "Emily Minamino"
    },
    "name": "Emily Minamino",
    "tid": "491a7634-c305-4863-861c-fea377e3a6f7",
    "types": [
      "songwriters",
      "8"
    ],
    "repository": "kara.moe",
    "modified_at": "2020-03-31T19:04:34.272Z"
  }
}