{
  "header": {
    "description": "Karaoke Mugen Tag File",
    "version": 1
  },
  "tag": {
    "i18n": {
      "eng": "Emiri Suyama"
    },
    "name": "Emiri Suyama",
    "tid": "6b92d286-9716-40af-8ec3-a637778cdfc6",
    "types": [
      "singers",
      "2"
    ],
    "repository": "kara.moe",
    "modified_at": "2020-03-31T19:04:34.274Z"
  }
}