{
  "header": {
    "description": "Karaoke Mugen Tag File",
    "version": 1
  },
  "tag": {
    "i18n": {
      "eng": "EmoCosine"
    },
    "name": "EmoCosine",
    "repository": "kara.moe",
    "tid": "ccb63381-be0c-4a58-8304-ba173351fbd1",
    "types": [
      "songwriters",
      "8"
    ]
  }
}