{
  "header": {
    "description": "Karaoke Mugen Tag File",
    "version": 1
  },
  "tag": {
    "i18n": {
      "eng": "EMT²"
    },
    "name": "EMT²",
    "tid": "071a90e9-1f9a-43e1-bac1-e583277d8420",
    "types": [
      "creators",
      "4"
    ],
    "repository": "kara.moe",
    "modified_at": "2020-03-31T19:04:34.280Z"
  }
}