{
  "header": {
    "description": "Karaoke Mugen Tag File",
    "version": 1
  },
  "tag": {
    "i18n": {
      "eng": "En Morikura"
    },
    "name": "En Morikura",
    "repository": "kara.moe",
    "tid": "2989594c-04c3-4b22-b2f1-086ba68f6e56",
    "types": [
      "creators",
      "4"
    ]
  }
}