{
  "header": {
    "description": "Karaoke Mugen Tag File",
    "version": 1
  },
  "tag": {
    "i18n": {
      "eng": "Encanto",
      "fre": "Encanto : La Fantastique Famille Madrigal",
      "jpn": "ミラベルと魔法だらけの家"
    },
    "name": "Encanto",
    "repository": "kara.moe",
    "tid": "5be1252c-d93b-464c-9dc9-f4b5100eb732",
    "types": [
      "series",
      "1"
    ]
  }
}