{
  "header": {
    "description": "Karaoke Mugen Tag File",
    "version": 1
  },
  "tag": {
    "external_database_ids": {
      "anilist": 103301,
      "myanimelist": 38062,
      "kitsu": 41957
    },
    "i18n": {
      "eng": "Endro!",
      "jpn": "えんどろ~!",
      "kor": "엔드로~!",
      "qro": "Endro~!"
    },
    "modified_at": "2020-03-31T19:04:31.405Z",
    "name": "Endro~!",
    "repository": "kara.moe",
    "tid": "b20c46cd-8d83-425e-9a94-d4f93a66e0c9",
    "types": [
      "series",
      "1"
    ]
  }
}