{
  "header": {
    "description": "Karaoke Mugen Tag File",
    "version": 1
  },
  "tag": {
    "i18n": {
      "eng": "ENGI"
    },
    "name": "ENGI",
    "tid": "03440af1-f27e-42f0-abdc-7853ba2ec287",
    "types": [
      "creators",
      "4"
    ],
    "repository": "kara.moe",
    "modified_at": "2020-03-31T19:04:34.286Z"
  }
}