{
  "header": {
    "description": "Karaoke Mugen Tag File",
    "version": 1
  },
  "tag": {
    "i18n": {
      "eng": "EQ"
    },
    "modified_at": "2021-03-08T13:46:53.432Z",
    "name": "EQ",
    "repository": "kara.moe",
    "tid": "ea965d69-396f-4ebe-b166-c8de0d5db7b9",
    "types": [
      "songwriters",
      "8"
    ]
  }
}