{
  "header": {
    "description": "Karaoke Mugen Tag File",
    "version": 1
  },
  "tag": {
    "i18n": {
      "eng": "Eric Métayer"
    },
    "name": "Eric Métayer",
    "repository": "kara.moe",
    "tid": "1acb678b-7642-4460-bb3b-fca9154a1309",
    "types": [
      "singers",
      "2"
    ],
    "modified_at": "2020-03-31T19:04:34.312Z"
  }
}