{
  "header": {
    "description": "Karaoke Mugen Tag File",
    "version": 1
  },
  "tag": {
    "i18n": {
      "eng": "Eriko Tamura"
    },
    "modified_at": "2020-09-30T21:56:58.224Z",
    "name": "Eriko Tamura",
    "repository": "kara.moe",
    "tid": "70daa7c5-58e9-4422-aa1e-8cd2d00c357e",
    "types": [
      "singers",
      "2"
    ]
  }
}