{
  "header": {
    "description": "Karaoke Mugen Tag File",
    "version": 1
  },
  "tag": {
    "i18n": {
      "eng": "Eriko Kishida"
    },
    "name": "Eriko Kishida",
    "tid": "557ba0c5-301e-4e2d-b6ab-2b86171d58d7",
    "types": [
      "songwriters",
      "8"
    ],
    "repository": "kara.moe",
    "modified_at": "2020-03-31T19:04:34.318Z"
  }
}