{
  "header": {
    "description": "Karaoke Mugen Tag File",
    "version": 1
  },
  "tag": {
    "i18n": {
      "eng": "ET-KING"
    },
    "name": "ET-KING",
    "repository": "kara.moe",
    "tid": "b02f4784-5c15-4738-a945-37705ad7b5dd",
    "types": [
      "singers",
      "2",
      "songwriters",
      "8"
    ]
  }
}