{
  "header": {
    "description": "Karaoke Mugen Tag File",
    "version": 1
  },
  "tag": {
    "i18n": {
      "eng": "Etsuko Niira"
    },
    "name": "Etsuko Niira",
    "tid": "2ea02fa6-fefd-4a17-82bf-71e5edfaa8c9",
    "types": [
      "singers",
      "2"
    ],
    "repository": "kara.moe",
    "modified_at": "2020-03-31T19:04:34.331Z"
  }
}