{
  "header": {
    "description": "Karaoke Mugen Tag File",
    "version": 1
  },
  "tag": {
    "aliases": [
      "ユーフォリア"
    ],
    "i18n": {
      "eng": "euphoria",
      "jpn": "euphoria",
      "qro": "Euphoria"
    },
    "modified_at": "2020-03-31T19:04:31.411Z",
    "name": "Euphoria",
    "repository": "kara.moe",
    "tid": "a5314b21-be5a-4e34-a3a4-f68da6455d8f",
    "types": [
      "series",
      "1"
    ]
  }
}