{
  "header": {
    "description": "Karaoke Mugen Tag File",
    "version": 1
  },
  "tag": {
    "aliases": [
      "Evangelion Shin Gekijouban Q",
      "Evangelion Shin Gekijouban: Quickening",
      "Evangelion: 3.0",
      "Evangelion: 3.0 You Can (Not) Redo.",
      "Evangelion: 3.33 You Can (Not) Redo",
      "Rebuild of Evangelion",
      "Rebuild of Evangelion: 3.0",
      "RoE",
      "eva3",
      "gekijouban"
    ],
    "external_database_ids": {
      "anilist": 3785,
      "myanimelist": 3785,
      "kitsu": 3251
    },
    "i18n": {
      "eng": "Evangelion: 3.0 ‒ You Can (Not) Redo",
      "jpn": "ヱヴァンゲリヲン新劇場版: Q",
      "rus": "Evangelion : 3.0 You Can (Not) Redo",
      "qro": "Evangelion Shin Gekijôban: Q"
    },
    "modified_at": "2020-03-31T19:04:31.414Z",
    "name": "Evangelion Shin Gekijôban: Q",
    "repository": "kara.moe",
    "tid": "5b53f5cb-433b-4a8c-9afe-b5166d39b977",
    "types": [
      "series",
      "1"
    ]
  }
}