{
  "header": {
    "description": "Karaoke Mugen Tag File",
    "version": 1
  },
  "tag": {
    "aliases": [
      "E ve",
      "evemaru",
      "ピアプロ"
    ],
    "i18n": {
      "eng": "Eve",
      "jpn": "イヴ"
    },
    "name": "Eve",
    "repository": "kara.moe",
    "tid": "a84f6a9f-4785-48bb-9f07-fdede3de7cae",
    "types": [
      "singers",
      "2",
      "songwriters",
      "8"
    ]
  }
}