{
  "header": {
    "description": "Karaoke Mugen Tag File",
    "version": 1
  },
  "tag": {
    "i18n": {
      "eng": "every♥ing!"
    },
    "name": "every♥ing!",
    "tid": "2c7726f8-5650-4ba8-b8fb-15ae50159dfe",
    "types": [
      "singers",
      "2"
    ],
    "repository": "kara.moe",
    "modified_at": "2020-03-31T19:04:34.339Z"
  }
}