{
  "header": {
    "description": "Karaoke Mugen Tag File",
    "version": 1
  },
  "tag": {
    "i18n": {
      "eng": "EYS"
    },
    "name": "EYS",
    "tid": "38dce587-f7e7-4304-a408-fdb091988eda",
    "types": [
      "songwriters",
      "8",
      "creators",
      "4"
    ],
    "repository": "kara.moe",
    "modified_at": "2020-03-31T19:04:34.344Z"
  }
}