{
  "header": {
    "description": "Karaoke Mugen Tag File",
    "version": 1
  },
  "tag": {
    "i18n": {
      "eng": "Fabrice Aboulker"
    },
    "name": "Fabrice Aboulker",
    "repository": "kara.moe",
    "tid": "8946715f-c57a-482b-82cb-c490c336ecc1",
    "types": [
      "songwriters",
      "8"
    ]
  }
}