{
  "header": {
    "description": "Karaoke Mugen Tag File",
    "version": 1
  },
  "tag": {
    "i18n": {
      "eng": "FACE FREE"
    },
    "name": "FACE FREE",
    "tid": "6d453d66-1554-427e-bf93-b840f979b42d",
    "types": [
      "singers",
      "2",
      "songwriters",
      "8"
    ],
    "repository": "kara.moe",
    "modified_at": "2020-03-31T19:04:34.349Z"
  }
}