{
  "header": {
    "description": "Karaoke Mugen Tag File",
    "version": 1
  },
  "tag": {
    "i18n": {
      "eng": "FaKK"
    },
    "modified_at": "2020-08-17T12:13:06.983Z",
    "name": "FaKK",
    "repository": "kara.moe",
    "tid": "78c25073-b0b6-44db-805a-05f66cbaced2",
    "types": [
      "authors",
      "6"
    ]
  }
}