{
  "header": {
    "description": "Karaoke Mugen Tag File",
    "version": 1
  },
  "tag": {
    "i18n": {
      "eng": "Falcom Sound Team jdk"
    },
    "modified_at": "2021-04-05T15:23:50.343Z",
    "name": "Falcom Sound Team jdk",
    "repository": "kara.moe",
    "tid": "290d4321-50ae-478d-a6bc-3dd98f9be879",
    "types": [
      "songwriters",
      "8"
    ]
  }
}