{
  "header": {
    "description": "Karaoke Mugen Tag File",
    "version": 1
  },
  "tag": {
    "i18n": {
      "eng": "Fānqié tǔdòu niúnǎn bāo"
    },
    "name": "Fānqié tǔdòu niúnǎn bāo",
    "repository": "kara.moe",
    "tid": "e2f3521d-fa2d-4b28-b977-940b4c7ddd7d",
    "types": [
      "creators",
      "4"
    ]
  }
}