{
  "header": {
    "description": "Karaoke Mugen Tag File",
    "version": 1
  },
  "tag": {
    "aliases": [
      "Fantastic Youth"
    ],
    "i18n": {
      "eng": "FantasticYouth"
    },
    "name": "FantasticYouth",
    "repository": "kara.moe",
    "tid": "7ba7ec3c-7e6a-4c63-b4b2-5b8b5d16b1de",
    "types": [
      "singers",
      "2",
      "creators",
      "4"
    ]
  }
}