{
  "header": {
    "description": "Karaoke Mugen Tag File",
    "version": 1
  },
  "tag": {
    "i18n": {
      "eng": "FANWORKS"
    },
    "name": "FANWORKS",
    "tid": "3026d1b1-4109-4d6c-9600-7e68fbf4a789",
    "types": [
      "creators",
      "4"
    ],
    "repository": "kara.moe",
    "modified_at": "2020-03-31T19:04:34.358Z"
  }
}