{
  "header": {
    "description": "Karaoke Mugen Tag File",
    "version": 1
  },
  "tag": {
    "i18n": {
      "eng": "Faye Chan"
    },
    "name": "Faye Chan",
    "repository": "kara.moe",
    "tid": "3119d0c4-fa39-426c-afef-e33bd9f947a2",
    "types": [
      "singers",
      "2"
    ]
  }
}