{
  "header": {
    "description": "Karaoke Mugen Tag File",
    "version": 1
  },
  "tag": {
    "i18n": {
      "eng": "FEEL SO BAD"
    },
    "modified_at": "2020-08-19T21:22:02.740Z",
    "name": "FEEL SO BAD",
    "repository": "kara.moe",
    "tid": "4f31fc0a-caee-48c6-8bda-e48290eee999",
    "types": [
      "singers",
      "2"
    ]
  }
}