{
  "header": {
    "description": "Karaoke Mugen Tag File",
    "version": 1
  },
  "tag": {
    "i18n": {
      "eng": "Feeling Free"
    },
    "name": "Feeling Free",
    "tid": "65f440f9-3ce4-4226-9f87-4ec24fcbc2e6",
    "types": [
      "singers",
      "2"
    ],
    "repository": "kara.moe",
    "modified_at": "2020-03-31T19:04:34.365Z"
  }
}