{
  "header": {
    "description": "Karaoke Mugen Tag File",
    "version": 1
  },
  "tag": {
    "i18n": {
      "eng": "FELISTELLA"
    },
    "name": "FELISTELLA",
    "tid": "f69a65fc-2ec0-4552-82ff-b3e15dddebb9",
    "types": [
      "creators",
      "4"
    ],
    "repository": "kara.moe",
    "modified_at": "2020-03-31T19:04:34.367Z"
  }
}