{
  "header": {
    "description": "Karaoke Mugen Tag File",
    "version": 1
  },
  "tag": {
    "i18n": {
      "eng": "Felicia Barton"
    },
    "name": "Felicia Barton",
    "tid": "58ff2214-29a0-44b0-bec7-f3dd32a8f468",
    "types": [
      "singers",
      "2"
    ],
    "repository": "kara.moe",
    "modified_at": "2020-03-31T19:04:34.366Z"
  }
}