{
  "header": {
    "description": "Karaoke Mugen Tag File",
    "version": 1
  },
  "tag": {
    "i18n": {
      "eng": "FEVER creations"
    },
    "name": "FEVER creations",
    "tid": "9fe8ae02-9fc1-44e1-b4d3-6080a400523f",
    "types": [
      "creators",
      "4"
    ],
    "repository": "kara.moe",
    "modified_at": "2020-03-31T19:04:34.369Z"
  }
}