{
  "header": {
    "description": "Karaoke Mugen Tag File",
    "version": 1
  },
  "tag": {
    "aliases": [
      "Figure@Mate",
      "Figyu@mate"
    ],
    "i18n": {
      "eng": "Figu@mate",
      "jpn": "ふぃぎゅ＠メイト",
      "qro": "Figu@mate"
    },
    "modified_at": "2020-03-31T19:04:31.439Z",
    "name": "Figu@mate",
    "repository": "kara.moe",
    "tid": "4073eb82-ac30-4476-b488-3b2e2edfef11",
    "types": [
      "series",
      "1"
    ]
  }
}