{
  "header": {
    "description": "Karaoke Mugen Tag File",
    "version": 1
  },
  "tag": {
    "i18n": {
      "eng": "Filippo Andrea Carmeni"
    },
    "name": "Filippo Andrea Carmeni",
    "repository": "kara.moe",
    "tid": "1b37a797-ff0f-422c-91cf-2423f6432072",
    "types": [
      "songwriters",
      "8"
    ]
  }
}