{
  "header": {
    "description": "Karaoke Mugen Tag File",
    "version": 1
  },
  "tag": {
    "aliases": [
      "FF 14",
      "FF XIV",
      "FF14",
      "FFXIV"
    ],
    "i18n": {
      "ara": "XIV فاينل فانتَسي",
      "chi": "最終幻想XIV",
      "eng": "Final Fantasy XIV",
      "fre": "Final Fantasy XIV",
      "jpn": "ファイナルファンタジーXIV",
      "qro": "Final Fantasy XIV"
    },
    "modified_at": "2020-03-31T19:04:31.444Z",
    "name": "Final Fantasy XIV",
    "repository": "kara.moe",
    "tid": "728e625e-ce49-40bf-92c0-b0e2efc6a994",
    "types": [
      "series",
      "1"
    ]
  }
}