{
  "header": {
    "description": "Karaoke Mugen Tag File",
    "version": 1
  },
  "tag": {
    "i18n": {
      "eng": "Fishbone"
    },
    "name": "Fishbone",
    "tid": "5cc9b1c1-f21b-46ee-90ee-569a39eb8b43",
    "types": [
      "singers",
      "2",
      "songwriters",
      "8"
    ],
    "repository": "kara.moe",
    "modified_at": "2020-03-31T19:04:34.377Z"
  }
}