{
  "header": {
    "description": "Karaoke Mugen Tag File",
    "version": 1
  },
  "tag": {
    "aliases": [
      "VFlower",
      "v flower",
      "v4 flower",
      "ブイフラワ"
    ],
    "i18n": {
      "eng": "Flower"
    },
    "name": "Flower",
    "repository": "kara.moe",
    "tid": "a34b0b52-c1ed-4a44-8db2-3cbd013ec06b",
    "types": [
      "singers",
      "2"
    ]
  }
}