{
  "header": {
    "description": "Karaoke Mugen Tag File",
    "version": 1
  },
  "tag": {
    "i18n": {
      "eng": "Foot Stamp"
    },
    "name": "Foot Stamp",
    "tid": "96c8bcc6-136e-43b6-b1a1-e7104e48d265",
    "types": [
      "singers",
      "2"
    ],
    "repository": "kara.moe",
    "modified_at": "2020-03-31T19:04:34.392Z"
  }
}