{
  "header": {
    "description": "Karaoke Mugen Tag File",
    "version": 1
  },
  "tag": {
    "i18n": {
      "ara": "قلعة بويار",
      "arm": "Ֆորտ Բոյար",
      "cze": "Klíče od pevnosti Boyard",
      "fin": "Seikkailujen linnake",
      "fre": "Fort Boyard",
      "heb": "המבצר",
      "kor": "보야르 원정대",
      "rus": "Форт Боярд"
    },
    "modified_at": "2020-03-31T19:04:31.454Z",
    "name": "Fort Boyard",
    "repository": "kara.moe",
    "tid": "d8c6ddda-4c3d-4847-8e37-76e3d89d7139",
    "types": [
      "series",
      "1"
    ]
  }
}