{
  "header": {
    "description": "Karaoke Mugen Tag File",
    "version": 1
  },
  "tag": {
    "i18n": {
      "eng": "FoZZtone"
    },
    "name": "FoZZtone",
    "tid": "6fe37eba-9fc9-4656-89b9-c58322b72019",
    "types": [
      "singers",
      "2"
    ],
    "repository": "kara.moe",
    "modified_at": "2020-03-31T19:04:34.396Z"
  }
}