{
  "header": {
    "description": "Karaoke Mugen Tag File",
    "version": 1
  },
  "tag": {
    "i18n": {
      "eng": "Fozzy"
    },
    "name": "Fozzy",
    "repository": "kara.moe",
    "tid": "b374d5a5-77de-4294-bca1-8185837c5cdc",
    "types": [
      "singers",
      "2"
    ]
  }
}