{
  "header": {
    "description": "Karaoke Mugen Tag File",
    "version": 1
  },
  "tag": {
    "i18n": {
      "eng": "France 2"
    },
    "name": "France 2",
    "tid": "af92126d-0518-4265-a993-6e553cbf55f7",
    "types": [
      "creators",
      "4"
    ],
    "repository": "kara.moe",
    "modified_at": "2020-03-31T19:04:34.397Z"
  }
}