{
  "header": {
    "description": "Karaoke Mugen Tag File",
    "version": 1
  },
  "tag": {
    "i18n": {
      "eng": "Francis"
    },
    "name": "Francis",
    "repository": "kara.moe",
    "tid": "d565147d-af63-44f7-88a1-430374a89615",
    "types": [
      "songwriters",
      "8"
    ]
  }
}