{
  "header": {
    "description": "Karaoke Mugen Tag File",
    "version": 1
  },
  "tag": {
    "i18n": {
      "eng": "Francesca Contini"
    },
    "name": "Francesca Contini",
    "tid": "9f81a213-632a-4e0d-8294-b49b96860e5c",
    "types": [
      "songwriters",
      "8"
    ],
    "repository": "kara.moe",
    "modified_at": "2020-03-31T19:04:34.399Z"
  }
}