{
  "header": {
    "description": "Karaoke Mugen Tag File",
    "version": 1
  },
  "tag": {
    "aliases": [
      "Francesca: Girls Be Ambitious",
      "フランチェスカ"
    ],
    "external_database_ids": {
      "anilist": 20748,
      "myanimelist": 22955,
      "kitsu": 8332
    },
    "i18n": {
      "eng": "Hungry Zombie Francesca",
      "jpn": "フランチェスカ",
      "qro": "Francesca"
    },
    "modified_at": "2020-03-31T19:04:31.458Z",
    "name": "Francesca",
    "repository": "kara.moe",
    "tid": "7d3b48ea-a99e-4143-8b8b-11b7e1636c13",
    "types": [
      "series",
      "1"
    ]
  }
}