{
  "header": {
    "description": "Karaoke Mugen Tag File",
    "version": 1
  },
  "tag": {
    "i18n": {
      "eng": "Fraser T. Smith"
    },
    "name": "Fraser T. Smith",
    "repository": "kara.moe",
    "tid": "3edf67eb-7df4-48ae-8219-8f4e39e2eb9d",
    "types": [
      "songwriters",
      "8"
    ]
  }
}