{
  "header": {
    "description": "Karaoke Mugen Tag File",
    "version": 1
  },
  "tag": {
    "aliases": [
      "Steven Spielberg Presents Freakazoid!"
    ],
    "i18n": {
      "eng": "Freakazoid!",
      "fin": "Bittipää",
      "fre": "Freakazoïd",
      "rus": "Фриказоид!",
      "spa": "¡Fenomenoide!"
    },
    "modified_at": "2020-03-31T19:04:31.460Z",
    "name": "Freakazoid",
    "repository": "kara.moe",
    "tid": "60078b13-77a4-4cbe-b093-0997fa3130f0",
    "types": [
      "series",
      "1"
    ]
  }
}