{
  "header": {
    "description": "Karaoke Mugen Tag File",
    "version": 1
  },
  "tag": {
    "i18n": {
      "eng": "Frederic Jaffre"
    },
    "name": "Frederic Jaffre",
    "tid": "7fd362b2-b580-47bf-b149-a8edf047ea80",
    "types": [
      "singers",
      "2"
    ],
    "repository": "kara.moe",
    "modified_at": "2020-03-31T19:04:34.408Z"
  }
}