{
  "header": {
    "description": "Karaoke Mugen Tag File",
    "version": 1
  },
  "tag": {
    "i18n": {
      "eng": " Fruit Tart"
    },
    "name": " Fruit Tart",
    "repository": "kara.moe",
    "tid": "c5d59d18-681f-4142-866a-d0eaa6f71d2f",
    "types": [
      "singergroups",
      "17"
    ]
  }
}