{
  "header": {
    "description": "Karaoke Mugen Tag File",
    "version": 1
  },
  "tag": {
    "aliases": [
      "FB",
      "fruba",
      "furuba"
    ],
    "external_database_ids": {
      "anilist": 105334,
      "myanimelist": 38680,
      "kitsu": 41995
    },
    "i18n": {
      "eng": "Fruits Basket (2019)",
      "jpn": "フルーツバスケット (2019)",
      "qro": "Fruits Basket (2019)"
    },
    "modified_at": "2020-03-31T19:04:31.467Z",
    "name": "Fruits Basket (2019)",
    "repository": "kara.moe",
    "tid": "7bf8e997-f513-42a2-9a9b-17d8c2ddb7fa",
    "types": [
      "series",
      "1"
    ]
  }
}