{
  "header": {
    "description": "Karaoke Mugen Tag File",
    "version": 1
  },
  "tag": {
    "i18n": {
      "eng": "Fruit Tart"
    },
    "name": "Fruit Tart",
    "repository": "kara.moe",
    "tid": "143dcedd-bd10-4858-9ff0-832f283d31ca",
    "types": [
      "singers",
      "2"
    ]
  }
}