{
  "header": {
    "description": "Karaoke Mugen Tag File",
    "version": 1
  },
  "tag": {
    "i18n": {
      "eng": "Fudan-juku"
    },
    "name": "Fudan-juku",
    "tid": "959a031e-1110-4c6f-9335-04d0c0bd2ecb",
    "types": [
      "singers",
      "2"
    ],
    "repository": "kara.moe",
    "modified_at": "2020-03-31T19:04:34.421Z"
  }
}