{
  "header": {
    "description": "Karaoke Mugen Tag File",
    "version": 1
  },
  "tag": {
    "i18n": {
      "eng": "Fullkawa Honpo"
    },
    "name": "Fullkawa Honpo",
    "repository": "kara.moe",
    "tid": "1301bfa7-7b19-4301-8dfe-e3c496f8739f",
    "types": [
      "songwriters",
      "8"
    ]
  }
}