{
  "header": {
    "description": "Karaoke Mugen Tag File",
    "version": 1
  },
  "tag": {
    "i18n": {
      "eng": "Fuma no KTR"
    },
    "name": "Fuma no KTR",
    "repository": "kara.moe",
    "tid": "3fa52a08-88f3-4b50-9c7a-32e61b12aed1",
    "types": [
      "songwriters",
      "8"
    ]
  }
}