{
  "header": {
    "description": "Karaoke Mugen Tag File",
    "version": 1
  },
  "tag": {
    "i18n": {
      "eng": "Fumie Akiyoshi"
    },
    "name": "Fumie Akiyoshi",
    "tid": "34dc36c9-d279-4c00-bbb6-900cb1584b44",
    "types": [
      "singers",
      "2"
    ],
    "repository": "kara.moe",
    "modified_at": "2020-03-31T19:04:34.435Z"
  }
}