{
  "header": {
    "description": "Karaoke Mugen Tag File",
    "version": 1
  },
  "tag": {
    "i18n": {
      "eng": "Fumiko Okada"
    },
    "name": "Fumiko Okada",
    "tid": "38caaf1a-9c3b-4a2f-ba77-2803a922dd74",
    "types": [
      "songwriters",
      "8"
    ],
    "repository": "kara.moe",
    "modified_at": "2020-03-31T19:04:34.437Z"
  }
}