{
  "header": {
    "description": "Karaoke Mugen Tag File",
    "version": 1
  },
  "tag": {
    "i18n": {
      "eng": "Fumie Mizusawa"
    },
    "name": "Fumie Mizusawa",
    "repository": "kara.moe",
    "tid": "4d4d4cc3-c24e-46cf-bdd1-1609cfd3438d",
    "types": [
      "singers",
      "2"
    ]
  }
}