{
  "header": {
    "description": "Karaoke Mugen Tag File",
    "version": 1
  },
  "tag": {
    "i18n": {
      "eng": "fumika"
    },
    "modified_at": "2021-10-29T18:59:52.369Z",
    "name": "fumika",
    "repository": "kara.moe",
    "tid": "a214d2e5-393d-44ea-82d7-6ea9735802b0",
    "types": [
      "singers",
      "2"
    ]
  }
}