{
  "header": {
    "description": "Karaoke Mugen Tag File",
    "version": 1
  },
  "tag": {
    "external_database_ids": {
      "anilist": 21157,
      "myanimelist": 30039,
      "kitsu": 10600
    },
    "i18n": {
      "eng": "Future Card Buddyfight 100",
      "jpn": "フューチャーカード バディファイト100",
      "qro": "Future Card Buddyfight 100"
    },
    "modified_at": "2020-03-31T19:04:31.484Z",
    "name": "Future Card Buddyfight 100",
    "repository": "kara.moe",
    "tid": "e3558b9e-904e-48a6-8d31-1074b1150e2c",
    "types": [
      "series",
      "1"
    ]
  }
}