{
  "header": {
    "description": "Karaoke Mugen Tag File",
    "version": 1
  },
  "tag": {
    "aliases": [
      "GUMS",
      "MS",
      "Manabi Straight",
      "学园乌托邦 - 学美向前冲"
    ],
    "external_database_ids": {
      "anilist": 1858,
      "myanimelist": 1858,
      "kitsu": 1675
    },
    "i18n": {
      "eng": "Gakuen Utopia Manabi Straight!",
      "jpn": "がくえんゆーとぴあ まなびストレート!",
      "qro": "Gakuen Utopia Manabi Straight!"
    },
    "modified_at": "2020-06-21T23:45:31.966Z",
    "name": "Gakuen Utopia Manabi Straight!",
    "repository": "kara.moe",
    "tid": "b2ecc83f-1b9c-430d-a22d-9d21b4dbb01a",
    "types": [
      "series",
      "1"
    ]
  }
}