{
  "header": {
    "description": "Karaoke Mugen Tag File",
    "version": 1
  },
  "tag": {
    "aliases": [
      "Gyvųjų Numirėlių Mokykla",
      "HOTD",
      "HOTDTV",
      "HSOTD",
      "HSOTDTV",
      "Highschool of the Dead",
      "Гимназията на мъртвите",
      "Старша школа мерців",
      "Школа Мёртвых",
      "Школа мерців",
      "Үхэгсдийн Ахлах Сургууль"
    ],
    "external_database_ids": {
      "anilist": 8074,
      "myanimelist": 8074,
      "kitsu": 5187
    },
    "i18n": {
      "chi": "学園黙示録",
      "eng": "High School of the Dead",
      "fre": "High School of the Dead",
      "ger": "Highschool of the Dead",
      "ita": "Highschool of the Dead",
      "jpn": "学園黙示録 HIGH SCHOOL OF THE DEAD",
      "kor": "학원묵시록",
      "slo": "Stredná škola mŕtvych",
      "spa": "Apocalipsis en el instituto",
      "qro": "Gakuen Mokushiroku: High School of the Dead"
    },
    "modified_at": "2020-03-31T19:04:31.500Z",
    "name": "Gakuen Mokushiroku: High School of the Dead",
    "repository": "kara.moe",
    "tid": "ed7848d0-6d9d-458e-9e11-b16c93b89d84",
    "types": [
      "series",
      "1"
    ]
  }
}