{
  "header": {
    "description": "Karaoke Mugen Tag File",
    "version": 1
  },
  "tag": {
    "aliases": [
      "GA4",
      "Galaxy Angel 4",
      "Galaxy Angel Season 4",
      "Galaxy Angel s4",
      "ギャラクシーエンジェルX"
    ],
    "external_database_ids": {
      "anilist": 655,
      "myanimelist": 655,
      "kitsu": 603
    },
    "i18n": {
      "eng": "Galaxy Angel X",
      "jpn": "ギャラクシーエンジェル4th",
      "qro": "Galaxy Angel X"
    },
    "modified_at": "2020-06-21T23:45:31.966Z",
    "name": "Galaxy Angel X",
    "repository": "kara.moe",
    "tid": "d905dbb7-ca46-490b-b8df-6be9ecb9144b",
    "types": [
      "series",
      "1"
    ]
  }
}