{
  "header": {
    "description": "Karaoke Mugen Tag File",
    "version": 1
  },
  "tag": {
    "i18n": {
      "eng": "Game of Thrones"
    },
    "modified_at": "2021-01-15T21:29:18.017Z",
    "name": "Game of Thrones",
    "repository": "kara.moe",
    "tid": "bf81d562-16df-44f3-af8f-335405f5e381",
    "types": [
      "series",
      "1"
    ]
  }
}