{
  "header": {
    "description": "Karaoke Mugen Tag File",
    "version": 1
  },
  "tag": {
    "i18n": {
      "eng": "GAMU RANGERS"
    },
    "modified_at": "2021-11-06T10:57:36.307Z",
    "name": "GAMU RANGERS",
    "repository": "kara.moe",
    "tid": "1ade7bec-7cd5-4a8e-baf0-95c0d641dfae",
    "types": [
      "series",
      "1"
    ]
  }
}