{
  "header": {
    "description": "Karaoke Mugen Tag File",
    "version": 1
  },
  "tag": {
    "i18n": {
      "eng": "Gary Sun"
    },
    "name": "Gary Sun",
    "repository": "kara.moe",
    "tid": "3023e77c-7153-4d7f-91b3-07b3ef8a21e6",
    "types": [
      "singers",
      "2"
    ]
  }
}