{
  "header": {
    "description": "Karaoke Mugen Tag File",
    "version": 1
  },
  "tag": {
    "i18n": {
      "eng": "GCHM"
    },
    "name": "GCHM",
    "repository": "kara.moe",
    "tid": "d2356b50-9605-4d03-9850-16371bd0610e",
    "types": [
      "songwriters",
      "8"
    ]
  }
}