{
  "header": {
    "description": "Karaoke Mugen Tag File",
    "version": 1
  },
  "tag": {
    "aliases": [
      "Tantei Opera Milky Holmes the Movie: Milky Holmes' Counterattack",
      "gekijouban",
      "gyakushuu"
    ],
    "external_database_ids": {
      "anilist": 21314,
      "myanimelist": 31486,
      "kitsu": 11350
    },
    "i18n": {
      "eng": "Tantei Opera Milky Holmes the Movie: Milky Holmes Counterattack",
      "jpn": "劇場版 探偵オペラ ミルキィホームズ ~逆襲のミルキィホームズ~",
      "qro": "Gekijôban Tantei Opera Milky Holmes: Gyakushû no Milky Holmes"
    },
    "modified_at": "2020-03-31T19:04:31.544Z",
    "name": "Gekijôban Tantei Opera Milky Holmes: Gyakushû no Milky Holmes",
    "repository": "kara.moe",
    "tid": "9ddcbd50-5405-4b35-95f4-9c4a39b1fe4c",
    "types": [
      "series",
      "1"
    ]
  }
}