{
  "header": {
    "description": "Karaoke Mugen Tag File",
    "version": 1
  },
  "tag": {
    "aliases": [
      "Gekijouban K: Missing Kings",
      "gekijouban"
    ],
    "external_database_ids": {
      "anilist": 16904,
      "myanimelist": 16904,
      "kitsu": 7546
    },
    "i18n": {
      "eng": "K: Missing Kings",
      "fre": "K: Missing Kings",
      "ger": "Missing Kings",
      "jpn": "劇場版K MISSING KINGS",
      "qro": "Gekijôban K: Missing Kings"
    },
    "modified_at": "2020-03-31T19:04:31.533Z",
    "name": "Gekijôban K: Missing Kings",
    "repository": "kara.moe",
    "tid": "4f6fbde0-e572-4e6c-b46e-92b7ed762be8",
    "types": [
      "series",
      "1"
    ]
  }
}