{
  "header": {
    "description": "Karaoke Mugen Tag File",
    "version": 1
  },
  "tag": {
    "i18n": {
      "eng": "Gekidan Denki"
    },
    "name": "Gekidan Denki",
    "repository": "kara.moe",
    "tid": "84429f9b-0088-4163-ad31-b984e6cea77f",
    "types": [
      "singergroups",
      "17"
    ]
  }
}