{
  "header": {
    "description": "Karaoke Mugen Tag File",
    "version": 1
  },
  "tag": {
    "aliases": [
      "Gekijouban Gintama: Shinyaku Benizakura-Hen",
      "Gintama Movie 1",
      "Gintama: A New Retelling Benizakura Arc",
      "Gintama: Shinyaku Benizakura Hen",
      "Гинтама: Новата арка за Бенизакура",
      "gekijouban"
    ],
    "external_database_ids": {
      "anilist": 7472,
      "myanimelist": 7472,
      "kitsu": 4989
    },
    "i18n": {
      "chi": "银魂剧场版 新译红樱篇",
      "eng": "Gintama: The Movie",
      "jpn": "劇場版 銀魂 新訳紅桜篇",
      "qro": "Gekijôban Gintama: Shin'yaku Benizakura-Hen"
    },
    "modified_at": "2020-03-31T19:04:31.531Z",
    "name": "Gekijôban Gintama: Shin'yaku Benizakura-Hen",
    "repository": "kara.moe",
    "tid": "243d4656-0b7d-4d65-a864-9582f3d9ace8",
    "types": [
      "series",
      "1"
    ]
  }
}