{
  "header": {
    "description": "Karaoke Mugen Tag File",
    "version": 1
  },
  "tag": {
    "aliases": [
      "FMA",
      "Fullmetal Alchemist (2005)",
      "Fullmetal Alchemist: The Conqueror of Shambala",
      "Fullmetal Alchemist: The Conqueror of Shamballa",
      "Gekijouban Hagane no Renkinjutsushi: Shambala o Yuku Mono",
      "HagaRen",
      "Haganeno",
      "Hagaren The Movie",
      "Metal Simyacı: Shamballa Fatihi",
      "fma movie",
      "hagaren movie",
      "Стальной алхимик - Завоеватель Шамбалы",
      "Стальной алхимик - Фильм",
      "Цельнометаллический алхимик: Завоеватель Шамбаллы",
      "الخيميائي المعدني: محتل شمباله",
      "钢炼剧场版",
      "gekijouban"
    ],
    "external_database_ids": {
      "anilist": 430,
      "myanimelist": 430,
      "kitsu": 394
    },
    "i18n": {
      "bul": "Стоманеният Алхимик - Завоевателят на Шамбала",
      "chi": "钢之炼金术师剧场版 香巴拉的征服者",
      "cze": "Fullmetal Alchemist Dobyvatel Shambally",
      "eng": "Fullmetal Alchemist The Movie: Conqueror of Shamballa",
      "fre": " Fullmetal Alchemist ‒ le film : Le Conquérant de Shamballa",
      "ger": "Fullmetal Alchemist Der Film: Der Eroberer von Shamballa",
      "gre": "Μεταλλικός Αλχημιστής, η Ταινία",
      "hun": "Fullmetal Alchemist Shamballa hódítója",
      "ita": "Fullmetal Alchemist: Il Conquistatore di Shambala",
      "jpn": "劇場版 鋼の錬金術師 シャンバラを征[ゆ]く者",
      "kor": "강철의 연금술사 - 샴발라의 정복자",
      "pol": "Fullmetal Alchemist The Movie: Conqueror of Shamballa",
      "rum": "Fullmetal Alchemist Cuceritorul Şambalei",
      "spa": "Fullmetal Alchemist El conquistador de Shambala",
      "tha": "แขนกลคนแปรธาตุ เดอะมูฟวี่ ฝ่ามิติพิชิตแดนสวรรค์",
      "qro": "Gekijôban Hagane no Renkinjutsushi: Shambala o Yuku Mono"
    },
    "modified_at": "2020-03-31T19:04:31.531Z",
    "name": "Gekijôban Hagane no Renkinjutsushi: Shambala o Yuku Mono",
    "repository": "kara.moe",
    "tid": "8179f306-102b-4319-a631-e369e5442aa1",
    "types": [
      "series",
      "1"
    ]
  }
}