{
  "header": {
    "description": "Karaoke Mugen Tag File",
    "version": 1
  },
  "tag": {
    "i18n": {
      "eng": "Génération Club Dorothée"
    },
    "name": "Génération Club Dorothée",
    "tid": "cebcdc5d-31af-4c83-a744-680885904b73",
    "types": [
      "groups",
      "9"
    ],
    "repository": "kara.moe",
    "modified_at": "2020-03-31T19:04:34.487Z"
  }
}