{
  "header": {
    "description": "Karaoke Mugen Tag File",
    "version": 1
  },
  "tag": {
    "i18n": {
      "eng": "gennbu"
    },
    "name": "gennbu",
    "tid": "69b47670-80f4-4bf3-88c5-d543d155e2c9",
    "types": [
      "songwriters",
      "8"
    ],
    "repository": "kara.moe",
    "modified_at": "2020-03-31T19:04:34.493Z"
  }
}