{
  "header": {
    "description": "Karaoke Mugen Tag File",
    "version": 1
  },
  "tag": {
    "i18n": {
      "eng": "Genso Suikoden II",
      "jpn": "幻想水滸伝II",
      "qro": "Genso Suikoden II"
    },
    "modified_at": "2020-03-31T19:04:31.551Z",
    "name": "Genso Suikoden II",
    "repository": "kara.moe",
    "tid": "eab294a0-bee3-4a8d-ab9b-d8879805e80e",
    "types": [
      "series",
      "1"
    ]
  }
}