{
  "header": {
    "description": "Karaoke Mugen Tag File",
    "version": 1
  },
  "tag": {
    "i18n": {
      "eng": "George David Weiss"
    },
    "modified_at": "2020-12-30T01:37:44.774Z",
    "name": "George David Weiss",
    "repository": "kara.moe",
    "tid": "1cf4440b-fae8-43a2-a358-1521934778a6",
    "types": [
      "songwriters",
      "8"
    ]
  }
}