{
  "header": {
    "description": "Karaoke Mugen Tag File",
    "version": 1
  },
  "tag": {
    "i18n": {
      "eng": "Georges Aber"
    },
    "name": "Georges Aber",
    "repository": "kara.moe",
    "tid": "03768848-d821-4f87-88ed-c5472205d4fd",
    "types": [
      "songwriters",
      "8"
    ]
  }
}