{
  "header": {
    "description": "Karaoke Mugen Tag File",
    "version": 1
  },
  "tag": {
    "external_database_ids": {
      "anilist": 3579,
      "myanimelist": 3579,
      "kitsu": 3120
    },
    "i18n": {
      "eng": "Getter Robo",
      "gre": "Getta: Το Σούπερ Ρομπότ",
      "ita": "Space Robot",
      "jpn": "ゲッターロボ",
      "qro": "Getter Robo"
    },
    "modified_at": "2020-03-31T19:04:31.556Z",
    "name": "Getter Robo",
    "repository": "kara.moe",
    "tid": "00d27d51-41a8-49df-9200-60b96d0afb26",
    "types": [
      "series",
      "1",
      "franchises",
      "18"
    ]
  }
}