{
  "header": {
    "description": "Karaoke Mugen Tag File",
    "version": 1
  },
  "tag": {
    "i18n": {
      "eng": "Giancarlo Martino"
    },
    "name": "Giancarlo Martino",
    "tid": "38cbba05-8583-40ef-9218-9a5eb06678b4",
    "types": [
      "songwriters",
      "8"
    ],
    "repository": "kara.moe",
    "modified_at": "2020-03-31T19:04:34.508Z"
  }
}