{
  "header": {
    "description": "Karaoke Mugen Tag File",
    "version": 1
  },
  "tag": {
    "aliases": [
      "GK",
      "gikilli",
      "Вынос Гигантов",
      "Сокрушение гигантов",
      "ジャイキリ",
      "巨人杀手",
      "逆转监督"
    ],
    "external_database_ids": {
      "anilist": 7661,
      "myanimelist": 7661,
      "kitsu": 5072
    },
    "i18n": {
      "eng": "Giant Killing",
      "jpn": "ジャイアントキリング",
      "qro": "GIANT KILLING"
    },
    "modified_at": "2020-03-31T19:04:31.556Z",
    "name": "GIANT KILLING",
    "repository": "kara.moe",
    "tid": "d66ca444-d1ab-4998-ba96-5a915b7dd9de",
    "types": [
      "series",
      "1"
    ]
  }
}