{
  "header": {
    "description": "Karaoke Mugen Tag File",
    "version": 1
  },
  "tag": {
    "i18n": {
      "eng": "Giga"
    },
    "name": "Giga (game studio)",
    "repository": "kara.moe",
    "tid": "77be7b44-b7d3-423b-81c3-1f1d62f289c9",
    "types": [
      "creators",
      "4"
    ]
  }
}