{
  "header": {
    "description": "Karaoke Mugen Tag File",
    "version": 1
  },
  "tag": {
    "i18n": {
      "eng": "Gigo"
    },
    "name": "Gigo",
    "repository": "kara.moe",
    "tid": "78db82db-59c8-4d7e-9958-af4c5b5e1177",
    "types": [
      "authors",
      "6"
    ]
  }
}