{
  "header": {
    "description": "Karaoke Mugen Tag File",
    "version": 1
  },
  "tag": {
    "i18n": {
      "eng": "Gilbert Montagné"
    },
    "modified_at": "2020-07-09T20:13:34.783Z",
    "name": "Gilbert Montagné",
    "repository": "kara.moe",
    "tid": "8ceb7b51-1f4d-4ac9-b837-e9a840f268a2",
    "types": [
      "songwriters",
      "8",
      "singers",
      "2"
    ]
  }
}