{
  "header": {
    "description": "Karaoke Mugen Tag File",
    "version": 1
  },
  "tag": {
    "i18n": {
      "eng": "gilgaliod"
    },
    "modified_at": "2021-05-07T20:08:30.495Z",
    "name": "gilgaliod",
    "repository": "kara.moe",
    "tid": "e8786deb-9477-46eb-891a-ea8e590b48fc",
    "types": [
      "creators",
      "4"
    ]
  }
}