{
  "header": {
    "description": "Karaoke Mugen Tag File",
    "version": 1
  },
  "tag": {
    "i18n": {
      "eng": "Gilles Stella"
    },
    "name": "Gilles Stella",
    "tid": "956b9009-b2c1-4f4d-a153-3a2c336f8fbc",
    "types": [
      "singers",
      "2",
      "songwriters",
      "8"
    ],
    "repository": "kara.moe",
    "modified_at": "2020-03-31T19:04:34.512Z"
  }
}