{
  "header": {
    "description": "Karaoke Mugen Tag File",
    "version": 1
  },
  "tag": {
    "i18n": {
      "eng": "Gimmick"
    },
    "name": "Gimmick",
    "tid": "4a176b12-d48f-4be8-b0f7-9c7daae952fa",
    "types": [
      "singers",
      "2"
    ],
    "repository": "kara.moe",
    "modified_at": "2020-03-31T19:04:34.513Z"
  }
}