{
  "header": {
    "description": "Karaoke Mugen Tag File",
    "version": 1
  },
  "tag": {
    "aliases": [
      "Ginga Eiyuu Densetsu Gaiden: Sen'oku no Hoshi",
      "Ginga Eiyuu Densetsu Sen oku no Hoshi Sen oku no Hikari",
      "LoGH Gaiden",
      "Sen'oku no Hikari",
      "千億の光",
      "銀河英雄伝説外伝 千億の星",
      "銀河英雄伝説外伝第1期",
      "eiyuu"
    ],
    "external_database_ids": {
      "anilist": 3371,
      "myanimelist": 3371,
      "kitsu": 2963
    },
    "i18n": {
      "eng": "Legend of Galactic Heroes Gaiden",
      "fre": "Les Héros de la Galaxie - Gaiden",
      "jpn": "銀河英雄伝説外伝／千億の星、千億の光",
      "qro": "Ginga Eiyû Densetsu - Gaiden"
    },
    "name": "Ginga Eiyuu Densetsu - Sen oku no Hoshi Sen oku no Hikari",
    "repository": "kara.moe",
    "tid": "2c426552-f92f-42e6-8f1d-4d1987fd47c8",
    "types": [
      "series",
      "1"
    ]
  }
}