{
  "header": {
    "description": "Karaoke Mugen Tag File",
    "version": 1
  },
  "tag": {
    "i18n": {
      "eng": "Giorgio Spagna"
    },
    "modified_at": "2021-05-21T17:46:28.542Z",
    "name": "Giorgio Spagna",
    "repository": "kara.moe",
    "tid": "543661b9-8e6d-4a10-93f5-40a6819b12c1",
    "types": [
      "songwriters",
      "8"
    ]
  }
}