{
  "header": {
    "description": "Karaoke Mugen Tag File",
    "version": 1
  },
  "tag": {
    "i18n": {
      "eng": "Giorgio Vanni"
    },
    "name": "Giorgio Vanni",
    "tid": "12017b45-1a22-46ea-a41a-6751354fabba",
    "types": [
      "singers",
      "2",
      "songwriters",
      "8"
    ],
    "repository": "kara.moe",
    "modified_at": "2020-03-31T19:04:34.517Z"
  }
}