{
  "header": {
    "description": "Karaoke Mugen Tag File",
    "version": 1
  },
  "tag": {
    "aliases": [
      "Gi(a)rlish Number"
    ],
    "external_database_ids": {
      "anilist": 21627,
      "myanimelist": 32607,
      "kitsu": 11793
    },
    "i18n": {
      "eng": "Girlish Number",
      "jpn": "ガーリッシュ ナンバー",
      "qro": "Girlish Number"
    },
    "modified_at": "2020-03-31T19:04:31.575Z",
    "name": "Girlish Number",
    "repository": "kara.moe",
    "tid": "ad8075cf-267f-41d7-9fb2-affb446a90ef",
    "types": [
      "series",
      "1"
    ]
  }
}