{
  "header": {
    "description": "Karaoke Mugen Tag File",
    "version": 1
  },
  "tag": {
    "aliases": [
      "GJ Club@"
    ],
    "external_database_ids": {
      "anilist": 20567,
      "myanimelist": 21635,
      "kitsu": 8007
    },
    "i18n": {
      "eng": "GJ Club@",
      "jpn": "GJ部@",
      "kor": "GJ부@",
      "qro": "GJ-bu@"
    },
    "modified_at": "2020-03-31T19:04:31.579Z",
    "name": "GJ-bu@",
    "repository": "kara.moe",
    "tid": "e775040b-feca-411f-b67d-6279cc107d3e",
    "types": [
      "series",
      "1"
    ]
  }
}