{
  "header": {
    "description": "Karaoke Mugen Tag File",
    "version": 1
  },
  "tag": {
    "i18n": {
      "eng": "glasswerks"
    },
    "name": "glasswerks",
    "tid": "de065cf6-c26c-4a0e-9512-b7e3ef56d28a",
    "types": [
      "songwriters",
      "8"
    ],
    "repository": "kara.moe",
    "modified_at": "2020-03-31T19:04:34.525Z"
  }
}