{
  "header": {
    "description": "Karaoke Mugen Tag File",
    "version": 1
  },
  "tag": {
    "i18n": {
      "eng": "Glenn Slater"
    },
    "name": "Glenn Slater",
    "tid": "ef6cf7e5-ab6d-4f94-9c7e-0b5c85b9f89d",
    "types": [
      "songwriters",
      "8"
    ],
    "repository": "kara.moe",
    "modified_at": "2020-03-31T19:04:34.527Z"
  }
}