{
  "header": {
    "description": "Karaoke Mugen Tag File",
    "version": 1
  },
  "tag": {
    "i18n": {
      "eng": "Go Hyun-jung"
    },
    "name": "Go Hyun-jung",
    "repository": "kara.moe",
    "tid": "8cf1b1a0-41e0-403a-b793-21321087cfb6",
    "types": [
      "songwriters",
      "8"
    ]
  }
}