{
  "header": {
    "description": "Karaoke Mugen Tag File",
    "version": 1
  },
  "tag": {
    "aliases": [
      "GochiUsa",
      "Gochuumon wa Usagi Desu ka?",
      "gochiusa",
      "gochuumon"
    ],
    "external_database_ids": {
      "anilist": 20517,
      "myanimelist": 21273,
      "kitsu": 8095
    },
    "i18n": {
      "chi": "请问您今天要来点兔子吗?",
      "eng": "Is the Order a Rabbit?",
      "fre": "Gochûmon wa Usagi Desu ka?",
      "jpn": "ご注文はうさぎですか?",
      "kor": "주문은 토끼입니까?",
      "qro": "Gochûmon wa Usagi Desu ka?"
    },
    "modified_at": "2020-03-31T19:04:31.586Z",
    "name": "Gochûmon wa Usagi Desu ka?",
    "repository": "kara.moe",
    "tid": "042d9382-d1c5-4694-b3e5-933e8bdd1409",
    "types": [
      "series",
      "1",
      "franchises",
      "18"
    ]
  }
}