{
  "header": {
    "description": "Karaoke Mugen Tag File",
    "version": 1
  },
  "tag": {
    "i18n": {
      "eng": "Gogo"
    },
    "name": "Gogo",
    "tid": "74ac01f8-8732-4cf0-b9e8-f9775cd55658",
    "types": [
      "songwriters",
      "8"
    ],
    "repository": "kara.moe",
    "modified_at": "2020-03-31T19:04:34.533Z"
  }
}