{
  "header": {
    "description": "Karaoke Mugen Tag File",
    "version": 1
  },
  "tag": {
    "i18n": {
      "eng": "Godzilla vs. Megalon",
      "jpn": "ゴジラ対メガロ",
      "qro": "Gojira tai Megaro"
    },
    "modified_at": "2020-03-31T19:04:31.593Z",
    "name": "Gojira tai Megaro",
    "repository": "kara.moe",
    "tid": "026f614a-bdbc-4f7e-8217-76b98634a225",
    "types": [
      "series",
      "1"
    ]
  }
}