{
  "header": {
    "description": "Karaoke Mugen Tag File",
    "version": 1
  },
  "tag": {
    "i18n": {
      "eng": "Goldfinger"
    },
    "name": "Goldfinger",
    "repository": "kara.moe",
    "tid": "b76fa5d8-8fa0-4beb-b76e-5f50f7adb7b6",
    "types": [
      "singers",
      "2"
    ]
  }
}