{
  "header": {
    "description": "Karaoke Mugen Tag File",
    "version": 1
  },
  "tag": {
    "external_database_ids": {
      "anilist": 142343,
      "myanimelist": 50528
    },
    "i18n": {
      "eng": "Golden Kamuy 4th Season",
      "fre": "Golden Kamui (Saison 4)",
      "jpn": "ゴールデンカムイ 第二期"
    },
    "name": "Golden Kamuy 4th Season",
    "repository": "kara.moe",
    "tid": "af96cabf-9bf9-4f15-a48b-03f12864db2a",
    "types": [
      "series",
      "1"
    ]
  }
}