{
  "header": {
    "description": "Karaoke Mugen Tag File",
    "version": 1
  },
  "tag": {
    "i18n": {
      "eng": "gollum"
    },
    "modified_at": "2020-07-05T18:25:38.666Z",
    "name": "gollum",
    "repository": "kara.moe",
    "tid": "9bea7e05-2dec-434e-92ff-fcb53f69fdb7",
    "types": [
      "authors",
      "6"
    ]
  }
}