{
  "header": {
    "description": "Karaoke Mugen Tag File",
    "version": 1
  },
  "tag": {
    "i18n": {
      "eng": "Gordon Gano"
    },
    "name": "Gordon Gano",
    "repository": "kara.moe",
    "tid": "81f00895-352a-4638-a19d-dbff30c562fe",
    "types": [
      "songwriters",
      "8"
    ]
  }
}