{
  "header": {
    "description": "Karaoke Mugen Tag File",
    "version": 1
  },
  "tag": {
    "i18n": {
      "eng": "Grace Rolek"
    },
    "name": "Grace Rolek",
    "tid": "b8f55ba9-629b-4c86-a392-08215a3cfd23",
    "types": [
      "singers",
      "2"
    ],
    "repository": "kara.moe",
    "modified_at": "2020-03-31T19:04:34.555Z"
  }
}