{
  "header": {
    "description": "Karaoke Mugen Tag File",
    "version": 1
  },
  "tag": {
    "i18n": {
      "eng": "Grahal Brendan"
    },
    "name": "Grahal Brendan",
    "tid": "efcb4bcc-321b-4ec2-908b-0160262104b7",
    "types": [
      "songwriters",
      "8"
    ],
    "repository": "kara.moe",
    "modified_at": "2020-03-31T19:04:34.555Z"
  }
}