{
  "header": {
    "description": "Karaoke Mugen Tag File",
    "version": 1
  },
  "tag": {
    "i18n": {
      "eng": "GRASS ARCADE"
    },
    "name": "GRASS ARCADE",
    "tid": "d65db8d0-2168-4334-80d8-8f02e57e781d",
    "types": [
      "singers",
      "2"
    ],
    "repository": "kara.moe",
    "modified_at": "2020-03-31T19:04:34.559Z"
  }
}