{
  "header": {
    "description": "Karaoke Mugen Tag File",
    "version": 1
  },
  "tag": {
    "external_database_ids": {
      "anilist": 116195,
      "myanimelist": 31108,
      "kitsu": 11146
    },
    "i18n": {
      "jpn": "Green Dakara x Bakemono no Ko",
      "qro": "Green Dakara x Bakemono no Ko"
    },
    "modified_at": "2020-03-31T19:04:31.607Z",
    "name": "Green Dakara x Bakemono no Ko",
    "repository": "kara.moe",
    "tid": "e726eccc-71fa-49f6-97b7-73767eb33f19",
    "types": [
      "series",
      "1"
    ]
  }
}