{
  "header": {
    "description": "Karaoke Mugen Tag File",
    "version": 1
  },
  "tag": {
    "i18n": {
      "eng": "GRP"
    },
    "name": "GRP",
    "tid": "0c00c452-0551-4609-b4bc-e5f8b64ddc91",
    "types": [
      "songwriters",
      "8"
    ],
    "repository": "kara.moe",
    "modified_at": "2020-03-31T19:04:34.571Z"
  }
}