{
  "header": {
    "description": "Karaoke Mugen Tag File",
    "version": 1
  },
  "tag": {
    "i18n": {
      "eng": "GUCCHO"
    },
    "name": "GUCCHO",
    "repository": "kara.moe",
    "tid": "929f228b-4612-42bd-a6f2-df28b61e5a96",
    "types": [
      "songwriters",
      "8"
    ]
  }
}