{
  "header": {
    "description": "Karaoke Mugen Tag File",
    "version": 1
  },
  "tag": {
    "i18n": {
      "eng": "Guilty Kiss"
    },
    "name": "Guilty Kiss",
    "repository": "kara.moe",
    "tid": "8a711d9c-42de-40fd-a050-fe72b5460a26",
    "types": [
      "singergroups",
      "17"
    ]
  }
}