{
  "header": {
    "description": "Karaoke Mugen Tag File",
    "version": 1
  },
  "tag": {
    "aliases": [
      "GUNxSWORD",
      "Gun VS Sword",
      "GxS",
      "Огнём и мечом",
      "Оръжие по Меч",
      "Шута и Чоппа",
      "مسدس×سيف"
    ],
    "external_database_ids": {
      "anilist": 411,
      "myanimelist": 411,
      "kitsu": 376
    },
    "i18n": {
      "chi": "槍與劍",
      "eng": "Gun X Sword",
      "fre": "Gun x Sword",
      "jpn": "ガン×ソード",
      "qro": "Gun x Sword"
    },
    "modified_at": "2020-03-31T19:04:31.614Z",
    "name": "Gun x Sword",
    "repository": "kara.moe",
    "tid": "af99c919-6193-428a-949d-de55c940d0da",
    "types": [
      "series",
      "1"
    ]
  }
}