{
  "header": {
    "description": "Karaoke Mugen Tag File",
    "version": 1
  },
  "tag": {
    "i18n": {
      "eng": "gun88"
    },
    "modified_at": "2021-10-15T21:17:49.063Z",
    "name": "gun88",
    "repository": "kara.moe",
    "tid": "bcf51019-511a-4f73-8520-1848d3d3ad4c",
    "types": [
      "authors",
      "6"
    ]
  }
}