{
  "header": {
    "description": "Karaoke Mugen Tag File",
    "version": 1
  },
  "tag": {
    "external_database_ids": {
      "anilist": 110786,
      "myanimelist": 40192,
      "kitsu": 42585
    },
    "i18n": {
      "eng": "Gundam Build Divers Re:RISE",
      "jpn": "ガンダムビルドダイバーズRe:RISE"
    },
    "name": "Gundam Build Divers Re:RISE",
    "repository": "kara.moe",
    "tid": "15f0fdcd-6c48-4362-a981-38ff5df89c48",
    "types": [
      "series",
      "1"
    ]
  }
}