{
  "header": {
    "description": "Karaoke Mugen Tag File",
    "version": 1
  },
  "tag": {
    "aliases": [
      "MSG",
      "Mobile Suit Gundam"
    ],
    "external_database_ids": {},
    "i18n": {
      "jpn": "ガンダム",
      "qro": "Gundam"
    },
    "name": "Gundam",
    "repository": "kara.moe",
    "tid": "e6ade589-c2e4-49a1-acdb-ea9b03e57240",
    "types": [
      "franchises",
      "18"
    ]
  }
}