{
  "header": {
    "description": "Karaoke Mugen Tag File",
    "version": 1
  },
  "tag": {
    "aliases": [
      "群青开场号",
      "群青的開幕曲",
      "Gunjou"
    ],
    "external_database_ids": {
      "anilist": 138452,
      "myanimelist": 49691,
      "kitsu": 45030
    },
    "i18n": {
      "eng": "Fanfare of Adolescence",
      "jpn": "群青のファンファーレ",
      "qro": "Gunjô no Fanfare"
    },
    "name": "Gunjou no Fanfare",
    "repository": "kara.moe",
    "tid": "dac1f05d-2e8f-4c06-b5bb-c44985784bcf",
    "types": [
      "series",
      "1"
    ]
  }
}