{
  "header": {
    "description": "Karaoke Mugen Tag File",
    "version": 1
  },
  "tag": {
    "aliases": [
      "GSG",
      "Silahşör Kız",
      "ดอกไม้เพชฌฆาต",
      "ガンスリンガー・ガール",
      "枪姬"
    ],
    "external_database_ids": {
      "anilist": 134,
      "myanimelist": 134,
      "kitsu": 113
    },
    "i18n": {
      "chi": "神槍少女",
      "eng": "Gunslinger Girl",
      "fre": "Gunslinger Girl",
      "ger": "Gunslinger Girl",
      "gre": "Gunslinger Girl",
      "ita": "Gunslinger Girl",
      "jpn": "ガンスリンガー・ガール",
      "pol": "Gunslinger Girl",
      "por": "Gunslinger Girl",
      "rus": "Школа убийц",
      "qro": "Gunslinger Girl"
    },
    "modified_at": "2020-03-31T19:04:31.619Z",
    "name": "Gunslinger Girl",
    "repository": "kara.moe",
    "tid": "d19dd7c1-2460-451d-b62f-37296366c970",
    "types": [
      "series",
      "1",
      "franchises",
      "18"
    ]
  }
}