{
  "header": {
    "description": "Karaoke Mugen Tag File",
    "version": 1
  },
  "tag": {
    "aliases": [
      "GSG2",
      "Школа убийц: Театр марионеток",
      "枪姬2"
    ],
    "external_database_ids": {
      "anilist": 3231,
      "myanimelist": 3231,
      "kitsu": 2874
    },
    "i18n": {
      "eng": "Gunslinger Girl: Il Teatrino",
      "fre": "Gunslinger Girl Il Teatrino",
      "ger": "Gunslinger Girl: Il Teatrino",
      "jpn": "ガンスリンガー ガール -IL TEATRINO-",
      "pol": "Gunslinger Girl IL TEATRINO",
      "qro": "Gunslinger Girl: Il Teatrino"
    },
    "modified_at": "2020-03-31T19:04:31.619Z",
    "name": "Gunslinger Girl: Il Teatrino",
    "repository": "kara.moe",
    "tid": "49f23815-bbcc-46ea-81bb-19e32ee92722",
    "types": [
      "series",
      "1"
    ]
  }
}