{
  "header": {
    "description": "Karaoke Mugen Tag File",
    "version": 1
  },
  "tag": {
    "aliases": [
      "earwax",
      "Ear Attack"
    ],
    "i18n": {
      "kor": "귓방망이",
      "qro": "gwitbangmangi"
    },
    "name": "gwitbangmangi",
    "repository": "kara.moe",
    "tid": "2e3a4779-b45a-4c9a-a601-09e4ee432bf5",
    "types": [
      "songwriters",
      "8"
    ]
  }
}