{
  "header": {
    "description": "Karaoke Mugen Tag File",
    "version": 1
  },
  "tag": {
    "i18n": {
      "eng": "Phoenix Wright: Ace Attorney",
      "jpn": "逆転裁判 蘇る逆転",
      "qro": "Gyakuten Saiban: Yomigaeru Gyakuten"
    },
    "name": "Gyakuten Saiban: Yomigaeru Gyakuten",
    "repository": "kara.moe",
    "tid": "36c896e9-9af0-47ad-8c0a-adbf26c1183a",
    "types": [
      "series",
      "1"
    ]
  }
}