{
  "header": {
    "description": "Karaoke Mugen Tag File",
    "version": 1
  },
  "tag": {
    "aliases": [
      "Haikyuu!! 2nd Season",
      "Haikyuu2",
      "haikyuu"
    ],
    "external_database_ids": {
      "anilist": 20992,
      "myanimelist": 28891,
      "kitsu": 10076
    },
    "i18n": {
      "eng": "Haikyu!! 2nd Season",
      "fre": "Haikyû!! (saison 2)",
      "jpn": "ハイキュー!! セカンドシーズン",
      "por": "Haikyuu Segunda Temporada",
      "qro": "Haikyû!! 2nd Season"
    },
    "modified_at": "2020-04-18T14:50:46.706Z",
    "name": "Haikyû!! 2nd Season",
    "repository": "kara.moe",
    "tid": "40fdeb06-c6c7-4d5b-812f-17c4d24b09e7",
    "types": [
      "series",
      "1"
    ]
  }
}