{
  "header": {
    "description": "Karaoke Mugen Tag File",
    "version": 1
  },
  "tag": {
    "aliases": [
      "Haikyuu!!",
      "Висока топка",
      "Хайкю!!",
      "haikyuu"
    ],
    "external_database_ids": {
      "anilist": 20464,
      "myanimelist": 20583,
      "kitsu": 8133
    },
    "i18n": {
      "chi": "排球少年!!",
      "eng": "Haikyu!!",
      "fre": "Haikyû!!",
      "hrv": "Odbojka",
      "jpn": "ハイキュー!!",
      "por": "Haikyuu",
      "spa": "Haikyu!! Los Ases del Voley",
      "qro": "Haikyû!!"
    },
    "modified_at": "2020-03-31T19:04:31.635Z",
    "name": "Haikyû!!",
    "repository": "kara.moe",
    "tid": "0d698d58-0e52-45a0-83e9-43c2c215554c",
    "types": [
      "series",
      "1",
      "franchises",
      "18"
    ]
  }
}