{
  "header": {
    "description": "Karaoke Mugen Tag File",
    "version": 1
  },
  "tag": {
    "aliases": [
      "Dangaio",
      "Dangaiou",
      "Great Planet Evil-Destroyer Dangaio",
      "Hajataisei Dangaio",
      "Hajataisei Dangaioh",
      "破邪大星ダンガイオー",
      "dangaiou"
    ],
    "external_database_ids": {
      "anilist": 498,
      "myanimelist": 498,
      "kitsu": 458
    },
    "i18n": {
      "eng": "Dangaioh: Hyper-Combat Unit",
      "jpn": "破邪大星弾劾凰[ダンガイオー]",
      "qro": "Haja Taisei Dangaiô"
    },
    "modified_at": "2020-03-31T19:04:31.637Z",
    "name": "Haja Taisei Dangaiô",
    "repository": "kara.moe",
    "tid": "2b8646f4-bf92-4b85-8ada-63488a610d39",
    "types": [
      "series",
      "1"
    ]
  }
}