{
  "header": {
    "description": "Karaoke Mugen Tag File",
    "version": 1
  },
  "tag": {
    "aliases": [
      "hni3"
    ],
    "external_database_ids": {
      "anilist": 19647,
      "myanimelist": 19647,
      "kitsu": 7855
    },
    "i18n": {
      "bul": "Боен дух: Подем",
      "eng": "Fighting Spirit: Rising",
      "fre": "Hajime no Ippo: Rising",
      "jpn": "はじめの一歩 THE FIGHTING! Rising",
      "qro": "Hajime no Ippo: Rising"
    },
    "modified_at": "2020-03-31T19:04:31.639Z",
    "name": "Hajime no Ippo: Rising",
    "repository": "kara.moe",
    "tid": "ab7b3b96-8767-4e64-afa9-112412e0e6bb",
    "types": [
      "series",
      "1"
    ]
  }
}