{
  "header": {
    "description": "Karaoke Mugen Tag File",
    "version": 1
  },
  "tag": {
    "aliases": [
      "Dilute Cherry Demon: Blue Blood Records",
      "Hakuoki 2",
      "Hakuouki 2",
      "Демонът в черешите: Хроники за синята кръв",
      "hakuouki"
    ],
    "external_database_ids": {
      "anilist": 9065,
      "myanimelist": 9065,
      "kitsu": 5593
    },
    "i18n": {
      "eng": "Hakuoki: Demon of the Fleeting Blossom ‒ Record of the Jade Blood",
      "fre": "Hakuôki: Demon of the Fleeting Blossom ‒ Record of the Jade Blood",
      "jpn": "薄桜鬼 碧血録 新選組奇譚",
      "qro": "Hakuôki: Hekketsu-roku ~ Shinsengumi Kitan"
    },
    "modified_at": "2020-03-31T19:04:31.643Z",
    "name": "Hakuôki: Hekketsu-roku ~ Shinsengumi Kitan",
    "repository": "kara.moe",
    "tid": "338a1512-bf41-414f-b154-1522b1f0bad2",
    "types": [
      "series",
      "1"
    ]
  }
}