{
  "header": {
    "description": "Karaoke Mugen Tag File",
    "version": 1
  },
  "tag": {
    "aliases": [
      "Hello from"
    ],
    "i18n": {
      "eng": "Hallo aus Berlin"
    },
    "name": "Hallo aus Berlin",
    "repository": "kara.moe",
    "tid": "cefc3dc5-f357-4ad8-9383-587fc5190cb2",
    "types": [
      "series",
      "1"
    ]
  }
}