{
  "header": {
    "description": "Karaoke Mugen Tag File",
    "version": 1
  },
  "tag": {
    "i18n": {
      "eng": "Hamada Nanana"
    },
    "modified_at": "1982-04-06",
    "name": "Hamada Nanana",
    "repository": "kara.moe",
    "tid": "83ff8b46-3235-4bea-86b9-eb917ff45560",
    "types": [
      "singers",
      "2"
    ]
  }
}