{
  "header": {
    "description": "Karaoke Mugen Tag File",
    "version": 1
  },
  "tag": {
    "external_database_ids": {
      "anilist": 20521,
      "myanimelist": 20689,
      "kitsu": 8057
    },
    "i18n": {
      "eng": "Hamatora",
      "ger": "Hamatora",
      "jpn": "ハマトラ THE ANIMATION",
      "qro": "Hamatora THE ANIMATION"
    },
    "modified_at": "2020-03-31T19:04:31.645Z",
    "name": "Hamatora THE ANIMATION",
    "repository": "kara.moe",
    "tid": "4f4c12ed-1166-4910-9ba8-ceca111030ee",
    "types": [
      "series",
      "1"
    ]
  }
}