{
  "header": {
    "description": "Karaoke Mugen Tag File",
    "version": 1
  },
  "tag": {
    "i18n": {
      "eng": "HAMA-Kgn"
    },
    "name": "HAMA-Kgn",
    "tid": "135ef19d-c405-4998-830b-e789c93f1cb1",
    "types": [
      "songwriters",
      "8"
    ],
    "repository": "kara.moe",
    "modified_at": "2020-03-31T19:04:34.607Z"
  }
}