{
  "header": {
    "description": "Karaoke Mugen Tag File",
    "version": 1
  },
  "tag": {
    "i18n": {
      "eng": "Hana Awase: Himeutsugi Hen",
      "jpn": "華アワセ:姫空木編",
      "qro": "Hana Awase: Himeutsugi Hen"
    },
    "name": "Hana Awase: Himeutsugi Hen",
    "repository": "kara.moe",
    "tid": "06c71c3e-2396-47be-b60f-1eb477e58991",
    "types": [
      "series",
      "1"
    ]
  }
}