{
  "header": {
    "description": "Karaoke Mugen Tag File",
    "version": 1
  },
  "tag": {
    "aliases": [
      "The Boy Fascinating the Fighting God",
      "Hanma Baki"
    ],
    "external_database_ids": {
      "anilist": 124195,
      "myanimelist": 42940,
      "kitsu": 43599
    },
    "i18n": {
      "eng": "Hanma Baki: Son of Ogre",
      "jpn": "範馬刃牙 SON OF OGRE",
      "qro": "Hanma Baki Son of Ogre"
    },
    "modified_at": "2021-10-11T22:25:10.992Z",
    "name": "Hanma Baki: Son of Ogre",
    "repository": "kara.moe",
    "tid": "88e44195-9ae6-4520-93c4-80ac29fd79ce",
    "types": [
      "series",
      "1"
    ]
  }
}