{
  "header": {
    "description": "Karaoke Mugen Tag File",
    "version": 1
  },
  "tag": {
    "i18n": {
      "eng": "Hansi"
    },
    "name": "Hansi",
    "repository": "kara.moe",
    "tid": "fa1fc207-7bea-4305-955d-f825e6d0e5cb",
    "types": [
      "creators",
      "4"
    ]
  }
}