{
  "header": {
    "description": "Karaoke Mugen Tag File",
    "version": 1
  },
  "tag": {
    "i18n": {
      "eng": "harapeco records"
    },
    "name": "harapeco records",
    "repository": "kara.moe",
    "tid": "a610df83-d060-40b9-be33-cba9656ed2d3",
    "types": [
      "creators",
      "4"
    ]
  }
}