{
  "header": {
    "description": "Karaoke Mugen Tag File",
    "version": 1
  },
  "tag": {
    "i18n": {
      "eng": "Hard Mode",
      "fre": "Difficile"
    },
    "name": "Hard Mode",
    "tid": "ec4fee75-71fb-45b4-9772-2ca374b4b600",
    "types": [
      "misc",
      "7"
    ],
    "short": "HARD",
    "repository": "kara.moe",
    "modified_at": "2020-03-31T19:04:34.627Z"
  }
}