{
  "header": {
    "description": "Karaoke Mugen Tag File",
    "version": 1
  },
  "tag": {
    "i18n": {
      "eng": "Haruo Chikada"
    },
    "name": "Haruo Chikada",
    "tid": "a4cc2a40-4c54-4f52-ab8e-e8b7a679937b",
    "types": [
      "songwriters",
      "8"
    ],
    "repository": "kara.moe",
    "modified_at": "2020-03-31T19:04:34.652Z"
  }
}