{
  "header": {
    "description": "Karaoke Mugen Tag File",
    "version": 1
  },
  "tag": {
    "i18n": {
      "eng": "Haruka Kato"
    },
    "name": "Haruka Kato",
    "repository": "kara.moe",
    "tid": "fa13cb11-f348-4daa-a019-92209fe7eb49",
    "types": [
      "songwriters",
      "8"
    ]
  }
}