{
  "header": {
    "description": "Karaoke Mugen Tag File",
    "version": 1
  },
  "tag": {
    "i18n": {
      "eng": "Harutarô Amenoji"
    },
    "name": "Harutarô Amenoji",
    "repository": "kara.moe",
    "tid": "0b00fe64-20a2-41a4-aae0-a14ccd88b533",
    "types": [
      "songwriters",
      "8"
    ],
    "modified_at": "2020-03-31T19:04:34.654Z"
  }
}