{
  "header": {
    "description": "Karaoke Mugen Tag File",
    "version": 1
  },
  "tag": {
    "aliases": [
      "Deliver Spring to your heart... as soon!",
      "Footsteps of Spring",
      "haruoto",
      "はるおと"
    ],
    "i18n": {
      "eng": "Haru no Ashioto",
      "jpn": "はるのあしおと",
      "qro": "Haru no Ashioto"
    },
    "modified_at": "2020-03-31T19:04:31.660Z",
    "name": "Haru no Ashioto",
    "repository": "kara.moe",
    "tid": "0f6fc30b-05dc-4719-b530-2da6e2300a0d",
    "types": [
      "series",
      "1"
    ]
  }
}