{
  "header": {
    "description": "Karaoke Mugen Tag File",
    "version": 1
  },
  "tag": {
    "i18n": {
      "eng": "Haruo Kubota"
    },
    "modified_at": "2020-07-17T10:13:59.224Z",
    "name": "Haruo Kubota",
    "repository": "kara.moe",
    "tid": "c5ba238e-e3b4-4599-b70d-a7a2da493cac",
    "types": [
      "songwriters",
      "8"
    ]
  }
}