{
  "header": {
    "description": "Karaoke Mugen Tag File",
    "version": 1
  },
  "tag": {
    "i18n": {
      "eng": "Hatena"
    },
    "name": "Hatena",
    "repository": "kara.moe",
    "tid": "d31cdb1c-ee42-427b-97b5-3c415d8a9be9",
    "types": [
      "singers",
      "2",
      "songwriters",
      "8"
    ]
  }
}