{
  "header": {
    "description": "Karaoke Mugen Tag File",
    "version": 1
  },
  "tag": {
    "i18n": {
      "eng": "hatsuko"
    },
    "name": "hatsuko",
    "tid": "23c901f6-f266-4f12-9e39-94efc6a95def",
    "types": [
      "creators",
      "4"
    ],
    "repository": "kara.moe",
    "modified_at": "2020-03-31T19:04:34.658Z"
  }
}