{
  "header": {
    "description": "Karaoke Mugen Tag File",
    "version": 1
  },
  "tag": {
    "i18n": {
      "eng": "Hayley Stewart"
    },
    "name": "Hayley Stewart",
    "repository": "kara.moe",
    "tid": "eae3acd3-bd93-446c-a390-547804661a7b",
    "types": [
      "singers",
      "2"
    ]
  }
}