{
  "header": {
    "description": "Karaoke Mugen Tag File",
    "version": 1
  },
  "tag": {
    "i18n": {
      "eng": "Hearthstone"
    },
    "name": "Hearthstone",
    "repository": "kara.moe",
    "tid": "f35c1fa4-faf2-409e-a825-18ea5da68f2e",
    "types": [
      "series",
      "1"
    ]
  }
}