{
  "header": {
    "description": "Karaoke Mugen Tag File",
    "version": 1
  },
  "tag": {
    "i18n": {
      "eng": "Heather Morris"
    },
    "name": "Heather Morris",
    "repository": "kara.moe",
    "tid": "1d14361e-fb66-4544-9142-5e958fd69dbe",
    "types": [
      "singers",
      "2"
    ]
  }
}