{
  "header": {
    "description": "Karaoke Mugen Tag File",
    "version": 1
  },
  "tag": {
    "i18n": {
      "eng": "Hekiyôgakuen Seitokai"
    },
    "name": "Hekiyôgakuen Seitokai",
    "tid": "a799feec-74ca-4b9e-9173-883bb4f35eb1",
    "types": [
      "singers",
      "2"
    ],
    "repository": "kara.moe",
    "modified_at": "2020-03-31T19:04:34.676Z"
  }
}