{
  "header": {
    "description": "Karaoke Mugen Tag File",
    "version": 1
  },
  "tag": {
    "i18n": {
      "eng": "Henri Belolo"
    },
    "modified_at": "2020-07-11T23:25:21.560Z",
    "name": "Henri Belolo",
    "repository": "kara.moe",
    "tid": "d933807b-be5a-4007-a755-f0862ca1833f",
    "types": [
      "songwriters",
      "8"
    ]
  }
}