{
  "header": {
    "description": "Karaoke Mugen Tag File",
    "version": 1
  },
  "tag": {
    "i18n": {
      "eng": "Hervé Twarhirwa"
    },
    "name": "Hervé Twarhirwa",
    "tid": "d6d0b3ec-f6ee-4b97-b38f-c896a42b4c68",
    "types": [
      "singers",
      "2"
    ],
    "repository": "kara.moe",
    "modified_at": "2020-03-31T19:04:34.691Z"
  }
}