{
  "header": {
    "description": "Karaoke Mugen Tag File",
    "version": 1
  },
  "tag": {
    "i18n": {
      "eng": "Hess"
    },
    "name": "Hess",
    "repository": "kara.moe",
    "tid": "fab29d40-4ea7-4300-833b-94cb51954eb2",
    "types": [
      "songwriters",
      "8"
    ]
  }
}