{
  "header": {
    "description": "Karaoke Mugen Tag File",
    "version": 1
  },
  "tag": {
    "i18n": {
      "eng": "Hi!Superb"
    },
    "name": "Hi!Superb",
    "tid": "cf662e15-290b-40ca-afd8-96b3ad3d770d",
    "types": [
      "singers",
      "2"
    ],
    "repository": "kara.moe",
    "modified_at": "2020-03-31T19:04:34.693Z"
  }
}