{
  "header": {
    "description": "Karaoke Mugen Tag File",
    "version": 1
  },
  "tag": {
    "aliases": [
      "Eupho",
      "Ufonium",
      "Играй эуфониум!"
    ],
    "external_database_ids": {
      "anilist": 20912,
      "myanimelist": 27989,
      "kitsu": 9980
    },
    "i18n": {
      "chi": "吹响! 上低音号",
      "eng": "Sound! Euphonium",
      "fre": "Sound! Euphonium",
      "jpn": "響け! ユーフォニアム",
      "qro": "Hibike! Euphonium"
    },
    "modified_at": "2020-06-21T23:45:31.966Z",
    "name": "Hibike! Euphonium",
    "repository": "kara.moe",
    "tid": "7e9d2ecf-5993-4bb0-99ab-051277eaf525",
    "types": [
      "series",
      "1",
      "franchises",
      "18"
    ]
  }
}