{
  "header": {
    "description": "Karaoke Mugen Tag File",
    "version": 1
  },
  "tag": {
    "i18n": {
      "eng": "Hideaki Anno"
    },
    "name": "Hideaki Anno",
    "tid": "1fbf20ea-7c28-4188-bc39-fedd24c88c48",
    "types": [
      "songwriters",
      "8"
    ],
    "repository": "kara.moe",
    "modified_at": "2020-03-31T19:04:34.698Z"
  }
}