{
  "header": {
    "description": "Karaoke Mugen Tag File",
    "version": 1
  },
  "tag": {
    "i18n": {
      "eng": "Hidemi Miura"
    },
    "name": "Hidemi Miura",
    "tid": "e308109a-f2a9-4e68-a0e9-d277ccea1c4d",
    "types": [
      "singers",
      "2"
    ],
    "repository": "kara.moe",
    "modified_at": "2020-03-31T19:04:34.711Z"
  }
}