{
  "header": {
    "description": "Karaoke Mugen Tag File",
    "version": 1
  },
  "tag": {
    "i18n": {
      "eng": "Hideto Ishida"
    },
    "name": "Hideto Ishida",
    "tid": "e5552823-5f53-4492-9472-42734fc43517",
    "types": [
      "songwriters",
      "8"
    ],
    "repository": "kara.moe",
    "modified_at": "2020-03-31T19:04:34.719Z"
  }
}