{
  "header": {
    "description": "Karaoke Mugen Tag File",
    "version": 1
  },
  "tag": {
    "i18n": {
      "jpn": "内藤 英雅",
      "qro": "Hidemasa Naitô"
    },
    "name": "Hidemasa Naitô",
    "repository": "kara.moe",
    "tid": "0752b3e5-c561-4904-b507-3789ab2aa4ca",
    "types": [
      "songwriters",
      "8"
    ]
  }
}