{
  "header": {
    "description": "Karaoke Mugen Tag File",
    "version": 1
  },
  "tag": {
    "i18n": {
      "eng": "Hierane"
    },
    "name": "Hierane",
    "repository": "kara.moe",
    "tid": "bddba290-5277-4fa3-96be-6c9f5402712a",
    "types": [
      "authors",
      "6"
    ]
  }
}