{
  "header": {
    "description": "Karaoke Mugen Tag File",
    "version": 1
  },
  "tag": {
    "i18n": {
      "eng": "HiFi-P"
    },
    "name": "HiFi-P",
    "repository": "kara.moe",
    "tid": "2db60683-1612-48ed-9a1e-e9c27562f9c0",
    "types": [
      "songwriters",
      "8"
    ]
  }
}