{
  "header": {
    "description": "Karaoke Mugen Tag File",
    "version": 1
  },
  "tag": {
    "aliases": [
      "Edenul din Est",
      "Edén del Este",
      "Ráj východu",
      "Österns Paradis",
      "Восточный Эдем",
      "На изток от Рая",
      "Хіґаші но Еден",
      "עדן המזרח",
      "جنة الشرق",
      "东之伊甸"
    ],
    "external_database_ids": {
      "anilist": 5630,
      "myanimelist": 5630,
      "kitsu": 4211
    },
    "i18n": {
      "eng": "Eden of the East",
      "fre": "Eden of the East",
      "ger": "Eden of the East",
      "jpn": "東のエデン",
      "kor": "동쪽의 에덴",
      "qro": "Higashi no Eden"
    },
    "modified_at": "2020-06-21T23:45:31.966Z",
    "name": "Higashi no Eden",
    "repository": "kara.moe",
    "tid": "d0f6fd2e-c83f-4b9e-866c-c8a6e0d83d43",
    "types": [
      "series",
      "1"
    ]
  }
}