{
  "header": {
    "description": "Karaoke Mugen Tag File",
    "version": 1
  },
  "tag": {
    "i18n": {
      "eng": "Hiiro Misaki"
    },
    "name": "Hiiro Misaki",
    "tid": "464799a0-50ff-48ec-ba51-eac26820c0d4",
    "types": [
      "songwriters",
      "8"
    ],
    "repository": "kara.moe",
    "modified_at": "2020-03-31T19:04:34.730Z"
  }
}