{
  "header": {
    "description": "Karaoke Mugen Tag File",
    "version": 1
  },
  "tag": {
    "aliases": [
      "Hime Chen! Otogi Chikku Idol Lilpri",
      "变身!公主偶像"
    ],
    "external_database_ids": {
      "anilist": 8206,
      "myanimelist": 8206,
      "kitsu": 5243
    },
    "i18n": {
      "eng": "Spellbound! Magical Princess Lil'Pri",
      "jpn": "ひめチェン! おとぎちっくアイドル リルぷりっ",
      "qro": "Himechan! Otogitic Idol Lil'Pri"
    },
    "modified_at": "2020-03-31T19:04:31.710Z",
    "name": "Himechan! Otogitic Idol Lil'Pri",
    "repository": "kara.moe",
    "tid": "a44c744f-f396-4e87-82a5-5c4e3012f41b",
    "types": [
      "series",
      "1"
    ]
  }
}