{
  "header": {
    "description": "Karaoke Mugen Tag File",
    "version": 1
  },
  "tag": {
    "i18n": {
      "eng": "Himeri Momiyama",
      "jpn": "籾山ひめり",
      "qro": "Himeri Momiyama"
    },
    "name": "Himeri Momiyama",
    "repository": "kara.moe",
    "tid": "c3d60052-7118-4847-8a1d-0476dc9120e6",
    "types": [
      "singers",
      "2"
    ]
  }
}