{
  "header": {
    "description": "Karaoke Mugen Tag File",
    "version": 1
  },
  "tag": {
    "i18n": {
      "eng": "Hinaki Yano"
    },
    "modified_at": "2021-03-11T20:45:04.753Z",
    "name": "Hinaki Yano",
    "repository": "kara.moe",
    "tid": "92057a46-68c7-4c10-bcf9-a81ca7bfe9c6",
    "types": [
      "singers",
      "2"
    ]
  }
}