{
  "header": {
    "description": "Karaoke Mugen Tag File",
    "version": 1
  },
  "tag": {
    "i18n": {
      "eng": "Hiromu Hamaguchi"
    },
    "name": "Hiromu Hamaguchi",
    "tid": "6da764fa-a194-4e46-900d-65a2e8ee787c",
    "types": [
      "songwriters",
      "8"
    ],
    "repository": "kara.moe",
    "modified_at": "2020-03-31T19:04:34.798Z"
  }
}