{
  "header": {
    "description": "Karaoke Mugen Tag File",
    "version": 1
  },
  "tag": {
    "i18n": {
      "eng": "Hiroyuki Hayashi"
    },
    "name": "Hiroyuki Hayashi",
    "tid": "96b9e96b-51a4-4698-913d-42fe54b79c30",
    "types": [
      "songwriters",
      "8"
    ],
    "repository": "kara.moe",
    "modified_at": "2020-03-31T19:04:34.838Z"
  }
}