{
  "header": {
    "description": "Karaoke Mugen Tag File",
    "version": 1
  },
  "tag": {
    "i18n": {
      "eng": "HIROTOMO"
    },
    "name": "HIROTOMO",
    "tid": "06dd0bd1-49be-44e5-9d6f-d820d29b849f",
    "types": [
      "songwriters",
      "8"
    ],
    "repository": "kara.moe",
    "modified_at": "2020-03-31T19:04:34.824Z"
  }
}