{
  "header": {
    "description": "Karaoke Mugen Tag File",
    "version": 1
  },
  "tag": {
    "i18n": {
      "eng": "Hiroyuki Sawano"
    },
    "name": "Hiroyuki Sawano",
    "tid": "59621685-8dc1-4ce1-93b3-cf6c11dda3aa",
    "types": [
      "songwriters",
      "8",
      "singers",
      "2"
    ],
    "repository": "kara.moe",
    "modified_at": "2020-03-31T19:04:34.843Z"
  }
}