{
  "header": {
    "description": "Karaoke Mugen Tag File",
    "version": 1
  },
  "tag": {
    "i18n": {
      "eng": "Hiroaki Takeuchi"
    },
    "name": "Hiroaki Takeuchi",
    "tid": "739d597b-5b84-4761-8b03-9cf6c0fb0357",
    "types": [
      "singers",
      "2"
    ],
    "repository": "kara.moe",
    "modified_at": "2020-03-31T19:04:34.767Z"
  }
}