{
  "header": {
    "description": "Karaoke Mugen Tag File",
    "version": 1
  },
  "tag": {
    "i18n": {
      "eng": "Hiroki Inui"
    },
    "name": "Hiroki Inui",
    "tid": "63350ec1-763a-45fd-a10c-6407578ba3d2",
    "types": [
      "songwriters",
      "8"
    ],
    "repository": "kara.moe",
    "modified_at": "2020-03-31T19:04:34.775Z"
  }
}