{
  "header": {
    "description": "Karaoke Mugen Tag File",
    "version": 1
  },
  "tag": {
    "i18n": {
      "qro": "Hirohito Furui",
      "jpn": "古井 弘人"
    },
    "name": "Hirohito Furui",
    "repository": "kara.moe",
    "tid": "32fad892-e2be-4d1e-87ff-ff84b601ba31",
    "types": [
      "songwriters",
      "8"
    ]
  }
}