{
  "header": {
    "description": "Karaoke Mugen Tag File",
    "version": 1
  },
  "tag": {
    "i18n": {
      "eng": "Hiroki"
    },
    "name": "Hiroki",
    "repository": "kara.moe",
    "tid": "e2ff1e5c-826c-46ea-95f0-504d44eaba42",
    "types": [
      "songwriters",
      "8"
    ]
  }
}