{
  "header": {
    "description": "Karaoke Mugen Tag File",
    "version": 1
  },
  "tag": {
    "i18n": {
      "eng": "Hironari Saito"
    },
    "name": "Hironari Saito",
    "repository": "kara.moe",
    "tid": "3183faf9-c138-45e5-b24f-f41f70895f6f",
    "types": [
      "songwriters",
      "8"
    ]
  }
}