{
  "header": {
    "description": "Karaoke Mugen Tag File",
    "version": 1
  },
  "tag": {
    "i18n": {
      "eng": "Hiroshi Komatsu"
    },
    "name": "Hiroshi Komatsu",
    "tid": "582d2e0d-12d7-41ba-973c-3e9a3a9f929d",
    "types": [
      "songwriters",
      "8"
    ],
    "repository": "kara.moe",
    "modified_at": "2020-03-31T19:04:34.810Z"
  }
}