{
  "header": {
    "description": "Karaoke Mugen Tag File",
    "version": 1
  },
  "tag": {
    "i18n": {
      "eng": "Hiroshi Yamashita"
    },
    "modified_at": "2021-06-20T11:07:42.903Z",
    "name": "Hiroshi Yamashita",
    "repository": "kara.moe",
    "tid": "dcf8b0ab-b00e-4a6c-91db-7cbea7194f5e",
    "types": [
      "songwriters",
      "8"
    ]
  }
}