{
  "header": {
    "description": "Karaoke Mugen Tag File",
    "version": 1
  },
  "tag": {
    "i18n": {
      "eng": "Hiroshi Kamiya"
    },
    "name": "Hiroshi Kamiya",
    "tid": "c3cf11a9-2251-4b24-a7a9-0566202e456b",
    "types": [
      "singers",
      "2"
    ],
    "repository": "kara.moe",
    "modified_at": "2020-03-31T19:04:34.808Z"
  }
}