{
  "header": {
    "description": "Karaoke Mugen Tag File",
    "version": 1
  },
  "tag": {
    "i18n": {
      "eng": "Hiroyuki Yoshino",
      "jpn": "吉野弘幸",
      "qro": "Hiroyuki Yoshino"
    },
    "name": "Hiroyuki Yoshino",
    "tid": "99ae8905-98fa-4390-863c-dbcf6b4cb185",
    "types": [
      "songwriters",
      "8"
    ],
    "repository": "kara.moe",
    "modified_at": "2020-03-31T19:04:34.845Z"
  }
}