{
  "header": {
    "description": "Karaoke Mugen Tag File",
    "version": 1
  },
  "tag": {
    "i18n": {
      "eng": "Hiroshi Kido"
    },
    "modified_at": "2020-10-25T01:28:00.737Z",
    "name": "Hiroshi Kido",
    "repository": "kara.moe",
    "tid": "5f20852f-56bb-436d-8b8a-4ac05211f5e3",
    "types": [
      "songwriters",
      "8"
    ]
  }
}