{
  "header": {
    "description": "Karaoke Mugen Tag File",
    "version": 1
  },
  "tag": {
    "i18n": {
      "eng": "Hiroshi Yamazaki"
    },
    "name": "Hiroshi Yamazaki",
    "tid": "29b1d7cc-860f-4c9f-898f-381298c0dec0",
    "types": [
      "songwriters",
      "8"
    ],
    "repository": "kara.moe",
    "modified_at": "2020-03-31T19:04:34.820Z"
  }
}