{
  "header": {
    "description": "Karaoke Mugen Tag File",
    "version": 1
  },
  "tag": {
    "i18n": {
      "eng": "Hiroshi Mukai"
    },
    "name": "Hiroshi Mukai",
    "repository": "kara.moe",
    "tid": "6cd7815e-b346-4d6b-b131-209137783de5",
    "types": [
      "songwriters",
      "8"
    ]
  }
}