{
  "header": {
    "description": "Karaoke Mugen Tag File",
    "version": 1
  },
  "tag": {
    "i18n": {
      "eng": "Hirofumi Hatano"
    },
    "name": "Hirofumi Hatano",
    "tid": "02cbc5f9-5d1b-4a84-9859-8d6954a92022",
    "types": [
      "songwriters",
      "8"
    ],
    "repository": "kara.moe",
    "modified_at": "2020-03-31T19:04:34.769Z"
  }
}