{
  "header": {
    "description": "Karaoke Mugen Tag File",
    "version": 1
  },
  "tag": {
    "aliases": [
      "KAGE"
    ],
    "i18n": {
      "eng": "Hironobu Kageyama",
      "jpn": "影山 ヒロノブ ",
      "qro": "Hironobu Kageyama"
    },
    "modified_at": "2021-06-05T21:47:15.149Z",
    "name": "Hironobu Kageyama",
    "repository": "kara.moe",
    "tid": "162799fe-de2f-4f72-99a2-8c606aee4f2d",
    "types": [
      "songwriters",
      "8",
      "singers",
      "2"
    ]
  }
}