{
  "header": {
    "description": "Karaoke Mugen Tag File",
    "version": 1
  },
  "tag": {
    "i18n": {
      "eng": "Hiroko Kato"
    },
    "name": "Hiroko Kato",
    "tid": "c4dcaab0-8c62-4d6f-a670-b19870c8ebed",
    "types": [
      "singers",
      "2"
    ],
    "repository": "kara.moe",
    "modified_at": "2020-03-31T19:04:34.781Z"
  }
}