{
  "header": {
    "description": "Karaoke Mugen Tag File",
    "version": 1
  },
  "tag": {
    "i18n": {
      "eng": "Hiroyuki Namba"
    },
    "modified_at": "2020-12-15T00:26:43.653Z",
    "name": "Hiroyuki Namba",
    "repository": "kara.moe",
    "tid": "2bb8e544-6c6c-44b3-8fc8-772e6e2438fd",
    "types": [
      "songwriters",
      "8"
    ]
  }
}