{
  "header": {
    "description": "Karaoke Mugen Tag File",
    "version": 1
  },
  "tag": {
    "i18n": {
      "eng": "Hiroo Ikeda"
    },
    "name": "Hiroo Ikeda",
    "tid": "7258cd9a-cf04-4a45-9147-3ca43c0cee03",
    "types": [
      "songwriters",
      "8"
    ],
    "repository": "kara.moe",
    "modified_at": "2020-03-31T19:04:34.800Z"
  }
}