{
  "header": {
    "description": "Karaoke Mugen Tag File",
    "version": 1
  },
  "tag": {
    "i18n": {
      "eng": "Hiroyuki Akita"
    },
    "name": "Hiroyuki Akita",
    "tid": "13877dd1-3894-45db-a10d-a3b1fb434eb7",
    "types": [
      "songwriters",
      "8"
    ],
    "repository": "kara.moe",
    "modified_at": "2020-03-31T19:04:34.837Z"
  }
}