{
  "header": {
    "description": "Karaoke Mugen Tag File",
    "version": 1
  },
  "tag": {
    "i18n": {
      "eng": "Hisashi Yoshino"
    },
    "name": "Hisashi Yoshino",
    "tid": "a1dee117-8c35-4adc-a6f0-e94dc30d4f6a",
    "types": [
      "songwriters",
      "8"
    ],
    "repository": "kara.moe",
    "modified_at": "2020-03-31T19:04:34.852Z"
  }
}