{
  "header": {
    "description": "Karaoke Mugen Tag File",
    "version": 1
  },
  "tag": {
    "i18n": {
      "eng": "Hisano"
    },
    "name": "Hisano",
    "tid": "23206fa3-590e-43e5-8857-f7a1d6b19349",
    "types": [
      "singers",
      "2"
    ],
    "repository": "kara.moe",
    "modified_at": "2020-03-31T19:04:34.848Z"
  }
}