{
  "header": {
    "description": "Karaoke Mugen Tag File",
    "version": 1
  },
  "tag": {
    "i18n": {
      "eng": "HITORIE"
    },
    "name": "HITORIE",
    "tid": "26f212a2-3dcc-40f0-8b0e-0e65b6bdb80e",
    "types": [
      "singers",
      "2",
      "songwriters",
      "8"
    ],
    "repository": "kara.moe",
    "modified_at": "2020-03-31T19:04:34.864Z"
  }
}