{
  "header": {
    "description": "Karaoke Mugen Tag File",
    "version": 1
  },
  "tag": {
    "i18n": {
      "eng": "hitomi (Furuya)"
    },
    "name": "hitomi (Furuya)",
    "tid": "fc8af52f-9dce-4b80-a4ef-abe80e065271",
    "types": [
      "singers",
      "2"
    ],
    "repository": "kara.moe",
    "modified_at": "2020-03-31T19:04:34.854Z"
  }
}