{
  "header": {
    "description": "Karaoke Mugen Tag File",
    "version": 1
  },
  "tag": {
    "i18n": {
      "eng": "Hitomi Tachibana"
    },
    "name": "Hitomi Tachibana",
    "tid": "24679208-fc62-4f16-ad66-bcd5a0362172",
    "types": [
      "songwriters",
      "8"
    ],
    "repository": "kara.moe",
    "modified_at": "2020-03-31T19:04:34.861Z"
  }
}