{
  "header": {
    "description": "Karaoke Mugen Tag File",
    "version": 1
  },
  "tag": {
    "i18n": {
      "jpn": "高橋 瞳",
      "qro": "Hitomi Takahashi"
    },
    "name": "Hitomi Takahashi",
    "repository": "kara.moe",
    "tid": "c26e208e-cc96-4fb0-9f23-873e145ee7f5",
    "types": [
      "songwriters",
      "8",
      "singers",
      "2"
    ]
  }
}