{
  "header": {
    "description": "Karaoke Mugen Tag File",
    "version": 1
  },
  "tag": {
    "aliases": [
      "Chaika 2",
      "Chaika 2: Avenging Battle",
      "Гроб принцессы Чайки (2 сезон)"
    ],
    "external_database_ids": {
      "anilist": 20719,
      "myanimelist": 24231,
      "kitsu": 8577
    },
    "i18n": {
      "eng": "Chaika: The Coffin Princess ‒ Avenging Battle",
      "fre": "Chaika: The Coffin Princess ‒ Avenging Battle",
      "jpn": "棺姫のチャイカ AVENGING BATTLE",
      "qro": "Hitsugi no Chaika: Avenging Battle"
    },
    "modified_at": "2020-03-31T19:04:31.719Z",
    "name": "Hitsugi no Chaika: Avenging Battle",
    "repository": "kara.moe",
    "tid": "d1aec041-5c36-4bbd-abf3-d92c9d1df9e6",
    "types": [
      "series",
      "1"
    ]
  }
}