{
  "header": {
    "description": "Karaoke Mugen Tag File",
    "version": 1
  },
  "tag": {
    "aliases": [
      "FOTNS 2",
      "HNK II",
      "Seikimatsu Kyuuseishu Densetsu: Hokuto no Ken 2",
      "hnk2"
    ],
    "external_database_ids": {
      "anilist": 1356,
      "myanimelist": 1356,
      "kitsu": 1210
    },
    "i18n": {
      "eng": "Fist of the North Star 2",
      "fre": "Ken le survivant 2",
      "ita": "Ken il guerriero 2",
      "jpn": "世紀末救世主伝説 北斗の拳2",
      "qro": "Hokuto no Ken 2"
    },
    "modified_at": "2020-03-31T19:04:31.722Z",
    "name": "Hokuto no Ken 2",
    "repository": "kara.moe",
    "tid": "1d755e89-2774-4ce9-ae6c-f7ff2d54acbd",
    "types": [
      "series",
      "1"
    ]
  }
}