{
  "header": {
    "description": "Karaoke Mugen Tag File",
    "version": 1
  },
  "tag": {
    "i18n": {
      "eng": "hololive IDOL PROJECT"
    },
    "name": "hololive IDOL PROJECT",
    "repository": "kara.moe",
    "tid": "7a7c1626-1495-4d5e-aaeb-fadb2e6a9111",
    "types": [
      "singergroups",
      "17"
    ]
  }
}