{
  "header": {
    "description": "Karaoke Mugen Tag File",
    "version": 1
  },
  "tag": {
    "aliases": [
      "ホロライブ・オルタナティブ",
      "ホロライブオルタナティブ",
      "hororaibu orutanatibu"
    ],
    "external_database_ids": {
      "anilist": 129963,
      "myanimelist": 47904,
      "kitsu": 44088
    },
    "i18n": {
      "eng": "Hololive Alternative",
      "jpn": "ホロライブ・オルタナティブ",
      "qro": "Hololive Alternative"
    },
    "modified_at": "2021-05-26T19:03:46.922Z",
    "name": "Hololive Alternative",
    "repository": "kara.moe",
    "tid": "1db398c9-b4db-4c69-8320-5bdb00210ab2",
    "types": [
      "series",
      "1"
    ]
  }
}