{
  "header": {
    "description": "Karaoke Mugen Tag File",
    "version": 1
  },
  "tag": {
    "i18n": {
      "eng": "HoneyWorks"
    },
    "name": "HoneyWorks",
    "tid": "af0dc126-897e-4390-a7a1-cbfed65c2925",
    "types": [
      "singers",
      "2",
      "songwriters",
      "8"
    ],
    "repository": "kara.moe",
    "modified_at": "2020-03-31T19:04:34.878Z"
  }
}