{
  "header": {
    "description": "Karaoke Mugen Tag File",
    "version": 1
  },
  "tag": {
    "i18n": {
      "eng": "Horô Shinkû"
    },
    "name": "Horô Shinkû",
    "tid": "858be4dc-0fd6-468c-984d-81a925bcdace",
    "types": [
      "singers",
      "2",
      "songwriters",
      "8"
    ],
    "repository": "kara.moe",
    "modified_at": "2020-03-31T19:04:34.882Z"
  }
}