{
  "header": {
    "description": "Karaoke Mugen Tag File",
    "version": 1
  },
  "tag": {
    "i18n": {
      "eng": "HORROR HARE"
    },
    "modified_at": "2021-01-13T18:12:32.413Z",
    "name": "HORROR HARE",
    "repository": "kara.moe",
    "tid": "8711e4cc-e60f-4318-8993-77c60b18921a",
    "types": [
      "creators",
      "4"
    ]
  }
}