{
  "header": {
    "description": "Karaoke Mugen Tag File",
    "version": 1
  },
  "tag": {
    "aliases": [
      "Horsaga"
    ],
    "external_database_ids": {
      "anilist": 114301,
      "myanimelist": 40961,
      "kitsu": 43568
    },
    "i18n": {
      "eng": "Hortensia SAGA",
      "jpn": "オルタンシア・サーガ",
      "qro": "Hortensia Saga"
    },
    "modified_at": "2021-08-09T20:57:00.643Z",
    "name": "Hortensia Saga",
    "repository": "kara.moe",
    "tid": "d1aa3305-1985-462e-8e2c-966d0a7eddef",
    "types": [
      "series",
      "1"
    ]
  }
}