{
  "header": {
    "description": "Karaoke Mugen Tag File",
    "version": 1
  },
  "tag": {
    "aliases": [
      "Hoshimemo",
      "Memoria of a Starry Sky"
    ],
    "i18n": {
      "eng": "Hoshizora no Memoria: Wish upon a shooting star",
      "jpn": "星空のメモリア-Wish upon a shooting star-",
      "qro": "Hoshizora no Memoria -Wish upon a shooting star-"
    },
    "modified_at": "2020-03-31T19:04:31.727Z",
    "name": "Hoshizora no Memoria -Wish upon a shooting star-",
    "repository": "kara.moe",
    "tid": "ee8c5e12-d472-4387-b496-cd217855c33f",
    "types": [
      "series",
      "1"
    ]
  }
}