{
  "header": {
    "description": "Karaoke Mugen Tag File",
    "version": 1
  },
  "tag": {
    "aliases": [
      "Into the Forest of Fireflies'Light",
      "В лес, где мерцают светлячки",
      "До лісу світлячків",
      "Ліс де мерехтять світлячки"
    ],
    "external_database_ids": {
      "anilist": 10408,
      "myanimelist": 10408,
      "kitsu": 6169
    },
    "i18n": {
      "ara": "إلى غابة اليراعات",
      "bul": "В гората, където светулки блещукат",
      "eng": "Hotarubi no Mori e",
      "jpn": "蛍火の杜へ",
      "qro": "Hotarubi no Mori e"
    },
    "modified_at": "2020-03-31T19:04:31.728Z",
    "name": "Hotarubi no Mori e",
    "repository": "kara.moe",
    "tid": "9f354bce-921b-4c33-af2f-a7110466e08e",
    "types": [
      "series",
      "1"
    ]
  }
}