{
  "header": {
    "description": "Karaoke Mugen Tag File",
    "version": 1
  },
  "tag": {
    "i18n": {
      "eng": "HOTZIPANG"
    },
    "modified_at": "2020-10-31T17:03:52.402Z",
    "name": "HOTZIPANG",
    "repository": "kara.moe",
    "tid": "14d9b0d5-7c92-4678-afbf-a4d0a2d6dad0",
    "types": [
      "creators",
      "4"
    ]
  }
}