{
  "header": {
    "description": "Karaoke Mugen Tag File",
    "version": 1
  },
  "tag": {
    "aliases": [
      "Honkai School 2",
      "Hôkai Gakuen 2",
      "HSoD The end of School",
      "Zombiegal Kawaii",
      "Guns Girl Z"
    ],
    "i18n": {
      "eng": "Houkai Gakuen 2",
      "chi": "崩坏学园2"
    },
    "modified_at": "2021-04-19T18:51:19.773Z",
    "name": "Houkai Gakuen 2",
    "repository": "kara.moe",
    "tid": "151cd3cc-0d63-45ab-9e68-70a7bec0c771",
    "types": [
      "series",
      "1"
    ]
  }
}