{
  "header": {
    "description": "Karaoke Mugen Tag File",
    "version": 1
  },
  "tag": {
    "external_database_ids": {
      "anilist": 102598,
      "myanimelist": 31499,
      "kitsu": 12084
    },
    "i18n": {
      "eng": "Fox Spirit Matchmaker",
      "chi": "狐妖小红娘",
      "jpn": "狐妖小红娘 月红",
      "qro": "Hú Yāo Xiǎo Hóngniáng"
    },
    "modified_at": "2021-03-11T21:19:39.434Z",
    "name": "Hú Yāo Xiǎo Hóngniáng",
    "repository": "kara.moe",
    "tid": "9201e0f1-8004-4ece-a071-f634d0e1a0f4",
    "types": [
      "series",
      "1"
    ]
  }
}