{
  "header": {
    "description": "Karaoke Mugen Tag File",
    "version": 1
  },
  "tag": {
    "i18n": {
      "eng": "Hugh Jackman"
    },
    "name": "Hugh Jackman",
    "tid": "c4e5c57e-044a-431b-9614-81ac98a4b8ab",
    "types": [
      "singers",
      "2"
    ],
    "repository": "kara.moe",
    "modified_at": "2020-03-31T19:04:34.892Z"
  }
}