{
  "header": {
    "description": "Karaoke Mugen Tag File",
    "version": 1
  },
  "tag": {
    "aliases": [
      "Huh Yun-jin"
    ],
    "i18n": {
      "kor": "허윤진",
      "qro": "Huh Yunjin"
    },
    "name": "Huh Yunjin",
    "repository": "kara.moe",
    "tid": "c50cf2ca-74d9-496e-be28-8d818ea9fd5f",
    "types": [
      "songwriters",
      "8",
      "singers",
      "2"
    ]
  }
}