{
  "header": {
    "description": "Karaoke Mugen Tag File",
    "version": 1
  },
  "tag": {
    "aliases": [
      "Hariken Polymar",
      "Hurricane Polymer",
      "Inner Destruction Fist Polymar",
      "Internal Destructive Fist Polymar"
    ],
    "external_database_ids": {
      "anilist": 4808,
      "myanimelist": 4808,
      "kitsu": 3798
    },
    "i18n": {
      "eng": "Hurricane Polymar",
      "ita": "Hurricane Polimar",
      "jpn": "破裏拳ポリマー",
      "qro": "Hurricane Polymar"
    },
    "modified_at": "2020-03-31T19:04:31.739Z",
    "name": "Hurricane Polymar",
    "repository": "kara.moe",
    "tid": "c24bb685-8dcb-464e-bce1-5bbcea7973cb",
    "types": [
      "series",
      "1"
    ]
  }
}