{
  "header": {
    "description": "Karaoke Mugen Tag File",
    "version": 1
  },
  "tag": {
    "external_database_ids": {
      "anilist": 19681,
      "myanimelist": 19681,
      "kitsu": 9330
    },
    "i18n": {
      "eng": "Hustle Punch",
      "jpn": "ハッスルパンチ",
      "qro": "Hustle Punch"
    },
    "modified_at": "2020-03-31T19:04:31.740Z",
    "name": "Hustle Punch",
    "repository": "kara.moe",
    "tid": "cd628fe5-335b-4bee-96c5-867d577e1950",
    "types": [
      "series",
      "1"
    ]
  }
}