{
  "header": {
    "description": "Karaoke Mugen Tag File",
    "version": 1
  },
  "tag": {
    "i18n": {
      "eng": "huxohuxo"
    },
    "name": "huxohuxo",
    "tid": "aac23336-3e84-4083-844b-12ec40f5faf1",
    "types": [
      "creators",
      "4"
    ],
    "repository": "kara.moe",
    "modified_at": "2020-03-31T19:04:34.898Z"
  }
}