{
  "header": {
    "description": "Karaoke Mugen Tag File",
    "version": 1
  },
  "tag": {
    "i18n": {
      "eng": "Hwang Chan Hee"
    },
    "name": "Hwang Chan Hee",
    "tid": "433b0e00-9e67-47a4-9db8-e7d5f3b90f37",
    "types": [
      "songwriters",
      "8"
    ],
    "repository": "kara.moe",
    "modified_at": "2020-03-31T19:04:34.899Z"
  }
}