{
  "header": {
    "description": "Karaoke Mugen Tag File",
    "version": 1
  },
  "tag": {
    "aliases": [
      "Hyakuren no Haou to Seiyaku no Ikusa Otome ",
      "Hyakuren no Haô to Seiyaku no Ikusa Otome ",
      "Hyakuren no Haô to Seiyaku no Valkyria",
      "norsekai"
    ],
    "external_database_ids": {
      "anilist": 101289,
      "myanimelist": 37446,
      "kitsu": 41052
    },
    "i18n": {
      "eng": "The Master of Ragnarok & Blesser of Einherjar",
      "jpn": "百錬の覇王と聖約の戦乙女〈ヴァルキュリア〉 ",
      "qro": "Hyakuren no Haou to Seiyaku no Valkyria"
    },
    "modified_at": "2020-03-31T19:04:31.744Z",
    "name": "Hyakuren no Haou to Seiyaku no Valkyria",
    "repository": "kara.moe",
    "tid": "232d7547-7114-4eb8-9f2d-7bcbe90ebe03",
    "types": [
      "series",
      "1"
    ]
  }
}