{
  "header": {
    "description": "Karaoke Mugen Tag File",
    "version": 1
  },
  "tag": {
    "aliases": [
      "Hyakujuu Sentai Gaoranger",
      "hyakujuu"
    ],
    "i18n": {
      "eng": "Hyakujû Sentai Gaoranger",
      "jpn": "百獣戦隊ガオレンジャ",
      "qro": "Hyakujû Sentai Gaoranger"
    },
    "modified_at": "2020-03-31T19:04:31.743Z",
    "name": "Hyakujû Sentai Gaoranger",
    "repository": "kara.moe",
    "tid": "e30e65e9-42ee-45d7-b334-72849c7f6c55",
    "types": [
      "series",
      "1"
    ]
  }
}