{
  "header": {
    "description": "Karaoke Mugen Tag File",
    "version": 1
  },
  "tag": {
    "i18n": {
      "eng": "IA"
    },
    "name": "IA",
    "tid": "65ec4b1d-fe71-43f7-959b-65586cf634a9",
    "types": [
      "singers",
      "2"
    ],
    "repository": "kara.moe",
    "modified_at": "2020-03-31T19:04:34.909Z"
  }
}