{
  "header": {
    "description": "Karaoke Mugen Tag File",
    "version": 1
  },
  "tag": {
    "i18n": {
      "eng": "Ichinose LUPO"
    },
    "name": "Ichinose LUPO",
    "repository": "kara.moe",
    "tid": "425d2f71-8845-4ce8-88b0-7619c4b3ef7a",
    "types": [
      "songwriters",
      "8"
    ]
  }
}