{
  "header": {
    "description": "Karaoke Mugen Tag File",
    "version": 1
  },
  "tag": {
    "i18n": {
      "eng": "Ichirô Araki"
    },
    "name": "Ichirô Araki",
    "tid": "3e29f389-b55c-4582-b9d8-f9135410fa83",
    "types": [
      "singers",
      "2",
      "songwriters",
      "8"
    ],
    "repository": "kara.moe",
    "modified_at": "2020-03-31T19:04:34.921Z"
  }
}