{
  "header": {
    "description": "Karaoke Mugen Tag File",
    "version": 1
  },
  "tag": {
    "aliases": [
      "Ichirou Nagai"
    ],
    "i18n": {
      "eng": "Ichirô Nagai"
    },
    "modified_at": "2020-11-21T15:58:05.183Z",
    "name": "Ichirô Nagai",
    "repository": "kara.moe",
    "tid": "436586ab-983c-44e2-b323-cbab08e863eb",
    "types": [
      "singers",
      "2"
    ]
  }
}