{
  "header": {
    "description": "Karaoke Mugen Tag File",
    "version": 1
  },
  "tag": {
    "i18n": {
      "eng": "Ichi Takiguchi"
    },
    "modified_at": "2021-04-21T17:32:24.609Z",
    "name": "Ichi Takiguchi",
    "repository": "kara.moe",
    "tid": "6f83a555-9015-4290-9c17-a36e8c604cfc",
    "types": [
      "songwriters",
      "8"
    ]
  }
}