{
  "header": {
    "description": "Karaoke Mugen Tag File",
    "version": 1
  },
  "tag": {
    "i18n": {
      "eng": "Ichiko Aoba"
    },
    "name": "Ichiko Aoba",
    "tid": "7cfb22e9-1cdc-47f7-a321-aee4c77f7916",
    "types": [
      "songwriters",
      "8",
      "singers",
      "2"
    ],
    "repository": "kara.moe",
    "modified_at": "2020-03-31T19:04:34.915Z"
  }
}