{
  "header": {
    "description": "Karaoke Mugen Tag File",
    "version": 1
  },
  "tag": {
    "aliases": [
      "%100 Çilek",
      "100% Morango",
      "100% Клубничка",
      "100% فراولة",
      "Ichigo 100% TV",
      "i100",
      "i100tv",
      "Ічіґо 100%",
      "Ягодка 100%",
      "草莓100%",
      "100 percent"
    ],
    "external_database_ids": {
      "anilist": 248,
      "myanimelist": 248,
      "kitsu": 7662
    },
    "i18n": {
      "eng": "Strawberry 100%",
      "fre": "Ichigo 100%",
      "ita": "100% Fragola",
      "jpn": "いちご100%",
      "qro": "Ichigo 100%"
    },
    "modified_at": "2020-09-23T07:47:35.881Z",
    "name": "Ichigo 100%",
    "repository": "kara.moe",
    "tid": "337d4119-8ed5-43d2-91d3-7985a71832be",
    "types": [
      "series",
      "1"
    ]
  }
}