{
  "header": {
    "description": "Karaoke Mugen Tag File",
    "version": 1
  },
  "tag": {
    "i18n": {
      "eng": "Idina Menzel"
    },
    "name": "Idina Menzel",
    "tid": "01110b68-f27f-40f4-8f54-ff9e7551a1c6",
    "types": [
      "singers",
      "2"
    ],
    "repository": "kara.moe",
    "modified_at": "2020-03-31T19:04:34.930Z"
  }
}