{
  "header": {
    "description": "Karaoke Mugen Tag File",
    "version": 1
  },
  "tag": {
    "external_database_ids": {
      "anilist": 113814,
      "myanimelist": 40842,
      "kitsu": 42868
    },
    "i18n": {
      "eng": "Idoly Pride",
      "jpn": "IDOLY PRIDE"
    },
    "name": "Idoly Pride",
    "repository": "kara.moe",
    "tid": "8baf8884-73c7-4680-8033-4346f8845909",
    "types": [
      "series",
      "1"
    ]
  }
}