{
  "header": {
    "description": "Karaoke Mugen Tag File",
    "version": 1
  },
  "tag": {
    "external_database_ids": {
      "anilist": 132679,
      "myanimelist": 44376,
      "kitsu": 45784
    },
    "i18n": {
      "eng": "Idol Land PriPara"
    },
    "name": "Idol Land PriPara",
    "repository": "kara.moe",
    "tid": "c439a898-c902-415b-a307-ac0bc4b2ff4f",
    "types": [
      "series",
      "1"
    ]
  }
}