{
  "header": {
    "description": "Karaoke Mugen Tag File",
    "version": 1
  },
  "tag": {
    "aliases": [
      "Западные ворота парка Икебукуро",
      "IWGP"
    ],
    "external_database_ids": {
      "anilist": 111324,
      "myanimelist": 40359,
      "kitsu": 42533
    },
    "i18n": {
      "eng": "Ikebukuro West Gate Park",
      "jpn": "池袋ウエストゲートパーク",
      "chi": "池袋西口公園",
      "qro": "Ikebukuro West Gate Park"
    },
    "modified_at": "2021-02-13T21:49:37.257Z",
    "name": "Ikebukuro West Gate Park",
    "repository": "kara.moe",
    "tid": "78455198-c770-4367-bee1-b67481af174e",
    "types": [
      "series",
      "1"
    ]
  }
}