{
  "header": {
    "description": "Karaoke Mugen Tag File",
    "version": 1
  },
  "tag": {
    "external_database_ids": {
      "myanimelist": 54847
    },
    "i18n": {
      "qro": "Ikimono-san",
      "jpn": "いきものさん"
    },
    "name": "Ikimono-san",
    "repository": "kara.moe",
    "tid": "97035e44-9a16-4c95-8ce9-93051602745f",
    "types": [
      "series",
      "1"
    ]
  }
}