{
  "header": {
    "description": "Karaoke Mugen Tag File",
    "version": 1
  },
  "tag": {
    "i18n": {
      "eng": "Ikuko Noguchi"
    },
    "modified_at": "2020-08-27T21:06:43.463Z",
    "name": "Ikuko Noguchi",
    "repository": "kara.moe",
    "tid": "46d96c7d-b5cc-4f9f-83c1-079c4fa5b59c",
    "types": [
      "songwriters",
      "8"
    ]
  }
}