{
  "header": {
    "description": "Karaoke Mugen Tag File",
    "version": 1
  },
  "tag": {
    "i18n": {
      "eng": "Ikumi Nakagami"
    },
    "name": "Ikumi Nakagami",
    "tid": "b85c564e-f1e2-44c7-a0df-c99d48cb509f",
    "types": [
      "singers",
      "2"
    ],
    "repository": "kara.moe",
    "modified_at": "2020-03-31T19:04:34.948Z"
  }
}