{
  "header": {
    "description": "Karaoke Mugen Tag File",
    "version": 1
  },
  "tag": {
    "aliases": [
      "C'era una volta... Lo Spazio",
      "De verovering van de ruimte",
      "Er was eens... Het Heelal",
      "Once Upon a Time... Space",
      "etait"
    ],
    "i18n": {
      "dut": "Er was eens... De Ruimte",
      "eng": "Once Upon a Time Was the Space",
      "fin": "Olipa kerran avaruus",
      "fre": "Il était une fois... l'Espace",
      "ger": "Es war einmal ... der Weltraum",
      "gre": "Μια Φορά και έναν Καιρό ήταν το Διάστημα",
      "heb": "היה היה... חלל",
      "hun": "Egyszer volt... a világűr",
      "ita": "Ai confini dell'universo",
      "jpn": "銀河パトロールPJ",
      "pol": "Był sobie kosmos",
      "por": "Era uma vez...O Espaço",
      "qro": "Il était une fois... l'Espace"
    },
    "modified_at": "2020-03-31T19:04:31.766Z",
    "name": "Il était une fois... l'Espace",
    "repository": "kara.moe",
    "tid": "e12b1379-9dbe-40b1-80ae-7e77364dbaa9",
    "types": [
      "series",
      "1"
    ]
  }
}