{
  "header": {
    "description": "Karaoke Mugen Tag File",
    "version": 1
  },
  "tag": {
    "external_database_ids": {},
    "i18n": {
      "eng": "Once Upon a Time...",
      "fre": "Il était une fois...",
      "fin": "Olipa kerran",
      "rum": "A fost odată…",
      "spa": "Érase una vez...",
      "tur": "Bir Varmış Bir Yokmuş...",
      "nor": "Det var en gang",
      "hun": "Egyszer volt…",
      "ger": "Es war einmal..."
    },
    "name": "Il était une fois...",
    "repository": "kara.moe",
    "tid": "2c04ff91-26f3-45ac-86e4-10d4583d8965",
    "types": [
      "franchises",
      "18"
    ]
  }
}