{
  "header": {
    "description": "Karaoke Mugen Tag File",
    "version": 1
  },
  "tag": {
    "aliases": [
      "C'era una volta... la vita",
      "Il était une fois... la Vie - La fabuleuse histoire du corps humain",
      "etait"
    ],
    "external_database_ids": {
      "anilist": 3624,
      "myanimelist": 3624,
      "kitsu": 3148
    },
    "i18n": {
      "ara": "كان ياما كان الحياة",
      "cze": "Byl jednou jeden život",
      "dut": "Er was eens... Het Leven",
      "eng": "Once Upon a Time... Life",
      "fin": "Olipa kerran elämä",
      "fre": "Il était une fois... la Vie",
      "ger": "Es war einmal... Das Leben",
      "gre": "Μια Φορά και έναν Καιρό ήταν η Ζωή",
      "heb": "החיים",
      "hun": "Egyszer volt... az élet",
      "ita": "Siamo Fatti Così - Esplorando il Corpo Umano",
      "jpn": "生命の科学ミクロパトロール",
      "pol": "Było sobie życie",
      "por": "Era uma vez...O Corpo Humano",
      "slo": "Bol raz jeden život",
      "spa": "Érase una vez... la vida",
      "swe": "En cell-sam historia",
      "qro": "Il était une fois... la Vie"
    },
    "modified_at": "2021-03-06T16:24:50.647Z",
    "name": "Il était une fois... la Vie",
    "repository": "kara.moe",
    "tid": "bbf14b4b-5e96-48ba-bb37-05f586e80451",
    "types": [
      "series",
      "1"
    ]
  }
}