{
  "header": {
    "description": "Karaoke Mugen Tag File",
    "version": 1
  },
  "tag": {
    "aliases": [
      "ill bell",
      "イルベル",
      "いるベる",
      "illbell"
    ],
    "i18n": {
      "eng": "ill.bell"
    },
    "name": "ill.bell",
    "repository": "kara.moe",
    "tid": "fbbd7bd4-b4e6-4fde-8727-f99bf002c255",
    "types": [
      "singers",
      "2",
      "songwriters",
      "8"
    ]
  }
}