{
  "header": {
    "description": "Karaoke Mugen Tag File",
    "version": 1
  },
  "tag": {
    "aliases": [
      "イングレス"
    ],
    "external_database_ids": {
      "anilist": 101500,
      "myanimelist": 37438,
      "kitsu": 41030
    },
    "i18n": {
      "eng": "Ingress the Animation",
      "jpn": "INGRESS THE ANIMATION",
      "qro": "Ingress the Animation"
    },
    "modified_at": "2020-03-31T19:04:31.777Z",
    "name": "Ingress the Animation",
    "repository": "kara.moe",
    "tid": "2bd72dbe-78a1-4a97-af35-1c67e1c1a4bf",
    "types": [
      "series",
      "1"
    ]
  }
}