{
  "header": {
    "description": "Karaoke Mugen Tag File",
    "version": 1
  },
  "tag": {
    "i18n": {
      "eng": "INNI Vision"
    },
    "name": "INNI Vision",
    "repository": "kara.moe",
    "tid": "c86eeaf9-b5c5-42e0-b9fa-9a71b9109447",
    "types": [
      "creators",
      "4"
    ]
  }
}