{
  "header": {
    "description": "Karaoke Mugen Tag File",
    "version": 1
  },
  "tag": {
    "aliases": [
      "InoBato",
      "Inou Battle wa Nichijô-kei no Naka de",
      "Quand les batailles surnaturelles deviennent ordinaires",
      "inou",
      "nichijou-kei"
    ],
    "external_database_ids": {
      "anilist": 20646,
      "myanimelist": 25159,
      "kitsu": 8452
    },
    "i18n": {
      "eng": "When Supernatural Battles Became Commonplace",
      "fre": "Inô Battle wa Nichijô-kei no Naka de",
      "jpn": "異能バトルは日常系のなかで",
      "qro": "Inô Battle wa Nichijô-kei no Naka de"
    },
    "modified_at": "2020-03-31T19:04:31.783Z",
    "name": "Inô Battle wa Nichijô-kei no Naka de",
    "repository": "kara.moe",
    "tid": "82d75afe-c731-4693-b806-8fd76804b81f",
    "types": [
      "series",
      "1"
    ]
  }
}