{
  "header": {
    "description": "Karaoke Mugen Tag File",
    "version": 1
  },
  "tag": {
    "i18n": {
      "eng": "Inside"
    },
    "modified_at": "2021-06-09T19:22:22.093Z",
    "name": "Inside",
    "repository": "kara.moe",
    "tid": "9c119e07-8444-428e-b754-4db8b3aeb882",
    "types": [
      "series",
      "1"
    ]
  }
}