{
  "header": {
    "description": "Karaoke Mugen Tag File",
    "version": 1
  },
  "tag": {
    "i18n": {
      "eng": "Inti Creates",
      "jpn": "株式会社インティ・クリエイツ"
    },
    "modified_at": "2021-10-21T08:35:34.256Z",
    "name": "Inti Creates",
    "repository": "kara.moe",
    "tid": "a67d8937-e119-483d-83d8-cf3c03e9cbd6",
    "types": [
      "creators",
      "4"
    ]
  }
}