{
  "header": {
    "description": "Karaoke Mugen Tag File",
    "version": 1
  },
  "tag": {
    "aliases": [
      "inuneko"
    ],
    "external_database_ids": {
      "anilist": 20604,
      "myanimelist": 22123,
      "kitsu": 8263
    },
    "i18n": {
      "eng": "Inugami-san to Nekoyama-san",
      "jpn": "犬神さんと猫山さん",
      "qro": "Inugami-san to Nekoyama-san"
    },
    "modified_at": "2020-03-31T19:04:31.785Z",
    "name": "Inugami-san to Nekoyama-san",
    "repository": "kara.moe",
    "tid": "5ce1f794-2015-48f0-899e-784c4b3abe27",
    "types": [
      "series",
      "1"
    ]
  }
}