{
  "header": {
    "description": "Karaoke Mugen Tag File",
    "version": 1
  },
  "tag": {
    "aliases": [
      "Inukami",
      "¡Perro Divino!",
      "犬神!"
    ],
    "external_database_ids": {
      "anilist": 940,
      "myanimelist": 940,
      "kitsu": 836
    },
    "i18n": {
      "eng": "Dog Gods!",
      "fre": "Inukami!",
      "jpn": "いぬかみっ!",
      "qro": "Inukami!"
    },
    "modified_at": "2020-03-31T19:04:31.785Z",
    "name": "Inukami!",
    "repository": "kara.moe",
    "tid": "2f02ac21-c780-464f-8bc4-5b9f33733ab6",
    "types": [
      "series",
      "1"
    ]
  }
}