{
  "header": {
    "description": "Karaoke Mugen Tag File",
    "version": 1
  },
  "tag": {
    "i18n": {
      "eng": "invisible manners"
    },
    "name": "invisible manners",
    "tid": "3c5557fb-c51c-45b5-b25c-52351c44f7e7",
    "types": [
      "songwriters",
      "8"
    ],
    "repository": "kara.moe",
    "modified_at": "2020-03-31T19:04:34.973Z"
  }
}