{
  "header": {
    "description": "Karaoke Mugen Tag File",
    "version": 1
  },
  "tag": {
    "i18n": {
      "eng": "Iori"
    },
    "name": "Iori",
    "tid": "6bc8d53b-7224-46aa-937a-92aa229b61e3",
    "types": [
      "singers",
      "2"
    ],
    "repository": "kara.moe",
    "modified_at": "2020-03-31T19:04:34.977Z"
  }
}