{
  "header": {
    "description": "Karaoke Mugen Tag File",
    "version": 1
  },
  "tag": {
    "aliases": [
      "I・Я・I・A"
    ],
    "external_database_ids": {
      "anilist": 432,
      "kitsu": 396,
      "myanimelist": 432
    },
    "i18n": {
      "ara": "ليريا",
      "eng": "Iria: Zeiram the Animation",
      "fre": "Iria",
      "ger": "Iria",
      "heb": "איריאה",
      "ita": "Iria - Zeiram the Animation",
      "jpn": "イ・リ・ア ゼイラム The Animation",
      "qro": "Iria: Zeiram - The Animation"
    },
    "name": "Iria: Zeiram - The Animation",
    "repository": "kara.moe",
    "tid": "c4ced563-cc01-42d5-926d-ee452dfb6d95",
    "types": [
      "series",
      "1"
    ]
  }
}