{
  "header": {
    "description": "Karaoke Mugen Tag File",
    "version": 1
  },
  "tag": {
    "i18n": {
      "eng": "IS Records"
    },
    "name": "IS Records",
    "repository": "kara.moe",
    "tid": "6d9899c4-625f-4ee7-a36f-a9d3d20f7d67",
    "types": [
      "creators",
      "4"
    ]
  }
}