{
  "header": {
    "description": "Karaoke Mugen Tag File",
    "version": 1
  },
  "tag": {
    "external_database_ids": {
      "anilist": 146234,
      "kitsu": 45965,
      "myanimelist": 51219
    },
    "i18n": {
      "eng": "My One-Hit Kill Sister",
      "qro": "Isekai One Turn Kill Nee-san: Ane Douhan no Isekai Seikatsu Hajimemashita",
      "jpn": "異世界ワンターンキル姉さん ～姉同伴の異世界生活はじめました～"
    },
    "name": "Isekai One Turn Kill Neesan: Ane Douhan no Isekai Seikatsu Hajimemashita",
    "repository": "kara.moe",
    "tid": "bb2ab77d-d8d4-4e49-b48c-bb9c9dd5189d",
    "types": [
      "series",
      "1"
    ]
  }
}