{
  "header": {
    "description": "Karaoke Mugen Tag File",
    "version": 1
  },
  "tag": {
    "i18n": {
      "eng": "Iselin Solheim"
    },
    "name": "Iselin Solheim",
    "repository": "kara.moe",
    "tid": "24d79fd0-1723-4e20-ba63-8dab5aa59a84",
    "types": [
      "singers",
      "2"
    ]
  }
}