{
  "header": {
    "description": "Karaoke Mugen Tag File",
    "version": 1
  },
  "tag": {
    "i18n": {
      "eng": "Ishida Ichimatsu"
    },
    "name": "Ishida Ichimatsu",
    "repository": "kara.moe",
    "tid": "02081161-a083-4514-a236-25122b817377",
    "types": [
      "songwriters",
      "8"
    ]
  }
}