{
  "header": {
    "description": "Karaoke Mugen Tag File",
    "version": 1
  },
  "tag": {
    "i18n": {
      "eng": "Ishkina Ksenia"
    },
    "name": "Ishkina Ksenia",
    "tid": "61affa29-3a4b-4745-9b0f-15f3ffe15b8c",
    "types": [
      "singers",
      "2"
    ],
    "repository": "kara.moe",
    "modified_at": "2020-03-31T19:04:34.993Z"
  }
}