{
  "header": {
    "description": "Karaoke Mugen Tag File",
    "version": 1
  },
  "tag": {
    "i18n": {
      "eng": "ISSAY"
    },
    "name": "ISSAY",
    "repository": "kara.moe",
    "tid": "eb835cfc-450e-4ca1-945f-20150f5b1f32",
    "types": [
      "songwriters",
      "8"
    ],
    "modified_at": "2020-03-31T19:04:34.995Z"
  }
}