{
  "header": {
    "description": "Karaoke Mugen Tag File",
    "version": 1
  },
  "tag": {
    "i18n": {
      "eng": "Itachari"
    },
    "modified_at": "2021-07-22T19:59:56.982Z",
    "name": "Itachari",
    "repository": "kara.moe",
    "tid": "45179fa2-6aa5-4699-86d8-dc4cfd0b5195",
    "types": [
      "creators",
      "4"
    ]
  }
}