{
  "header": {
    "description": "Karaoke Mugen Tag File",
    "version": 1
  },
  "tag": {
    "i18n": {
      "eng": "Iv"
    },
    "name": "Iv",
    "tid": "97a6de1b-c404-405b-bc4b-ff891e4806a0",
    "types": [
      "songwriters",
      "8"
    ],
    "repository": "kara.moe",
    "modified_at": "2020-03-31T19:04:35.002Z"
  }
}