{
  "header": {
    "description": "Karaoke Mugen Tag File",
    "version": 1
  },
  "tag": {
    "i18n": {
      "eng": "Iwata Hidefusa"
    },
    "name": "Iwata Hidefusa",
    "tid": "6566a2d1-edc1-4525-874c-64fc0d8d8d15",
    "types": [
      "songwriters",
      "8"
    ],
    "repository": "kara.moe",
    "modified_at": "2020-03-31T19:04:35.003Z"
  }
}