{
  "header": {
    "description": "Karaoke Mugen Tag File",
    "version": 1
  },
  "tag": {
    "i18n": {
      "eng": "Iwato"
    },
    "name": "Iwato",
    "repository": "kara.moe",
    "tid": "391f132b-6223-4a67-ada0-02041b132360",
    "types": [
      "creators",
      "4"
    ]
  }
}