{
  "header": {
    "description": "Karaoke Mugen Tag File",
    "version": 1
  },
  "tag": {
    "i18n": {
      "eng": "IZ*ONE"
    },
    "name": "IZ*ONE",
    "repository": "kara.moe",
    "tid": "bf9b2bbd-8ede-48da-ab2a-f79af059af8d",
    "types": [
      "singergroups",
      "17"
    ]
  }
}