{
  "header": {
    "description": "Karaoke Mugen Tag File",
    "version": 1
  },
  "tag": {
    "i18n": {
      "eng": "Izumin",
      "jpn": "いずみん",
      "qro": "Izumin"
    },
    "name": "Izumin",
    "repository": "kara.moe",
    "tid": "26304cd0-7c4a-4148-9aff-8f25a9ceef4e",
    "types": [
      "songwriters",
      "8"
    ]
  }
}