{
  "header": {
    "description": "Karaoke Mugen Tag File",
    "version": 1
  },
  "tag": {
    "aliases": [
      "Izutsu \"Growth\" Shintarou"
    ],
    "i18n": {
      "eng": "Izutsu Shintaro"
    },
    "modified_at": "2021-03-08T19:06:19.761Z",
    "name": "Izutsu Shintaro",
    "repository": "kara.moe",
    "tid": "f4984dd2-85a9-402c-95ef-1026447fe6d9",
    "types": [
      "songwriters",
      "8"
    ]
  }
}