{
  "header": {
    "description": "Karaoke Mugen Tag File",
    "version": 1
  },
  "tag": {
    "i18n": {
      "eng": "J'Nique Nicole"
    },
    "name": "J'Nique Nicole",
    "tid": "5f5940c3-0baa-4ab1-bb09-475530da19d1",
    "types": [
      "singers",
      "2",
      "songwriters",
      "8"
    ],
    "repository": "kara.moe",
    "modified_at": "2020-03-31T19:04:35.010Z"
  }
}