{
  "header": {
    "description": "Karaoke Mugen Tag File",
    "version": 1
  },
  "tag": {
    "i18n": {
      "eng": "J. PRAIZE"
    },
    "name": "J. PRAIZE",
    "repository": "kara.moe",
    "tid": "53b4245c-6c88-478b-b6cf-b2fc937346cb",
    "types": [
      "songwriters",
      "8"
    ],
    "modified_at": "2020-03-31T19:04:35.011Z"
  }
}