{
  "header": {
    "description": "Karaoke Mugen Tag File",
    "version": 1
  },
  "tag": {
    "i18n": {
      "eng": "Jack Black"
    },
    "modified_at": "2020-10-29T23:38:37.580Z",
    "name": "Jack Black",
    "repository": "kara.moe",
    "tid": "4427692b-8fe4-4a37-90ec-6420f3378f09",
    "types": [
      "songwriters",
      "8"
    ]
  }
}