{
  "header": {
    "description": "Karaoke Mugen Tag File",
    "version": 1
  },
  "tag": {
    "i18n": {
      "eng": "Jacques Balutin"
    },
    "name": "Jacques Balutin",
    "tid": "e9904d6c-8ba3-445b-9760-ec06e203a8b9",
    "types": [
      "singers",
      "2"
    ],
    "repository": "kara.moe",
    "modified_at": "2020-03-31T19:04:35.020Z"
  }
}