{
  "header": {
    "description": "Karaoke Mugen Tag File",
    "version": 1
  },
  "tag": {
    "i18n": {
      "eng": "Jacqueline BLOT"
    },
    "name": "Jacqueline BLOT",
    "tid": "2ee83e2c-65fa-4374-bf1c-1b4b55f90966",
    "types": [
      "songwriters",
      "8"
    ],
    "repository": "kara.moe",
    "modified_at": "2020-03-31T19:04:35.020Z"
  }
}