{
  "header": {
    "description": "Karaoke Mugen Tag File",
    "version": 1
  },
  "tag": {
    "i18n": {
      "eng": "James Hannigan"
    },
    "name": "James Hannigan",
    "tid": "fa1cc56a-5130-493e-842a-a5cd5155794f",
    "types": [
      "songwriters",
      "8"
    ],
    "repository": "kara.moe",
    "modified_at": "2020-03-31T19:04:35.029Z"
  }
}