{
  "header": {
    "description": "Karaoke Mugen Tag File",
    "version": 1
  },
  "tag": {
    "i18n": {
      "eng": "James Walsh"
    },
    "name": "James Walsh",
    "tid": "8891e527-2dc2-49b2-8880-b9b6ef60d0d0",
    "types": [
      "singers",
      "2"
    ],
    "repository": "kara.moe",
    "modified_at": "2020-03-31T19:04:35.030Z"
  }
}