{
  "header": {
    "description": "Karaoke Mugen Tag File",
    "version": 1
  },
  "tag": {
    "i18n": {
      "eng": "James Harris III"
    },
    "name": "James Harris III",
    "repository": "kara.moe",
    "tid": "26c06150-691e-4eba-a96f-ffb2e705d909",
    "types": [
      "songwriters",
      "8"
    ]
  }
}