{
  "header": {
    "description": "Karaoke Mugen Tag File",
    "version": 1
  },
  "tag": {
    "aliases": [
      "Tai Reflections",
      "Tai Shindehai"
    ],
    "i18n": {
      "fre": "JamFiction"
    },
    "modified_at": "2020-03-31T19:04:31.805Z",
    "name": "JamFiction",
    "repository": "kara.moe",
    "tid": "c511d5d9-9ba9-40b7-96fc-abc34a0f21b6",
    "types": [
      "series",
      "1"
    ]
  }
}