{
  "header": {
    "description": "Karaoke Mugen Tag File",
    "version": 1
  },
  "tag": {
    "i18n": {
      "eng": "Jamie Houston"
    },
    "modified_at": "2020-07-05T20:03:51.137Z",
    "name": "Jamie Houston",
    "repository": "kara.moe",
    "tid": "59aae2ee-82e2-4b96-9039-dbcb4dbfface",
    "types": [
      "songwriters",
      "8"
    ]
  }
}