{
  "header": {
    "description": "Karaoke Mugen Tag File",
    "version": 1
  },
  "tag": {
    "i18n": {
      "eng": "Jamie Foxx"
    },
    "name": "Jamie Foxx",
    "repository": "kara.moe",
    "tid": "5b6e95c2-bd00-42a0-b340-5476fd8fa1b3",
    "types": [
      "songwriters",
      "8"
    ]
  }
}