{
  "header": {
    "description": "Karaoke Mugen Tag File",
    "version": 1
  },
  "tag": {
    "i18n": {
      "eng": "Dropkick On My Devil!!",
      "jpn": "邪神ちゃんドロップキック",
      "qro": "Jashin-chan Dropkick"
    },
    "name": "Jashin-chan Dropkick",
    "repository": "kara.moe",
    "tid": "989f9969-28a4-4a0d-acf3-6a8adf8503de",
    "types": [
      "franchises",
      "18"
    ]
  }
}