{
  "header": {
    "description": "Karaoke Mugen Tag File",
    "version": 1
  },
  "tag": {
    "aliases": [
      "Jashin-chan Drop kick"
    ],
    "external_database_ids": {
      "anilist": 100714,
      "myanimelist": 36906,
      "kitsu": 41165
    },
    "i18n": {
      "eng": "Dropkick on My Devil!!",
      "fre": "Jashin-chan Dropkick",
      "jpn": "邪神ちゃんドロップキック",
      "kor": "사신쨩 드롭킥",
      "qro": "Jashin-chan Dropkick"
    },
    "modified_at": "2020-03-31T19:04:31.805Z",
    "name": "Jashin-chan Dropkick",
    "repository": "kara.moe",
    "tid": "57cf694a-9d9f-4cef-8ea5-e91bfae235e8",
    "types": [
      "series",
      "1"
    ]
  }
}