{
  "header": {
    "description": "Karaoke Mugen Tag File",
    "version": 1
  },
  "tag": {
    "i18n": {
      "eng": "Jean-Michel Rivat"
    },
    "modified_at": "2021-06-05T19:20:54.998Z",
    "name": "Jean-Michel Rivat",
    "repository": "kara.moe",
    "tid": "2b434ff8-3723-4f4c-9c5d-a0a1ac9f9166",
    "types": [
      "songwriters",
      "8"
    ]
  }
}