{
  "header": {
    "description": "Karaoke Mugen Tag File",
    "version": 1
  },
  "tag": {
    "i18n": {
      "eng": "Jean-Michel Vaubien"
    },
    "name": "Jean-Michel Vaubien",
    "tid": "b2d802e5-1d45-48fd-af48-acec19aef309",
    "types": [
      "singers",
      "2"
    ],
    "repository": "kara.moe",
    "modified_at": "2020-03-31T19:04:35.057Z"
  }
}