{
  "header": {
    "description": "Karaoke Mugen Tag File",
    "version": 1
  },
  "tag": {
    "i18n": {
      "eng": "Jean Gaucher"
    },
    "name": "Jean Gaucher",
    "tid": "3667e0b0-5466-4807-9895-c61ce18e267b",
    "types": [
      "songwriters",
      "8"
    ],
    "repository": "kara.moe",
    "modified_at": "2020-03-31T19:04:35.045Z"
  }
}