{
  "header": {
    "description": "Karaoke Mugen Tag File",
    "version": 1
  },
  "tag": {
    "i18n": {
      "eng": "Jean-Pierre Pilot"
    },
    "name": "Jean-Pierre Pilot",
    "repository": "kara.moe",
    "tid": "7dbfaf42-2d8a-446d-91cc-b5d98f3bd7ae",
    "types": [
      "songwriters",
      "8"
    ]
  }
}