{
  "header": {
    "description": "Karaoke Mugen Tag File",
    "version": 1
  },
  "tag": {
    "i18n": {
      "eng": "Jean-Michel Bacou"
    },
    "modified_at": "2021-05-11T20:19:23.236Z",
    "name": "Jean-Michel Bacou",
    "repository": "kara.moe",
    "tid": "83c20583-cc70-46ed-a394-f3764f842088",
    "types": [
      "songwriters",
      "8"
    ]
  }
}