{
  "header": {
    "description": "Karaoke Mugen Tag File",
    "version": 1
  },
  "tag": {
    "i18n": {
      "eng": "Jean-Pierre Bucolo"
    },
    "modified_at": "2020-06-21T22:28:45.865Z",
    "name": "Jean-Pierre Bucolo",
    "repository": "kara.moe",
    "tid": "b7eabc19-2375-4c80-87ae-1933d1b64d41",
    "types": [
      "songwriters",
      "8"
    ]
  }
}