{
  "header": {
    "description": "Karaoke Mugen Tag File",
    "version": 1
  },
  "tag": {
    "i18n": {
      "eng": "Jeff Williams"
    },
    "modified_at": "2021-07-09T22:09:46.966Z",
    "name": "Jeff Williams",
    "repository": "kara.moe",
    "tid": "bf136ea0-5cb0-493b-bd86-a780f55d0cb2",
    "types": [
      "songwriters",
      "8",
      "singers",
      "2"
    ]
  }
}