{
  "header": {
    "description": "Karaoke Mugen Tag File",
    "version": 1
  },
  "tag": {
    "i18n": {
      "eng": "Jeff Mangum"
    },
    "name": "Jeff Mangum",
    "repository": "kara.moe",
    "tid": "d388680c-d690-4b0a-a6d4-519b8263b0ef",
    "types": [
      "songwriters",
      "8"
    ]
  }
}