{
  "header": {
    "description": "Karaoke Mugen Tag File",
    "version": 1
  },
  "tag": {
    "i18n": {
      "eng": "Jennifer Lopez"
    },
    "name": "Jennifer Lopez",
    "repository": "kara.moe",
    "tid": "44e9de28-aefc-4dbc-942b-06c3be3310fc",
    "types": [
      "singers",
      "2",
      "songwriters",
      "8"
    ]
  }
}