{
  "header": {
    "description": "Karaoke Mugen Tag File",
    "version": 1
  },
  "tag": {
    "i18n": {
      "eng": "Jermaine"
    },
    "name": "Jermaine",
    "tid": "d809095f-356f-4bcb-8646-9775eeb263be",
    "types": [
      "singers",
      "2"
    ],
    "repository": "kara.moe",
    "modified_at": "2020-03-31T19:04:35.072Z"
  }
}