{
  "header": {
    "description": "Karaoke Mugen Tag File",
    "version": 1
  },
  "tag": {
    "i18n": {
      "eng": "Jey Pawlik"
    },
    "modified_at": "2021-01-09T20:33:37.170Z",
    "name": "Jey Pawlik",
    "repository": "kara.moe",
    "tid": "3b5ac279-0246-4e64-acb6-10944d516028",
    "types": [
      "creators",
      "4"
    ]
  }
}