{
  "header": {
    "description": "Karaoke Mugen Tag File",
    "version": 1
  },
  "tag": {
    "i18n": {
      "eng": "Jim Steinman"
    },
    "modified_at": "2021-07-24T09:48:42.614Z",
    "name": "Jim Steinman",
    "repository": "kara.moe",
    "tid": "fd5cd00e-a3a5-4ef0-b20f-b90baaa4aafc",
    "types": [
      "songwriters",
      "8"
    ]
  }
}