{
  "header": {
    "description": "Karaoke Mugen Tag File",
    "version": 1
  },
  "tag": {
    "i18n": {
      "eng": "Jimmy Gnecco"
    },
    "name": "Jimmy Gnecco",
    "repository": "kara.moe",
    "tid": "2653f277-72cb-40f9-81ed-e0ada922d2c1",
    "types": [
      "singers",
      "2"
    ]
  }
}