{
  "header": {
    "description": "Karaoke Mugen Tag File",
    "version": 1
  },
  "tag": {
    "i18n": {
      "eng": "JIN (HERO)"
    },
    "name": "JIN (HERO)",
    "tid": "0b1a6f7e-c7c1-4e0e-a463-09121698b7d8",
    "types": [
      "songwriters",
      "8"
    ],
    "repository": "kara.moe",
    "modified_at": "2020-03-31T19:04:35.086Z"
  }
}