{
  "header": {
    "description": "Karaoke Mugen Tag File",
    "version": 1
  },
  "tag": {
    "i18n": {
      "eng": "Jin Kobayashi"
    },
    "modified_at": "2020-07-17T16:32:59.871Z",
    "name": "Jin Kobayashi",
    "repository": "kara.moe",
    "tid": "23a0027f-0c7a-4aec-83e2-dc148d8b305d",
    "types": [
      "songwriters",
      "8"
    ]
  }
}