{
  "header": {
    "description": "Karaoke Mugen Tag File",
    "version": 1
  },
  "tag": {
    "i18n": {
      "eng": "The Sword and The Brocade",
      "qro": "Jin Xin Si Yu",
      "chi": "锦心似玉"
    },
    "name": "Jin Xin Si Yu",
    "repository": "kara.moe",
    "tid": "b6ced63e-1f9c-48b4-80c0-8e159271a530",
    "types": [
      "series",
      "1"
    ]
  }
}