{
  "header": {
    "description": "Karaoke Mugen Tag File",
    "version": 1
  },
  "tag": {
    "external_database_ids": {
      "anilist": 103000,
      "myanimelist": 37992,
      "kitsu": 41951
    },
    "i18n": {
      "chi": "嫁给非人类",
      "eng": "Jingai-san no Yome",
      "jpn": "人外さんの嫁",
      "qro": "Jingai-san no Yome"
    },
    "modified_at": "2020-03-31T19:04:31.814Z",
    "name": "Jingai-san no Yome",
    "repository": "kara.moe",
    "tid": "23bcd029-6880-4632-b484-5284371f2d8c",
    "types": [
      "series",
      "1"
    ]
  }
}