{
  "header": {
    "description": "Karaoke Mugen Tag File",
    "version": 1
  },
  "tag": {
    "i18n": {
      "eng": "Jinn"
    },
    "name": "Jinn",
    "tid": "cb3cc7dd-3450-4ff6-bd2f-b493084e9b7b",
    "types": [
      "singers",
      "2",
      "songwriters",
      "8"
    ],
    "repository": "kara.moe",
    "modified_at": "2020-03-31T19:04:35.091Z"
  }
}