{
  "header": {
    "description": "Karaoke Mugen Tag File",
    "version": 1
  },
  "tag": {
    "i18n": {
      "eng": "JoCat"
    },
    "modified_at": "2021-11-06T10:49:34.163Z",
    "name": "JoCat",
    "repository": "kara.moe",
    "tid": "9b576628-0731-43db-8562-a3775c62d209",
    "types": [
      "creators",
      "4",
      "singers",
      "2"
    ]
  }
}