{
  "header": {
    "description": "Karaoke Mugen Tag File",
    "version": 1
  },
  "tag": {
    "i18n": {
      "eng": "Joeri_sama"
    },
    "name": "Joeri_sama",
    "tid": "f953c616-b05c-429d-8402-788bdec2a456",
    "types": [
      "authors",
      "6"
    ],
    "repository": "kara.moe",
    "modified_at": "2020-03-31T19:04:35.107Z"
  }
}