{
  "header": {
    "description": "Karaoke Mugen Tag File",
    "version": 1
  },
  "tag": {
    "i18n": {
      "eng": "Joey Tempest"
    },
    "modified_at": "2021-05-21T18:04:12.551Z",
    "name": "Joey Tempest",
    "repository": "kara.moe",
    "tid": "f36eee84-564c-4db3-8836-3dba7c01c259",
    "types": [
      "songwriters",
      "8"
    ]
  }
}