{
  "header": {
    "description": "Karaoke Mugen Tag File",
    "version": 1
  },
  "tag": {
    "i18n": {
      "eng": "Johnny Gioeli"
    },
    "modified_at": "2020-05-31T23:21:55.251Z",
    "name": "Johnny Gioeli",
    "repository": "kara.moe",
    "tid": "0836d0f0-7262-4a78-9fc8-67612e09228d",
    "types": [
      "songwriters",
      "8",
      "singers",
      "2"
    ]
  }
}