{
  "header": {
    "description": "Karaoke Mugen Tag File",
    "version": 1
  },
  "tag": {
    "i18n": {
      "eng": "JohnBlue"
    },
    "modified_at": "2021-01-13T20:30:59.948Z",
    "name": "JohnBlue",
    "repository": "kara.moe",
    "tid": "af5f7dde-28a9-47a7-aa17-37188ef39b50",
    "types": [
      "creators",
      "4",
      "singers",
      "2"
    ]
  }
}