{
  "header": {
    "description": "Karaoke Mugen Tag File",
    "version": 1
  },
  "tag": {
    "i18n": {
      "eng": "John Kanda"
    },
    "modified_at": "2020-08-07T22:18:06.728Z",
    "name": "John Kanda",
    "repository": "kara.moe",
    "tid": "c1830ddb-6404-412e-bd91-c85aad73872f",
    "types": [
      "songwriters",
      "8"
    ]
  }
}