{
  "header": {
    "description": "Karaoke Mugen Tag File",
    "version": 1
  },
  "tag": {
    "i18n": {
      "eng": "Johnny McElhone"
    },
    "name": "Johnny McElhone",
    "repository": "kara.moe",
    "tid": "d25a07eb-a8ca-4a2b-9e51-b2d8d5684cbc",
    "types": [
      "songwriters",
      "8"
    ]
  }
}