{
  "header": {
    "description": "Karaoke Mugen Tag File",
    "version": 1
  },
  "tag": {
    "i18n": {
      "eng": "John Travolta"
    },
    "name": "John Travolta",
    "repository": "kara.moe",
    "tid": "ddb77adc-51c8-440f-bb69-dac19f1399e9",
    "types": [
      "singers",
      "2"
    ]
  }
}