{
  "header": {
    "description": "Karaoke Mugen Tag File",
    "version": 1
  },
  "tag": {
    "i18n": {
      "eng": "Johnny Hallyday"
    },
    "modified_at": "2020-04-11T14:48:57.523Z",
    "name": "Johnny Hallyday",
    "repository": "kara.moe",
    "tid": "7916059c-2d8a-4753-a5df-f1ae0ece7b08",
    "types": [
      "singers",
      "2"
    ]
  }
}