{
  "header": {
    "description": "Karaoke Mugen Tag File",
    "version": 1
  },
  "tag": {
    "aliases": [
      "JJBA GW",
      "JJBA VA",
      "JoJo 2018",
      "JoJo no Kimyou na Bouken: Ougon no Kaze",
      "JoJo no Kimyô na Bôken: Golden Wind",
      "JoJo no Kimyô na Bôken: Vento Aureo",
      "Jojo's Bizarre Adventure Part V: Golden Wind",
      "Jojo's Bizarre Adventure Part V: Vento Aureo",
      "kimyou",
      "bouken"
    ],
    "external_database_ids": {
      "anilist": 102883,
      "myanimelist": 37991,
      "kitsu": 41410
    },
    "i18n": {
      "eng": "JoJo's Bizarre Adventure Part 5: Golden Wind",
      "fre": "JoJo's Bizarre Adventure Part 5: Golden Wind",
      "ita": "Le Bizzarre Avventure di GioGio Parte 5: Vento Aureo",
      "jpn": "ジョジョの奇妙な冒険 黄金の風",
      "qro": "JoJo no Kimyô na Bôken: Ougon no Kaze"
    },
    "modified_at": "2020-03-31T19:04:31.818Z",
    "name": "JoJo no Kimyô na Bôken: Ougon no Kaze",
    "repository": "kara.moe",
    "tid": "11171812-f945-447a-943f-c9f751236599",
    "types": [
      "series",
      "1"
    ]
  }
}