{
  "header": {
    "description": "Karaoke Mugen Tag File",
    "version": 1
  },
  "tag": {
    "aliases": [
      "JJBA 2016",
      "JJBA DiU",
      "JoJo 2016",
      "JoJo Part 4",
      "JoJo no Kimyou na Bouken: Diamond wa Kudakenai",
      "JoJo's Bizarre Adventure: Diamond Is Not Crash",
      "Jojo's Bizarre Adventure Part 4: Diamond is Unbreakable",
      "Невероятните приключения на Джо-Джо: Вечен диамант",
      "kimyou",
      "bouken"
    ],
    "external_database_ids": {
      "anilist": 21450,
      "myanimelist": 31933,
      "kitsu": 11459
    },
    "i18n": {
      "eng": "JoJo's Bizarre Adventure: Diamond is Unbreakable",
      "fre": "JoJo's Bizarre Adventure: Diamond is Unbreakable",
      "jpn": "ジョジョの奇妙な冒険 ダイヤモンドは砕けない",
      "qro": "JoJo no Kimyô na Bôken: Diamond wa Kudakenai"
    },
    "modified_at": "2020-03-31T19:04:31.817Z",
    "name": "JoJo no Kimyô na Bôken: Diamond wa Kudakenai",
    "repository": "kara.moe",
    "tid": "d81bc20a-6666-4749-a451-d48d0fad523b",
    "types": [
      "series",
      "1"
    ]
  }
}