{
  "header": {
    "description": "Karaoke Mugen Tag File",
    "version": 1
  },
  "tag": {
    "aliases": [
      "Her Majesty's Petite Angie",
      "Her Royal Highness the Queen Petite Angie",
      "Joou-heika no Petite Angie",
      "joou-heika"
    ],
    "external_database_ids": {
      "anilist": 3435,
      "myanimelist": 3435,
      "kitsu": 3008
    },
    "i18n": {
      "ara": "المتحريه أنجي",
      "dut": "Annemarie",
      "eng": "Angie Girl",
      "fre": "Angie, détective en herbe",
      "ita": "Angie Girl",
      "jpn": "女王陛下のプティアンジェ",
      "qro": "Joô-heika no Petite Angie"
    },
    "modified_at": "2020-03-31T19:04:31.821Z",
    "name": "Joô-heika no Petite Angie",
    "repository": "kara.moe",
    "tid": "3ad2c7b9-1852-4776-9653-0c7232259e4b",
    "types": [
      "series",
      "1"
    ]
  }
}