{
  "header": {
    "description": "Karaoke Mugen Tag File",
    "version": 1
  },
  "tag": {
    "i18n": {
      "eng": "Jörgen Elofsson"
    },
    "name": "Jörgen Elofsson",
    "repository": "kara.moe",
    "tid": "f3e9c8f8-f28b-4130-bf5a-5c601b5cf021",
    "types": [
      "songwriters",
      "8"
    ],
    "modified_at": "2020-03-31T19:04:35.125Z"
  }
}