{
  "header": {
    "description": "Karaoke Mugen Tag File",
    "version": 1
  },
  "tag": {
    "i18n": {
      "eng": "Jules Bass"
    },
    "name": "Jules Bass",
    "tid": "f2fa6e1f-d4c0-4511-9653-52cb4a9f3c4e",
    "types": [
      "songwriters",
      "8"
    ],
    "repository": "kara.moe",
    "modified_at": "2020-03-31T19:04:35.136Z"
  }
}