{
  "header": {
    "description": "Karaoke Mugen Tag File",
    "version": 1
  },
  "tag": {
    "i18n": {
      "eng": "Jun Fukushima"
    },
    "name": "Jun Fukushima",
    "tid": "00162fa2-0282-496a-885f-433b122dced7",
    "types": [
      "singers",
      "2"
    ],
    "repository": "kara.moe",
    "modified_at": "2020-03-31T19:04:35.150Z"
  }
}