{
  "header": {
    "description": "Karaoke Mugen Tag File",
    "version": 1
  },
  "tag": {
    "i18n": {
      "eng": "Jun Abe"
    },
    "name": "Jun Abe",
    "tid": "2116d53a-1772-49a0-aa84-2080677d2d31",
    "types": [
      "songwriters",
      "8"
    ],
    "repository": "kara.moe",
    "modified_at": "2020-03-31T19:04:35.143Z"
  }
}