{
  "header": {
    "description": "Karaoke Mugen Tag File",
    "version": 1
  },
  "tag": {
    "i18n": {
      "eng": "Jun'ichi Satô"
    },
    "name": "Jun'ichi Satô",
    "tid": "7112ec45-75cc-4ea2-a3da-fd199f43072c",
    "types": [
      "songwriters",
      "8"
    ],
    "repository": "kara.moe",
    "modified_at": "2020-03-31T19:04:35.177Z"
  }
}