{
  "header": {
    "description": "Karaoke Mugen Tag File",
    "version": 1
  },
  "tag": {
    "i18n": {
      "eng": "Jun'ichi Matsuda"
    },
    "name": "Jun'ichi Matsuda",
    "tid": "7d2bbee2-8fd1-483b-bf8d-f56038ae5342",
    "types": [
      "songwriters",
      "8"
    ],
    "repository": "kara.moe",
    "modified_at": "2020-03-31T19:04:35.176Z"
  }
}