{
  "header": {
    "description": "Karaoke Mugen Tag File",
    "version": 1
  },
  "tag": {
    "i18n": {
      "eng": "Jun'ya Matsuoka"
    },
    "name": "Jun'ya Matsuoka",
    "tid": "69d54479-fc28-4ead-a81e-cbebc37a0ab4",
    "types": [
      "songwriters",
      "8"
    ],
    "repository": "kara.moe",
    "modified_at": "2020-03-31T19:04:35.180Z"
  }
}