{
  "header": {
    "description": "Karaoke Mugen Tag File",
    "version": 1
  },
  "tag": {
    "i18n": {
      "eng": "JunbugP"
    },
    "name": "JunbugP",
    "repository": "kara.moe",
    "tid": "17cc3fbc-a9f1-4562-88f5-a970432464c1",
    "types": [
      "songwriters",
      "8"
    ]
  }
}