{
  "header": {
    "description": "Karaoke Mugen Tag File",
    "version": 1
  },
  "tag": {
    "i18n": {
      "eng": "Junichi Nakamura"
    },
    "name": "Junichi Nakamura",
    "repository": "kara.moe",
    "tid": "eea63168-ab57-47c2-802c-f05c3f2b58fd",
    "types": [
      "songwriters",
      "8"
    ]
  }
}