{
  "header": {
    "description": "Karaoke Mugen Tag File",
    "version": 1
  },
  "tag": {
    "i18n": {
      "eng": "Junjou no Afilia"
    },
    "name": "Junjou no Afilia",
    "tid": "5a756fb5-6683-4971-90ca-9c74e9c89e58",
    "types": [
      "singers",
      "2"
    ],
    "repository": "kara.moe",
    "modified_at": "2020-03-31T19:04:35.187Z"
  }
}