{
  "header": {
    "description": "Karaoke Mugen Tag File",
    "version": 1
  },
  "tag": {
    "i18n": {
      "eng": "Junka Amaoto"
    },
    "name": "Junka Amaoto",
    "tid": "7d210f33-27ba-4e28-8e54-fb74848c3829",
    "types": [
      "singers",
      "2"
    ],
    "repository": "kara.moe",
    "modified_at": "2020-03-31T19:04:35.188Z"
  }
}