{
  "header": {
    "description": "Karaoke Mugen Tag File",
    "version": 1
  },
  "tag": {
    "i18n": {
      "eng": "JUNKOO"
    },
    "name": "JUNKOO",
    "tid": "c361b609-b9a7-4d9a-94f7-d7f0718e6787",
    "types": [
      "songwriters",
      "8"
    ],
    "repository": "kara.moe",
    "modified_at": "2020-03-31T19:04:35.197Z"
  }
}