{
  "header": {
    "description": "Karaoke Mugen Tag File",
    "version": 1
  },
  "tag": {
    "i18n": {
      "eng": "JunPayer"
    },
    "name": "JunPayer",
    "repository": "kara.moe",
    "tid": "f815085c-2d29-4e46-a7cd-d72860403d31",
    "types": [
      "songwriters",
      "8"
    ]
  }
}