{
  "header": {
    "description": "Karaoke Mugen Tag File",
    "version": 1
  },
  "tag": {
    "i18n": {
      "eng": "Jupiter Records"
    },
    "modified_at": "2021-03-19T20:50:26.324Z",
    "name": "Jupiter Records",
    "repository": "kara.moe",
    "tid": "3e28e7cf-3f84-4fd9-856a-92ebc8f8475c",
    "types": [
      "creators",
      "4"
    ]
  }
}