{
  "header": {
    "description": "Karaoke Mugen Tag File",
    "version": 1
  },
  "tag": {
    "aliases": [
      "Juuni Taisen",
      "Война двенадцати",
      "Дванадесетте войни",
      "juuni"
    ],
    "external_database_ids": {
      "anilist": 98443,
      "myanimelist": 35076,
      "kitsu": 13225
    },
    "i18n": {
      "chi": "十二大戰",
      "eng": "Juni Taisen: Zodiac War",
      "fre": "Jûni Taisen: Zodiac War",
      "jpn": "十二大戦",
      "kor": "십이대전",
      "qro": "Jûni Taisen"
    },
    "modified_at": "2020-03-31T19:04:31.835Z",
    "name": "Jûni Taisen",
    "repository": "kara.moe",
    "tid": "90134718-8006-4989-951d-84f755ce41b7",
    "types": [
      "series",
      "1"
    ]
  }
}