{
  "header": {
    "description": "Karaoke Mugen Tag File",
    "version": 1
  },
  "tag": {
    "i18n": {
      "eng": "Kaala Bhairava"
    },
    "name": "Kaala Bhairava",
    "repository": "kara.moe",
    "tid": "b37122d6-7627-45b4-b3c9-02d63120e378",
    "types": [
      "singers",
      "2"
    ]
  }
}