{
  "header": {
    "description": "Karaoke Mugen Tag File",
    "version": 1
  },
  "tag": {
    "aliases": [
      "Opera Girl!!",
      "Theater Girls!!"
    ],
    "external_database_ids": {
      "anilist": 125446,
      "myanimelist": 43691,
      "kitsu": 44206
    },
    "i18n": {
      "eng": "Kageki Shôjo!!",
      "jpn": "かげきしょうじょ!!",
      "qro": "Kageki Shoujo!!"
    },
    "modified_at": "2021-11-29T19:47:36.842Z",
    "name": "Kageki Shôjo!!",
    "repository": "kara.moe",
    "tid": "a3ab3c37-1c75-4f4c-972b-7d99d7d0cdf1",
    "types": [
      "series",
      "1"
    ]
  }
}