{
  "header": {
    "description": "Karaoke Mugen Tag File",
    "version": 1
  },
  "tag": {
    "aliases": [
      "Kaguya-sama S3",
      "Kaguya-sama Saison 3",
      "Kaguya-sama Season 3"
    ],
    "external_database_ids": {
      "anilist": 125367,
      "myanimelist": 43608,
      "kitsu": 43691
    },
    "i18n": {
      "eng": "Kaguya-sama: Love Is War - Ultra Romantic",
      "jpn": "かぐや様は告らせたい-ウルトラロマンティック-",
      "qro": "Kaguya-sama wa Kokurasetai: Ultra Romantic"
    },
    "name": "Kaguya-sama wa Kokurasetai: Ultra Romantic",
    "repository": "kara.moe",
    "tid": "9d397784-9481-449e-8918-aefb11992718",
    "types": [
      "series",
      "1"
    ]
  }
}