{
  "header": {
    "description": "Karaoke Mugen Tag File",
    "version": 1
  },
  "tag": {
    "i18n": {
      "eng": "Kaiketsu Lion-Maru",
      "jpn": "快傑ライオン丸",
      "qro": "Kaiketsu Lion Maru"
    },
    "modified_at": "2020-03-31T19:04:31.852Z",
    "name": "Kaiketsu Lion Maru",
    "repository": "kara.moe",
    "tid": "6ce46f22-0d39-408f-8b77-ddd56de2f60b",
    "types": [
      "series",
      "1"
    ]
  }
}