{
  "header": {
    "description": "Karaoke Mugen Tag File",
    "version": 1
  },
  "tag": {
    "i18n": {
      "eng": "KaiPiez"
    },
    "modified_at": "2021-01-09T20:33:37.540Z",
    "name": "KaiPiez",
    "repository": "kara.moe",
    "tid": "b20a756d-0289-4c64-b3b9-a8b4ed16871d",
    "types": [
      "creators",
      "4"
    ]
  }
}