{
  "header": {
    "description": "Karaoke Mugen Tag File",
    "version": 1
  },
  "tag": {
    "i18n": {
      "eng": "Kakerine"
    },
    "name": "Kakerine",
    "repository": "kara.moe",
    "tid": "e3cd397b-bfaf-4f39-8d27-87e9d6bfa2c6",
    "types": [
      "songwriters",
      "8"
    ]
  }
}