{
  "header": {
    "description": "Karaoke Mugen Tag File",
    "version": 1
  },
  "tag": {
    "i18n": {
      "eng": "Kakeru Ishihama"
    },
    "name": "Kakeru Ishihama",
    "tid": "98f21a0f-8b88-4edf-9977-884e34ab6e4c",
    "types": [
      "songwriters",
      "8"
    ],
    "repository": "kara.moe",
    "modified_at": "2020-03-31T19:04:35.237Z"
  }
}