{
  "header": {
    "description": "Karaoke Mugen Tag File",
    "version": 1
  },
  "tag": {
    "i18n": {
      "eng": "Kako Someya"
    },
    "name": "Kako Someya",
    "tid": "bdaf276e-9d0b-41c4-87c9-838f81458b10",
    "types": [
      "songwriters",
      "8"
    ],
    "repository": "kara.moe",
    "modified_at": "2020-03-31T19:04:35.239Z"
  }
}