{
  "header": {
    "description": "Karaoke Mugen Tag File",
    "version": 1
  },
  "tag": {
    "i18n": {
      "eng": "kala"
    },
    "name": "kala",
    "tid": "17b92252-38a9-4a40-94db-15762eceec2e",
    "types": [
      "singers",
      "2"
    ],
    "repository": "kara.moe",
    "modified_at": "2020-03-31T19:04:35.240Z"
  }
}