{
  "header": {
    "description": "Karaoke Mugen Tag File",
    "version": 1
  },
  "tag": {
    "aliases": [
      "Kaleido Star: Treatment",
      "Kaleidostar: It's Good! Goood!!",
      "Звездата на Калейдо: Хубаво е! Хуууубаво!"
    ],
    "external_database_ids": {
      "anilist": 1501,
      "myanimelist": 1501,
      "kitsu": 1347
    },
    "i18n": {
      "eng": "Kaleido Star: It's Good! Goood!!",
      "jpn": "カレイドスター ぐっどだよ! ぐぅ~っど!!",
      "qro": "Kaleido Star: Good da yo! Goood!!"
    },
    "modified_at": "2020-03-31T19:04:31.861Z",
    "name": "Kaleido Star: Good da yo! Goood!!",
    "repository": "kara.moe",
    "tid": "5b2d34b3-b44b-4b36-a809-ffb2ac232875",
    "types": [
      "series",
      "1"
    ]
  }
}