{
  "header": {
    "description": "Karaoke Mugen Tag File",
    "version": 1
  },
  "tag": {
    "i18n": {
      "eng": "Kamen Rider Build",
      "jpn": "仮面ライダービルド",
      "qro": "Kamen Rider Build"
    },
    "modified_at": "2020-03-31T19:04:31.865Z",
    "name": "Kamen Rider Build",
    "repository": "kara.moe",
    "tid": "462b4fa0-1a10-4b2a-8b8f-4ade10983fc3",
    "types": [
      "series",
      "1"
    ]
  }
}