{
  "header": {
    "description": "Karaoke Mugen Tag File",
    "version": 1
  },
  "tag": {
    "i18n": {
      "eng": "Kamen Rider Ryuki",
      "jpn": "仮面ライダー龍騎",
      "qro": "Kamen Rider Ryuki"
    },
    "modified_at": "2020-03-31T19:04:31.876Z",
    "name": "Kamen Rider Ryuki",
    "repository": "kara.moe",
    "tid": "d872df15-0bb4-40cc-bd56-1e063ff47aba",
    "types": [
      "series",
      "1"
    ]
  }
}