{
  "header": {
    "description": "Karaoke Mugen Tag File",
    "version": 1
  },
  "tag": {
    "i18n": {
      "eng": "Kamen Rider Gaim",
      "jpn": "仮面ライダー鎧武／ガイム",
      "qro": "Kamen Rider Gaim"
    },
    "modified_at": "2020-03-31T19:04:31.871Z",
    "name": "Kamen Rider Gaim",
    "repository": "kara.moe",
    "tid": "edf564bc-0abe-4d1e-bb65-bb63f4cebc65",
    "types": [
      "series",
      "1"
    ]
  }
}