{
  "header": {
    "description": "Karaoke Mugen Tag File",
    "version": 1
  },
  "tag": {
    "i18n": {
      "eng": "Kamen Rider Hibiki",
      "jpn": "仮面ライダー響鬼（ヒビキ）",
      "qro": "Kamen Rider Hibiki"
    },
    "modified_at": "2020-03-31T19:04:31.872Z",
    "name": "Kamen Rider Hibiki",
    "repository": "kara.moe",
    "tid": "90eee3e2-0320-4292-9463-3f47ea0f88c6",
    "types": [
      "series",
      "1"
    ]
  }
}