{
  "header": {
    "description": "Karaoke Mugen Tag File",
    "version": 1
  },
  "tag": {
    "i18n": {
      "eng": "Kamen Rider OOO",
      "jpn": "仮面ライダーオーズ／ＯＯＯ",
      "qro": "Kamen Rider OOO"
    },
    "modified_at": "2020-03-31T19:04:31.874Z",
    "name": "Kamen Rider OOO",
    "repository": "kara.moe",
    "tid": "df7e6b4b-4bf2-439d-94c4-855b3da5681d",
    "types": [
      "series",
      "1"
    ]
  }
}