{
  "header": {
    "description": "Karaoke Mugen Tag File",
    "version": 1
  },
  "tag": {
    "aliases": [
      "kamido",
      "Божествените кукли"
    ],
    "external_database_ids": {
      "anilist": 10372,
      "myanimelist": 10372,
      "kitsu": 6153
    },
    "i18n": {
      "eng": "Kamisama Dolls",
      "jpn": "神様ドォルズ",
      "qro": "Kamisama Dolls"
    },
    "modified_at": "2020-03-31T19:04:31.889Z",
    "name": "Kamisama Dolls",
    "repository": "kara.moe",
    "tid": "c4003f6f-4a3f-4477-90ab-6cc9dda409fc",
    "types": [
      "series",
      "1"
    ]
  }
}