{
  "header": {
    "description": "Karaoke Mugen Tag File",
    "version": 1
  },
  "tag": {
    "aliases": [
      "Kaempfer",
      "Kenpufaa",
      "Kenpufer",
      "Kovotoja",
      "Luptătoarele",
      "Кемпфер",
      "肯普法",
      "kampfer"
    ],
    "external_database_ids": {
      "anilist": 6205,
      "myanimelist": 6205,
      "kitsu": 4474
    },
    "i18n": {
      "eng": "Kampfer",
      "jpn": "けんぷファー",
      "tha": "ผู้พิทักษ์สลับขั้ว",
      "qro": "Kämpfer"
    },
    "modified_at": "2020-06-21T23:45:31.966Z",
    "name": "Kämpfer",
    "repository": "kara.moe",
    "tid": "737ea931-f4f5-493d-90ab-1b0f5007bbaf",
    "types": [
      "series",
      "1"
    ]
  }
}