{
  "header": {
    "description": "Karaoke Mugen Tag File",
    "version": 1
  },
  "tag": {
    "i18n": {
      "eng": "Kanata Nakamura"
    },
    "name": "Kanata Nakamura",
    "tid": "ead196cc-e1e3-43a4-8804-dd4199e89c4e",
    "types": [
      "songwriters",
      "8"
    ],
    "repository": "kara.moe",
    "modified_at": "2020-03-31T19:04:35.272Z"
  }
}