{
  "header": {
    "description": "Karaoke Mugen Tag File",
    "version": 1
  },
  "tag": {
    "i18n": {
      "eng": "Kanae"
    },
    "name": "Kanae",
    "tid": "8951c3fd-a8f8-4859-9676-9f5eecf21b56",
    "types": [
      "singers",
      "2"
    ],
    "repository": "kara.moe",
    "modified_at": "2020-03-31T19:04:35.262Z"
  }
}