{
  "header": {
    "description": "Karaoke Mugen Tag File",
    "version": 1
  },
  "tag": {
    "i18n": {
      "eng": "Kanae Wada"
    },
    "name": "Kanae Wada",
    "tid": "9b7d5d87-e879-44a4-ba93-dfc9824c7daa",
    "types": [
      "songwriters",
      "8"
    ],
    "repository": "kara.moe",
    "modified_at": "2020-03-31T19:04:35.261Z"
  }
}