{
  "header": {
    "description": "Karaoke Mugen Tag File",
    "version": 1
  },
  "tag": {
    "aliases": [
      "KJG"
    ],
    "external_database_ids": {
      "anilist": 110810,
      "myanimelist": 40196,
      "kitsu": 42476
    },
    "i18n": {
      "eng": "Kandagawa Jet Girls",
      "jpn": "神田川JET GIRLS",
      "qro": "Kandagawa JET GIRLS"
    },
    "modified_at": "2020-10-18T01:41:19.219Z",
    "name": "Kandagawa JET GIRLS",
    "repository": "kara.moe",
    "tid": "54eb3080-835f-47ce-bf5b-9c4f0872a3ce",
    "types": [
      "series",
      "1"
    ]
  }
}