{
  "header": {
    "description": "Karaoke Mugen Tag File",
    "version": 1
  },
  "tag": {
    "i18n": {
      "eng": "Kanmikan"
    },
    "name": "Kanmikan",
    "repository": "kara.moe",
    "tid": "701ff3b6-d494-42a3-a38f-9396da48a982",
    "types": [
      "creators",
      "4"
    ]
  }
}