{
  "header": {
    "description": "Karaoke Mugen Tag File",
    "version": 1
  },
  "tag": {
    "aliases": [
      "神薙"
    ],
    "external_database_ids": {
      "anilist": 3958,
      "myanimelist": 3958,
      "kitsu": 3378
    },
    "i18n": {
      "eng": "Kannagi: Crazy Shrine Maidens",
      "fre": "Kannagi",
      "jpn": "かんなぎ",
      "qro": "Kannagi"
    },
    "modified_at": "2020-03-31T19:04:31.897Z",
    "name": "Kannagi",
    "repository": "kara.moe",
    "tid": "fafe2c78-a270-46b6-a468-639804df49b2",
    "types": [
      "series",
      "1",
      "franchises",
      "18"
    ]
  }
}