{
  "header": {
    "description": "Karaoke Mugen Tag File",
    "version": 1
  },
  "tag": {
    "i18n": {
      "eng": "Kaoru Sasajima"
    },
    "name": "Kaoru Sasajima",
    "tid": "2c37f161-4d43-4a62-9cfc-06fc90248970",
    "types": [
      "singers",
      "2"
    ],
    "repository": "kara.moe",
    "modified_at": "2020-03-31T19:04:35.302Z"
  }
}