{
  "header": {
    "description": "Karaoke Mugen Tag File",
    "version": 1
  },
  "tag": {
    "i18n": {
      "eng": "Kaoru Sanada"
    },
    "name": "Kaoru Sanada",
    "tid": "ff358bb8-4863-4f76-bac5-a1866c1c0772",
    "types": [
      "songwriters",
      "8"
    ],
    "repository": "kara.moe",
    "modified_at": "2020-03-31T19:04:35.301Z"
  }
}