{
  "header": {
    "description": "Karaoke Mugen Tag File",
    "version": 1
  },
  "tag": {
    "i18n": {
      "eng": "Kaori Shimizu"
    },
    "name": "Kaori Shimizu",
    "tid": "6e138f2f-56f6-47a3-931f-07b9c4aee613",
    "types": [
      "singers",
      "2"
    ],
    "repository": "kara.moe",
    "modified_at": "2020-03-31T19:04:35.297Z"
  }
}