{
  "header": {
    "description": "Karaoke Mugen Tag File",
    "version": 1
  },
  "tag": {
    "i18n": {
      "jpn": "大久保 薫",
      "qro": "Kaoru Ôkubo"
    },
    "name": "Kaoru Ôkubo",
    "repository": "kara.moe",
    "tid": "cf6cc991-cdf2-4e3d-a197-fda7ffba4822",
    "types": [
      "songwriters",
      "8"
    ]
  }
}