{
  "header": {
    "description": "Karaoke Mugen Tag File",
    "version": 1
  },
  "tag": {
    "i18n": {
      "eng": "kapparomeo"
    },
    "name": "kapparomeo",
    "tid": "1e29b336-32b5-4a34-b3da-de025045d0d8",
    "types": [
      "creators",
      "4"
    ],
    "repository": "kara.moe",
    "modified_at": "2020-03-31T19:04:35.303Z"
  }
}