{
  "header": {
    "description": "Karaoke Mugen Tag File",
    "version": 1
  },
  "tag": {
    "i18n": {
      "eng": "Karine Foviau"
    },
    "modified_at": "2021-02-19T00:16:18.861Z",
    "name": "Karine Foviau",
    "repository": "kara.moe",
    "tid": "f6c4c432-7d2d-41f5-b730-e00f18147971",
    "types": [
      "singers",
      "2"
    ]
  }
}