{
  "header": {
    "description": "Karaoke Mugen Tag File",
    "version": 1
  },
  "tag": {
    "i18n": {
      "qro": "Karin Takahashi",
      "jpn": "高橋 花林"
    },
    "name": "Karin Takahashi",
    "repository": "kara.moe",
    "tid": "4743c81c-e703-4d9a-a41a-ad241e7981a1",
    "types": [
      "singers",
      "2"
    ]
  }
}