{
  "header": {
    "description": "Karaoke Mugen Tag File",
    "version": 1
  },
  "tag": {
    "external_database_ids": {
      "anilist": 16035,
      "myanimelist": 16035,
      "kitsu": 7364
    },
    "i18n": {
      "bul": "Карнавал",
      "eng": "Karneval",
      "jpn": "カーニヴァル (2013)",
      "qro": "Karneval (2013)"
    },
    "modified_at": "2020-03-31T19:04:31.910Z",
    "name": "Karneval (2013)",
    "repository": "kara.moe",
    "tid": "851e5c82-cac8-4db4-a56b-e260184ad1ec",
    "types": [
      "series",
      "1"
    ]
  }
}