{
  "header": {
    "description": "Karaoke Mugen Tag File",
    "version": 1
  },
  "tag": {
    "i18n": {
      "eng": "Karyu"
    },
    "name": "Karyu",
    "repository": "kara.moe",
    "tid": "fc44c000-165d-4763-84a3-e5244afdf36e",
    "types": [
      "songwriters",
      "8"
    ]
  }
}