{
  "header": {
    "description": "Karaoke Mugen Tag File",
    "version": 1
  },
  "tag": {
    "i18n": {
      "jpn": "片桐周太郎",
      "qro": "Katagiri Shuutarou"
    },
    "name": "Katagiri Shuutarou",
    "repository": "kara.moe",
    "tid": "6b07f1a1-be97-494b-864d-2581da62bdfb",
    "types": [
      "songwriters",
      "8"
    ]
  }
}