{
  "header": {
    "description": "Karaoke Mugen Tag File",
    "version": 1
  },
  "tag": {
    "i18n": {
      "eng": "Katate☆SIZE"
    },
    "name": "Katate☆SIZE",
    "tid": "7d6dba82-17b7-4e68-a055-ce0de6b6efdd",
    "types": [
      "singers",
      "2"
    ],
    "repository": "kara.moe",
    "modified_at": "2020-03-31T19:04:35.316Z"
  }
}