{
  "header": {
    "description": "Karaoke Mugen Tag File",
    "version": 1
  },
  "tag": {
    "i18n": {
      "eng": "KATSUO"
    },
    "name": "KATSUO",
    "tid": "1547f7af-74e5-407f-a584-d4ba869e4bff",
    "types": [
      "songwriters",
      "8"
    ],
    "repository": "kara.moe",
    "modified_at": "2020-03-31T19:04:35.328Z"
  }
}