{
  "header": {
    "description": "Karaoke Mugen Tag File",
    "version": 1
  },
  "tag": {
    "i18n": {
      "eng": "Katsumi Imamura"
    },
    "name": "Katsumi Imamura",
    "tid": "43500263-ffc7-4f46-9f56-0d4282ffb522",
    "types": [
      "songwriters",
      "8"
    ],
    "repository": "kara.moe",
    "modified_at": "2020-03-31T19:04:35.324Z"
  }
}