{
  "header": {
    "description": "Karaoke Mugen Tag File",
    "version": 1
  },
  "tag": {
    "i18n": {
      "eng": "Katsu Hoshi"
    },
    "name": "Katsu Hoshi",
    "tid": "a9bd582a-6053-45c0-816b-70c3a0c1d882",
    "types": [
      "songwriters",
      "8"
    ],
    "repository": "kara.moe",
    "modified_at": "2020-03-31T19:04:35.319Z"
  }
}