{
  "header": {
    "description": "Karaoke Mugen Tag File",
    "version": 1
  },
  "tag": {
    "i18n": {
      "eng": "Katsuhisa Hattori"
    },
    "name": "Katsuhisa Hattori",
    "tid": "e70d7172-9d3a-4e8d-b336-54a2205dbb72",
    "types": [
      "songwriters",
      "8"
    ],
    "repository": "kara.moe",
    "modified_at": "2020-03-31T19:04:35.323Z"
  }
}