{
  "header": {
    "description": "Karaoke Mugen Tag File",
    "version": 1
  },
  "tag": {
    "i18n": {
      "eng": "Katsurô Tajima"
    },
    "name": "Katsurô Tajima",
    "tid": "ca4854da-7bb4-44e7-800e-561eca51d557",
    "types": [
      "songwriters",
      "8"
    ],
    "repository": "kara.moe",
    "modified_at": "2020-03-31T19:04:35.328Z"
  }
}