{
  "header": {
    "description": "Karaoke Mugen Tag File",
    "version": 1
  },
  "tag": {
    "i18n": {
      "eng": "Kawachi Kuni"
    },
    "name": "Kawachi Kuni",
    "tid": "11f93b87-b0e5-45b3-8e43-ddfa3128a58e",
    "types": [
      "songwriters",
      "8"
    ],
    "repository": "kara.moe",
    "modified_at": "2020-03-31T19:04:35.336Z"
  }
}