{
  "header": {
    "description": "Karaoke Mugen Tag File",
    "version": 1
  },
  "tag": {
    "i18n": {
      "eng": "Kay Yu"
    },
    "name": "Kay Yu",
    "repository": "kara.moe",
    "tid": "616a19f6-1f72-468f-a476-7cb55e004869",
    "types": [
      "creators",
      "4"
    ]
  }
}