{
  "header": {
    "description": "Karaoke Mugen Tag File",
    "version": 1
  },
  "tag": {
    "i18n": {
      "eng": "KAY"
    },
    "name": "KAY",
    "tid": "b8d577cf-1c71-41b0-b1b5-e94c4daa9059",
    "types": [
      "songwriters",
      "8"
    ],
    "repository": "kara.moe",
    "modified_at": "2020-03-31T19:04:35.336Z"
  }
}