{
  "header": {
    "description": "Karaoke Mugen Tag File",
    "version": 1
  },
  "tag": {
    "i18n": {
      "afr": "Kazakh",
      "amh": "ካዛክኛ",
      "ara": "الكازاخستانية",
      "aze": "Qazax",
      "bak": "Ҡаҙаҡ теле",
      "bel": "Казахская",
      "bul": "Казахски",
      "ben": "কাজাখ",
      "bos": "Kazahstana",
      "cat": "Kazakh",
      "cze": "Kazašské",
      "wel": "Kazakh",
      "dan": "Kasakhiske",
      "ger": "Kasachisch",
      "gre": "Καζακστάν",
      "eng": "Kazakh",
      "epo": "Kazaĥa",
      "spa": "El kazajo",
      "est": "Kasahhi",
      "baq": "Kazakh",
      "per": "قزاقستان",
      "fin": "Kazakstanin",
      "fre": "Kazakh",
      "gle": "Kazakh",
      "gla": "Kannada",
      "glg": "Casaco",
      "guj": "કઝાક",
      "heb": "קזחית",
      "hin": "कजाख",
      "hrv": "Kazaški",
      "hat": "Kazak",
      "hun": "Kazah",
      "arm": "Ղազախերեն",
      "ind": "Kazakh",
      "ice": "Íslenska",
      "ita": "Kazako",
      "jpn": "カザフスタン",
      "jav": "Kazakh",
      "geo": "ყაზახური",
      "kaz": "Қазақ",
      "kan": "ಕಝಕ್",
      "kor": "카자흐스탄",
      "kir": "Казахский",
      "lat": "Kazakh",
      "lit": "Kazachstano",
      "lav": "Kazahstānas",
      "mlg": "Kazakh",
      "mao": "Kazakh",
      "mac": "Казахстанската",
      "mal": "കസാക്",
      "mon": "Казах",
      "mar": "कजाख",
      "may": "Kazakhstan",
      "mlt": "Każakstan",
      "nep": "कजाख",
      "dut": "Kazachs",
      "nor": "Kasakhstanske",
      "pan": "ਕਜ਼ਾਖ਼",
      "pol": "Kazachski",
      "por": "Cazaque",
      "rum": "Kazahstan",
      "rus": "Казахский",
      "sin": "කසක්",
      "slo": "Kazašský",
      "slv": "Kazahstanski",
      "alb": "Kazake",
      "srp": "Казашки",
      "sun": "Kazakh",
      "swe": "Kazakiska",
      "swa": "Kazakh",
      "tam": "கசாக்",
      "tel": "కజఖ్",
      "tgk": "Осорхонаи қазоқистон",
      "tha": "ภาษาคาซัคสถาน name",
      "tgl": "Kazakh",
      "tur": "Kazak",
      "tat": "Казакъ теле",
      "ukr": "Казахська",
      "urd": "قزاخ",
      "uzb": "Qozoq",
      "vie": "Kazakhstan",
      "xho": "Kazakhname",
      "yid": "קאַזאַך",
      "chi": "哈萨克斯坦"
    },
    "name": "kaz",
    "tid": "8286173c-273c-4395-93df-88c01b660741",
    "types": [
      "langs",
      "5"
    ],
    "repository": "kara.moe",
    "modified_at": "2020-03-31T19:04:35.345Z"
  }
}