{
  "header": {
    "description": "Karaoke Mugen Tag File",
    "version": 1
  },
  "tag": {
    "aliases": [
      "Monkey Punch"
    ],
    "i18n": {
      "eng": "Kazuhiko Katô"
    },
    "modified_at": "2020-07-19T15:29:28.974Z",
    "name": "Kazuhiko Katô",
    "repository": "kara.moe",
    "tid": "7326cc11-6eeb-467f-81a2-222acca35de0",
    "types": [
      "songwriters",
      "8"
    ]
  }
}