{
  "header": {
    "description": "Karaoke Mugen Tag File",
    "version": 1
  },
  "tag": {
    "i18n": {
      "eng": "Kazunobu Majima"
    },
    "modified_at": "2020-08-25T22:00:46.018Z",
    "name": "Kazunobu Majima",
    "repository": "kara.moe",
    "tid": "4947d7db-b844-45b8-a14d-24c2b229e4d9",
    "types": [
      "songwriters",
      "8"
    ]
  }
}