{
  "header": {
    "description": "Karaoke Mugen Tag File",
    "version": 1
  },
  "tag": {
    "i18n": {
      "eng": "Kazuya Amikura"
    },
    "name": "Kazuya Amikura",
    "tid": "11a61e52-9236-4f0c-9fef-b23f6e277bae",
    "types": [
      "songwriters",
      "8"
    ],
    "repository": "kara.moe",
    "modified_at": "2020-03-31T19:04:35.384Z"
  }
}