{
  "header": {
    "description": "Karaoke Mugen Tag File",
    "version": 1
  },
  "tag": {
    "i18n": {
      "eng": "Kazutaka Kodaka"
    },
    "name": "Kazutaka Kodaka",
    "tid": "7616e8c9-b0bb-4db6-bd87-e25e2da5faaa",
    "types": [
      "songwriters",
      "8"
    ],
    "repository": "kara.moe",
    "modified_at": "2020-03-31T19:04:35.379Z"
  }
}