{
  "header": {
    "description": "Karaoke Mugen Tag File",
    "version": 1
  },
  "tag": {
    "i18n": {
      "eng": "Kazumi Yasui"
    },
    "name": "Kazumi Yasui",
    "tid": "178ea13c-9ff6-4385-8dd7-b62ebdeaa5fe",
    "types": [
      "songwriters",
      "8"
    ],
    "repository": "kara.moe",
    "modified_at": "2020-03-31T19:04:35.368Z"
  }
}