{
  "header": {
    "description": "Karaoke Mugen Tag File",
    "version": 1
  },
  "tag": {
    "i18n": {
      "eng": "Kazuyuki Miki"
    },
    "name": "Kazuyuki Miki",
    "tid": "e98f632b-23bb-4b97-9dea-bed104c9c801",
    "types": [
      "singers",
      "2"
    ],
    "repository": "kara.moe",
    "modified_at": "2020-03-31T19:04:35.390Z"
  }
}