{
  "header": {
    "description": "Karaoke Mugen Tag File",
    "version": 1
  },
  "tag": {
    "i18n": {
      "eng": "Kazumi Kimura"
    },
    "name": "Kazumi Kimura",
    "tid": "a263a4d3-9bf2-4c42-b47c-3ea4ca7b463b",
    "types": [
      "singers",
      "2"
    ],
    "repository": "kara.moe",
    "modified_at": "2020-03-31T19:04:35.364Z"
  }
}