{
  "header": {
    "description": "Karaoke Mugen Tag File",
    "version": 1
  },
  "tag": {
    "i18n": {
      "eng": "Kei Hazuki"
    },
    "modified_at": "2020-08-20T15:20:15.321Z",
    "name": "Kei Hazuki",
    "repository": "kara.moe",
    "tid": "0ab16b4d-8554-417b-97a8-b82304ebcd25",
    "types": [
      "songwriters",
      "8"
    ]
  }
}