{
  "header": {
    "description": "Karaoke Mugen Tag File",
    "version": 1
  },
  "tag": {
    "i18n": {
      "eng": "Keiichi Oku"
    },
    "name": "Keiichi Oku",
    "tid": "a52844e2-e8eb-42b7-90c0-70c6b1d8681c",
    "types": [
      "songwriters",
      "8"
    ],
    "repository": "kara.moe",
    "modified_at": "2020-03-31T19:04:35.405Z"
  }
}