{
  "header": {
    "description": "Karaoke Mugen Tag File",
    "version": 1
  },
  "tag": {
    "i18n": {
      "eng": "Keiji Okamoto"
    },
    "name": "Keiji Okamoto",
    "repository": "kara.moe",
    "tid": "ae4fa267-a43b-4c12-a1bf-92af53804c03",
    "types": [
      "songwriters",
      "8"
    ]
  }
}