{
  "header": {
    "description": "Karaoke Mugen Tag File",
    "version": 1
  },
  "tag": {
    "i18n": {
      "eng": "Keiko Kimoto"
    },
    "name": "Keiko Kimoto",
    "tid": "5298cb48-3840-4a00-8eb2-292bda0b3181",
    "types": [
      "songwriters",
      "8"
    ],
    "repository": "kara.moe",
    "modified_at": "2020-03-31T19:04:35.415Z"
  }
}