{
  "header": {
    "description": "Karaoke Mugen Tag File",
    "version": 1
  },
  "tag": {
    "i18n": {
      "eng": "Keiko Watanabe"
    },
    "modified_at": "2020-07-25T01:31:46.612Z",
    "name": "Keiko Watanabe",
    "repository": "kara.moe",
    "tid": "8dcd8b3f-3dfd-44e9-ac7b-5568f4834c4c",
    "types": [
      "singers",
      "2"
    ]
  }
}