{
  "header": {
    "description": "Karaoke Mugen Tag File",
    "version": 1
  },
  "tag": {
    "i18n": {
      "eng": "Keisuke Okamoto"
    },
    "modified_at": "2020-08-17T20:54:41.000Z",
    "name": "Keisuke Okamoto",
    "repository": "kara.moe",
    "tid": "be82bb2f-f2ea-4953-a773-a371b4dcc62c",
    "types": [
      "songwriters",
      "8"
    ]
  }
}