{
  "header": {
    "description": "Karaoke Mugen Tag File",
    "version": 1
  },
  "tag": {
    "i18n": {
      "eng": "Keisuke Yamazaki"
    },
    "name": "Keisuke Yamazaki",
    "repository": "kara.moe",
    "tid": "3fb53248-0ce9-45ef-967f-456b673a81a0",
    "types": [
      "songwriters",
      "8"
    ]
  }
}