{
  "header": {
    "description": "Karaoke Mugen Tag File",
    "version": 1
  },
  "tag": {
    "i18n": {
      "eng": "Keisuke Yamakawa"
    },
    "name": "Keisuke Yamakawa",
    "tid": "87318906-ace0-4dab-82a8-d2106f79b62d",
    "types": [
      "songwriters",
      "8",
      "singers",
      "2"
    ],
    "repository": "kara.moe",
    "modified_at": "2020-03-31T19:04:35.425Z"
  }
}