{
  "header": {
    "description": "Karaoke Mugen Tag File",
    "version": 1
  },
  "tag": {
    "i18n": {
      "eng": "Keisuke Kômoto"
    },
    "name": "Keisuke Kômoto",
    "tid": "2160c9b8-dbe5-466e-9274-323994cd8a7e",
    "types": [
      "singers",
      "2"
    ],
    "repository": "kara.moe",
    "modified_at": "2020-03-31T19:04:35.424Z"
  }
}