{
  "header": {
    "description": "Karaoke Mugen Tag File",
    "version": 1
  },
  "tag": {
    "i18n": {
      "eng": "Keizô Nakanishi"
    },
    "name": "Keizô Nakanishi",
    "tid": "5d902733-7e5b-4afa-8c3f-092bf0ab13fd",
    "types": [
      "songwriters",
      "8"
    ],
    "repository": "kara.moe",
    "modified_at": "2020-03-31T19:04:35.433Z"
  }
}