{
  "header": {
    "description": "Karaoke Mugen Tag File",
    "version": 1
  },
  "tag": {
    "aliases": [
      "Barrier Master",
      "Kết giới sư",
      "Mestre de Barreira",
      "Заградители",
      "קקאיישי",
      "结界师"
    ],
    "external_database_ids": {
      "anilist": 1606,
      "myanimelist": 1606,
      "kitsu": 1445
    },
    "i18n": {
      "ara": "سيد الحواجز",
      "eng": "Kekkaishi",
      "jpn": "結界師",
      "tha": "ผู้ผนึกมาร",
      "qro": "Kekkaishi"
    },
    "modified_at": "2020-03-31T19:04:31.919Z",
    "name": "Kekkaishi",
    "repository": "kara.moe",
    "tid": "c98ffc56-d85d-4c07-bb33-531c8f5391ab",
    "types": [
      "series",
      "1"
    ]
  }
}