{
  "header": {
    "description": "Karaoke Mugen Tag File",
    "version": 1
  },
  "tag": {
    "i18n": {
      "eng": "Kemono Friends Project"
    },
    "name": "Kemono Friends Project",
    "tid": "7f799880-7ca2-44d8-b555-54f5cbf1ed34",
    "types": [
      "creators",
      "4"
    ],
    "repository": "kara.moe",
    "modified_at": "2020-03-31T19:04:35.437Z"
  }
}