{
  "header": {
    "description": "Karaoke Mugen Tag File",
    "version": 1
  },
  "tag": {
    "i18n": {
      "eng": "Ken Iijima"
    },
    "name": "Ken Iijima",
    "tid": "75f5a95d-6ea3-4860-bb72-72b986036386",
    "types": [
      "songwriters",
      "8"
    ],
    "repository": "kara.moe",
    "modified_at": "2020-03-31T19:04:35.443Z"
  }
}