{
  "header": {
    "description": "Karaoke Mugen Tag File",
    "version": 1
  },
  "tag": {
    "i18n": {
      "eng": "Ken Ashcorp"
    },
    "name": "Ken Ashcorp",
    "repository": "kara.moe",
    "tid": "b2c97df7-3146-4752-a90e-a8b1901ed90f",
    "types": [
      "singers",
      "2",
      "songwriters",
      "8"
    ]
  }
}