{
  "header": {
    "description": "Karaoke Mugen Tag File",
    "version": 1
  },
  "tag": {
    "i18n": {
      "eng": "Ken Takahashi"
    },
    "name": "Ken Takahashi",
    "tid": "387951d8-26d4-4032-a0cc-6d0a9802cd23",
    "types": [
      "songwriters",
      "8"
    ],
    "repository": "kara.moe",
    "modified_at": "2020-03-31T19:04:35.447Z"
  }
}