{
  "header": {
    "description": "Karaoke Mugen Tag File",
    "version": 1
  },
  "tag": {
    "i18n": {
      "eng": "Ken Katô"
    },
    "name": "Ken Katô",
    "tid": "10098cc7-c80d-4656-bb68-c5de9ab7a0d7",
    "types": [
      "songwriters",
      "8"
    ],
    "repository": "kara.moe",
    "modified_at": "2020-03-31T19:04:35.444Z"
  }
}