{
  "header": {
    "description": "Karaoke Mugen Tag File",
    "version": 1
  },
  "tag": {
    "i18n": {
      "eng": "Kengo Takanashi"
    },
    "name": "Kengo Takanashi",
    "repository": "kara.moe",
    "tid": "6c89b14c-7e8c-4825-aa39-5220fad77b97",
    "types": [
      "singers",
      "2"
    ]
  }
}