{
  "header": {
    "description": "Karaoke Mugen Tag File",
    "version": 1
  },
  "tag": {
    "i18n": {
      "eng": "Kengo Oohama"
    },
    "name": "Kengo Oohama",
    "tid": "56de8df0-f477-4057-a94e-c7057d15a6d9",
    "types": [
      "songwriters",
      "8"
    ],
    "repository": "kara.moe",
    "modified_at": "2020-03-31T19:04:35.458Z"
  }
}