{
  "header": {
    "description": "Karaoke Mugen Tag File",
    "version": 1
  },
  "tag": {
    "i18n": {
      "eng": "Kenichi Mori"
    },
    "modified_at": "2021-01-20T00:05:09.069Z",
    "name": "Kenichi Mori",
    "repository": "kara.moe",
    "tid": "d482479e-773a-46f1-b9ab-b13a5027c3d3",
    "types": [
      "songwriters",
      "8"
    ]
  }
}