{
  "header": {
    "description": "Karaoke Mugen Tag File",
    "version": 1
  },
  "tag": {
    "i18n": {
      "eng": "Kenjirô Tsuda"
    },
    "name": "Kenjirô Tsuda",
    "repository": "kara.moe",
    "tid": "47669ebc-05f7-4ba9-864f-32469551e5bd",
    "types": [
      "singers",
      "2"
    ]
  }
}