{
  "header": {
    "description": "Karaoke Mugen Tag File",
    "version": 1
  },
  "tag": {
    "i18n": {
      "eng": "Kenji Horita"
    },
    "modified_at": "2020-04-17T22:07:50.573Z",
    "name": "Kenji Horita",
    "repository": "kara.moe",
    "tid": "8189b3e9-8d29-43a7-8c3c-e27d2817867e",
    "types": [
      "songwriters",
      "8"
    ]
  }
}