{
  "header": {
    "description": "Karaoke Mugen Tag File",
    "version": 1
  },
  "tag": {
    "i18n": {
      "eng": "Kenji Miyashita"
    },
    "name": "Kenji Miyashita",
    "tid": "d41d7473-4f51-4476-80b2-3139e0221c3c",
    "types": [
      "songwriters",
      "8"
    ],
    "repository": "kara.moe",
    "modified_at": "2020-03-31T19:04:35.470Z"
  }
}