{
  "header": {
    "description": "Karaoke Mugen Tag File",
    "version": 1
  },
  "tag": {
    "aliases": [
      "Katou"
    ],
    "i18n": {
      "eng": "Kenji Katô",
      "jpn": "加藤賢二",
      "qro": "Kenji Katô"
    },
    "name": "Kenji Katô",
    "repository": "kara.moe",
    "tid": "620a1195-6ea4-4e9b-b004-e6dbed1c1d4d",
    "types": [
      "songwriters",
      "8"
    ]
  }
}