{
  "header": {
    "description": "Karaoke Mugen Tag File",
    "version": 1
  },
  "tag": {
    "aliases": [
      "KBO: My perfect honey.",
      "Kenka Banchou Otome ~Kanzen Muketsu no My Honey~",
      "banchou"
    ],
    "i18n": {
      "eng": "Kenka Banchô Otome ~Kanzen Muketsu no My Honey~",
      "jpn": "喧嘩番長 乙女 ～完全無欠のマイハニー～",
      "qro": "Kenka Banchô Otome ~Kanzen Muketsu no My Honey~"
    },
    "modified_at": "2020-03-31T19:04:31.926Z",
    "name": "Kenka Banchô Otome ~Kanzen Muketsu no My Honey~",
    "repository": "kara.moe",
    "tid": "d3d647df-ce29-4df0-bf72-3bdc9b945ec3",
    "types": [
      "series",
      "1"
    ]
  }
}