{
  "header": {
    "description": "Karaoke Mugen Tag File",
    "version": 1
  },
  "tag": {
    "i18n": {
      "eng": "Kenshi Nagai"
    },
    "name": "Kenshi Nagai",
    "tid": "19207279-73b8-4f3f-8ace-57e0757f9d5e",
    "types": [
      "songwriters",
      "8"
    ],
    "repository": "kara.moe",
    "modified_at": "2020-03-31T19:04:35.484Z"
  }
}