{
  "header": {
    "description": "Karaoke Mugen Tag File",
    "version": 1
  },
  "tag": {
    "i18n": {
      "eng": "Kensuke Okuda"
    },
    "name": "Kensuke Okuda",
    "tid": "7f310a47-34f9-4569-a1b5-2452ac3f6a8a",
    "types": [
      "songwriters",
      "8"
    ],
    "repository": "kara.moe",
    "modified_at": "2020-03-31T19:04:35.487Z"
  }
}