{
  "header": {
    "description": "Karaoke Mugen Tag File",
    "version": 1
  },
  "tag": {
    "i18n": {
      "eng": "Kentaro"
    },
    "name": "Kentaro",
    "tid": "48f856fb-238d-485e-a984-aafc2b7273b2",
    "types": [
      "songwriters",
      "8"
    ],
    "repository": "kara.moe",
    "modified_at": "2020-03-31T19:04:35.493Z"
  }
}