{
  "header": {
    "description": "Karaoke Mugen Tag File",
    "version": 1
  },
  "tag": {
    "i18n": {
      "eng": "Kenta Higashioji"
    },
    "name": "Kenta Higashioji",
    "tid": "bb36a466-8e19-4f50-bec9-ca57835e6d43",
    "types": [
      "songwriters",
      "8"
    ],
    "repository": "kara.moe",
    "modified_at": "2020-03-31T19:04:35.489Z"
  }
}