{
  "header": {
    "description": "Karaoke Mugen Tag File",
    "version": 1
  },
  "tag": {
    "i18n": {
      "eng": "Kero"
    },
    "modified_at": "2021-11-14T22:21:55.584Z",
    "name": "Kero",
    "repository": "kara.moe",
    "tid": "490b63a7-b529-497e-ad18-cd3de6a25483",
    "types": [
      "creators",
      "4"
    ]
  }
}