{
  "header": {
    "description": "Karaoke Mugen Tag File",
    "version": 1
  },
  "tag": {
    "i18n": {
      "eng": "Kevin Caldwell"
    },
    "name": "Kevin Caldwell",
    "repository": "kara.moe",
    "tid": "b1f0091d-99d1-4f1c-b42d-d341129db85b",
    "types": [
      "creators",
      "4"
    ]
  }
}