{
  "header": {
    "description": "Karaoke Mugen Tag File",
    "version": 1
  },
  "tag": {
    "i18n": {
      "eng": "Kiba of Akiba"
    },
    "name": "Kiba of Akiba",
    "tid": "93fd750e-9d4c-4d00-9f04-58856d1493e8",
    "types": [
      "singers",
      "2",
      "songwriters",
      "8"
    ],
    "repository": "kara.moe",
    "modified_at": "2020-03-31T19:04:35.513Z"
  }
}