{
  "header": {
    "description": "Karaoke Mugen Tag File",
    "version": 1
  },
  "tag": {
    "aliases": [
      "Gundam 0079 Movie Trilogy Part II",
      "Kidou Senshi Gundam II: Ai Senshi-hen",
      "Mobile Suit Gundam - The Movie Trilogy Part II",
      "机动战士高达.电影第2部.衰战士",
      "kidou"
    ],
    "external_database_ids": {
      "anilist": 1091,
      "myanimelist": 1091,
      "kitsu": 976
    },
    "i18n": {
      "eng": "Mobile Suit Gundam II: Soldiers of Sorrow",
      "fre": "Mobile Suit Gundam - Film II",
      "ger": "Mobile Suit Gundam - Movie II",
      "jpn": "機動戦士ガンダムII 哀・戦士編",
      "pol": "Mobile Suit Gundam Movie II",
      "tha": "โมบิลสูท กันดั้ม เดอะมูวี่ II",
      "qro": "Kidô Senshi Gundam II: Ai Senshi-hen"
    },
    "modified_at": "2020-03-31T19:04:31.950Z",
    "name": "Kidô Senshi Gundam II: Ai Senshi-hen",
    "repository": "kara.moe",
    "tid": "7ddc2032-b776-45ef-bc20-fdab70d98a75",
    "types": [
      "series",
      "1"
    ]
  }
}