{
  "header": {
    "description": "Karaoke Mugen Tag File",
    "version": 1
  },
  "tag": {
    "i18n": {
      "eng": "Kieran Quinn"
    },
    "modified_at": "2021-01-13T18:12:32.919Z",
    "name": "Kieran Quinn",
    "repository": "kara.moe",
    "tid": "b6f3928f-8921-426a-bd2b-29e7f5306c8e",
    "types": [
      "creators",
      "4"
    ]
  }
}