{
  "header": {
    "description": "Karaoke Mugen Tag File",
    "version": 1
  },
  "tag": {
    "aliases": [
      "KLK",
      "klk",
      "Клъцни-трепи",
      "Кроши-кромсай",
      "Убийствени намерения"
    ],
    "external_database_ids": {
      "anilist": 18679,
      "myanimelist": 18679,
      "kitsu": 7712
    },
    "i18n": {
      "chi": "双斩少女",
      "eng": "Kill la Kill",
      "fre": "Kill la Kill",
      "ger": "KILL la KILL",
      "jpn": "キルラキル",
      "qro": "Kill la Kill"
    },
    "modified_at": "2020-06-21T23:45:31.966Z",
    "name": "Kill la Kill",
    "repository": "kara.moe",
    "tid": "e199c7dd-79e2-4483-9531-1f2ce7d009f4",
    "types": [
      "series",
      "1"
    ]
  }
}