{
  "header": {
    "description": "Karaoke Mugen Tag File",
    "version": 1
  },
  "tag": {
    "i18n": {
      "eng": "Kim Do Hun"
    },
    "name": "Kim Do Hun",
    "tid": "75a2f705-d50e-47b3-b0ee-14cc000274d2",
    "types": [
      "songwriters",
      "8"
    ],
    "repository": "kara.moe",
    "modified_at": "2020-03-31T19:04:35.522Z"
  }
}