{
  "header": {
    "description": "Karaoke Mugen Tag File",
    "version": 1
  },
  "tag": {
    "i18n": {
      "eng": "Kim Min-ju"
    },
    "name": "Kim Min-ju",
    "repository": "kara.moe",
    "tid": "ebec8ce6-1c59-42ec-ba8b-11f404a87eb7",
    "types": [
      "singers",
      "2"
    ]
  }
}