{
  "header": {
    "description": "Karaoke Mugen Tag File",
    "version": 1
  },
  "tag": {
    "i18n": {
      "eng": "Kim Young Hu"
    },
    "name": "Kim Young Hu",
    "tid": "2e4ff5c9-2f52-407a-adbc-c42684cc3f49",
    "types": [
      "songwriters",
      "8"
    ],
    "repository": "kara.moe",
    "modified_at": "2020-03-31T19:04:35.527Z"
  }
}