{
  "header": {
    "description": "Karaoke Mugen Tag File",
    "version": 1
  },
  "tag": {
    "aliases": [
      "(ملفات قضايا الشاب كيندايتشي تعود (2015",
      "shounen"
    ],
    "external_database_ids": {
      "anilist": 21286,
      "myanimelist": 31227,
      "kitsu": 11211
    },
    "i18n": {
      "eng": "The Case File of Young Kindaichi Returns Season 2",
      "fre": "Les Enquêtes de Kindaichi: Le Retour Saison 2",
      "jpn": "金田一少年の事件簿R[リターンズ] (2015)",
      "chi": "金田一少年事件簿R 2期",
      "qro": "Kindaichi Shônen no Jikenbo Returns (2015)"
    },
    "modified_at": "2020-08-19T21:36:51.755Z",
    "name": "Kindaichi Shônen no Jikenbo Returns (2015)",
    "repository": "kara.moe",
    "tid": "172b81af-7f67-4f10-8e0a-1b6bdc32003b",
    "types": [
      "series",
      "1"
    ]
  }
}