{
  "header": {
    "description": "Karaoke Mugen Tag File",
    "version": 1
  },
  "tag": {
    "aliases": [
      "Царство [ТВ-2]",
      "Kingdom: Dai 2 Series",
      "キングダム 第2シリーズ"
    ],
    "external_database_ids": {
      "anilist": 17389,
      "myanimelist": 17389,
      "kitsu": 7680
    },
    "i18n": {
      "chi": "王者天下 第二季",
      "eng": "Kingdom Season 2",
      "fre": "Kingdom Saison 2",
      "jpn": "キングダム (2013)",
      "qro": "Kingdom (2013)"
    },
    "name": "Kingdom 2",
    "repository": "kara.moe",
    "tid": "9e37598c-37f6-4991-b637-93bcf6427586",
    "types": [
      "series",
      "1"
    ]
  }
}