{
  "header": {
    "description": "Karaoke Mugen Tag File",
    "version": 1
  },
  "tag": {
    "aliases": [
      "KH"
    ],
    "i18n": {
      "eng": "Kingdom Hearts HD 1.5 ReMIX",
      "jpn": "キングダムハーツHD1.5リミックス",
      "qro": "Kingdom Hearts HD 1.5 ReMIX"
    },
    "modified_at": "2021-02-22T22:06:22.290Z",
    "name": "Kingdom Hearts HD 1.5 ReMIX",
    "repository": "kara.moe",
    "tid": "2abf22b2-c94e-4753-988a-8375cab86e72",
    "types": [
      "series",
      "1"
    ]
  }
}