{
  "header": {
    "description": "Karaoke Mugen Tag File",
    "version": 1
  },
  "tag": {
    "aliases": [
      "Королевский рейд: Наследники воли",
      "キングスレイド 意志を継ぐものたち"
    ],
    "external_database_ids": {
      "anilist": 118376,
      "kitsu": 43552,
      "myanimelist": 41834
    },
    "i18n": {
      "eng": "King’s Raid: Successors of the Will",
      "qro": "King's Raid: Ishi o Tsugu Mono-tachi",
      "jpn": "King's Raid 意志を継ぐものたち",
      "chi": "王之逆襲：意志的繼承者"
    },
    "name": "King's Raid: Ishi o Tsugu Mono-tachi",
    "repository": "kara.moe",
    "tid": "2358b706-0175-416b-96d3-387a57a4acaa",
    "types": [
      "series",
      "1"
    ]
  }
}