{
  "header": {
    "description": "Karaoke Mugen Tag File",
    "version": 1
  },
  "tag": {
    "external_database_ids": {
      "anilist": 3272,
      "myanimelist": 3272,
      "kitsu": 2898
    },
    "i18n": {
      "cat": "Musculman",
      "eng": "Muscleman",
      "fre": "Muscleman",
      "jpn": "キン肉マン",
      "spa": "Ultimate Muscle",
      "qro": "Kinnikuman"
    },
    "modified_at": "2020-03-31T19:04:31.990Z",
    "name": "Kinnikuman",
    "repository": "kara.moe",
    "tid": "253fabfb-5933-414d-a00d-86e6cd590135",
    "types": [
      "series",
      "1",
      "franchises",
      "18"
    ]
  }
}