{
  "header": {
    "description": "Karaoke Mugen Tag File",
    "version": 1
  },
  "tag": {
    "i18n": {
      "eng": "Kinniku Shoujo Tai"
    },
    "name": "Kinniku Shoujo Tai",
    "tid": "ceef1c8d-66e5-4c8f-999e-065feb640ef9",
    "types": [
      "singers",
      "2"
    ],
    "repository": "kara.moe",
    "modified_at": "2020-03-31T19:04:35.539Z"
  }
}