{
  "header": {
    "description": "Karaoke Mugen Tag File",
    "version": 1
  },
  "tag": {
    "i18n": {
      "eng": "Kino-production"
    },
    "name": "Kino-production",
    "tid": "6ef621f1-70cb-4a96-a3bf-e71c26adb0a1",
    "types": [
      "creators",
      "4"
    ],
    "repository": "kara.moe",
    "modified_at": "2020-03-31T19:04:35.540Z"
  }
}