{
  "header": {
    "description": "Karaoke Mugen Tag File",
    "version": 1
  },
  "tag": {
    "i18n": {
      "eng": "Kinuko Oomori"
    },
    "name": "Kinuko Ômori",
    "repository": "kara.moe",
    "tid": "b017d717-2d63-4942-ba68-73a26bc3dbb2",
    "types": [
      "singers",
      "2"
    ]
  }
}