{
  "header": {
    "description": "Karaoke Mugen Tag File",
    "version": 1
  },
  "tag": {
    "i18n": {
      "eng": "Kirari"
    },
    "name": "Kirari",
    "tid": "6c6c2106-617a-4363-bae3-3e7d09b5178a",
    "types": [
      "singers",
      "2",
      "songwriters",
      "8"
    ],
    "repository": "kara.moe",
    "modified_at": "2020-03-31T19:04:35.545Z"
  }
}