{
  "header": {
    "description": "Karaoke Mugen Tag File",
    "version": 1
  },
  "tag": {
    "aliases": [
      "Knight Dragon Squadron Ryusoulger"
    ],
    "i18n": {
      "eng": "Kishiryu Sentai Ryusoulger",
      "jpn": "騎士竜戦隊リュウソウジャー",
      "qro": "Kishiryu Sentai Ryusoulger"
    },
    "modified_at": "2020-03-31T19:04:31.998Z",
    "name": "Kishiryu Sentai Ryusoulger",
    "repository": "kara.moe",
    "tid": "49cbd24c-92a2-44d5-8288-371488e7be28",
    "types": [
      "series",
      "1"
    ]
  }
}