{
  "header": {
    "description": "Karaoke Mugen Tag File",
    "version": 1
  },
  "tag": {
    "i18n": {
      "eng": "Kitty Records"
    },
    "name": "Kitty Records",
    "repository": "kara.moe",
    "tid": "b7465749-ea35-451b-80c7-4ee79e5c0871",
    "types": [
      "creators",
      "4"
    ]
  }
}