{
  "header": {
    "description": "Karaoke Mugen Tag File",
    "version": 1
  },
  "tag": {
    "i18n": {
      "eng": "KK"
    },
    "name": "KK",
    "tid": "2d5fa3d5-b93c-426d-8b41-eb3310380872",
    "types": [
      "songwriters",
      "8"
    ],
    "repository": "kara.moe",
    "modified_at": "2020-03-31T19:04:35.570Z"
  }
}