{
  "header": {
    "description": "Karaoke Mugen Tag File",
    "version": 1
  },
  "tag": {
    "i18n": {
      "eng": "Klafhor"
    },
    "modified_at": "2021-06-05T19:20:54.923Z",
    "name": "Klafhor",
    "repository": "kara.moe",
    "tid": "ea28a818-4f57-42c3-a03a-a350233978f1",
    "types": [
      "authors",
      "6"
    ]
  }
}