{
  "header": {
    "description": "Karaoke Mugen Tag File",
    "version": 1
  },
  "tag": {
    "i18n": {
      "eng": "KMNZ"
    },
    "name": "KMNZ",
    "repository": "kara.moe",
    "tid": "ac428470-bf99-4b82-87e1-3cf508588823",
    "types": [
      "singers",
      "2"
    ]
  }
}