{
  "header": {
    "description": "Karaoke Mugen Tag File",
    "version": 1
  },
  "tag": {
    "i18n": {
      "eng": "KnacK"
    },
    "name": "KnacK",
    "tid": "29899809-5df0-4611-960a-0b7117affc89",
    "types": [
      "creators",
      "4"
    ],
    "repository": "kara.moe",
    "modified_at": "2020-03-31T19:04:35.574Z"
  }
}