{
  "header": {
    "description": "Karaoke Mugen Tag File",
    "version": 1
  },
  "tag": {
    "i18n": {
      "eng": "ko.yo"
    },
    "name": "ko.yo",
    "repository": "kara.moe",
    "tid": "16c4254e-9d65-45b4-bd6d-eb8808a35245",
    "types": [
      "songwriters",
      "8"
    ]
  }
}