{
  "header": {
    "description": "Karaoke Mugen Tag File",
    "version": 1
  },
  "tag": {
    "i18n": {
      "eng": "Kobametal"
    },
    "name": "Kobametal",
    "tid": "750591c1-f6c0-4eb1-9918-1b976307f2c9",
    "types": [
      "songwriters",
      "8"
    ],
    "repository": "kara.moe",
    "modified_at": "2020-03-31T19:04:35.577Z"
  }
}