{
  "header": {
    "description": "Karaoke Mugen Tag File",
    "version": 1
  },
  "tag": {
    "i18n": {
      "eng": "Kodaman"
    },
    "name": "Kodaman",
    "repository": "kara.moe",
    "tid": "a2567c86-c1ad-41dc-90a6-7910b8942119",
    "types": [
      "authors",
      "6"
    ]
  }
}