{
  "header": {
    "description": "Karaoke Mugen Tag File",
    "version": 1
  },
  "tag": {
    "aliases": [
      "KDOS",
      "Voicework!",
      "Work Using Voice!",
      "koegoto",
      "Работаю языком!",
      "天籁之音",
      "用声音来工作!"
    ],
    "external_database_ids": {
      "anilist": 8876,
      "myanimelist": 8876,
      "kitsu": 5515
    },
    "i18n": {
      "chi": "声优初体验! The ANIMATION",
      "eng": "Koe de Oshigoto!",
      "jpn": "こえでおしごと! The ANIMATION",
      "qro": "Koe de Oshigoto! The Animation"
    },
    "modified_at": "2020-03-31T19:04:32.008Z",
    "name": "Koe de Oshigoto! The Animation",
    "repository": "kara.moe",
    "tid": "f8aa59d2-f8cb-47bd-9d56-39a1268570d8",
    "types": [
      "series",
      "1"
    ]
  }
}