{
  "header": {
    "description": "Karaoke Mugen Tag File",
    "version": 1
  },
  "tag": {
    "i18n": {
      "eng": "Koharu Kusumi"
    },
    "name": "Koharu Kusumi",
    "repository": "kara.moe",
    "tid": "3efa3081-2b31-4be8-895c-ff80470a1603",
    "types": [
      "singers",
      "2"
    ],
    "modified_at": "2020-03-31T19:04:35.586Z"
  }
}