{
  "header": {
    "description": "Karaoke Mugen Tag File",
    "version": 1
  },
  "tag": {
    "i18n": {
      "eng": "Koji Oba"
    },
    "name": "Koji Oba",
    "tid": "97f5f3da-e2c7-4bab-9f1c-c539b01d32e8",
    "types": [
      "songwriters",
      "8"
    ],
    "repository": "kara.moe",
    "modified_at": "2020-03-31T19:04:35.595Z"
  }
}