{
  "header": {
    "description": "Karaoke Mugen Tag File",
    "version": 1
  },
  "tag": {
    "i18n": {
      "eng": "Kokura City"
    },
    "name": "Kokura City",
    "repository": "kara.moe",
    "tid": "8ed102b9-087d-48eb-beaa-2b945c30659b",
    "types": [
      "series",
      "1"
    ]
  }
}