{
  "header": {
    "description": "Karaoke Mugen Tag File",
    "version": 1
  },
  "tag": {
    "aliases": [
      "Misaki Koshi",
      "コムアイ",
      "輿 美咲"
    ],
    "i18n": {
      "eng": "KOM_I"
    },
    "name": "KOM_I",
    "repository": "kara.moe",
    "tid": "5f771ef1-e2ca-4e6c-9b19-d2293a8beaaf",
    "types": [
      "singers",
      "2"
    ]
  }
}