{
  "header": {
    "description": "Karaoke Mugen Tag File",
    "version": 1
  },
  "tag": {
    "external_database_ids": {
      "anilist": 132351,
      "kitsu": 44383,
      "myanimelist": 48742
    },
    "i18n": {
      "eng": "Don’t Hurt Me, My Healer!",
      "qro": "Kono Healer, Mendokusai",
      "jpn": "このヒーラー、めんどくさい"
    },
    "name": "Kono Healer, Mendokusai",
    "repository": "kara.moe",
    "tid": "00ee75f7-6f41-46f7-896d-fb8b7cf1c934",
    "types": [
      "series",
      "1"
    ]
  }
}