{
  "header": {
    "description": "Karaoke Mugen Tag File",
    "version": 1
  },
  "tag": {
    "i18n": {
      "eng": "Konya"
    },
    "name": "Konya",
    "repository": "kara.moe",
    "tid": "aa3be5f8-b847-4642-b3b3-c453c57d4052",
    "types": [
      "singers",
      "2"
    ]
  }
}