{
  "header": {
    "description": "Karaoke Mugen Tag File",
    "version": 1
  },
  "tag": {
    "i18n": {
      "eng": "Kotori Ichinose"
    },
    "modified_at": "2020-04-26T00:13:18.233Z",
    "name": "Kotori Ichinose",
    "repository": "kara.moe",
    "tid": "9b4c3b75-ebd2-4cf1-b0c6-e1c22ecc3dcc",
    "types": [
      "singers",
      "2"
    ]
  }
}