{
  "header": {
    "description": "Karaoke Mugen Tag File",
    "version": 1
  },
  "tag": {
    "aliases": [
      "Khu vườn ngôn từ",
      "Sanojen puutarha",
      "Zahrada slov",
      "Сад слів",
      "Цэцэрлэгийн хүрээлэн дэхь үгс",
      "الكلمات حديقة"
    ],
    "external_database_ids": {
      "anilist": 16782,
      "myanimelist": 16782,
      "kitsu": 7515
    },
    "i18n": {
      "chi": "言叶之庭",
      "eng": "The Garden of Words",
      "fre": "The Garden of Words",
      "ger": "The Garden of Words",
      "ita": "Il giardino delle parole",
      "jpn": "言の葉の庭",
      "kor": "언어의 정원",
      "rus": "Сад изящных слов",
      "spa": "El Jardín de las Palabras",
      "qro": "Kotonoha no Niwa"
    },
    "modified_at": "2020-03-31T19:04:32.028Z",
    "name": "Kotonoha no Niwa",
    "repository": "kara.moe",
    "tid": "b2783d87-1e5f-4459-b4ec-b53dab37ddfb",
    "types": [
      "series",
      "1"
    ]
  }
}