{
  "header": {
    "description": "Karaoke Mugen Tag File",
    "version": 1
  },
  "tag": {
    "i18n": {
      "eng": "Kôdai Iwatsubo"
    },
    "name": "Kôdai Iwatsubo",
    "tid": "77fcf4c3-3ccd-4633-99dd-4fdf1253e9f9",
    "types": [
      "songwriters",
      "8"
    ],
    "repository": "kara.moe",
    "modified_at": "2020-03-31T19:04:35.628Z"
  }
}