{
  "header": {
    "description": "Karaoke Mugen Tag File",
    "version": 1
  },
  "tag": {
    "i18n": {
      "eng": "Kôhei Kiyasu"
    },
    "name": "Kôhei Kiyasu",
    "repository": "kara.moe",
    "tid": "4a1765b4-fba1-448e-851b-722218d0e863",
    "types": [
      "singers",
      "2"
    ]
  }
}