{
  "header": {
    "description": "Karaoke Mugen Tag File",
    "version": 1
  },
  "tag": {
    "i18n": {
      "eng": "Kôhei Kamiguchi"
    },
    "name": "Kôhei Kamiguchi",
    "tid": "40e8b427-fa7d-4b21-b4fa-aa3cf5134afd",
    "types": [
      "songwriters",
      "8"
    ],
    "repository": "kara.moe",
    "modified_at": "2020-03-31T19:04:35.632Z"
  }
}