{
  "header": {
    "description": "Karaoke Mugen Tag File",
    "version": 1
  },
  "tag": {
    "i18n": {
      "eng": "Kôhei Horiuchi"
    },
    "name": "Kôhei Horiuchi",
    "tid": "7556cce3-255d-411b-8105-82528713f1c5",
    "types": [
      "songwriters",
      "8"
    ],
    "repository": "kara.moe",
    "modified_at": "2020-03-31T19:04:35.632Z"
  }
}