{
  "header": {
    "description": "Karaoke Mugen Tag File",
    "version": 1
  },
  "tag": {
    "aliases": [
      "Kouhei Aoki"
    ],
    "i18n": {
      "eng": "Kôhei Aoki"
    },
    "modified_at": "2021-03-06T22:03:59.502Z",
    "name": "Kôhei Aoki",
    "repository": "kara.moe",
    "tid": "67a1ce3c-2646-45cf-847b-13abe19aab99",
    "types": [
      "songwriters",
      "8"
    ]
  }
}