{
  "header": {
    "description": "Karaoke Mugen Tag File",
    "version": 1
  },
  "tag": {
    "i18n": {
      "eng": "Kôhei Dôjima"
    },
    "name": "Kôhei Dôjima",
    "tid": "eaeb7bb3-7cb0-47db-8b3d-36b36884aaee",
    "types": [
      "songwriters",
      "8"
    ],
    "repository": "kara.moe",
    "modified_at": "2020-03-31T19:04:35.631Z"
  }
}