{
  "header": {
    "description": "Karaoke Mugen Tag File",
    "version": 1
  },
  "tag": {
    "i18n": {
      "eng": "Kôichi Ikekubo"
    },
    "name": "Kôichi Ikekubo",
    "repository": "kara.moe",
    "tid": "4e191bfb-2270-4f9d-9957-b368056480d0",
    "types": [
      "songwriters",
      "8"
    ]
  }
}