{
  "header": {
    "description": "Karaoke Mugen Tag File",
    "version": 1
  },
  "tag": {
    "i18n": {
      "eng": "Kôji Mase"
    },
    "name": "Kôji Mase",
    "tid": "7833e3db-fe6b-4021-8e0f-e18d1ef9544b",
    "types": [
      "songwriters",
      "8"
    ],
    "repository": "kara.moe",
    "modified_at": "2020-03-31T19:04:35.654Z"
  }
}