{
  "header": {
    "description": "Karaoke Mugen Tag File",
    "version": 1
  },
  "tag": {
    "i18n": {
      "eng": "Kôji Mizuguchi"
    },
    "name": "Kôji Mizuguchi",
    "repository": "kara.moe",
    "tid": "967aa435-c216-42de-a569-d6856cde4ccd",
    "types": [
      "songwriters",
      "8"
    ]
  }
}