{
  "header": {
    "description": "Karaoke Mugen Tag File",
    "version": 1
  },
  "tag": {
    "aliases": [
      "Koukaku no Pandora",
      "koukaku"
    ],
    "external_database_ids": {
      "anilist": 21511,
      "myanimelist": 32214,
      "kitsu": 11587
    },
    "i18n": {
      "eng": "Pandora in the Crimson Shell",
      "fre": "Kôkaku no Pandora",
      "jpn": "紅殻のパンドラ",
      "qro": "Kôkaku no Pandora"
    },
    "modified_at": "2020-03-31T19:04:32.032Z",
    "name": "Kôkaku no Pandora",
    "repository": "kara.moe",
    "tid": "b5ab59d2-36ca-410d-974e-130742a0087f",
    "types": [
      "series",
      "1"
    ]
  }
}