{
  "header": {
    "description": "Karaoke Mugen Tag File",
    "version": 1
  },
  "tag": {
    "aliases": [
      "Koukyoushihen Eureka Seven - Pocket ga Niji de Ippai",
      "E7",
      "Pocketful of Rainbows",
      "Psalms of Planets",
      "koukyoushihen"
    ],
    "external_database_ids": {
      "anilist": 4246,
      "myanimelist": 4246,
      "kitsu": 3537
    },
    "i18n": {
      "eng": "Eureka Seven: Good Night, Sleep Tight, Young Lovers",
      "jpn": "交響詩篇エウレカセブン ポケットが虹でいっぱい",
      "ger": "Eureka Seven - Der Film: Good Night, Sleep Tight, Young Lovers",
      "qro": "Kôkyôshihen Eureka Seven - Pocket ga Niji de Ippai"
    },
    "modified_at": "2020-09-13T13:25:41.132Z",
    "name": "Kôkyôshihen Eureka Seven - Pocket ga Niji de Ippai",
    "repository": "kara.moe",
    "tid": "560092b5-dbc1-4117-8fc1-1ed2e46827d9",
    "types": [
      "series",
      "1"
    ]
  }
}