{
  "header": {
    "description": "Karaoke Mugen Tag File",
    "version": 1
  },
  "tag": {
    "i18n": {
      "eng": "Kônosuke Fuji"
    },
    "name": "Kônosuke Fuji",
    "tid": "1a973b02-6716-4580-965c-3e58d36f7d35",
    "types": [
      "songwriters",
      "8"
    ],
    "repository": "kara.moe",
    "modified_at": "2020-03-31T19:04:35.669Z"
  }
}