{
  "header": {
    "description": "Karaoke Mugen Tag File",
    "version": 1
  },
  "tag": {
    "i18n": {
      "eng": "Kôsuke Noma"
    },
    "name": "Kôsuke Noma",
    "tid": "3b4350bc-2273-4033-b2f8-64bbb301c587",
    "types": [
      "songwriters",
      "8"
    ],
    "repository": "kara.moe",
    "modified_at": "2020-03-31T19:04:35.678Z"
  }
}