{
  "header": {
    "description": "Karaoke Mugen Tag File",
    "version": 1
  },
  "tag": {
    "aliases": [
      "Koushi Asakawa"
    ],
    "i18n": {
      "eng": "Kôshi Asakawa"
    },
    "modified_at": "2020-08-17T20:47:30.619Z",
    "name": "Kôshi Asakawa",
    "repository": "kara.moe",
    "tid": "ad341f74-d55c-43fb-829a-c41927619998",
    "types": [
      "songwriters",
      "8"
    ]
  }
}