{
  "header": {
    "description": "Karaoke Mugen Tag File",
    "version": 1
  },
  "tag": {
    "i18n": {
      "eng": "Kôsuke Ooshima"
    },
    "name": "Kôsuke Ooshima",
    "tid": "9906c0ca-9969-49d0-9d9e-4c0edf882f81",
    "types": [
      "songwriters",
      "8"
    ],
    "repository": "kara.moe",
    "modified_at": "2020-03-31T19:04:35.680Z"
  }
}