{
  "header": {
    "description": "Karaoke Mugen Tag File",
    "version": 1
  },
  "tag": {
    "i18n": {
      "eng": "Kôta Matsuyama"
    },
    "name": "Kôta Matsuyama",
    "tid": "410cc918-b7df-4dd3-b602-f877550227c5",
    "types": [
      "singers",
      "2",
      "songwriters",
      "8"
    ],
    "repository": "kara.moe",
    "modified_at": "2020-03-31T19:04:35.683Z"
  }
}