{
  "header": {
    "description": "Karaoke Mugen Tag File",
    "version": 1
  },
  "tag": {
    "i18n": {
      "eng": "Kumatanchi",
      "jpn": "くまたんち",
      "qro": "Kumatanchi"
    },
    "modified_at": "2020-03-31T19:04:32.046Z",
    "name": "Kumatanchi",
    "repository": "kara.moe",
    "tid": "82d5a35a-ff87-48f7-9dc9-fdc5e4a397a3",
    "types": [
      "series",
      "1"
    ]
  }
}