{
  "header": {
    "description": "Karaoke Mugen Tag File",
    "version": 1
  },
  "tag": {
    "i18n": {
      "eng": "Kumiko Nishihara"
    },
    "name": "Kumiko Nishihara",
    "tid": "068fdb92-16a6-46ed-a0f6-ffb819d3db62",
    "types": [
      "singers",
      "2"
    ],
    "repository": "kara.moe",
    "modified_at": "2020-03-31T19:04:35.707Z"
  }
}