{
  "header": {
    "description": "Karaoke Mugen Tag File",
    "version": 1
  },
  "tag": {
    "i18n": {
      "eng": "Kumiyuki-P"
    },
    "modified_at": "2021-04-08T12:48:17.003Z",
    "name": "Kumiyuki-P",
    "repository": "kara.moe",
    "tid": "80368758-eab0-4caa-ba0a-68b22749c9af",
    "types": [
      "songwriters",
      "8",
      "creators",
      "4"
    ]
  }
}