{
  "header": {
    "description": "Karaoke Mugen Tag File",
    "version": 1
  },
  "tag": {
    "i18n": {
      "eng": "Kumiko Kaori"
    },
    "name": "Kumiko Kaori",
    "tid": "b6a28c23-92bb-450d-ba29-841d3e8fdcbb",
    "types": [
      "singers",
      "2"
    ],
    "repository": "kara.moe",
    "modified_at": "2020-03-31T19:04:35.706Z"
  }
}