{
  "header": {
    "description": "Karaoke Mugen Tag File",
    "version": 1
  },
  "tag": {
    "i18n": {
      "eng": "Kurokino"
    },
    "name": "Kurokino",
    "repository": "kara.moe",
    "tid": "a62bdc2d-3fc9-4199-afbb-71490128b3b0",
    "types": [
      "creators",
      "4"
    ]
  }
}