{
  "header": {
    "description": "Karaoke Mugen Tag File",
    "version": 1
  },
  "tag": {
    "aliases": [
      "Air Battle Wizard Cadet Instructor",
      "Kuusen Madoushi Kouhosei no Kyoukan",
      "kuusen",
      "madoushi",
      "kouhosei",
      "kyoukan"
    ],
    "external_database_ids": {
      "anilist": 20774,
      "myanimelist": 25283,
      "kitsu": 8650
    },
    "i18n": {
      "chi": "空战魔导士候补生的教官",
      "eng": "Sky Wizards Academy",
      "fre": "Sky Wizards Academy",
      "ger": "Sky Wizards Academy",
      "jpn": "空戦魔導士候補生の教官",
      "qro": "Kûsen Madôshi Kôhosei no Kyôkan"
    },
    "modified_at": "2020-03-31T19:04:32.060Z",
    "name": "Kûsen Madôshi Kôhosei no Kyôkan",
    "repository": "kara.moe",
    "tid": "b5ae09ca-1090-44f9-8d54-a3def1920b4a",
    "types": [
      "series",
      "1"
    ]
  }
}