{
  "header": {
    "description": "Karaoke Mugen Tag File",
    "version": 1
  },
  "tag": {
    "i18n": {
      "eng": "Kyle Massey"
    },
    "modified_at": "2020-12-12T16:12:22.961Z",
    "name": "Kyle Massey",
    "repository": "kara.moe",
    "tid": "d157e9cf-66a7-4015-bc7b-e07d7dc16159",
    "types": [
      "singers",
      "2"
    ]
  }
}