{
  "header": {
    "description": "Karaoke Mugen Tag File",
    "version": 1
  },
  "tag": {
    "i18n": {
      "eng": "kyo (BNSI)"
    },
    "name": "kyo (BNSI)",
    "tid": "59adb1ba-151e-42a1-af4f-c472772eca02",
    "types": [
      "songwriters",
      "8"
    ],
    "repository": "kara.moe",
    "modified_at": "2020-03-31T19:04:35.731Z"
  }
}