{
  "header": {
    "description": "Karaoke Mugen Tag File",
    "version": 1
  },
  "tag": {
    "aliases": [
      "Horizon on the Middle of Nowhere",
      "Kyoukai Senjou no Horizon",
      "kyoukaisen",
      "Горизонт на границе пустоты",
      "Горизонт посреди пустоты",
      "Хоризонт по средата на нищото",
      "افقی در ناکجاآباد",
      "افقی در وسط هیچ کجا",
      "境界线上的地平线",
      "kyoukaisenjou"
    ],
    "external_database_ids": {
      "anilist": 10456,
      "myanimelist": 10456,
      "kitsu": 6187
    },
    "i18n": {
      "eng": "Horizon in the Middle of Nowhere",
      "jpn": "境界線上のホライゾン",
      "qro": "Kyôkaisenjô no Horizon"
    },
    "modified_at": "2020-06-21T23:45:31.966Z",
    "name": "Kyôkaisenjô no Horizon",
    "repository": "kara.moe",
    "tid": "d7931e68-6b61-49f8-836b-a5a0007f9cfb",
    "types": [
      "series",
      "1",
      "franchises",
      "18"
    ]
  }
}