{
  "header": {
    "description": "Karaoke Mugen Tag File",
    "version": 1
  },
  "tag": {
    "i18n": {
      "eng": "Kyôji Yamada"
    },
    "name": "Kyôji Yamada",
    "tid": "55d3fc51-79d7-4722-b1b1-85918a39ded6",
    "types": [
      "songwriters",
      "8"
    ],
    "repository": "kara.moe",
    "modified_at": "2020-03-31T19:04:35.739Z"
  }
}