{
  "header": {
    "description": "Karaoke Mugen Tag File",
    "version": 1
  },
  "tag": {
    "aliases": [
      "War Machines on the Borderline"
    ],
    "external_database_ids": {
      "anilist": 131005,
      "myanimelist": 48466,
      "kitsu": 44197
    },
    "i18n": {
      "eng": "Amaim Warrior at the Borderline",
      "jpn": "境界戦機",
      "qro": "Kyoukai Senki",
      "fre": "Amaim Warrior at the Borderline"
    },
    "name": "Kyoukai Senki",
    "repository": "kara.moe",
    "tid": "8bbd3be2-5e22-41ca-b33a-707a59960798",
    "types": [
      "series",
      "1"
    ]
  }
}