{
  "header": {
    "description": "Karaoke Mugen Tag File",
    "version": 1
  },
  "tag": {
    "i18n": {
      "eng": "Kyôko Hikami"
    },
    "name": "Kyôko Hikami",
    "tid": "ac3f1e80-b3b5-4d62-8b6c-5f62b5896f27",
    "types": [
      "singers",
      "2"
    ],
    "repository": "kara.moe",
    "modified_at": "2020-03-31T19:04:35.746Z"
  }
}