{
  "header": {
    "description": "Karaoke Mugen Tag File",
    "version": 1
  },
  "tag": {
    "aliases": [
      "Kyuukyuu Sentai GoGoFive",
      "kyuukyuu"
    ],
    "i18n": {
      "eng": "Kyûkyû Sentai GoGo Five",
      "jpn": "救急戦隊ゴーゴーファイブ",
      "qro": "Kyûkyû Sentai GoGo Five"
    },
    "modified_at": "2020-03-31T19:04:32.070Z",
    "name": "Kyûkyû Sentai GoGo Five",
    "repository": "kara.moe",
    "tid": "44871907-6158-48bc-953c-44f56eaf4054",
    "types": [
      "series",
      "1"
    ]
  }
}