{
  "header": {
    "description": "Karaoke Mugen Tag File",
    "version": 1
  },
  "tag": {
    "i18n": {
      "eng": "L'Arc～en～Ciel"
    },
    "name": "L'Arc～en～Ciel",
    "repository": "kara.moe",
    "tid": "f678c662-b328-40d6-8960-632eaac36a5d",
    "types": [
      "songwriters",
      "8"
    ]
  }
}