{
  "header": {
    "description": "Karaoke Mugen Tag File",
    "version": 1
  },
  "tag": {
    "aliases": [
      "Casimir"
    ],
    "i18n": {
      "fre": "L'Île aux Enfants"
    },
    "name": "L'Île aux Enfants",
    "repository": "kara.moe",
    "tid": "89fbfc9a-95f5-4f69-b514-44db37a68ec4",
    "types": [
      "series",
      "1"
    ]
  }
}