{
  "header": {
    "description": "Karaoke Mugen Tag File",
    "version": 1
  },
  "tag": {
    "i18n": {
      "eng": "The City of Fear",
      "fre": "La Cité de la Peur"
    },
    "modified_at": "2020-03-31T19:04:32.072Z",
    "name": "La Cité de la Peur",
    "repository": "kara.moe",
    "tid": "9a90f3e7-09f7-44c7-971d-9f32b2619fbe",
    "types": [
      "series",
      "1"
    ]
  }
}