{
  "header": {
    "description": "Karaoke Mugen Tag File",
    "version": 1
  },
  "tag": {
    "i18n": {
      "eng": "Lachesis"
    },
    "name": "Lachesis",
    "repository": "kara.moe",
    "tid": "84f32976-586d-4c3d-96c6-bb2199a05cca",
    "types": [
      "songwriters",
      "8"
    ]
  }
}