{
  "header": {
    "description": "Karaoke Mugen Tag File",
    "version": 1
  },
  "tag": {
    "aliases": [
      "הגבירה ג'ורג'י"
    ],
    "external_database_ids": {
      "anilist": 2542,
      "myanimelist": 2542,
      "kitsu": 2307
    },
    "i18n": {
      "ara": "جورجي",
      "fre": "Georgie",
      "ger": "Georgie",
      "ita": "Georgie",
      "jpn": "レディジョージィ",
      "por": "Joaninha",
      "spa": "Nuevos Hermanos",
      "swe": "Georgie",
      "tur": "Cici Kız Georgie",
      "qro": "Lady Georgie"
    },
    "modified_at": "2020-03-31T19:04:32.074Z",
    "name": "Lady Georgie",
    "repository": "kara.moe",
    "tid": "5285b6c8-7d03-4152-a610-80f909a4c3f8",
    "types": [
      "series",
      "1"
    ]
  }
}