{
  "header": {
    "description": "Karaoke Mugen Tag File",
    "version": 1
  },
  "tag": {
    "i18n": {
      "eng": "Lamar Hall"
    },
    "modified_at": "2020-04-26T16:09:08.063Z",
    "name": "Lamar Hall",
    "repository": "kara.moe",
    "tid": "b3482b22-0f13-4085-bc7d-c0a0b6374468",
    "types": [
      "singers",
      "2"
    ]
  }
}