{
  "header": {
    "description": "Karaoke Mugen Tag File",
    "version": 1
  },
  "tag": {
    "i18n": {
      "eng": "Larx Entertainment"
    },
    "modified_at": "2021-05-01T13:28:57.263Z",
    "name": "Larx Entertainment",
    "repository": "kara.moe",
    "tid": "fb064400-b2a8-4549-96a5-f518c982e4aa",
    "types": [
      "creators",
      "4"
    ]
  }
}