{
  "header": {
    "description": "Karaoke Mugen Tag File",
    "version": 1
  },
  "tag": {
    "aliases": [
      "Last Period - Owarinaki Rasen no Monogatari",
      "ラストピリオド -終わりなき螺旋の物語-",
      "ラスピリ"
    ],
    "external_database_ids": {
      "anilist": 101044,
      "myanimelist": 37254,
      "kitsu": 41131
    },
    "i18n": {
      "eng": "Last Period: The Journey to the End of the Despair",
      "jpn": "LAST PERIOD -終わりなき螺旋の物語-",
      "kor": "라스트 피리어드: 끝없는 나선의 이야기",
      "qro": "Last Period: Owarinaki Rasen no Monogatari"
    },
    "modified_at": "2020-03-31T19:04:32.077Z",
    "name": "Last Period: Owarinaki Rasen no Monogatari",
    "repository": "kara.moe",
    "tid": "cd8f3499-61dc-4e21-adf4-6118ae217b76",
    "types": [
      "series",
      "1"
    ]
  }
}