{
  "header": {
    "description": "Karaoke Mugen Tag File",
    "version": 1
  },
  "tag": {
    "i18n": {
      "eng": "Lauren Christy"
    },
    "name": "Lauren Christy",
    "repository": "kara.moe",
    "tid": "fd15db95-517b-4d28-a836-a0bbf950d80d",
    "types": [
      "songwriters",
      "8"
    ]
  }
}