{
  "header": {
    "description": "Karaoke Mugen Tag File",
    "version": 1
  },
  "tag": {
    "i18n": {
      "eng": "Lauren Kaori"
    },
    "name": "Lauren Kaori",
    "tid": "04d38ef9-f104-434e-8299-46109c7fd7b8",
    "types": [
      "songwriters",
      "8"
    ],
    "repository": "kara.moe",
    "modified_at": "2020-03-31T19:04:35.777Z"
  }
}