{
  "header": {
    "description": "Karaoke Mugen Tag File",
    "version": 1
  },
  "tag": {
    "i18n": {
      "eng": "Le Cassette"
    },
    "name": "Le Cassette",
    "repository": "kara.moe",
    "tid": "6692e5d9-4e90-49b9-9dff-6860f0b06a85",
    "types": [
      "singers",
      "2"
    ]
  }
}