{
  "header": {
    "description": "Karaoke Mugen Tag File",
    "version": 1
  },
  "tag": {
    "i18n": {
      "eng": "Le.Chocolat"
    },
    "name": "Le.Chocolat",
    "repository": "kara.moe",
    "tid": "b6fb74cf-1997-431f-a016-8615894e78bc",
    "types": [
      "creators",
      "4"
    ],
    "modified_at": "2020-03-31T19:04:35.782Z"
  }
}