{
  "header": {
    "description": "Karaoke Mugen Tag File",
    "version": 1
  },
  "tag": {
    "i18n": {
      "eng": "Léa Tcherniatinsky"
    },
    "name": "Léa Tcherniatinsky",
    "tid": "1a61457d-d8b0-488e-b11c-f5fd6c884815",
    "types": [
      "singers",
      "2"
    ],
    "repository": "kara.moe",
    "modified_at": "2020-03-31T19:04:35.783Z"
  }
}