{
  "header": {
    "description": "Karaoke Mugen Tag File",
    "version": 1
  },
  "tag": {
    "i18n": {
      "eng": "Lec"
    },
    "name": "Lec",
    "repository": "kara.moe",
    "tid": "821feaa9-41d5-46f4-9466-a00fb27edcae",
    "types": [
      "authors",
      "6"
    ],
    "modified_at": "2020-03-31T19:04:35.785Z"
  }
}