{
  "header": {
    "description": "Karaoke Mugen Tag File",
    "version": 1
  },
  "tag": {
    "i18n": {
      "eng": "Lee Si-yeon"
    },
    "name": "Lee Si-yeon",
    "repository": "kara.moe",
    "tid": "d09fd477-72ad-43e1-a244-52f0d296b3ad",
    "types": [
      "singers",
      "2"
    ]
  }
}