{
  "header": {
    "description": "Karaoke Mugen Tag File",
    "version": 1
  },
  "tag": {
    "i18n": {
      "eng": "Leo Burnett Worldwide"
    },
    "name": "Leo Burnett Worldwide",
    "tid": "1cab0517-d625-48da-a4f7-6a0aee4b62cd",
    "types": [
      "creators",
      "4"
    ],
    "repository": "kara.moe",
    "modified_at": "2020-03-31T19:04:35.800Z"
  }
}