{
  "header": {
    "description": "Karaoke Mugen Tag File",
    "version": 1
  },
  "tag": {
    "external_database_ids": {},
    "i18n": {
      "eng": "Leo/need"
    },
    "name": "Leo/need",
    "repository": "kara.moe",
    "tid": "fbfee5ed-dbac-4e0a-861b-b4a40d32ef6e",
    "types": [
      "singergroups",
      "17"
    ]
  }
}