{
  "header": {
    "description": "Karaoke Mugen Tag File",
    "version": 1
  },
  "tag": {
    "i18n": {
      "eng": "Leo Kanda"
    },
    "name": "Leo Kanda",
    "tid": "5235198b-3b43-4db1-b989-054abb52e01c",
    "types": [
      "songwriters",
      "8"
    ],
    "repository": "kara.moe",
    "modified_at": "2020-03-31T19:04:35.802Z"
  }
}