{
  "header": {
    "description": "Karaoke Mugen Tag File",
    "version": 1
  },
  "tag": {
    "i18n": {
      "eng": "LEO"
    },
    "name": "LEO",
    "repository": "kara.moe",
    "tid": "edf05ac8-127c-4730-ac98-f353fb0d25b4",
    "types": [
      "songwriters",
      "8"
    ]
  }
}