{
  "header": {
    "description": "Karaoke Mugen Tag File",
    "version": 1
  },
  "tag": {
    "i18n": {
      "fre": "Les Nuls"
    },
    "modified_at": "2020-05-31T23:29:01.230Z",
    "name": "Les Nuls",
    "repository": "kara.moe",
    "tid": "f38a855b-5570-40d0-8554-e8c6409bbc7f",
    "types": [
      "series",
      "1",
      "creators",
      "4",
      "songwriters",
      "8"
    ]
  }
}