{
  "header": {
    "description": "Karaoke Mugen Tag File",
    "version": 1
  },
  "tag": {
    "i18n": {
      "dut": "De nieuwe avonturen van Lucky Luke",
      "eng": "The New Adventures of Lucky Luke",
      "fin": "Lucky Luke – Uudet seikkailut",
      "fre": "Les Nouvelles Aventures de Lucky Luke",
      "ger": "Lucky Luke – Die neuen Abenteuer",
      "hun": "Lucky Luke legújabb kalandjai",
      "ita": "Le nuove avventure di Lucky Luke",
      "pol": "Nowe przygody Lucky Luke’a",
      "spa": "Las nuevas aventuras de Lucky Luke"
    },
    "modified_at": "2020-03-31T19:04:32.086Z",
    "name": "Les Nouvelles Aventures de Lucky Luke",
    "repository": "kara.moe",
    "tid": "d2acd8bf-aff5-41e3-a337-60ff7cb6cafc",
    "types": [
      "series",
      "1"
    ]
  }
}