{
  "header": {
    "description": "Karaoke Mugen Tag File",
    "version": 1
  },
  "tag": {
    "i18n": {
      "eng": "Les Petits Chanteurs à la Croix de Bois"
    },
    "modified_at": "2020-05-23T21:37:35.267Z",
    "name": "Les Petits Chanteurs à la Croix de Bois",
    "repository": "kara.moe",
    "tid": "26a23fd0-e2bb-4977-afd4-83de4770554d",
    "types": [
      "creators",
      "4",
      "singers",
      "2"
    ]
  }
}