{
  "header": {
    "description": "Karaoke Mugen Tag File",
    "version": 1
  },
  "tag": {
    "aliases": [
      "Las tres mellizas"
    ],
    "i18n": {
      "dut": "De Drieling",
      "eng": "The Triplets",
      "fre": "Les Trois Petites Soeurs",
      "ger": "Die Drillinge",
      "gre": "Οι Τριδυμούλες",
      "ita": "Tre gemelle e una strega",
      "jpn": "テレサ アンナ ヘレナ 3つごのだいぼうけん",
      "nor": "Trillingarna",
      "pol": "Bajkowe trojaczki",
      "por": "Les Tres Bessones",
      "spa": "Les tres bessones",
      "qro": "Les tres bessones"
    },
    "modified_at": "2020-03-31T19:04:32.087Z",
    "name": "Les tres bessones",
    "repository": "kara.moe",
    "tid": "aaf00e8a-e243-4ae4-95ed-862b755b7b12",
    "types": [
      "series",
      "1"
    ]
  }
}