{
  "header": {
    "description": "Karaoke Mugen Tag File",
    "version": 1
  },
  "tag": {
    "external_database_ids": {
      "anilist": 108598,
      "myanimelist": 39574,
      "kitsu": 42208
    },
    "i18n": {
      "eng": "Levius",
      "heb": "לוויוס",
      "qro": "Levius",
      "jpn": "レビウス"
    },
    "name": "Levius",
    "repository": "kara.moe",
    "tid": "6bc627b9-b717-42d5-96f6-96a6fd0e3152",
    "types": [
      "series",
      "1"
    ]
  }
}