{
  "header": {
    "description": "Karaoke Mugen Tag File",
    "version": 1
  },
  "tag": {
    "i18n": {
      "eng": "Lia"
    },
    "name": "Lia",
    "tid": "bb51b8eb-d68c-4210-9a94-c8d67daa14d3",
    "types": [
      "singers",
      "2"
    ],
    "repository": "kara.moe",
    "modified_at": "2020-03-31T19:04:35.814Z"
  }
}