{
  "header": {
    "description": "Karaoke Mugen Tag File",
    "version": 1
  },
  "tag": {
    "i18n": {
      "eng": "Liber Entertainment"
    },
    "name": "Liber Entertainment",
    "tid": "abb52f1c-dbab-4741-b9f0-06b94d4ce186",
    "types": [
      "creators",
      "4"
    ],
    "repository": "kara.moe",
    "modified_at": "2020-03-31T19:04:35.817Z"
  }
}