{
  "header": {
    "description": "Karaoke Mugen Tag File",
    "version": 1
  },
  "tag": {
    "i18n": {
      "eng": "Lin Hun"
    },
    "name": "Lin Hun",
    "repository": "kara.moe",
    "tid": "59297a35-6efd-444b-8fe1-d5b4796f4018",
    "types": [
      "singers",
      "2"
    ]
  }
}