{
  "header": {
    "description": "Karaoke Mugen Tag File",
    "version": 1
  },
  "tag": {
    "i18n": {
      "eng": "LINDEN"
    },
    "name": "LINDEN",
    "tid": "ac33af51-fc83-47d1-9ba2-42a4483c3e35",
    "types": [
      "songwriters",
      "8"
    ],
    "repository": "kara.moe",
    "modified_at": "2020-03-31T19:04:35.830Z"
  }
}