{
  "header": {
    "description": "Karaoke Mugen Tag File",
    "version": 1
  },
  "tag": {
    "i18n": {
      "eng": "Linjin"
    },
    "name": "Linjin",
    "repository": "kara.moe",
    "tid": "9b47e0e3-52a7-4acc-840a-d1bf28a5a6f8",
    "types": [
      "songwriters",
      "8"
    ]
  }
}