{
  "header": {
    "description": "Karaoke Mugen Tag File",
    "version": 1
  },
  "tag": {
    "aliases": [
      "Liyuu"
    ],
    "i18n": {
      "chi": "黎狱",
      "qro": "Liyû"
    },
    "name": "Liyû",
    "repository": "kara.moe",
    "tid": "8a484e8b-1945-416f-b778-97a887ff24eb",
    "types": [
      "singers",
      "2"
    ]
  }
}