{
  "header": {
    "description": "Karaoke Mugen Tag File",
    "version": 1
  },
  "tag": {
    "i18n": {
      "eng": "LMYK"
    },
    "modified_at": "2021-11-20T16:57:25.563Z",
    "name": "LMYK",
    "repository": "kara.moe",
    "tid": "915bdb22-cd0c-4a9b-aef1-47fdcca65054",
    "types": [
      "songwriters",
      "8",
      "singers",
      "2"
    ]
  }
}