{
  "header": {
    "description": "Karaoke Mugen Tag File",
    "version": 1
  },
  "tag": {
    "i18n": {
      "eng": "Locklear"
    },
    "name": "Locklear",
    "tid": "b711bf9a-83fc-46cb-b9e9-8d99cac21ee2",
    "types": [
      "singers",
      "2"
    ],
    "repository": "kara.moe",
    "modified_at": "2020-03-31T19:04:35.860Z"
  }
}