{
  "header": {
    "description": "Karaoke Mugen Tag File",
    "version": 1
  },
  "tag": {
    "i18n": {
      "eng": "Lord_Tenebro"
    },
    "modified_at": "2020-05-13T14:28:19.261Z",
    "name": "Lord_Tenebro",
    "repository": "kara.moe",
    "tid": "7e8a8ffd-da00-42d5-b2df-419688c94686",
    "types": [
      "authors",
      "6"
    ]
  }
}