{
  "header": {
    "description": "Karaoke Mugen Tag File",
    "version": 1
  },
  "tag": {
    "i18n": {
      "eng": "Lordi"
    },
    "modified_at": "2020-08-16T18:40:24.872Z",
    "name": "Lordi",
    "repository": "kara.moe",
    "tid": "10cc9f79-2d94-45c5-9187-00ebe91ba719",
    "types": [
      "singers",
      "2"
    ]
  }
}