{
  "header": {
    "description": "Karaoke Mugen Tag File",
    "version": 1
  },
  "tag": {
    "i18n": {
      "eng": "Lost in translation"
    },
    "name": "Lost in translation",
    "repository": "kara.moe",
    "tid": "8d41f06c-8786-4600-a02e-16914e84ec07",
    "types": [
      "series",
      "1"
    ]
  }
}