{
  "header": {
    "description": "Karaoke Mugen Tag File",
    "version": 1
  },
  "tag": {
    "i18n": {
      "eng": "Louise Udin"
    },
    "name": "Louise Udin",
    "repository": "kara.moe",
    "tid": "c071da54-61ab-47d0-858a-c93d64eda278",
    "types": [
      "songwriters",
      "8"
    ]
  }
}