{
  "header": {
    "description": "Karaoke Mugen Tag File",
    "version": 1
  },
  "tag": {
    "aliases": [
      "Louis Guillaume Guglielmi"
    ],
    "i18n": {
      "eng": "Louiguy"
    },
    "modified_at": "2021-06-05T18:52:32.107Z",
    "name": "Louiguy",
    "repository": "kara.moe",
    "tid": "4509c6ac-eb20-4479-acd1-3b043b077d6c",
    "types": [
      "songwriters",
      "8"
    ]
  }
}