{
  "header": {
    "description": "Karaoke Mugen Tag File",
    "version": 1
  },
  "tag": {
    "aliases": [
      "Music S.T.A.R.T!!"
    ],
    "external_database_ids": {
      "anilist": 20554,
      "myanimelist": 20745,
      "kitsu": 8055
    },
    "i18n": {
      "eng": "Love Live! School Idol Project OVA",
      "jpn": "ラブライブ! School idol project OVA",
      "qro": "Love Live! School Idol Project OVA"
    },
    "modified_at": "2020-03-31T19:04:32.106Z",
    "name": "Love Live! School Idol Project OVA",
    "repository": "kara.moe",
    "tid": "701082e5-9ac5-45db-bbe6-2321ee413405",
    "types": [
      "series",
      "1"
    ]
  }
}