{
  "header": {
    "description": "Karaoke Mugen Tag File",
    "version": 1
  },
  "tag": {
    "aliases": [
      "LC",
      "LoveCom",
      "Lovely Complex",
      "Uroczy związek",
      "Комплекс кохання",
      "Любовен Комплекс",
      "Трогательный комплекс",
      "恋爱方程式",
      "lovely complex"
    ],
    "external_database_ids": {
      "anilist": 2034,
      "myanimelist": 2034,
      "kitsu": 1833
    },
    "i18n": {
      "cze": "Bezvadná dvojka",
      "eng": "Lovely★Complex",
      "hun": "Lovely★Complex",
      "ita": "Lovely★Complex",
      "jpn": "ラブ★コン",
      "qro": "Lovely★Complex"
    },
    "modified_at": "2020-06-21T23:45:31.966Z",
    "name": "Lovely★Complex",
    "repository": "kara.moe",
    "tid": "b8472eb4-83ae-4a67-9c25-8fcc3e2e4738",
    "types": [
      "series",
      "1"
    ]
  }
}