{
  "header": {
    "description": "Karaoke Mugen Tag File",
    "version": 1
  },
  "tag": {
    "external_database_ids": {
      "anilist": 110336,
      "myanimelist": 40023,
      "kitsu": 42783
    },
    "i18n": {
      "eng": "Lovely Heart",
      "jpn": "らぶりー♡",
      "kor": "러블리 하트",
      "qro": "Lovely Heart"
    },
    "modified_at": "2020-03-31T19:04:32.111Z",
    "name": "Lovely Heart",
    "repository": "kara.moe",
    "tid": "35c1f893-3308-4f4c-8141-3081e048366d",
    "types": [
      "series",
      "1"
    ]
  }
}