{
  "header": {
    "description": "Karaoke Mugen Tag File",
    "version": 1
  },
  "tag": {
    "i18n": {
      "chi": "苍兰诀",
      "eng": "Love Between Fairy and Devil",
      "qro": "Cāng Lán Jué"
    },
    "name": "Love Between Fairy and Devil",
    "repository": "kara.moe",
    "tid": "f19f7376-3d51-4dc1-8d5e-ec01f86cd9a9",
    "types": [
      "series",
      "1"
    ]
  }
}