{
  "header": {
    "description": "Karaoke Mugen Tag File",
    "version": 1
  },
  "tag": {
    "i18n": {
      "afr": "Luba-Katanga",
      "amh": "Luba-Katanga",
      "ara": "وبا-كاتانغا",
      "aze": "Луба-Катанга",
      "bak": "Туба-Катанга",
      "bel": "Luba-Катанга",
      "bul": "Луба-Катанга",
      "ben": "Luba-Katanga",
      "bos": "Vama-Katanga",
      "cat": "Luba-Katanga",
      "cze": "Luba-Katanga",
      "wel": "Luba-Katanga",
      "dan": "Luba-Katanga",
      "ger": "Luba-Katanga",
      "gre": "Λούμπα-Κατάνγκα",
      "eng": "Luba-Katanga",
      "epo": "Luba-Katanga",
      "spa": "Luba-Katanga",
      "est": "Luba-Katanga",
      "baq": "Luba-Katanga",
      "per": "لوبا-کتنگا",
      "fin": "Luba-Katanga",
      "fre": "Luba-Katanga",
      "gle": "Luba-Katanga",
      "gla": "Luba-Katanga",
      "glg": "Luba-Katanga",
      "guj": "લ્યૂબા કટાંગા",
      "heb": "לובה-קטנגה",
      "hin": "Luba-केतंगा",
      "hrv": "Луба-Катанга",
      "hat": "Luba-Katanga",
      "hun": "Luba-Katanga",
      "arm": "Луба-Կատանգա",
      "ind": "Luba-Katanga",
      "ice": "Leyfi-Katanga",
      "ita": "Luba-Katanga",
      "jpn": "Luba-Katanga",
      "jav": "Sonten-Katanga",
      "geo": "ლუბა-კატანგა",
      "kaz": "Тінді-Катанга",
      "kan": "ಲೂಬಾ-Katanga",
      "kor": "루바-카",
      "kir": "Луба-Катанга",
      "lat": "Luba-Ludibrio",
      "lit": "Luba-Katanga",
      "lav": "Luba-Katanga",
      "mlg": "Luba-Katanga",
      "mao": "Luba-Katanga",
      "mac": "Луба-Katanga",
      "mal": "Luba-ഇത് മനോഹരമാണ്",
      "mon": "Luba-Katanga",
      "mar": "ल्यूबा-Katanga",
      "may": "Luba-Katanga",
      "mlt": "Luba-Katanga",
      "nep": "Luba-अरबी",
      "dut": "Luba-Katanga",
      "nor": "Luba-Katanga",
      "pan": "Luba-Katanga",
      "pol": "Lube-Катанга",
      "por": "Luba-Katanga",
      "rum": "Luba-Katanga",
      "rus": "Луба-Катанга",
      "sin": "Luba-කටන්ගා",
      "slo": "Luba-Katanga",
      "slv": "Luba-Katanga",
      "alb": "Luba-Katanga",
      "srp": "Луба-Катанга",
      "sun": "Luba-Katanga",
      "swe": "Luba-Katanga",
      "swa": "Luba-Katanga",
      "tam": "லுபா-கடாங்கா",
      "tel": "లూబ-కటాంగ",
      "tgk": "Луба-Катанга",
      "tha": "Luba-Katanga",
      "tgl": "Luba-Katanga",
      "tur": "Luba-Katanga",
      "tat": "Луба-Катанга",
      "ukr": "Луба-Катанга",
      "urd": "لیوبا-کٹانگا",
      "uzb": "Luba-Katanga",
      "vie": "Đôi-Katanga",
      "xho": "Luba-Katanga",
      "yid": "לובאַ-קאַטאַנגאַ",
      "chi": "卢巴-加丹加"
    },
    "name": "lub",
    "tid": "c062bc73-96e4-437e-a0c5-3fd79b3bd0a6",
    "types": [
      "langs",
      "5"
    ],
    "repository": "kara.moe",
    "modified_at": "2020-03-31T19:04:35.878Z"
  }
}