{
  "header": {
    "description": "Karaoke Mugen Tag File",
    "version": 1
  },
  "tag": {
    "i18n": {
      "eng": "lucyisafairy"
    },
    "modified_at": "2020-08-16T13:34:23.121Z",
    "name": "lucyisafairy",
    "repository": "kara.moe",
    "tid": "37376f65-0afa-43c5-a6b5-df219d01e160",
    "types": [
      "authors",
      "6"
    ]
  }
}