{
  "header": {
    "description": "Karaoke Mugen Tag File",
    "version": 1
  },
  "tag": {
    "i18n": {
      "eng": "Luis Ochoa"
    },
    "modified_at": "2020-08-09T13:22:10.543Z",
    "name": "Luis Ochoa",
    "repository": "kara.moe",
    "tid": "19fccaa8-7214-42e7-8f98-97c2548d911a",
    "types": [
      "singers",
      "2"
    ]
  }
}