{
  "header": {
    "description": "Karaoke Mugen Tag File",
    "version": 1
  },
  "tag": {
    "i18n": {
      "por": "Lukinhas"
    },
    "name": "Lukinhas",
    "repository": "kara.moe",
    "tid": "6a9b2818-4594-44ec-a3ac-45981f1f184c",
    "types": [
      "singers",
      "2",
      "songwriters",
      "8"
    ]
  }
}