{
  "header": {
    "description": "Karaoke Mugen Tag File",
    "version": 1
  },
  "tag": {
    "i18n": {
      "eng": "Luminous Arc 3",
      "jpn": "ルミナスアーク3 アイズ",
      "qro": "Luminous Arc 3: Eyes"
    },
    "modified_at": "2020-03-31T19:04:32.116Z",
    "name": "Luminous Arc 3: Eyes",
    "repository": "kara.moe",
    "tid": "89c78191-2b98-4eea-89b2-9954a5b5a5d0",
    "types": [
      "series",
      "1"
    ]
  }
}