{
  "header": {
    "description": "Karaoke Mugen Tag File",
    "version": 1
  },
  "tag": {
    "i18n": {
      "eng": "Luminous Arc",
      "jpn": "ルミナスアーク",
      "qro": "Luminous Arc"
    },
    "modified_at": "2020-03-31T19:04:32.116Z",
    "name": "Luminous Arc",
    "repository": "kara.moe",
    "tid": "9c4844e9-1ba6-4a43-9bb1-1023aa79b60a",
    "types": [
      "series",
      "1",
      "franchises",
      "18"
    ]
  }
}