{
  "header": {
    "description": "Karaoke Mugen Tag File",
    "version": 1
  },
  "tag": {
    "aliases": [
      "Blue jacket",
      "Edgar de la cambriole",
      "LUPIN THE THIRD PART IV",
      "Lupin III (2015)",
      "Lupin III - The Italian Adventure",
      "Lupin III: Part IV",
      "Lupin Sansei Part 4",
      "Lupin Sansei: L'avventura Italiana",
      "Lupin the 3rd: Series 4",
      "Lupin the Third (2015)",
      "Люпен III: Италианско приключение",
      "ルパン三世 L'AVVENTURA ITALIANA",
      "ルパン三世 PART IV",
      "ルパン三世 PART4"
    ],
    "external_database_ids": {
      "anilist": 20906,
      "myanimelist": 27947,
      "kitsu": 9958
    },
    "i18n": {
      "eng": "Lupin III Part IV",
      "fre": "Lupin the Third Part IV - L'aventure Italienne",
      "ita": "Lupin III: L'avventura Italiana",
      "jpn": "ルパン三世 LUPIN THE THIRD",
      "qro": "Lupin III Part IV"
    },
    "modified_at": "2020-03-31T19:04:32.120Z",
    "name": "Lupin III Part IV",
    "repository": "kara.moe",
    "tid": "423c1563-23be-4a6c-bd4a-13f088197b68",
    "types": [
      "series",
      "1"
    ]
  }
}