{
  "header": {
    "description": "Karaoke Mugen Tag File",
    "version": 1
  },
  "tag": {
    "aliases": [
      "Lupin 3",
      "Edgar de la cambriole",
      "Edgar, le détective cambrioleur",
      "Daisuke Jigen's Gravestone",
      "bohyou"
    ],
    "external_database_ids": {
      "anilist": 20978,
      "myanimelist": 23293,
      "kitsu": 8340
    },
    "i18n": {
      "eng": "Lupin the IIIrd: Jigen's Gravestone",
      "jpn": "LUPIN THE IIIRD 次元大介の墓標",
      "fre": "Lupin III : Le tombeau de Daisuke Jigen",
      "qro": "Lupin the IIIrd: Jigen Daisuke no Bohyô"
    },
    "modified_at": "2020-07-19T18:27:00.459Z",
    "name": "Lupin the IIIrd: Jigen Daisuke no Bohyô",
    "repository": "kara.moe",
    "tid": "59037c93-388b-4d11-b486-e53eae752876",
    "types": [
      "series",
      "1"
    ]
  }
}