{
  "header": {
    "description": "Karaoke Mugen Tag File",
    "version": 1
  },
  "tag": {
    "i18n": {
      "eng": "Luq Hatet"
    },
    "name": "Luq Hatet",
    "tid": "cb3c7a77-6942-40a9-bef2-7cc6f4f2db47",
    "types": [
      "singers",
      "2"
    ],
    "repository": "kara.moe",
    "modified_at": "2020-03-31T19:04:35.894Z"
  }
}