{
  "header": {
    "description": "Karaoke Mugen Tag File",
    "version": 1
  },
  "tag": {
    "i18n": {
      "eng": "Luschka"
    },
    "name": "Luschka",
    "repository": "kara.moe",
    "tid": "e77889db-2716-4e14-a42f-5d28fbe3ecdf",
    "types": [
      "singers",
      "2"
    ]
  }
}