{
  "header": {
    "description": "Karaoke Mugen Tag File",
    "version": 1
  },
  "tag": {
    "i18n": {
      "eng": "Lyrical Lily"
    },
    "name": "Lyrical Lily",
    "repository": "kara.moe",
    "tid": "9a527178-bc61-4c35-9bed-794d61115d5d",
    "types": [
      "singergroups",
      "17"
    ]
  }
}