{
  "header": {
    "description": "Karaoke Mugen Tag File",
    "version": 1
  },
  "tag": {
    "i18n": {
      "eng": "M. Maggiore"
    },
    "name": "M. Maggiore",
    "tid": "72d6e4e9-7f39-4e37-91b1-78de47a074f8",
    "types": [
      "songwriters",
      "8"
    ],
    "repository": "kara.moe",
    "modified_at": "2020-03-31T19:04:35.900Z"
  }
}