{
  "header": {
    "description": "Karaoke Mugen Tag File",
    "version": 1
  },
  "tag": {
    "i18n": {
      "eng": "M.B"
    },
    "name": "M.B",
    "repository": "kara.moe",
    "tid": "f8ae5f07-84f7-4c00-97fd-09f756c190e2",
    "types": [
      "creators",
      "4"
    ]
  }
}