{
  "header": {
    "description": "Karaoke Mugen Tag File",
    "version": 1
  },
  "tag": {
    "i18n": {
      "eng": "Maaya Sakamoto"
    },
    "name": "Maaya Sakamoto",
    "tid": "1e93160f-11bb-4d02-b716-4660cb29206e",
    "types": [
      "singers",
      "2",
      "songwriters",
      "8"
    ],
    "repository": "kara.moe",
    "modified_at": "2020-03-31T19:04:35.906Z"
  }
}