{
  "header": {
    "description": "Karaoke Mugen Tag File",
    "version": 1
  },
  "tag": {
    "i18n": {
      "eng": "mabanua"
    },
    "modified_at": "2021-04-10T02:44:59.472Z",
    "name": "mabanua",
    "repository": "kara.moe",
    "tid": "0c74f406-b4a1-4305-a606-20c1483c9916",
    "types": [
      "songwriters",
      "8",
      "singers",
      "2"
    ]
  }
}