{
  "header": {
    "description": "Karaoke Mugen Tag File",
    "version": 1
  },
  "tag": {
    "aliases": [
      "Machine Robo: Revenge of Chronos",
      "gyakushuu"
    ],
    "external_database_ids": {
      "anilist": 3676,
      "myanimelist": 3676,
      "kitsu": 3188
    },
    "i18n": {
      "eng": "Machine Robo: Revenge of Cronos",
      "fre": "La revanche des Gobots",
      "jpn": "マシンロボ クロノスの大逆襲",
      "qro": "Machine Robo: Chronos no Dai Gyakushû"
    },
    "modified_at": "2020-03-31T19:04:32.124Z",
    "name": "Machine Robo: Chronos no Dai Gyakushû",
    "repository": "kara.moe",
    "tid": "02ed991d-7074-451b-92d9-2818632ac9fb",
    "types": [
      "series",
      "1"
    ]
  }
}