{
  "header": {
    "description": "Karaoke Mugen Tag File",
    "version": 1
  },
  "tag": {
    "i18n": {
      "eng": "Mad Soldiers"
    },
    "name": "Mad Soldiers",
    "tid": "8fec8e37-d462-4c42-8316-73b55b73e743",
    "types": [
      "songwriters",
      "8"
    ],
    "repository": "kara.moe",
    "modified_at": "2020-03-31T19:04:35.911Z"
  }
}