{
  "header": {
    "description": "Karaoke Mugen Tag File",
    "version": 1
  },
  "tag": {
    "i18n": {
      "eng": "Madoka Yonezawa"
    },
    "name": "Madoka Yonezawa",
    "tid": "53865b6f-009c-4140-8c30-fd1360469e09",
    "types": [
      "singers",
      "2"
    ],
    "repository": "kara.moe",
    "modified_at": "2020-03-31T19:04:35.918Z"
  }
}