{
  "header": {
    "description": "Karaoke Mugen Tag File",
    "version": 1
  },
  "tag": {
    "i18n": {
      "eng": "Mado-kun",
      "jpn": "まどくん",
      "qro": "Mado-kun"
    },
    "name": "Mado-kun",
    "repository": "kara.moe",
    "tid": "c554ef56-adbd-4864-9473-2214d4c89caf",
    "types": [
      "songwriters",
      "8"
    ]
  }
}