{
  "header": {
    "description": "Karaoke Mugen Tag File",
    "version": 1
  },
  "tag": {
    "aliases": [
      "Maesetsu!"
    ],
    "external_database_ids": {
      "anilist": 110632,
      "myanimelist": 40085,
      "kitsu": 42444
    },
    "i18n": {
      "eng": "Maesetsu! Opening Act",
      "jpn": "まえせつ! -opening act-"
    },
    "name": "Maesetsu! Opening Act",
    "repository": "kara.moe",
    "short": "Maesetsu!",
    "tid": "e36129fb-b9ce-4c8e-a8fb-a1c893436252",
    "types": [
      "series",
      "1"
    ]
  }
}