{
  "header": {
    "description": "Karaoke Mugen Tag File",
    "version": 1
  },
  "tag": {
    "i18n": {
      "eng": "Maggie Reilly"
    },
    "name": "Maggie Reilly",
    "repository": "kara.moe",
    "tid": "024abb90-916f-4cd9-b9e9-d7748f9d44ed",
    "types": [
      "songwriters",
      "8",
      "singers",
      "2"
    ]
  }
}