{
  "header": {
    "description": "Karaoke Mugen Tag File",
    "version": 1
  },
  "tag": {
    "i18n": {
      "eng": "Magic BUS"
    },
    "name": "Magic BUS",
    "tid": "c2984f8d-dfe2-4a89-84f4-857acdcbf329",
    "types": [
      "creators",
      "4"
    ],
    "repository": "kara.moe",
    "modified_at": "2020-03-31T19:04:35.923Z"
  }
}