{
  "header": {
    "description": "Karaoke Mugen Tag File",
    "version": 1
  },
  "tag": {
    "i18n": {
      "eng": "Mahiro"
    },
    "name": "Mahiro",
    "repository": "kara.moe",
    "tid": "05874530-2627-4ba1-904d-970a1dd3ae47",
    "types": [
      "songwriters",
      "8"
    ]
  }
}