{
  "header": {
    "description": "Karaoke Mugen Tag File",
    "version": 1
  },
  "tag": {
    "aliases": [
      "MSTA",
      "Magic-Girl Squad - Alice",
      "Mahou Shoujo Tai Alice",
      "Mahou Shoujo Tai Arusu",
      "Mahou Shoujo-tai Arusu",
      "Mahou Shoujotai",
      "The Adventures of Tweeny Witches",
      "Алиса - девочка-волшебница",
      "mahou",
      "shoujo"
    ],
    "external_database_ids": {
      "anilist": 872,
      "myanimelist": 872,
      "kitsu": 772
    },
    "i18n": {
      "eng": "Tweeny Witches",
      "jpn": "魔法少女隊アルス",
      "rus": "Три ведьмы",
      "qro": "Mahô Shôjo Tai Arusu"
    },
    "modified_at": "2020-06-21T23:45:31.966Z",
    "name": "Mahô Shôjo Tai Arusu",
    "repository": "kara.moe",
    "tid": "e8894d96-4662-4927-8947-813a29e9efd0",
    "types": [
      "series",
      "1"
    ]
  }
}