{
  "header": {
    "description": "Karaoke Mugen Tag File",
    "version": 1
  },
  "tag": {
    "aliases": [
      "Mahou NnS",
      "Mahoutsukai ni Taisetsu na Koto: Natsu no Sora",
      "Mahoutsukai ni Taisetsu na Koto: Natsu no Sora",
      "Важливе для чарівника: Літнє небо",
      "Нечто важное для мага [ТВ-2]",
      "魔法使的注意事项~夏之空~",
      "魔法使的注意事项~夏日的天空~",
      "mahoutsukai"
    ],
    "external_database_ids": {
      "anilist": 4483,
      "myanimelist": 4483,
      "kitsu": 3636
    },
    "i18n": {
      "eng": "Someday's Dreamers II: Sora",
      "fre": "Mahôtsukai ni Taisetsu na Koto: Natsu no Sora",
      "jpn": "魔法遣いに大切なこと ~夏のソラ~",
      "qro": "Mahôtsukai ni Taisetsu na Koto: Natsu no Sora"
    },
    "modified_at": "2020-03-31T19:04:32.162Z",
    "name": "Mahôtsukai ni Taisetsu na Koto: Natsu no Sora",
    "repository": "kara.moe",
    "tid": "76ddd48a-129d-487f-9871-1cd636825e14",
    "types": [
      "series",
      "1"
    ]
  }
}