{
  "header": {
    "description": "Karaoke Mugen Tag File",
    "version": 1
  },
  "tag": {
    "aliases": [
      "Mahou Shoujo Lyrical Nanoha: The Movie 2nd A's",
      "mahou",
      "shoujo"
    ],
    "external_database_ids": {
      "anilist": 10153,
      "myanimelist": 10153,
      "kitsu": 6056
    },
    "i18n": {
      "chi": "魔法少女奈叶 The MOVIE 2nd A's",
      "eng": "Magical Girl Lyrical Nanoha: The Movie 2nd A's",
      "jpn": "Magical Girl Lyrical NANOHA The MOVIE 2nd A's",
      "qro": "Mahô Shôjo Lyrical Nanoha: The Movie 2nd A's"
    },
    "modified_at": "2020-03-31T19:04:32.152Z",
    "name": "Mahô Shôjo Lyrical Nanoha: The Movie 2nd A's",
    "repository": "kara.moe",
    "tid": "0503b988-9382-44db-9a26-3d3c3ca2fa7f",
    "types": [
      "series",
      "1"
    ]
  }
}