{
  "header": {
    "description": "Karaoke Mugen Tag File",
    "version": 1
  },
  "tag": {
    "aliases": [
      "I've Had Enough of Being a Magical Girl. Second Season",
      "Mahou Shoujo Nante Mou Ii Desu kara. Second Season",
      "Mahou Shoujo Nante Mouiidesukara Second Season ",
      "mahou",
      "shoujo",
      "mou"
    ],
    "external_database_ids": {
      "anilist": 21892,
      "myanimelist": 33795,
      "kitsu": 12467
    },
    "i18n": {
      "eng": "Mahô Shôjo Nante Môiidesukara Second Season ",
      "jpn": "魔法少女なんてもういいですから。 セカンドシーズン ",
      "qro": "Mahô Shôjo Nante Mô Ii Desu kara. Second Season"
    },
    "modified_at": "2020-03-31T19:04:32.154Z",
    "name": "Mahô Shôjo Nante Mô Ii Desu kara. Second Season",
    "repository": "kara.moe",
    "tid": "6fc8704e-b118-42d2-ae81-c8e367ba50e7",
    "types": [
      "series",
      "1"
    ]
  }
}