{
  "header": {
    "description": "Karaoke Mugen Tag File",
    "version": 1
  },
  "tag": {
    "i18n": {
      "eng": "Mai Hoshimura"
    },
    "name": "Mai Hoshimura",
    "tid": "81925910-d9ed-42f8-b6dc-679dc8afa736",
    "types": [
      "singers",
      "2",
      "songwriters",
      "8"
    ],
    "repository": "kara.moe",
    "modified_at": "2020-03-31T19:04:35.938Z"
  }
}