{
  "header": {
    "description": "Karaoke Mugen Tag File",
    "version": 1
  },
  "tag": {
    "aliases": [
      "Dancing Girl",
      "Dancing Princess",
      "Mai Hime",
      "My Hime",
      "My Princess",
      "The Dancer",
      "The Dancing Girl",
      "mh",
      "Май-Химэ",
      "Моя принцесса",
      "Танцуващата принцеса",
      "Танцующая принцесса",
      "ماي-هيمي",
      "ศึกศาตราเจ้าหญิงแห่งดวงดาว"
    ],
    "external_database_ids": {
      "anilist": 98,
      "myanimelist": 98,
      "kitsu": 77
    },
    "i18n": {
      "eng": "My-HiME",
      "fre": "My-HiME",
      "ger": "My-HiME",
      "jpn": "舞姫",
      "tha": "ไม-HiME ศึกศาสตราเจ้าหญิงแห่งดวงดาว",
      "qro": "Mai-HiME"
    },
    "modified_at": "2020-03-31T19:04:32.167Z",
    "name": "Mai-HiME",
    "repository": "kara.moe",
    "tid": "55584957-7783-4b92-afd9-bece5b121291",
    "types": [
      "series",
      "1",
      "franchises",
      "18"
    ]
  }
}