{
  "header": {
    "description": "Karaoke Mugen Tag File",
    "version": 1
  },
  "tag": {
    "i18n": {
      "eng": "Maiara Walsh"
    },
    "modified_at": "2020-12-12T16:12:23.021Z",
    "name": "Maiara Walsh",
    "repository": "kara.moe",
    "tid": "d0768605-d58f-4a59-8073-ae5975819606",
    "types": [
      "singers",
      "2"
    ]
  }
}