{
  "header": {
    "description": "Karaoke Mugen Tag File",
    "version": 1
  },
  "tag": {
    "aliases": [
      "メイドさん She See"
    ],
    "i18n": {
      "eng": "Maid-san She See",
      "jpn": "メイドさんしぃしー",
      "qro": "Maid-san She See"
    },
    "modified_at": "2020-03-31T19:04:32.168Z",
    "name": "Maid-san She See",
    "repository": "kara.moe",
    "tid": "7c50096f-97bc-4532-bae3-b9f8a3a1b41f",
    "types": [
      "series",
      "1"
    ]
  }
}