{
  "header": {
    "description": "Karaoke Mugen Tag File",
    "version": 1
  },
  "tag": {
    "i18n": {
      "qro": "Maiko Irie",
      "jpn": "入江 麻衣子"
    },
    "name": "Maiko Irie",
    "repository": "kara.moe",
    "tid": "488c50d1-b700-483a-81d1-f8f0b4a8156e",
    "types": [
      "singers",
      "2"
    ]
  }
}