{
  "header": {
    "description": "Karaoke Mugen Tag File",
    "version": 1
  },
  "tag": {
    "i18n": {
      "eng": "Maina Shimagata"
    },
    "name": "Maina Shimagata",
    "tid": "ce4b0d52-00f3-416a-a6a0-8fcdff683354",
    "types": [
      "singers",
      "2"
    ],
    "repository": "kara.moe",
    "modified_at": "2020-03-31T19:04:35.953Z"
  }
}