{
  "header": {
    "description": "Karaoke Mugen Tag File",
    "version": 1
  },
  "tag": {
    "aliases": [
      "Ikkoku House",
      "MI",
      "Maison Ikkoku TV",
      "Доходный дом Иккоку",
      "مايسن إيكّوكو"
    ],
    "external_database_ids": {
      "anilist": 1453,
      "myanimelist": 1453,
      "kitsu": 1303
    },
    "i18n": {
      "chi": "相聚一刻",
      "eng": "Maison Ikkoku",
      "fre": "Juliette je t'aime",
      "ita": "Cara Dolce Kyoko",
      "jpn": "めぞん一刻",
      "spa": "Maison Ikkoku",
      "qro": "Maison Ikkoku"
    },
    "modified_at": "2020-03-31T19:04:32.169Z",
    "name": "Maison Ikkoku",
    "repository": "kara.moe",
    "tid": "9aba7b58-443e-422a-a782-bd8fff7d9dec",
    "types": [
      "series",
      "1",
      "franchises",
      "18"
    ]
  }
}