{
  "header": {
    "description": "Karaoke Mugen Tag File",
    "version": 1
  },
  "tag": {
    "aliases": [
      "Magimoji Rurumo"
    ],
    "external_database_ids": {
      "anilist": 20708,
      "myanimelist": 23945,
      "kitsu": 8459
    },
    "i18n": {
      "chi": "修业魔女璐璐萌",
      "eng": "Majimoji Rurumo",
      "jpn": "まじもじるるも",
      "qro": "Majimoji Rurumo"
    },
    "modified_at": "2020-03-31T19:04:32.171Z",
    "name": "Majimoji Rurumo",
    "repository": "kara.moe",
    "tid": "dd057c30-0be3-4c0e-9c9c-2a53c3c5d0cc",
    "types": [
      "series",
      "1"
    ]
  }
}