{
  "header": {
    "description": "Karaoke Mugen Tag File",
    "version": 1
  },
  "tag": {
    "aliases": [
      "Majyo",
      "Otya"
    ],
    "i18n": {
      "eng": "Tea Society of a Witch",
      "jpn": "魔女のお茶会",
      "qro": "Majo no Ocha Kai"
    },
    "name": "Majo no Ocha Kai",
    "repository": "kara.moe",
    "tid": "bf0f4c49-0984-4166-be41-54a0a3b47059",
    "types": [
      "series",
      "1"
    ]
  }
}