{
  "header": {
    "description": "Karaoke Mugen Tag File",
    "version": 1
  },
  "tag": {
    "i18n": {
      "eng": "Maki Ohguro"
    },
    "name": "Maki Ohguro",
    "repository": "kara.moe",
    "tid": "ee214817-c4d5-4f28-9e4b-12186c75847d",
    "types": [
      "songwriters",
      "8",
      "singers",
      "2"
    ]
  }
}