{
  "header": {
    "description": "Karaoke Mugen Tag File",
    "version": 1
  },
  "tag": {
    "i18n": {
      "eng": "Maki Kawase"
    },
    "name": "Maki Kawase",
    "tid": "6181ba3a-4b14-4fab-bbe9-0fa4147a6072",
    "types": [
      "singers",
      "2"
    ],
    "repository": "kara.moe",
    "modified_at": "2020-03-31T19:04:35.960Z"
  }
}