{
  "header": {
    "description": "Karaoke Mugen Tag File",
    "version": 1
  },
  "tag": {
    "i18n": {
      "eng": "Makoto Raiku"
    },
    "name": "Makoto Raiku",
    "tid": "dfb158c1-2b86-40d9-b21d-258b5026a22d",
    "types": [
      "songwriters",
      "8"
    ],
    "repository": "kara.moe",
    "modified_at": "2020-03-31T19:04:35.975Z"
  }
}