{
  "header": {
    "description": "Karaoke Mugen Tag File",
    "version": 1
  },
  "tag": {
    "i18n": {
      "eng": "Makoto Kawaguchi",
      "jpn": "川口真",
      "qro": "Makoto Kawaguchi"
    },
    "name": "Makoto Kawaguchi",
    "repository": "kara.moe",
    "tid": "0340b7aa-3a47-4370-9375-33ae5467122c",
    "types": [
      "songwriters",
      "8"
    ]
  }
}