{
  "header": {
    "description": "Karaoke Mugen Tag File",
    "version": 1
  },
  "tag": {
    "i18n": {
      "eng": "Makoto Furukawa",
      "jpn": "古川慎",
      "qro": "Makoto Furukawa"
    },
    "name": "Makoto Furukawa",
    "repository": "kara.moe",
    "tid": "1701682c-b22e-420c-b499-3b503037882e",
    "types": [
      "singers",
      "2"
    ]
  }
}