{
  "header": {
    "description": "Karaoke Mugen Tag File",
    "version": 1
  },
  "tag": {
    "aliases": [
      "(K)NoW_NAME:Makoto Miyazaki",
      "(K)NoW_NAME"
    ],
    "i18n": {
      "eng": "Makoto Miyazaki"
    },
    "name": "Makoto Miyazaki",
    "tid": "895ceb3c-0bee-4f59-aa9f-28e0168453c0",
    "types": [
      "songwriters",
      "8"
    ],
    "repository": "kara.moe",
    "modified_at": "2020-03-31T19:04:35.973Z"
  }
}