{
  "header": {
    "description": "Karaoke Mugen Tag File",
    "version": 1
  },
  "tag": {
    "i18n": {
      "eng": "Malcolm Young"
    },
    "modified_at": "2020-07-11T21:54:36.667Z",
    "name": "Malcolm Young",
    "repository": "kara.moe",
    "tid": "0f3b2a6d-3171-4467-a6c4-8d707858685c",
    "types": [
      "songwriters",
      "8"
    ]
  }
}