{
  "header": {
    "description": "Karaoke Mugen Tag File",
    "version": 1
  },
  "tag": {
    "i18n": {
      "eng": "Male Harmony"
    },
    "name": "Male Harmony",
    "tid": "3ebf0f97-cb40-48f5-8377-78d232ed770b",
    "types": [
      "singers",
      "2"
    ],
    "repository": "kara.moe",
    "modified_at": "2020-03-31T19:04:35.980Z"
  }
}