{
  "header": {
    "description": "Karaoke Mugen Tag File",
    "version": 1
  },
  "tag": {
    "i18n": {
      "fre": "Maliki"
    },
    "modified_at": "2020-03-31T19:04:32.188Z",
    "name": "Maliki",
    "repository": "kara.moe",
    "tid": "de5b07e4-f382-4e7a-9364-f1552275355e",
    "types": [
      "series",
      "1"
    ]
  }
}