{
  "header": {
    "description": "Karaoke Mugen Tag File",
    "version": 1
  },
  "tag": {
    "i18n": {
      "eng": "Mana Thief"
    },
    "name": "Mana Thief",
    "repository": "kara.moe",
    "tid": "68e8e728-8454-4b71-b699-b100b1a87f46",
    "types": [
      "creators",
      "4"
    ]
  }
}