{
  "header": {
    "description": "Karaoke Mugen Tag File",
    "version": 1
  },
  "tag": {
    "external_database_ids": {
      "anilist": 10282,
      "myanimelist": 10282,
      "kitsu": 6113
    },
    "i18n": {
      "eng": "Japanese Folklore Tales",
      "fre": "Manga Nihon Mukashibanashi",
      "jpn": "まんが日本昔ばなし",
      "qro": "Manga Nihon Mukashibanashi"
    },
    "modified_at": "2020-03-31T19:04:32.190Z",
    "name": "Manga Nihon Mukashibanashi",
    "repository": "kara.moe",
    "tid": "5f45ed37-d88c-487c-8c59-31b3f4f50b19",
    "types": [
      "series",
      "1"
    ]
  }
}