{
  "header": {
    "description": "Karaoke Mugen Tag File",
    "version": 1
  },
  "tag": {
    "i18n": {
      "eng": "Manga Boys"
    },
    "name": "Manga Boys",
    "tid": "4e094a0f-de6a-4433-b2b2-a7aa6c8a05b2",
    "types": [
      "singers",
      "2"
    ],
    "repository": "kara.moe",
    "modified_at": "2020-03-31T19:04:36.008Z"
  }
}