{
  "header": {
    "description": "Karaoke Mugen Tag File",
    "version": 1
  },
  "tag": {
    "i18n": {
      "eng": "Máni Svavarsson"
    },
    "name": "Máni Svavarsson",
    "tid": "88c3a2bb-2fc4-43fb-8fe6-83149bd777bd",
    "types": [
      "songwriters",
      "8"
    ],
    "repository": "kara.moe",
    "modified_at": "2020-03-31T19:04:36.009Z"
  }
}