{
  "header": {
    "description": "Karaoke Mugen Tag File",
    "version": 1
  },
  "tag": {
    "i18n": {
      "eng": "Manny Corallo"
    },
    "name": "Manny Corallo",
    "tid": "40974bee-8892-4500-9bdc-aacfb827b5df",
    "types": [
      "songwriters",
      "8"
    ],
    "repository": "kara.moe",
    "modified_at": "2020-03-31T19:04:36.012Z"
  }
}