{
  "header": {
    "description": "Karaoke Mugen Tag File",
    "version": 1
  },
  "tag": {
    "i18n": {
      "eng": "Mao Takeuchi"
    },
    "name": "Mao Takeuchi",
    "tid": "28fb6a05-4ba3-4cd1-b15e-17efc238b3d7",
    "types": [
      "songwriters",
      "8"
    ],
    "repository": "kara.moe",
    "modified_at": "2020-03-31T19:04:36.021Z"
  }
}