{
  "header": {
    "description": "Karaoke Mugen Tag File",
    "version": 1
  },
  "tag": {
    "aliases": [
      "Abema"
    ],
    "i18n": {
      "eng": "Mao Abe",
      "jpn": "阿部真央",
      "qro": "Mao Abe"
    },
    "name": "Mao Abe",
    "tid": "f4c59697-de08-433b-8dc4-3ba9dfdd571e",
    "types": [
      "singers",
      "2",
      "songwriters",
      "8"
    ],
    "repository": "kara.moe",
    "modified_at": "2020-03-31T19:04:36.018Z"
  }
}