{
  "header": {
    "description": "Karaoke Mugen Tag File",
    "version": 1
  },
  "tag": {
    "i18n": {
      "eng": "marche"
    },
    "name": "marche",
    "repository": "kara.moe",
    "tid": "ab8a95d5-96e9-4169-b2ed-19da72a38acd",
    "types": [
      "creators",
      "4"
    ]
  }
}