{
  "header": {
    "description": "Karaoke Mugen Tag File",
    "version": 1
  },
  "tag": {
    "i18n": {
      "eng": "Marcia"
    },
    "name": "Marcia",
    "repository": "kara.moe",
    "tid": "246c1f13-1272-493f-8625-55e5e5c432b2",
    "types": [
      "songwriters",
      "8",
      "singers",
      "2"
    ]
  }
}