{
  "header": {
    "description": "Karaoke Mugen Tag File",
    "version": 1
  },
  "tag": {
    "i18n": {
      "eng": "Margaret Lucy"
    },
    "name": "Margaret Lucy",
    "tid": "1ded993b-0bcc-41f1-9b39-60115d9b28f3",
    "types": [
      "songwriters",
      "8"
    ],
    "repository": "kara.moe",
    "modified_at": "2020-03-31T19:04:36.031Z"
  }
}