{
  "header": {
    "description": "Karaoke Mugen Tag File",
    "version": 1
  },
  "tag": {
    "i18n": {
      "eng": "Maroon 5"
    },
    "name": "Maroon 5",
    "repository": "kara.moe",
    "tid": "642e01f2-a0e8-4bb9-bdfe-5781bdf09c0a",
    "types": [
      "singers",
      "2"
    ]
  }
}