{
  "header": {
    "description": "Karaoke Mugen Tag File",
    "version": 1
  },
  "tag": {
    "external_database_ids": {
      "anilist": 97981,
      "myanimelist": 34541,
      "kitsu": 13061
    },
    "i18n": {
      "eng": "Mary and the Witch's Flower",
      "fin": "Mary ja noidankukka",
      "fre": "Mary et la Fleur de la sorcière",
      "ger": "Mary und die Blume der Hexen",
      "jpn": "メアリと魔女の花",
      "nor": "Maya og hekseblomsten",
      "rus": "Мэри и ведьмин цветок",
      "spa": "Mary Y La Flor De La Bruja",
      "swe": "Mary och häxans blomma",
      "qro": "Mary to Majo no Hana"
    },
    "modified_at": "2020-03-31T19:04:32.198Z",
    "name": "Mary to Majo no Hana",
    "repository": "kara.moe",
    "tid": "0bb0bd78-8c1e-4eee-9584-5425eb612665",
    "types": [
      "series",
      "1"
    ]
  }
}