{
  "header": {
    "description": "Karaoke Mugen Tag File",
    "version": 1
  },
  "tag": {
    "i18n": {
      "eng": "Masahiro Kawasaki"
    },
    "name": "Masahiro Kawasaki",
    "tid": "1f4a02bd-e45c-4e20-9fae-9ca3d247d26d",
    "types": [
      "songwriters",
      "8"
    ],
    "repository": "kara.moe",
    "modified_at": "2020-03-31T19:04:36.099Z"
  }
}