{
  "header": {
    "description": "Karaoke Mugen Tag File",
    "version": 1
  },
  "tag": {
    "i18n": {
      "eng": "Masashi Kanasaki"
    },
    "modified_at": "2020-08-20T22:13:50.092Z",
    "name": "Masashi Kanasaki",
    "repository": "kara.moe",
    "tid": "10c3f71e-b21b-4207-a025-945d58bcf21b",
    "types": [
      "songwriters",
      "8"
    ]
  }
}