{
  "header": {
    "description": "Karaoke Mugen Tag File",
    "version": 1
  },
  "tag": {
    "i18n": {
      "eng": "Masayuki Yamamoto"
    },
    "modified_at": "2020-07-24T19:20:36.619Z",
    "name": "Masayuki Yamamoto",
    "repository": "kara.moe",
    "tid": "b45c321d-5cd9-41d7-a357-c96b6c902ec1",
    "types": [
      "songwriters",
      "8",
      "singers",
      "2"
    ]
  }
}