{
  "header": {
    "description": "Karaoke Mugen Tag File",
    "version": 1
  },
  "tag": {
    "i18n": {
      "eng": "Masato Ishio"
    },
    "name": "Masato Ishio",
    "repository": "kara.moe",
    "tid": "4b83a807-c4e8-4835-8689-7fc6acbe60a2",
    "types": [
      "creators",
      "4"
    ]
  }
}