{
  "header": {
    "description": "Karaoke Mugen Tag File",
    "version": 1
  },
  "tag": {
    "i18n": {
      "eng": "Masayoshi Minoshima",
      "jpn": "簑島正佳"
    },
    "name": "Masayoshi Minoshima",
    "repository": "kara.moe",
    "tid": "161b51ee-adbb-4e39-84c6-bde865a368bf",
    "types": [
      "songwriters",
      "8",
      "singers",
      "2"
    ]
  }
}