{
  "header": {
    "description": "Karaoke Mugen Tag File",
    "version": 1
  },
  "tag": {
    "i18n": {
      "eng": "MASASHI"
    },
    "name": "MASASHI",
    "tid": "bc4990e0-c7b3-4531-b911-e481a33395ac",
    "types": [
      "songwriters",
      "8"
    ],
    "repository": "kara.moe",
    "modified_at": "2020-03-31T19:04:36.134Z"
  }
}