{
  "header": {
    "description": "Karaoke Mugen Tag File",
    "version": 1
  },
  "tag": {
    "external_database_ids": {
      "anilist": 21857,
      "myanimelist": 33487,
      "kitsu": 12267
    },
    "i18n": {
      "chi": "政宗君的复仇",
      "eng": "Masamune-kun's Revenge",
      "jpn": "政宗くんのリベンジ",
      "kor": "마사무네의 리벤지",
      "qro": "Masamune-kun no Revenge"
    },
    "modified_at": "2020-03-31T19:04:32.198Z",
    "name": "Masamune-kun no Revenge",
    "repository": "kara.moe",
    "tid": "709ffce0-2380-4b52-9738-3bdf8e3ef987",
    "types": [
      "series",
      "1"
    ]
  }
}