{
  "header": {
    "description": "Karaoke Mugen Tag File",
    "version": 1
  },
  "tag": {
    "i18n": {
      "eng": "Masato Kanai"
    },
    "name": "Masato Kanai",
    "tid": "1e58a413-01e6-476d-9e7c-76eebcf0d92b",
    "types": [
      "songwriters",
      "8"
    ],
    "repository": "kara.moe",
    "modified_at": "2020-03-31T19:04:36.138Z"
  }
}