{
  "header": {
    "description": "Karaoke Mugen Tag File",
    "version": 1
  },
  "tag": {
    "i18n": {
      "eng": "Masakazu Togo"
    },
    "name": "Masakazu Togo",
    "tid": "054b81d3-03fa-4330-b64d-aab2b3aa56ef",
    "types": [
      "songwriters",
      "8"
    ],
    "repository": "kara.moe",
    "modified_at": "2020-03-31T19:04:36.105Z"
  }
}