{
  "header": {
    "description": "Karaoke Mugen Tag File",
    "version": 1
  },
  "tag": {
    "i18n": {
      "eng": "Masara Nishida"
    },
    "name": "Masara Nishida",
    "tid": "fa21aa83-9634-4164-ac47-d3f8a8cc8a6a",
    "types": [
      "songwriters",
      "8"
    ],
    "repository": "kara.moe",
    "modified_at": "2020-03-31T19:04:36.129Z"
  }
}