{
  "header": {
    "description": "Karaoke Mugen Tag File",
    "version": 1
  },
  "tag": {
    "i18n": {
      "eng": "Masayoshi Soken"
    },
    "name": "Masayoshi Soken",
    "repository": "kara.moe",
    "tid": "d51ca5ba-f7e8-46a3-be7d-1c32132dcd5a",
    "types": [
      "singers",
      "2"
    ]
  }
}