{
  "header": {
    "description": "Karaoke Mugen Tag File",
    "version": 1
  },
  "tag": {
    "i18n": {
      "eng": "Masaya Koike"
    },
    "name": "Masaya Koike",
    "tid": "6561df56-9df7-49b3-a01a-58595cf9a697",
    "types": [
      "songwriters",
      "8"
    ],
    "repository": "kara.moe",
    "modified_at": "2020-03-31T19:04:36.152Z"
  }
}