{
  "header": {
    "description": "Karaoke Mugen Tag File",
    "version": 1
  },
  "tag": {
    "i18n": {
      "eng": "Mashiro Shirakami"
    },
    "name": "Mashiro Shirakami",
    "repository": "kara.moe",
    "tid": "ed9244a4-8b02-44ab-8b05-98b540c06999",
    "types": [
      "songwriters",
      "8"
    ]
  }
}