{
  "header": {
    "description": "Karaoke Mugen Tag File",
    "version": 1
  },
  "tag": {
    "i18n": {
      "jpn": "志村 真白",
      "qro": "Mashiro Shimura"
    },
    "name": "Mashiro Shimura",
    "repository": "kara.moe",
    "tid": "b55ad77b-2a78-4823-911f-4bc587b588ef",
    "types": [
      "songwriters",
      "8"
    ]
  }
}