{
  "header": {
    "description": "Karaoke Mugen Tag File",
    "version": 1
  },
  "tag": {
    "i18n": {
      "eng": "Mass Alert"
    },
    "modified_at": "2020-08-30T14:42:47.096Z",
    "name": "Mass Alert",
    "repository": "kara.moe",
    "tid": "3fd876bb-be14-405d-b76a-c8bc343e6d52",
    "types": [
      "songwriters",
      "8",
      "singers",
      "2"
    ]
  }
}