{
  "header": {
    "description": "Karaoke Mugen Tag File",
    "version": 1
  },
  "tag": {
    "i18n": {
      "eng": "Massimo Gabutti"
    },
    "modified_at": "2020-07-10T22:10:03.770Z",
    "name": "Massimo Gabutti",
    "repository": "kara.moe",
    "tid": "6c7e5729-735c-4f4a-90c1-27d1103cc77b",
    "types": [
      "songwriters",
      "8"
    ]
  }
}