{
  "header": {
    "description": "Karaoke Mugen Tag File",
    "version": 1
  },
  "tag": {
    "i18n": {
      "eng": "Master Sword"
    },
    "modified_at": "2021-01-13T18:12:33.490Z",
    "name": "Master Sword",
    "repository": "kara.moe",
    "tid": "3f0ee82b-a782-42f0-b3ee-92cc9a6da568",
    "types": [
      "songwriters",
      "8"
    ]
  }
}