{
  "header": {
    "description": "Karaoke Mugen Tag File",
    "version": 1
  },
  "tag": {
    "i18n": {
      "eng": "Matsumoto Yasuo"
    },
    "name": "Matsumoto Yasuo",
    "tid": "4d350d43-4b9e-4b7b-8fcb-0cf0fccf2039",
    "types": [
      "songwriters",
      "8"
    ],
    "repository": "kara.moe",
    "modified_at": "2020-03-31T19:04:36.183Z"
  }
}