{
  "header": {
    "description": "Karaoke Mugen Tag File",
    "version": 1
  },
  "tag": {
    "i18n": {
      "eng": "Matsumoto Fuminori"
    },
    "name": "Matsumoto Fuminori",
    "tid": "19048284-a4f3-4eb3-bc00-e9b59da0444a",
    "types": [
      "songwriters",
      "8"
    ],
    "repository": "kara.moe",
    "modified_at": "2020-03-31T19:04:36.182Z"
  }
}