{
  "header": {
    "description": "Karaoke Mugen Tag File",
    "version": 1
  },
  "tag": {
    "i18n": {
      "eng": "Matthew Risch"
    },
    "name": "Matthew Risch",
    "tid": "2beb6b38-937b-4463-8668-121bb7625655",
    "types": [
      "singers",
      "2"
    ],
    "repository": "kara.moe",
    "modified_at": "2020-03-31T19:04:36.189Z"
  }
}