{
  "header": {
    "description": "Karaoke Mugen Tag File",
    "version": 1
  },
  "tag": {
    "i18n": {
      "eng": "Matthew Wilder"
    },
    "name": "Matthew Wilder",
    "tid": "c43fc839-75f6-4acb-983b-371b92c3c12a",
    "types": [
      "songwriters",
      "8"
    ],
    "repository": "kara.moe",
    "modified_at": "2020-03-31T19:04:36.189Z"
  }
}