{
  "header": {
    "description": "Karaoke Mugen Tag File",
    "version": 1
  },
  "tag": {
    "i18n": {
      "eng": "Mattel"
    },
    "name": "Mattel",
    "tid": "bc9e9409-764e-499c-8c10-be5fcd04e028",
    "types": [
      "creators",
      "4"
    ],
    "repository": "kara.moe",
    "modified_at": "2020-03-31T19:04:36.187Z"
  }
}