{
  "header": {
    "description": "Karaoke Mugen Tag File",
    "version": 1
  },
  "tag": {
    "i18n": {
      "eng": "Mattwins"
    },
    "name": "Mattwins",
    "repository": "kara.moe",
    "tid": "ab6ba493-51c3-4623-a539-02060f53d2ea",
    "types": [
      "creators",
      "4"
    ]
  }
}