{
  "header": {
    "description": "Karaoke Mugen Tag File",
    "version": 1
  },
  "tag": {
    "i18n": {
      "eng": "Maxdomian"
    },
    "name": "Maxdomian",
    "repository": "kara.moe",
    "tid": "e11347e4-80ea-46f9-a3d1-b83e0c2bb12f",
    "types": [
      "authors",
      "6"
    ]
  }
}