{
  "header": {
    "description": "Karaoke Mugen Tag File",
    "version": 1
  },
  "tag": {
    "external_database_ids": {
      "anilist": 21567,
      "myanimelist": 32438,
      "kitsu": 11682
    },
    "i18n": {
      "eng": "The Lost Village",
      "fre": "Mayoiga",
      "jpn": "迷家[マヨイガ]",
      "rus": "Пристанище потерянных",
      "qro": "Mayoiga"
    },
    "modified_at": "2020-03-31T19:04:32.209Z",
    "name": "Mayoiga",
    "repository": "kara.moe",
    "tid": "1b1c8747-5f01-4858-8c57-0a84f8acf2ba",
    "types": [
      "series",
      "1"
    ]
  }
}