{
  "header": {
    "description": "Karaoke Mugen Tag File",
    "version": 1
  },
  "tag": {
    "i18n": {
      "eng": "Mayo Suzukaze"
    },
    "name": "Mayo Suzukaze",
    "tid": "5de8700b-0f04-4aee-b505-70b63f099ea8",
    "types": [
      "singers",
      "2"
    ],
    "repository": "kara.moe",
    "modified_at": "2020-03-31T19:04:36.207Z"
  }
}