{
  "header": {
    "description": "Karaoke Mugen Tag File",
    "version": 1
  },
  "tag": {
    "aliases": [
      "Gojou"
    ],
    "i18n": {
      "eng": "Mayumi Gojô"
    },
    "name": "Mayumi Gojô",
    "repository": "kara.moe",
    "tid": "aee3363f-16df-40c6-9403-8e655f3d0b28",
    "types": [
      "singers",
      "2"
    ]
  }
}