{
  "header": {
    "description": "Karaoke Mugen Tag File",
    "version": 1
  },
  "tag": {
    "i18n": {
      "eng": "Mayu Miyazaki"
    },
    "name": "Mayu Miyazaki",
    "tid": "951e245d-f3d0-4a5e-9874-dc9d6a68be64",
    "types": [
      "songwriters",
      "8"
    ],
    "repository": "kara.moe",
    "modified_at": "2020-03-31T19:04:36.209Z"
  }
}