{
  "header": {
    "description": "Karaoke Mugen Tag File",
    "version": 1
  },
  "tag": {
    "aliases": [
      "Mazinkaiser Skull",
      "Mazinkaizer Skull"
    ],
    "external_database_ids": {
      "anilist": 8666,
      "myanimelist": 8666,
      "kitsu": 5428
    },
    "i18n": {
      "eng": "Mazinkaiser SKL",
      "jpn": "マジンカイザーSKL",
      "qro": "Mazinkaiser SKL"
    },
    "modified_at": "2020-06-21T23:45:31.966Z",
    "name": "Mazinkaiser SKL",
    "repository": "kara.moe",
    "tid": "afc4efad-b481-4c7a-b62b-18c8c6911271",
    "types": [
      "series",
      "1"
    ]
  }
}