{
  "header": {
    "description": "Karaoke Mugen Tag File",
    "version": 1
  },
  "tag": {
    "aliases": [
      "Stanley Kirk Burrell"
    ],
    "i18n": {
      "eng": "MC Hammer"
    },
    "modified_at": "2021-04-29T22:46:50.361Z",
    "name": "MC Hammer",
    "repository": "kara.moe",
    "tid": "8e44c09c-4707-473d-948c-afcc6359d8de",
    "types": [
      "songwriters",
      "8",
      "singers",
      "2"
    ]
  }
}