{
  "header": {
    "description": "Karaoke Mugen Tag File",
    "version": 1
  },
  "tag": {
    "aliases": [
      "Medaka Box 2"
    ],
    "external_database_ids": {
      "anilist": 14527,
      "myanimelist": 14527,
      "kitsu": 7132
    },
    "i18n": {
      "eng": "Medaka Box Abnormal",
      "fre": "Médaka Box Abnormal",
      "jpn": "めだかボックス アブノーマル",
      "qro": "Medaka Box Abnormal"
    },
    "modified_at": "2020-03-31T19:04:32.212Z",
    "name": "Medaka Box Abnormal",
    "repository": "kara.moe",
    "tid": "fea75d8c-cff5-40af-9a88-e66b839d0d22",
    "types": [
      "series",
      "1"
    ]
  }
}