{
  "header": {
    "description": "Karaoke Mugen Tag File",
    "version": 1
  },
  "tag": {
    "i18n": {
      "eng": "media youth"
    },
    "modified_at": "2020-07-19T15:06:53.047Z",
    "name": "media youth",
    "repository": "kara.moe",
    "tid": "5783682a-ce80-492f-948f-7e6901a65251",
    "types": [
      "songwriters",
      "8",
      "singers",
      "2"
    ]
  }
}