{
  "header": {
    "description": "Karaoke Mugen Tag File",
    "version": 1
  },
  "tag": {
    "i18n": {
      "eng": "MEEKO (CHERRYBLOSSOM)"
    },
    "name": "MEEKO (CHERRYBLOSSOM)",
    "tid": "6090128a-cb2d-4e98-b96c-b9c8f9e266b2",
    "types": [
      "songwriters",
      "8"
    ],
    "repository": "kara.moe",
    "modified_at": "2020-03-31T19:04:36.225Z"
  }
}