{
  "header": {
    "description": "Karaoke Mugen Tag File",
    "version": 1
  },
  "tag": {
    "aliases": [
      "NOMAD: Megalobox 2"
    ],
    "external_database_ids": {
      "anilist": 113359,
      "myanimelist": 40729,
      "kitsu": 42720
    },
    "i18n": {
      "jpn": "NOMAD メガロボクス2",
      "eng": "Megalo Box 2: Nomad",
      "qro": "Megalo Box 2: Nomad"
    },
    "modified_at": "2021-04-10T02:41:27.641Z",
    "name": "Megalo Box 2: Nomad",
    "repository": "kara.moe",
    "tid": "f30a6ad4-31c2-4cf0-af5a-66a8efdfa140",
    "types": [
      "series",
      "1"
    ]
  }
}