{
  "header": {
    "description": "Karaoke Mugen Tag File",
    "version": 1
  },
  "tag": {
    "external_database_ids": {
      "anilist": 9335,
      "myanimelist": 9335,
      "kitsu": 5683
    },
    "i18n": {
      "eng": "Megane na Kanojo",
      "jpn": "眼鏡なカノジョ",
      "qro": "Megane na Kanojo"
    },
    "modified_at": "2020-03-31T19:04:32.216Z",
    "name": "Megane na Kanojo",
    "repository": "kara.moe",
    "tid": "46f940ca-8726-4ca0-a23a-ef7d542c6495",
    "types": [
      "series",
      "1"
    ]
  }
}