{
  "header": {
    "description": "Karaoke Mugen Tag File",
    "version": 1
  },
  "tag": {
    "aliases": [
      "MEGAZONE TWO THREE",
      "Megazone 23 PART I"
    ],
    "external_database_ids": {
      "anilist": 1935,
      "myanimelist": 1935,
      "kitsu": 1744
    },
    "i18n": {
      "eng": "Megazone 23",
      "jpn": "メガゾーン23",
      "kor": "메가존 23",
      "qro": "Megazone 23"
    },
    "modified_at": "2020-03-31T19:04:32.220Z",
    "name": "Megazone 23",
    "repository": "kara.moe",
    "tid": "e6c83abf-2a74-44b3-a41a-a39699488f6b",
    "types": [
      "series",
      "1",
      "franchises",
      "18"
    ]
  }
}