{
  "header": {
    "description": "Karaoke Mugen Tag File",
    "version": 1
  },
  "tag": {
    "i18n": {
      "eng": "MEGMETAL"
    },
    "modified_at": "2021-11-20T18:30:26.359Z",
    "name": "MEGMETAL",
    "repository": "kara.moe",
    "tid": "72525245-b4ef-4e43-b7ad-8c9d925e77a7",
    "types": [
      "songwriters",
      "8"
    ]
  }
}