{
  "header": {
    "description": "Karaoke Mugen Tag File",
    "version": 1
  },
  "tag": {
    "i18n": {
      "eng": "Megumi Shiina"
    },
    "name": "Megumi Shiina",
    "tid": "351df77c-7b94-4a98-8c49-8ddff8a56500",
    "types": [
      "singers",
      "2",
      "songwriters",
      "8"
    ],
    "repository": "kara.moe",
    "modified_at": "2020-03-31T19:04:36.241Z"
  }
}