{
  "header": {
    "description": "Karaoke Mugen Tag File",
    "version": 1
  },
  "tag": {
    "i18n": {
      "eng": "Meiko Yamamoto"
    },
    "name": "Meiko Yamamoto",
    "tid": "016730dc-157e-4f92-b1a1-5dfaff935c35",
    "types": [
      "songwriters",
      "8"
    ],
    "repository": "kara.moe",
    "modified_at": "2020-03-31T19:04:36.248Z"
  }
}