{
  "header": {
    "description": "Karaoke Mugen Tag File",
    "version": 1
  },
  "tag": {
    "i18n": {
      "eng": "meister"
    },
    "name": "meister",
    "tid": "6caee9f3-1c21-4a9e-bdf5-07b2711d6edb",
    "types": [
      "singers",
      "2"
    ],
    "repository": "kara.moe",
    "modified_at": "2020-03-31T19:04:36.250Z"
  }
}