{
  "header": {
    "description": "Karaoke Mugen Tag File",
    "version": 1
  },
  "tag": {
    "i18n": {
      "eng": "Mel Yozora",
      "jpn": "夜空メル",
      "qro": "Mel Yozora"
    },
    "modified_at": "2021-09-02T20:06:08.129Z",
    "name": "Mel Yozora",
    "repository": "kara.moe",
    "tid": "cf295380-0594-4c0e-ab6f-08c156dc9dce",
    "types": [
      "singers",
      "2"
    ]
  }
}