{
  "header": {
    "description": "Karaoke Mugen Tag File",
    "version": 1
  },
  "tag": {
    "i18n": {
      "eng": "Mélanie Vallois"
    },
    "name": "Mélanie Vallois",
    "tid": "5160cffc-de47-4fd9-a0d1-e3743c71e1a3",
    "types": [
      "singers",
      "2"
    ],
    "repository": "kara.moe",
    "modified_at": "2020-03-31T19:04:36.251Z"
  }
}