{
  "header": {
    "description": "Karaoke Mugen Tag File",
    "version": 1
  },
  "tag": {
    "i18n": {
      "eng": "Mélanie Dermont"
    },
    "name": "Mélanie Dermont",
    "tid": "2c549f8e-adec-4b08-8318-794ffee8c184",
    "types": [
      "singers",
      "2"
    ],
    "repository": "kara.moe",
    "modified_at": "2020-03-31T19:04:36.251Z"
  }
}