{
  "header": {
    "description": "Karaoke Mugen Tag File",
    "version": 1
  },
  "tag": {
    "i18n": {
      "eng": "Meow Harada"
    },
    "name": "Meow Harada",
    "repository": "kara.moe",
    "tid": "1f5486dd-1340-418b-8531-de2501e45b27",
    "types": [
      "songwriters",
      "8"
    ]
  }
}