{
  "header": {
    "description": "Karaoke Mugen Tag File",
    "version": 1
  },
  "tag": {
    "i18n": {
      "eng": "Mermaid Melody: Pichi Pichitto Live Start!!",
      "jpn": "Mermaid Melody: Pichi Pichitto Live Start!!",
      "qro": "Mermaid Melody Pichi Pichitto Live Start"
    },
    "modified_at": "2020-03-31T19:04:32.228Z",
    "name": "Mermaid Melody Pichi Pichitto Live Start",
    "repository": "kara.moe",
    "tid": "3b7233c8-2038-4652-b1f0-9b0f6744e2dd",
    "types": [
      "series",
      "1"
    ]
  }
}