{
  "header": {
    "description": "Karaoke Mugen Tag File",
    "version": 1
  },
  "tag": {
    "external_database_ids": {
      "anilist": 5962,
      "myanimelist": 5962,
      "kitsu": 4365
    },
    "i18n": {
      "ara": "بي بليد المعركة الحديدية",
      "eng": "Beyblade: Metal Fusion",
      "gre": "BEYBLADE",
      "heb": "בייבלייד: עידן המתכת",
      "jpn": "メタルファイト ベイブレード",
      "qro": "Metal Fight Beyblade"
    },
    "modified_at": "2020-03-31T19:04:32.230Z",
    "name": "Metal Fight Beyblade",
    "repository": "kara.moe",
    "tid": "c41b3f24-1302-4d8b-baaa-8ba1f400418b",
    "types": [
      "series",
      "1"
    ]
  }
}