{
  "header": {
    "description": "Karaoke Mugen Tag File",
    "version": 1
  },
  "tag": {
    "i18n": {
      "eng": "Mewhan"
    },
    "name": "Mewhan",
    "tid": "e95ebd28-7429-4679-a769-66c58647b35d",
    "types": [
      "singers",
      "2",
      "songwriters",
      "8"
    ],
    "repository": "kara.moe",
    "modified_at": "2020-03-31T19:04:36.269Z"
  }
}