{
  "header": {
    "description": "Karaoke Mugen Tag File",
    "version": 1
  },
  "tag": {
    "i18n": {
      "eng": "Mia"
    },
    "modified_at": "2021-01-29T01:02:29.048Z",
    "name": "Mia",
    "repository": "kara.moe",
    "tid": "34e2b590-6d24-4c4e-9cc9-1e147e0f57a2",
    "types": [
      "singers",
      "2"
    ]
  }
}