{
  "header": {
    "description": "Karaoke Mugen Tag File",
    "version": 1
  },
  "tag": {
    "i18n": {
      "eng": "Michael Brady"
    },
    "name": "Michael Brady",
    "tid": "340e3110-eb64-4307-8f66-ddfbe24d6541",
    "types": [
      "songwriters",
      "8"
    ],
    "repository": "kara.moe",
    "modified_at": "2020-03-31T19:04:36.274Z"
  }
}