{
  "header": {
    "description": "Karaoke Mugen Tag File",
    "version": 1
  },
  "tag": {
    "i18n": {
      "eng": "Michel Trouillet"
    },
    "name": "Michel Trouillet",
    "tid": "ab423f00-03ed-43e2-b159-0bbb1ccc42c4",
    "types": [
      "songwriters",
      "8"
    ],
    "repository": "kara.moe",
    "modified_at": "2020-03-31T19:04:36.286Z"
  }
}