{
  "header": {
    "description": "Karaoke Mugen Tag File",
    "version": 1
  },
  "tag": {
    "i18n": {
      "eng": "Michel Sanchez"
    },
    "name": "Michel Sanchez",
    "repository": "kara.moe",
    "tid": "3b070f04-148e-4697-a935-a9bbdcb04b83",
    "types": [
      "songwriters",
      "8"
    ]
  }
}