{
  "header": {
    "description": "Karaoke Mugen Tag File",
    "version": 1
  },
  "tag": {
    "i18n": {
      "eng": "michitomo"
    },
    "name": "michitomo",
    "tid": "2a8b4515-96a8-4dc1-99ae-666e5a567f4e",
    "types": [
      "songwriters",
      "8"
    ],
    "repository": "kara.moe",
    "modified_at": "2020-03-31T19:04:36.299Z"
  }
}