{
  "header": {
    "description": "Karaoke Mugen Tag File",
    "version": 1
  },
  "tag": {
    "i18n": {
      "eng": "Michel Barouille"
    },
    "name": "Michel Barouille",
    "tid": "90a3e7be-ef34-4086-9540-4ca88476b907",
    "types": [
      "singers",
      "2"
    ],
    "repository": "kara.moe",
    "modified_at": "2020-03-31T19:04:36.281Z"
  }
}