{
  "header": {
    "description": "Karaoke Mugen Tag File",
    "version": 1
  },
  "tag": {
    "i18n": {
      "eng": "Michael McCustion"
    },
    "modified_at": "2020-10-30T00:11:51.412Z",
    "name": "Michael McCustion",
    "repository": "kara.moe",
    "tid": "d254ce52-f2d5-4de5-89e4-216fd03f8691",
    "types": [
      "songwriters",
      "8"
    ]
  }
}