{
  "header": {
    "description": "Karaoke Mugen Tag File",
    "version": 1
  },
  "tag": {
    "i18n": {
      "eng": "Michio Yamagami"
    },
    "name": "Michio Yamagami",
    "tid": "beaee245-06af-4ff5-b508-862caf76e9e9",
    "types": [
      "singers",
      "2",
      "songwriters",
      "8"
    ],
    "repository": "kara.moe",
    "modified_at": "2020-03-31T19:04:36.296Z"
  }
}