{
  "header": {
    "description": "Karaoke Mugen Tag File",
    "version": 1
  },
  "tag": {
    "aliases": [
      "Meus Dias com Midori",
      "Midori Dienos",
      "MnH",
      "My Days With Midori",
      "Nhật ký Midori",
      "Дни Мидори",
      "Зелени дни",
      "ימיה של מידורי",
      "يوميات ميدوري",
      "美鸟日记"
    ],
    "external_database_ids": {
      "anilist": 330,
      "myanimelist": 330,
      "kitsu": 297
    },
    "i18n": {
      "eng": "Midori Days",
      "fre": "Midori Days",
      "jpn": "美鳥の日々",
      "tha": "มือขวากับขาโจ๋",
      "qro": "Midori no Hibi"
    },
    "modified_at": "2020-03-31T19:04:32.236Z",
    "name": "Midori no Hibi",
    "repository": "kara.moe",
    "tid": "464b520c-6108-4c4f-8fb2-af4a76280479",
    "types": [
      "series",
      "1"
    ]
  }
}