{
  "header": {
    "description": "Karaoke Mugen Tag File",
    "version": 1
  },
  "tag": {
    "i18n": {
      "eng": "MIE"
    },
    "name": "MIE",
    "tid": "6f83c042-5637-4bbe-a7be-f5becf99f961",
    "types": [
      "songwriters",
      "8"
    ],
    "repository": "kara.moe",
    "modified_at": "2020-03-31T19:04:36.307Z"
  }
}