{
  "header": {
    "description": "Karaoke Mugen Tag File",
    "version": 1
  },
  "tag": {
    "i18n": {
      "eng": "Miharu Hirami"
    },
    "name": "Miharu Hirami",
    "tid": "cb0acc41-70dc-4069-804f-2da205058723",
    "types": [
      "songwriters",
      "8"
    ],
    "repository": "kara.moe",
    "modified_at": "2020-03-31T19:04:36.309Z"
  }
}