{
  "header": {
    "description": "Karaoke Mugen Tag File",
    "version": 1
  },
  "tag": {
    "i18n": {
      "jpn": "岡咲 美保",
      "qro": "Miho Okasaki"
    },
    "name": "Miho Okasaki",
    "repository": "kara.moe",
    "tid": "34a77db2-c2d1-49b6-b1a1-5ef4a15990d8",
    "types": [
      "singers",
      "2"
    ]
  }
}