{
  "header": {
    "description": "Karaoke Mugen Tag File",
    "version": 1
  },
  "tag": {
    "i18n": {
      "eng": "Mika Nakashima"
    },
    "name": "Mika Nakashima",
    "tid": "8311fc73-f6c6-40ec-b2bb-3910f4b1733a",
    "types": [
      "singers",
      "2",
      "songwriters",
      "8"
    ],
    "repository": "kara.moe",
    "modified_at": "2020-03-31T19:04:36.322Z"
  }
}