{
  "header": {
    "description": "Karaoke Mugen Tag File",
    "version": 1
  },
  "tag": {
    "i18n": {
      "eng": "Mike"
    },
    "name": "Mike",
    "repository": "kara.moe",
    "tid": "738bdfff-8427-4f13-8c6b-91dd9d759049",
    "types": [
      "creators",
      "4"
    ]
  }
}