{
  "header": {
    "description": "Karaoke Mugen Tag File",
    "version": 1
  },
  "tag": {
    "i18n": {
      "eng": "Miki Asano"
    },
    "name": "Miki Asano",
    "tid": "6f5ecd8e-2d98-4ff0-aea6-7b1ab42b844e",
    "types": [
      "songwriters",
      "8"
    ],
    "repository": "kara.moe",
    "modified_at": "2020-03-31T19:04:36.332Z"
  }
}