{
  "header": {
    "description": "Karaoke Mugen Tag File",
    "version": 1
  },
  "tag": {
    "i18n": {
      "eng": "Miki Kawano"
    },
    "name": "Miki Kawano",
    "tid": "4c3474c9-3de5-4da4-be78-0b7685acfa18",
    "types": [
      "songwriters",
      "8"
    ],
    "repository": "kara.moe",
    "modified_at": "2020-03-31T19:04:36.336Z"
  }
}