{
  "header": {
    "description": "Karaoke Mugen Tag File",
    "version": 1
  },
  "tag": {
    "i18n": {
      "eng": "Miki Taoka"
    },
    "name": "Miki Taoka",
    "tid": "c55a358d-e0c8-4a50-9b9c-941aae58af5b",
    "types": [
      "songwriters",
      "8"
    ],
    "repository": "kara.moe",
    "modified_at": "2020-03-31T19:04:36.339Z"
  }
}