{
  "header": {
    "description": "Karaoke Mugen Tag File",
    "version": 1
  },
  "tag": {
    "i18n": {
      "eng": "Mila Kunis"
    },
    "name": "Mila Kunis",
    "repository": "kara.moe",
    "tid": "bc7cd19d-c218-400f-9ef7-b8f945e7cf6b",
    "types": [
      "singers",
      "2"
    ]
  }
}