{
  "header": {
    "description": "Karaoke Mugen Tag File",
    "version": 1
  },
  "tag": {
    "i18n": {
      "eng": "Millepensee"
    },
    "name": "Millepensee",
    "tid": "9a545e0e-1088-49b3-84f3-a63acdb8198d",
    "types": [
      "creators",
      "4"
    ],
    "repository": "kara.moe",
    "modified_at": "2020-03-31T19:04:36.356Z"
  }
}