{
  "header": {
    "description": "Karaoke Mugen Tag File",
    "version": 1
  },
  "tag": {
    "i18n": {
      "eng": "Minami Toriyama 6-Chome Productions"
    },
    "name": "Minami Toriyama 6-Chome Productions",
    "tid": "53ff4b0f-088b-4969-9931-c90808b91415",
    "types": [
      "singers",
      "2"
    ],
    "repository": "kara.moe",
    "modified_at": "2020-03-31T19:04:36.370Z"
  }
}