{
  "header": {
    "description": "Karaoke Mugen Tag File",
    "version": 1
  },
  "tag": {
    "i18n": {
      "eng": "mineko"
    },
    "name": "mineko",
    "repository": "kara.moe",
    "tid": "8c99b399-ab59-4db3-b01d-aae9262258ee",
    "types": [
      "singers",
      "2"
    ]
  }
}