{
  "header": {
    "description": "Karaoke Mugen Tag File",
    "version": 1
  },
  "tag": {
    "i18n": {
      "eng": "Minstrel"
    },
    "modified_at": "2020-08-05T21:44:30.497Z",
    "name": "Minstrel",
    "repository": "kara.moe",
    "tid": "bb131f8b-511c-4e76-91d5-cd61f3316e37",
    "types": [
      "songwriters",
      "8",
      "creators",
      "4"
    ]
  }
}