{
  "header": {
    "description": "Karaoke Mugen Tag File",
    "version": 1
  },
  "tag": {
    "i18n": {
      "eng": "Mio Hoshitani"
    },
    "modified_at": "2021-08-22T11:44:39.983Z",
    "name": "Mio Hoshitani",
    "repository": "kara.moe",
    "tid": "54190d91-98d2-4b07-ac83-bee4dae91ea9",
    "types": [
      "singers",
      "2"
    ]
  }
}