{
  "header": {
    "description": "Karaoke Mugen Tag File",
    "version": 1
  },
  "tag": {
    "i18n": {
      "eng": "Miracle☆Kiratts"
    },
    "name": "Miracle☆Kiratts",
    "repository": "kara.moe",
    "tid": "f3a206f7-e441-4cb9-90a7-30661464f0c2",
    "types": [
      "singergroups",
      "17"
    ]
  }
}