{
  "header": {
    "description": "Karaoke Mugen Tag File",
    "version": 1
  },
  "tag": {
    "i18n": {
      "eng": "MIRAI records"
    },
    "name": "MIRAI records",
    "repository": "kara.moe",
    "tid": "a2957255-ef87-43ae-95b6-39bb75b6fdf5",
    "types": [
      "creators",
      "4"
    ]
  }
}