{
  "header": {
    "description": "Karaoke Mugen Tag File",
    "version": 1
  },
  "tag": {
    "i18n": {
      "eng": "Miracle²"
    },
    "name": "Miracle²",
    "tid": "f7686144-bbeb-4590-bbaf-d0c33783f4aa",
    "types": [
      "singers",
      "2"
    ],
    "repository": "kara.moe",
    "modified_at": "2020-03-31T19:04:36.394Z"
  }
}