{
  "header": {
    "description": "Karaoke Mugen Tag File",
    "version": 1
  },
  "tag": {
    "aliases": [
      "Future Squadron Timeranger"
    ],
    "i18n": {
      "eng": "Mirai Sentai Timeranger",
      "jpn": "未来戦隊タイムレンジャー",
      "qro": "Mirai Sentai Timeranger"
    },
    "modified_at": "2020-03-31T19:04:32.250Z",
    "name": "Mirai Sentai Timeranger",
    "repository": "kara.moe",
    "tid": "276c7710-0f54-4f1b-8fac-f7567f685f7e",
    "types": [
      "series",
      "1"
    ]
  }
}