{
  "header": {
    "description": "Karaoke Mugen Tag File",
    "version": 1
  },
  "tag": {
    "i18n": {
      "eng": "Miri Matsuda"
    },
    "name": "Miri Matsuda",
    "repository": "kara.moe",
    "tid": "7b780049-3d3e-4698-8fdf-3f98c32c8e37",
    "types": [
      "singers",
      "2"
    ]
  }
}