{
  "header": {
    "description": "Karaoke Mugen Tag File",
    "version": 1
  },
  "tag": {
    "i18n": {
      "eng": "Misha"
    },
    "name": "Misha",
    "repository": "kara.moe",
    "tid": "013bd1f3-d649-416e-a34c-95aa2fdbbb5c",
    "types": [
      "singers",
      "2",
      "songwriters",
      "8"
    ]
  }
}