{
  "header": {
    "description": "Karaoke Mugen Tag File",
    "version": 1
  },
  "tag": {
    "i18n": {
      "eng": "Misono Kana"
    },
    "name": "Misono Kana",
    "tid": "b91f795f-8503-4fb3-a633-7d760dc7b314",
    "types": [
      "songwriters",
      "8"
    ],
    "repository": "kara.moe",
    "modified_at": "2020-03-31T19:04:36.404Z"
  }
}