{
  "header": {
    "description": "Karaoke Mugen Tag File",
    "version": 1
  },
  "tag": {
    "external_database_ids": {
      "anilist": 4209,
      "myanimelist": 4209,
      "kitsu": 3525
    },
    "i18n": {
      "eng": "Mission-E",
      "jpn": "MISSION-E",
      "qro": "Mission-E"
    },
    "modified_at": "2020-03-31T19:04:32.253Z",
    "name": "Mission-E",
    "repository": "kara.moe",
    "tid": "93d1b692-fbd5-4f66-86d1-ea6200a78297",
    "types": [
      "series",
      "1"
    ]
  }
}