{
  "header": {
    "description": "Karaoke Mugen Tag File",
    "version": 1
  },
  "tag": {
    "i18n": {
      "jpn": "山田 美鈴",
      "qro": "Misuzu Yamada"
    },
    "name": "Misuzu Yamada",
    "repository": "kara.moe",
    "tid": "af6c1ffe-0788-40fb-9dfb-b1816a3288e9",
    "types": [
      "singers",
      "2"
    ]
  }
}