{
  "header": {
    "description": "Karaoke Mugen Tag File",
    "version": 1
  },
  "tag": {
    "i18n": {
      "eng": "Misuzu Jidô Gasshôdan"
    },
    "name": "Misuzu Jidô Gasshôdan",
    "tid": "a3b21ee8-92ea-42ed-86b7-a9e8de47458b",
    "types": [
      "singers",
      "2"
    ],
    "repository": "kara.moe",
    "modified_at": "2020-03-31T19:04:36.407Z"
  }
}