{
  "header": {
    "description": "Karaoke Mugen Tag File",
    "version": 1
  },
  "tag": {
    "i18n": {
      "eng": "Mitsuo Yamamoto"
    },
    "name": "Mitsuo Yamamoto",
    "repository": "kara.moe",
    "tid": "1c1c9b23-c9b2-4f9b-9072-c8f127dcfdd3",
    "types": [
      "songwriters",
      "8"
    ]
  }
}