{
  "header": {
    "description": "Karaoke Mugen Tag File",
    "version": 1
  },
  "tag": {
    "i18n": {
      "eng": "Mitsuko Komuro"
    },
    "name": "Mitsuko Komuro",
    "tid": "9a1650e0-13a2-4d49-817e-8e9e4dc4d5ac",
    "types": [
      "songwriters",
      "8"
    ],
    "repository": "kara.moe",
    "modified_at": "2020-03-31T19:04:36.419Z"
  }
}