{
  "header": {
    "description": "Karaoke Mugen Tag File",
    "version": 1
  },
  "tag": {
    "i18n": {
      "eng": "Miyashita Yuu"
    },
    "name": "Miyashita Yuu",
    "repository": "kara.moe",
    "tid": "d2325cea-01bb-495e-ad9b-210e9caf7561",
    "types": [
      "singers",
      "2"
    ]
  }
}