{
  "header": {
    "description": "Karaoke Mugen Tag File",
    "version": 1
  },
  "tag": {
    "i18n": {
      "eng": "Miyabi Nakai"
    },
    "name": "Miyabi Nakai",
    "tid": "691d6357-ca4e-42b7-8c50-e6a45a5b3da8",
    "types": [
      "songwriters",
      "8"
    ],
    "repository": "kara.moe",
    "modified_at": "2020-03-31T19:04:36.430Z"
  }
}