{
  "header": {
    "description": "Karaoke Mugen Tag File",
    "version": 1
  },
  "tag": {
    "aliases": [
      "Masaaki Yaguchi"
    ],
    "i18n": {
      "eng": "Miya"
    },
    "modified_at": "2020-11-15T16:13:13.076Z",
    "name": "Miya",
    "repository": "kara.moe",
    "tid": "7deff575-e060-4dfa-ab34-59fe10328153",
    "types": [
      "songwriters",
      "8"
    ]
  }
}