{
  "header": {
    "description": "Karaoke Mugen Tag File",
    "version": 1
  },
  "tag": {
    "i18n": {
      "eng": "Miyakawa-kun"
    },
    "name": "Miyakawa-kun",
    "repository": "kara.moe",
    "tid": "04e43a60-541c-418b-a872-2dc630645c86",
    "types": [
      "songwriters",
      "8",
      "singers",
      "2"
    ]
  }
}