{
  "header": {
    "description": "Karaoke Mugen Tag File",
    "version": 1
  },
  "tag": {
    "i18n": {
      "eng": "MiYAMO"
    },
    "name": "MiYAMO",
    "tid": "18c45e3d-7964-4b6b-b9ba-e7635f9fe1e4",
    "types": [
      "songwriters",
      "8"
    ],
    "repository": "kara.moe",
    "modified_at": "2020-03-31T19:04:36.432Z"
  }
}