{
  "header": {
    "description": "Karaoke Mugen Tag File",
    "version": 1
  },
  "tag": {
    "i18n": {
      "eng": "Mizrock"
    },
    "name": "Mizrock",
    "tid": "b3c1f555-0d77-41f6-a10d-81f894cda628",
    "types": [
      "singers",
      "2",
      "songwriters",
      "8"
    ],
    "repository": "kara.moe",
    "modified_at": "2020-03-31T19:04:36.447Z"
  }
}