{
  "header": {
    "description": "Karaoke Mugen Tag File",
    "version": 1
  },
  "tag": {
    "aliases": [
      "Mizuiro (2002)",
      "Mizuiro OVA 1",
      "미즈이로"
    ],
    "external_database_ids": {
      "anilist": 1038,
      "myanimelist": 1038,
      "kitsu": 928
    },
    "i18n": {
      "eng": "Mizuiro",
      "jpn": "みずいろ",
      "qro": "Mizuiro"
    },
    "modified_at": "2020-03-31T19:04:32.260Z",
    "name": "Mizuiro",
    "repository": "kara.moe",
    "tid": "f76be3a8-307a-4ccf-a664-e1f651ec1473",
    "types": [
      "series",
      "1"
    ]
  }
}