{
  "header": {
    "description": "Karaoke Mugen Tag File",
    "version": 1
  },
  "tag": {
    "aliases": [
      "MM一族",
      "Молодые Мазохисты!"
    ],
    "external_database_ids": {
      "anilist": 8424,
      "myanimelist": 8424,
      "kitsu": 5329
    },
    "i18n": {
      "eng": "MM!",
      "jpn": "えむえむっ!",
      "tha": "ยายตัวร้ายกับนายมาโซ!",
      "qro": "MM!"
    },
    "modified_at": "2020-03-31T19:04:32.261Z",
    "name": "MM!",
    "repository": "kara.moe",
    "tid": "29f7d962-836d-4909-bfae-06e70ae38d3c",
    "types": [
      "series",
      "1"
    ]
  }
}