{
  "header": {
    "description": "Karaoke Mugen Tag File",
    "version": 1
  },
  "tag": {
    "i18n": {
      "eng": "MML"
    },
    "name": "MML",
    "tid": "df2f4367-7a76-479b-8f65-407181df02a6",
    "types": [
      "songwriters",
      "8"
    ],
    "repository": "kara.moe",
    "modified_at": "2020-03-31T19:04:36.457Z"
  }
}