{
  "header": {
    "description": "Karaoke Mugen Tag File",
    "version": 1
  },
  "tag": {
    "i18n": {
      "eng": "MN-logic24"
    },
    "name": "MN-logic24",
    "repository": "kara.moe",
    "tid": "be0f3a7d-f6fe-4947-927f-a243db38e291",
    "types": [
      "creators",
      "4",
      "singergroups",
      "17"
    ]
  }
}