{
  "header": {
    "description": "Karaoke Mugen Tag File",
    "version": 1
  },
  "tag": {
    "external_database_ids": {
      "anilist": 20610,
      "myanimelist": 22225,
      "kitsu": 8557
    },
    "i18n": {
      "eng": "Momo Kyun Sword",
      "jpn": "モモキュンソード",
      "per": "شمشیر مومو کیون",
      "qro": "Momo Kyun Sword"
    },
    "modified_at": "2020-03-31T19:04:32.266Z",
    "name": "Momo Kyun Sword",
    "repository": "kara.moe",
    "tid": "cbac2968-06b0-4ad8-b25b-254747af8671",
    "types": [
      "series",
      "1"
    ]
  }
}