{
  "header": {
    "description": "Karaoke Mugen Tag File",
    "version": 1
  },
  "tag": {
    "i18n": {
      "eng": "Momoland"
    },
    "name": "Momoland",
    "tid": "a5177ce5-86c3-427b-95bc-b8b0ed6706bf",
    "types": [
      "singers",
      "2"
    ],
    "repository": "kara.moe",
    "modified_at": "2020-03-31T19:04:36.475Z"
  }
}