{
  "header": {
    "description": "Karaoke Mugen Tag File",
    "version": 1
  },
  "tag": {
    "i18n": {
      "afr": "Mongoolse",
      "amh": "ሞንጎሊኛ",
      "ara": "المنغولية",
      "aze": "Monqol",
      "bak": "Монгол теле",
      "bel": "Мангольская",
      "bul": "Монголски",
      "ben": "মঙ্গোলিয়ান",
      "bos": "Mongolski",
      "cat": "Mongòlia",
      "cze": "Mongolský",
      "wel": "Mongoleg",
      "dan": "Mongolske",
      "ger": "Mongolisch",
      "gre": "Μογγολικά",
      "eng": "Mongolian",
      "epo": "Mongola",
      "spa": "Mongol",
      "est": "Mongoolia",
      "baq": "Mongolian",
      "per": "مغولی",
      "fin": "Mongolian",
      "fre": "Mongol",
      "gle": "Mongóilis",
      "gla": "Mongolian",
      "glg": "Mongolia",
      "guj": "Mongolian",
      "heb": "מונגולי",
      "hin": "मंगोलियाई",
      "hrv": "Mongolski",
      "hat": "Mongolyen",
      "hun": "Mongol",
      "arm": "Mongolian",
      "ind": "Mongolia",
      "ice": "Íslenska",
      "ita": "Mongolo",
      "jpn": "モンゴル",
      "jav": "Mongolian",
      "geo": "მონღოლური",
      "kaz": "Монғол",
      "kan": "ಮಂಗೋಲಿಯನ್",
      "kor": "몽고",
      "kir": "Монгольский",
      "lat": "Mongolica",
      "lit": "Mongolų",
      "lav": "Mongoļu",
      "mlg": "Mongoliana",
      "mao": "Mongolian",
      "mac": "Монголски",
      "mal": "മംഗോളീയൻ",
      "mon": "Монгол улсын",
      "mar": "मंगोलियन",
      "may": "Mongolia",
      "mlt": "}",
      "nep": "मङ्गोलियन",
      "dut": "Mongools",
      "nor": "Mongolsk",
      "pan": "ਮੰਗੋਲੀਆਈ",
      "pol": "Mongolski",
      "por": "Mongol",
      "rum": "Mongol",
      "rus": "Монгольский",
      "sin": "මොන්ගෝලියානු",
      "slo": "Mongolskej",
      "slv": "Mongolsko",
      "alb": "Norvegjisht",
      "srp": "Монголски",
      "sun": "Mongolia",
      "swe": "Mongoliska",
      "swa": "Kimongolia",
      "tam": "மங்கோலியன்",
      "tel": "మంగోలియన్",
      "tgk": "Дар муғулистон",
      "tha": "ภาษามองโกล name",
      "tgl": "Mongolian",
      "tur": "Moğolca",
      "tat": "Монгол теле",
      "ukr": "Монгольська",
      "urd": "منگؤلی",
      "uzb": "Mo'g'ul",
      "vie": "Mông cổ",
      "xho": "I-mongolian",
      "yid": "מאָנגאָליש",
      "chi": "蒙古"
    },
    "name": "mon",
    "tid": "c139dfce-759b-4d4c-878a-519225876d99",
    "types": [
      "langs",
      "5"
    ],
    "repository": "kara.moe",
    "modified_at": "2020-03-31T19:04:36.477Z"
  }
}