{
  "header": {
    "description": "Karaoke Mugen Tag File",
    "version": 1
  },
  "tag": {
    "i18n": {
      "eng": "Monica Forsberg"
    },
    "name": "Monica Forsberg",
    "tid": "8b08e27d-191e-4525-a901-8331fefa9c0f",
    "types": [
      "songwriters",
      "8"
    ],
    "repository": "kara.moe",
    "modified_at": "2020-03-31T19:04:36.482Z"
  }
}