{
  "header": {
    "description": "Karaoke Mugen Tag File",
    "version": 1
  },
  "tag": {
    "i18n": {
      "eng": "MONKEY MAJIK"
    },
    "name": "MONKEY MAJIK",
    "tid": "cba236f8-8ede-4dd8-bb61-d7b1fd798fa5",
    "types": [
      "singers",
      "2"
    ],
    "repository": "kara.moe",
    "modified_at": "2020-03-31T19:04:36.484Z"
  }
}