{
  "header": {
    "description": "Karaoke Mugen Tag File",
    "version": 1
  },
  "tag": {
    "aliases": [
      "MT"
    ],
    "external_database_ids": {
      "anilist": 2740,
      "myanimelist": 2740,
      "kitsu": 2500
    },
    "i18n": {
      "eng": "Monkey Turn",
      "jpn": "モンキーターン",
      "qro": "Monkey Turn"
    },
    "modified_at": "2020-03-31T19:04:32.268Z",
    "name": "Monkey Turn",
    "repository": "kara.moe",
    "tid": "97cdbd48-14df-4cd1-9555-1f0d3c5c5897",
    "types": [
      "series",
      "1"
    ]
  }
}