{
  "header": {
    "description": "Karaoke Mugen Tag File",
    "version": 1
  },
  "tag": {
    "i18n": {
      "eng": "Monow"
    },
    "name": "Monow",
    "tid": "8ba639a3-3640-4ffc-81a5-0b13be29f7d2",
    "types": [
      "authors",
      "6"
    ],
    "repository": "kara.moe",
    "modified_at": "2020-03-31T19:04:36.486Z"
  }
}