{
  "header": {
    "description": "Karaoke Mugen Tag File",
    "version": 1
  },
  "tag": {
    "i18n": {
      "eng": "Monolith Productions"
    },
    "modified_at": "2020-09-03T21:11:14.664Z",
    "name": "Monolith Productions",
    "repository": "kara.moe",
    "tid": "7465aef8-2216-4ce7-ae0a-d146e08124e9",
    "types": [
      "creators",
      "4"
    ]
  }
}