{
  "header": {
    "description": "Karaoke Mugen Tag File",
    "version": 1
  },
  "tag": {
    "aliases": [
      "Everyday Life with Monster Girls",
      "MonMusu",
      "Monster Musume no Iru Nichijou",
      "Monster Mädchen",
      "monmusu",
      "Ежедневието с момичета-чудовища",
      "Момичета-чудовища",
      "nichijou"
    ],
    "external_database_ids": {
      "anilist": 21093,
      "myanimelist": 30307,
      "kitsu": 10748
    },
    "i18n": {
      "eng": "Monster Musume: Everyday Life with Monster Girls",
      "ger": "Die Monster Mädchen",
      "jpn": "モンスター娘のいる日常",
      "qro": "Monster Musume no Iru Nichijô"
    },
    "modified_at": "2020-03-31T19:04:32.273Z",
    "name": "Monster Musume no Iru Nichijô",
    "repository": "kara.moe",
    "tid": "cc4d4514-653c-4d89-b94a-db4cbfc451c7",
    "types": [
      "series",
      "1"
    ]
  }
}