{
  "header": {
    "description": "Karaoke Mugen Tag File",
    "version": 1
  },
  "tag": {
    "aliases": [
      "MH",
      "モンスターハンター"
    ],
    "i18n": {
      "eng": "Monster Hunter"
    },
    "name": "Monster Hunter",
    "repository": "kara.moe",
    "tid": "4a542f04-69af-425b-b763-8d4b7e03d402",
    "types": [
      "franchises",
      "18"
    ]
  }
}