{
  "header": {
    "description": "Karaoke Mugen Tag File",
    "version": 1
  },
  "tag": {
    "i18n": {
      "eng": "Montero Hill"
    },
    "name": "Montero Hill",
    "repository": "kara.moe",
    "tid": "2849e6e0-d425-406c-9f10-3398682ddc0c",
    "types": [
      "songwriters",
      "8"
    ]
  }
}