{
  "header": {
    "description": "Karaoke Mugen Tag File",
    "version": 1
  },
  "tag": {
    "i18n": {
      "eng": "MOR"
    },
    "name": "MOR",
    "repository": "kara.moe",
    "tid": "2c9e45a6-46a9-4b11-8e16-ad2386fd3e65",
    "types": [
      "songwriters",
      "8"
    ]
  }
}