{
  "header": {
    "description": "Karaoke Mugen Tag File",
    "version": 1
  },
  "tag": {
    "i18n": {
      "eng": "Motohiro Hata"
    },
    "name": "Motohiro Hata",
    "tid": "2ee7e71d-4298-4d30-bf69-16e10d915c5b",
    "types": [
      "singers",
      "2",
      "songwriters",
      "8"
    ],
    "repository": "kara.moe",
    "modified_at": "2020-03-31T19:04:36.501Z"
  }
}