{
  "header": {
    "description": "Karaoke Mugen Tag File",
    "version": 1
  },
  "tag": {
    "aliases": [
      "Moyashimon Returns: Tales of Agriculture",
      "Moyasimon Returns",
      "萌菌物语returns"
    ],
    "external_database_ids": {
      "anilist": 13409,
      "myanimelist": 13409,
      "kitsu": 6957
    },
    "i18n": {
      "eng": "Moyashimon Returns",
      "jpn": "もやしもん リターンズ",
      "qro": "Moyashimon Returns"
    },
    "modified_at": "2020-03-31T19:04:32.282Z",
    "name": "Moyashimon Returns",
    "repository": "kara.moe",
    "tid": "a5c6d067-b8bc-462a-b1f8-c4ae3086dd5f",
    "types": [
      "series",
      "1"
    ]
  }
}