{
  "header": {
    "description": "Karaoke Mugen Tag File",
    "version": 1
  },
  "tag": {
    "i18n": {
      "eng": "Mr. Goatee"
    },
    "modified_at": "2021-02-24T20:35:44.370Z",
    "name": "Mr. Goatee",
    "repository": "kara.moe",
    "tid": "11e8f07b-b6f0-4a0c-9816-815f429b96eb",
    "types": [
      "singers",
      "2"
    ]
  }
}