{
  "header": {
    "description": "Karaoke Mugen Tag File",
    "version": 1
  },
  "tag": {
    "i18n": {
      "eng": "Mr. Big"
    },
    "name": "Mr. Big",
    "tid": "0d74acf7-800d-4b7d-8682-5a2f137f528f",
    "types": [
      "singers",
      "2"
    ],
    "repository": "kara.moe",
    "modified_at": "2020-03-31T19:04:36.514Z"
  }
}