{
  "header": {
    "description": "Karaoke Mugen Tag File",
    "version": 1
  },
  "tag": {
    "aliases": [
      "Tomi Petteri Putaansuu"
    ],
    "i18n": {
      "eng": "Mr. Lordi"
    },
    "modified_at": "2020-08-16T18:42:14.087Z",
    "name": "Mr. Lordi",
    "repository": "kara.moe",
    "tid": "338aa75c-2b9c-4bf1-b645-c87362ea4a64",
    "types": [
      "songwriters",
      "8"
    ]
  }
}