{
  "header": {
    "description": "Karaoke Mugen Tag File",
    "version": 1
  },
  "tag": {
    "i18n": {
      "eng": "MrWither83"
    },
    "name": "MrWither83",
    "repository": "kara.moe",
    "tid": "482685b7-52c6-4ab7-b8fd-156ec31d1775",
    "types": [
      "authors",
      "6"
    ]
  }
}