{
  "header": {
    "description": "Karaoke Mugen Tag File",
    "version": 1
  },
  "tag": {
    "i18n": {
      "eng": "Mucc"
    },
    "name": "Mucc",
    "tid": "c642c200-cc6a-40ae-ae88-f018f0c3073d",
    "types": [
      "singers",
      "2"
    ],
    "repository": "kara.moe",
    "modified_at": "2020-03-31T19:04:36.516Z"
  }
}