{
  "header": {
    "description": "Karaoke Mugen Tag File",
    "version": 1
  },
  "tag": {
    "i18n": {
      "eng": "muen"
    },
    "name": "muen",
    "repository": "kara.moe",
    "tid": "f5834740-bdfa-490e-b779-271d6904ab49",
    "types": [
      "creators",
      "4"
    ]
  }
}