{
  "header": {
    "description": "Karaoke Mugen Tag File",
    "version": 1
  },
  "tag": {
    "i18n": {
      "eng": "Mulequik"
    },
    "modified_at": "2020-12-28T20:32:48.693Z",
    "name": "Mulequik",
    "repository": "kara.moe",
    "tid": "f93917c2-c47c-4cc0-9bb2-3cc05ca1991a",
    "types": [
      "authors",
      "6"
    ]
  }
}