{
  "header": {
    "description": "Karaoke Mugen Tag File",
    "version": 1
  },
  "tag": {
    "aliases": [
      "書蟲公主"
    ],
    "external_database_ids": {
      "anilist": 144533,
      "kitsu": 45814,
      "myanimelist": 50923
    },
    "i18n": {
      "chi": "书虫公主",
      "eng": "Bibliophile Princess",
      "jpn": "虫かぶり姫",
      "qro": "Mushikaburi Hime"
    },
    "name": "Mushikaburi Hime",
    "repository": "kara.moe",
    "tid": "b7c28ff3-8557-4d6e-b615-961a8b3f9dc0",
    "types": [
      "series",
      "1"
    ]
  }
}