{
  "header": {
    "description": "Karaoke Mugen Tag File",
    "version": 1
  },
  "tag": {
    "i18n": {
      "eng": "Musicality"
    },
    "name": "Musicality",
    "repository": "kara.moe",
    "tid": "ce9fb174-bfd6-4c57-941f-b266946f3d7b",
    "types": [
      "songwriters",
      "8"
    ]
  }
}