{
  "header": {
    "description": "Karaoke Mugen Tag File",
    "version": 1
  },
  "tag": {
    "i18n": {
      "eng": "MUTEKI DEAD SNAKE"
    },
    "name": "MUTEKI DEAD SNAKE",
    "tid": "4277034f-9afe-43d5-827c-8c6d14e391ea",
    "types": [
      "songwriters",
      "8"
    ],
    "repository": "kara.moe",
    "modified_at": "2020-03-31T19:04:36.524Z"
  }
}