{
  "header": {
    "description": "Karaoke Mugen Tag File",
    "version": 1
  },
  "tag": {
    "aliases": [
      "Mutekioh Tri-Zenon",
      "Mutekiou Tri-Zenon",
      "muteki-ou"
    ],
    "external_database_ids": {
      "anilist": 1975,
      "myanimelist": 1975,
      "kitsu": 1778
    },
    "i18n": {
      "eng": "Invincible King Tri-Zenon",
      "jpn": "無敵王トライゼノン",
      "qro": "Muteki-Ô Tri-Zenon"
    },
    "modified_at": "2020-03-31T19:04:32.292Z",
    "name": "Muteki-Ô Tri-Zenon",
    "repository": "kara.moe",
    "tid": "4ef94d6d-9e47-43f2-8e05-08e3e08ce271",
    "types": [
      "series",
      "1"
    ]
  }
}