{
  "header": {
    "description": "Karaoke Mugen Tag File",
    "version": 1
  },
  "tag": {
    "i18n": {
      "eng": "Mutsui"
    },
    "modified_at": "2021-03-18T23:36:49.095Z",
    "name": "Mutsui",
    "repository": "kara.moe",
    "tid": "660fc748-dabf-44a8-95ef-764f7833a540",
    "types": [
      "authors",
      "6"
    ]
  }
}