{
  "header": {
    "description": "Karaoke Mugen Tag File",
    "version": 1
  },
  "tag": {
    "external_database_ids": {
      "anilist": 151189,
      "kitsu": 46209,
      "myanimelist": 52092
    },
    "i18n": {
      "eng": "My Home Hero",
      "jpn": "マイホームヒーロー",
      "qro": "My Home Hero"
    },
    "name": "My Home Hero",
    "repository": "kara.moe",
    "tid": "b09fba04-cd8f-4407-8a88-de09db59fe0b",
    "types": [
      "series",
      "1"
    ]
  }
}