{
  "header": {
    "description": "Karaoke Mugen Tag File",
    "version": 1
  },
  "tag": {
    "i18n": {
      "eng": "MYU"
    },
    "name": "MYU",
    "repository": "kara.moe",
    "tid": "a3880dd1-d8ac-436c-a76d-8268f531b75e",
    "types": [
      "singers",
      "2"
    ]
  }
}