{
  "header": {
    "description": "Karaoke Mugen Tag File",
    "version": 1
  },
  "tag": {
    "i18n": {
      "eng": "N.O.V.A"
    },
    "name": "N.O.V.A",
    "tid": "8ddd23a9-271c-4c26-9b49-f148811b29bc",
    "types": [
      "singers",
      "2"
    ],
    "repository": "kara.moe",
    "modified_at": "2020-03-31T19:04:36.534Z"
  }
}