{
  "header": {
    "description": "Karaoke Mugen Tag File",
    "version": 1
  },
  "tag": {
    "i18n": {
      "eng": "Nintendo 64"
    },
    "karafile_tag": "N64",
    "name": "N64",
    "tid": "17ca27a4-c5f2-425f-ad14-2e2319209129",
    "types": [
      "platforms",
      "13"
    ],
    "short": "N64",
    "repository": "kara.moe",
    "modified_at": "2020-03-31T19:04:36.535Z"
  }
}