{
  "header": {
    "description": "Karaoke Mugen Tag File",
    "version": 1
  },
  "tag": {
    "i18n": {
      "eng": "Naive Creative Production"
    },
    "name": "Naive Creative Production",
    "repository": "kara.moe",
    "tid": "2d18f01e-c9b6-4601-a748-5bf7fc0b35db",
    "types": [
      "creators",
      "4"
    ]
  }
}