{
  "header": {
    "description": "Karaoke Mugen Tag File",
    "version": 1
  },
  "tag": {
    "i18n": {
      "eng": "Nanako Mori"
    },
    "name": "Nanako Mori",
    "repository": "kara.moe",
    "tid": "40e7e894-667f-4006-bda2-95d0fcf4facf",
    "types": [
      "singers",
      "2"
    ]
  }
}