{
  "header": {
    "description": "Karaoke Mugen Tag File",
    "version": 1
  },
  "tag": {
    "aliases": [
      "Nanatsuma"
    ],
    "i18n": {
      "eng": "Reign of the Seven Spellblades",
      "jpn": "七つの魔剣が支配する",
      "qro": "Nanatsu no Maken ga Shihai suru"
    },
    "name": "Nanatsu no Maken ga Shihai Suru",
    "repository": "kara.moe",
    "tid": "fa2afa9d-013f-459b-b7ae-21092b95b13f",
    "types": [
      "series",
      "1"
    ]
  }
}