{
  "header": {
    "description": "Karaoke Mugen Tag File",
    "version": 1
  },
  "tag": {
    "i18n": {
      "eng": "Nanase Aikawa"
    },
    "name": "Nanase Aikawa",
    "tid": "3d976a68-a13f-41ee-925a-c4f160f7b31f",
    "types": [
      "singers",
      "2",
      "songwriters",
      "8"
    ],
    "repository": "kara.moe",
    "modified_at": "2020-03-31T19:04:36.564Z"
  }
}