{
  "header": {
    "description": "Karaoke Mugen Tag File",
    "version": 1
  },
  "tag": {
    "i18n": {
      "eng": "Nanou",
      "jpn": "ナノウ",
      "qro": "Nanou"
    },
    "name": "Nanou",
    "repository": "kara.moe",
    "tid": "9b7e0848-37b3-4772-bb76-67f2518cb41e",
    "types": [
      "songwriters",
      "8"
    ]
  }
}