{
  "header": {
    "description": "Karaoke Mugen Tag File",
    "version": 1
  },
  "tag": {
    "i18n": {
      "eng": "Nao Tanaka"
    },
    "name": "Nao Tanaka",
    "tid": "32a0b643-d4c9-43bb-a948-e61d044594fe",
    "types": [
      "songwriters",
      "8"
    ],
    "repository": "kara.moe",
    "modified_at": "2020-03-31T19:04:36.574Z"
  }
}