{
  "header": {
    "description": "Karaoke Mugen Tag File",
    "version": 1
  },
  "tag": {
    "i18n": {
      "eng": "Nao Asada"
    },
    "name": "Nao Asada",
    "tid": "fb70173b-d623-41e1-9812-1f91ebf58548",
    "types": [
      "songwriters",
      "8"
    ],
    "repository": "kara.moe",
    "modified_at": "2020-03-31T19:04:36.571Z"
  }
}