{
  "header": {
    "description": "Karaoke Mugen Tag File",
    "version": 1
  },
  "tag": {
    "i18n": {
      "eng": "NAOKI-T"
    },
    "name": "NAOKI-T",
    "tid": "9fe300d1-3e33-4fef-b548-73a74038c21b",
    "types": [
      "songwriters",
      "8"
    ],
    "repository": "kara.moe",
    "modified_at": "2020-03-31T19:04:36.585Z"
  }
}