{
  "header": {
    "description": "Karaoke Mugen Tag File",
    "version": 1
  },
  "tag": {
    "i18n": {
      "eng": "Naoko Sudani"
    },
    "name": "Naoko Sudani",
    "tid": "a1b16fbd-1a61-4e0f-ad52-9e92a57bfd48",
    "types": [
      "songwriters",
      "8"
    ],
    "repository": "kara.moe",
    "modified_at": "2020-03-31T19:04:36.589Z"
  }
}