{
  "header": {
    "description": "Karaoke Mugen Tag File",
    "version": 1
  },
  "tag": {
    "i18n": {
      "eng": "Naomi Payton"
    },
    "modified_at": "2021-05-10T21:32:18.461Z",
    "name": "Naomi Payton",
    "repository": "kara.moe",
    "tid": "4e66c19f-a55a-4be7-a948-4eb45796b71f",
    "types": [
      "singers",
      "2"
    ]
  }
}