{
  "header": {
    "description": "Karaoke Mugen Tag File",
    "version": 1
  },
  "tag": {
    "i18n": {
      "eng": "Naoya Endô"
    },
    "name": "Naoya Endô",
    "tid": "44500a09-02e8-4359-982b-b1a38581d0da",
    "types": [
      "songwriters",
      "8"
    ],
    "repository": "kara.moe",
    "modified_at": "2020-03-31T19:04:36.600Z"
  }
}