{
  "header": {
    "description": "Karaoke Mugen Tag File",
    "version": 1
  },
  "tag": {
    "i18n": {
      "eng": "Naoya Shimokawa"
    },
    "name": "Naoya Shimokawa",
    "tid": "71b908b6-71b0-47d3-8881-1c53b34592ec",
    "types": [
      "songwriters",
      "8"
    ],
    "repository": "kara.moe",
    "modified_at": "2020-03-31T19:04:36.603Z"
  }
}