{
  "header": {
    "description": "Karaoke Mugen Tag File",
    "version": 1
  },
  "tag": {
    "i18n": {
      "eng": "Naoyuki Osada"
    },
    "name": "Naoyuki Osada",
    "tid": "977a4b8b-2537-47b8-9c9c-e004bf42922c",
    "types": [
      "songwriters",
      "8"
    ],
    "repository": "kara.moe",
    "modified_at": "2020-03-31T19:04:36.604Z"
  }
}