{
  "header": {
    "description": "Karaoke Mugen Tag File",
    "version": 1
  },
  "tag": {
    "i18n": {
      "eng": "Naozumi Masuko"
    },
    "name": "Naozumi Masuko",
    "tid": "9c60f0cc-5fe9-4a90-bae6-91e92043e313",
    "types": [
      "songwriters",
      "8"
    ],
    "repository": "kara.moe",
    "modified_at": "2020-03-31T19:04:36.607Z"
  }
}