{
  "header": {
    "description": "Karaoke Mugen Tag File",
    "version": 1
  },
  "tag": {
    "i18n": {
      "eng": "Natsuki Harada"
    },
    "modified_at": "2021-08-18T03:07:15.356Z",
    "name": "Natsuki Harada",
    "repository": "kara.moe",
    "tid": "9ec32715-778c-4dae-9ec9-2a8f7b58cf04",
    "types": [
      "songwriters",
      "8"
    ]
  }
}