{
  "header": {
    "description": "Karaoke Mugen Tag File",
    "version": 1
  },
  "tag": {
    "aliases": [
      "Le Pacte des Yokaï 6",
      "Le Pacte des Yôkai 6",
      "Natsume Yujin-cho 6",
      "Natsume Yuujinchou Roku",
      "Natsume's Book of Friends Season 6",
      "natsume6",
      "yuujinchou"
    ],
    "external_database_ids": {
      "anilist": 97983,
      "myanimelist": 34591,
      "kitsu": 13077
    },
    "i18n": {
      "eng": "Natsume's Book of Friends 6th Season",
      "fre": "Natsume Yûjinchô Roku",
      "jpn": "夏目友人帳 陸",
      "kor": "나츠메 우인장 6",
      "qro": "Natsume Yûjinchô Roku"
    },
    "modified_at": "2020-03-31T19:04:32.316Z",
    "name": "Natsume Yûjinchô Roku",
    "repository": "kara.moe",
    "tid": "fb590152-d1f7-40aa-83dc-2c6f68d13b5e",
    "types": [
      "series",
      "1"
    ]
  }
}