{
  "header": {
    "description": "Karaoke Mugen Tag File",
    "version": 1
  },
  "tag": {
    "i18n": {
      "eng": "NAZOME",
      "jpn": "謎女"
    },
    "name": "NAZOME",
    "repository": "kara.moe",
    "tid": "fba9b979-9228-4c51-8399-3f24706fde70",
    "types": [
      "singers",
      "2"
    ]
  }
}