{
  "header": {
    "description": "Karaoke Mugen Tag File",
    "version": 1
  },
  "tag": {
    "aliases": [
      "Geneon Entertainment",
      "Pioneer Entertainment",
      "Pioneer LDC"
    ],
    "i18n": {
      "eng": "NBCUniversal Entertainment Japan"
    },
    "modified_at": "2020-04-25T21:59:26.526Z",
    "name": "NBCUniversal Entertainment Japan",
    "repository": "kara.moe",
    "tid": "a2eb054b-5c11-4dfc-90ed-b0e0f289b838",
    "types": [
      "creators",
      "4"
    ]
  }
}