{
  "header": {
    "description": "Karaoke Mugen Tag File",
    "version": 1
  },
  "tag": {
    "i18n": {
      "afr": "Noord-Ndebele",
      "amh": "ሆኖ Ndebele",
      "ara": "شمال نديبيلي",
      "aze": "Şimali Ндебели",
      "bak": "Төньяҡ Дебет",
      "bel": "North Ndebele",
      "bul": "Северен Ндебели",
      "ben": "উত্তর Ndebele",
      "bos": "Sjeveru Ndebele",
      "cat": "Nord Ndebele",
      "cze": "Severní Ndebele",
      "wel": "Gogledd Ndebele",
      "dan": "Nord Ndebele",
      "ger": "Nord-Ndebele",
      "gre": "Βόρεια Ndebele",
      "eng": "Northern Ndebele",
      "epo": "Habil.",
      "spa": "El Norte De Ndebele",
      "est": "Põhja-Ndebele",
      "baq": "Iparraldeko Zituzten",
      "per": "شمال Ndebele",
      "fin": "Pohjois-Ndebele",
      "fre": "Nord Ndebele",
      "gle": "Thuaidh Ndebele",
      "gla": "Northern Ndebele",
      "glg": "Ndebele Do Norte",
      "guj": "Northern દેબેલ",
      "heb": "צפון Ndebele",
      "hin": "उत्तरी देबेल",
      "hrv": "Sjeverni Ндебели",
      "hat": "Nò Ndebele",
      "hun": "Északi Ndebele",
      "arm": "Հյուսիսային Ндебели",
      "ind": "Ndebele Utara",
      "ice": "Norður Íslenska",
      "ita": "Nord Ndebele",
      "jpn": "北Ndebele",
      "jav": "Lor Ndebele",
      "geo": "ჩრდილოეთ Ndebele",
      "kaz": "Солтүстік Ндебел",
      "kan": "ಉತ್ತರ Ndebele",
      "kor": "북 Ndebele",
      "kir": "Түндүк Ндебели",
      "lat": "Septentrionali Ndebele",
      "lit": "Šiaurės Ndebele",
      "lav": "Ziemeļu Ndebele",
      "mlg": "Avaratra Ndebele",
      "mao": "Ndebele Northern",
      "mac": "Северна Ndebele",
      "mal": "Ndebele Northern",
      "mon": "Хойд Ndebele",
      "mar": "उत्तर Ndebele",
      "may": "Utara Ndebele",
      "mlt": "Tat-Tramuntana Ndebele",
      "nep": "उत्तरी Ndebele",
      "dut": "Noord-Ndebele",
      "nor": "Nord-Ndebele",
      "pan": "ਉੱਤਰੀ Ndebele",
      "pol": "Północny Ндебели",
      "por": "Ndebele Do Norte",
      "rum": "Ndebele De Nord",
      "rus": "Северный Ндебели",
      "sin": "උතුරු Ndebele",
      "slo": "Severné Ndebele",
      "slv": "Severni Ndebele",
      "alb": "Veriore Ndebele",
      "srp": "Северни Ндебели",
      "sun": "Ndebele Northern",
      "swe": "Norra Ndebele",
      "swa": "Ndebele Kaskazini",
      "tam": "வடக்கு தெபெலே",
      "tel": "ఉత్తర దెబెలె",
      "tgk": "Северный Ндебели",
      "tha": "ภาษาอึนเดเบเลตอนเหนือ",
      "tgl": "Hilagang Ndebele",
      "tur": "Kuzey Ndebele",
      "tat": "Северный Ндебели",
      "ukr": "Північний Ндебели",
      "urd": "شمالی دبیل",
      "uzb": "Shimoliy Ndebele",
      "vie": "Phía Bắc Ndebele",
      "xho": "Emntla Ndebele",
      "yid": "צאָפנדיק נדעבעלע",
      "chi": "北部的恩德"
    },
    "name": "nde",
    "tid": "51bf07ed-39f2-4b12-8998-f664c5312f78",
    "types": [
      "langs",
      "5"
    ],
    "repository": "kara.moe",
    "modified_at": "2020-03-31T19:04:36.647Z"
  }
}