{
  "header": {
    "description": "Karaoke Mugen Tag File",
    "version": 1
  },
  "tag": {
    "aliases": [
      "Negima?!",
      "negima 2",
      "negima remake",
      "negima2",
      "Неґіма?!",
      "魔法老师涅吉!?"
    ],
    "external_database_ids": {
      "anilist": 1546,
      "myanimelist": 1546,
      "kitsu": 1387
    },
    "i18n": {
      "eng": "Negima!? Magister Negi Magi",
      "fre": "Shin Negima!?",
      "ger": "Magister Negi Magi Neo",
      "jpn": "ネギま!?",
      "pol": "Magister Negi Magi Negima!?",
      "tha": "คุณครูจอมเวท เนกิมะ!?",
      "qro": "Negima!?"
    },
    "modified_at": "2020-03-31T19:04:32.321Z",
    "name": "Negima!?",
    "repository": "kara.moe",
    "tid": "6683a0c8-9c2b-41ca-b71a-0cafbd07f66d",
    "types": [
      "series",
      "1"
    ]
  }
}