{
  "header": {
    "description": "Karaoke Mugen Tag File",
    "version": 1
  },
  "tag": {
    "aliases": [
      "Neko Manjuu",
      "Neko Manju",
      "NekoManjuu",
      "NekoManju"
    ],
    "i18n": {
      "eng": "Neko☆Manjû",
      "jpn": "ねこ☆まんじゅう"
    },
    "modified_at": "2021-10-12T15:05:46.245Z",
    "name": "Neko☆Manjû",
    "repository": "kara.moe",
    "tid": "792c0009-d9f5-4829-b007-22e625e44327",
    "types": [
      "songwriters",
      "8"
    ]
  }
}