{
  "header": {
    "description": "Karaoke Mugen Tag File",
    "version": 1
  },
  "tag": {
    "aliases": [
      "Kokoa"
    ],
    "i18n": {
      "eng": "Kokoa Nemuzuki",
      "jpn": "眠月ココア"
    },
    "name": "Nemuzuki Kokoa",
    "repository": "kara.moe",
    "tid": "74121e31-f95d-4eab-86b6-0ce01fde5877",
    "types": [
      "singers",
      "2",
      "creators",
      "4"
    ]
  }
}