{
  "header": {
    "description": "Karaoke Mugen Tag File",
    "version": 1
  },
  "tag": {
    "i18n": {
      "eng": "Neptunia re★Verse",
      "jpn": "Go!Go!5次元GAME ネプテューヌ re★Verse",
      "qro": "Go! Go! 5 Jigen Game Neptune: re★Verse"
    },
    "name": "Neptunia re★Verse",
    "repository": "kara.moe",
    "tid": "92a17130-3ba2-41a7-a175-6150032d98b9",
    "types": [
      "series",
      "1"
    ]
  }
}