{
  "header": {
    "description": "Karaoke Mugen Tag File",
    "version": 1
  },
  "tag": {
    "aliases": [
      "NTR: Netsuzou Trap",
      "Netsuzou Trap: NTR",
      "날조 트랩: NTR",
      "netsuzou"
    ],
    "external_database_ids": {
      "anilist": 97833,
      "myanimelist": 34383,
      "kitsu": 12757
    },
    "i18n": {
      "eng": "Netsuzo Trap: NTR",
      "fre": "Netsuzô Trap: NTR",
      "jpn": "捏造トラップ -NTR-",
      "qro": "Netsuzô Trap: NTR"
    },
    "modified_at": "2020-06-21T23:45:31.966Z",
    "name": "Netsuzô Trap: NTR",
    "repository": "kara.moe",
    "tid": "20f9576c-4f10-4516-b4c2-2c435d2ef807",
    "types": [
      "series",
      "1"
    ]
  }
}