{
  "header": {
    "description": "Karaoke Mugen Tag File",
    "version": 1
  },
  "tag": {
    "i18n": {
      "eng": "Neverland"
    },
    "name": "Neverland",
    "tid": "765c35a9-94d9-4610-9a76-4acbf005a67d",
    "types": [
      "singers",
      "2",
      "creators",
      "4"
    ],
    "repository": "kara.moe",
    "modified_at": "2020-03-31T19:04:36.665Z"
  }
}