{
  "header": {
    "description": "Karaoke Mugen Tag File",
    "version": 1
  },
  "tag": {
    "aliases": [
      "Новая игра!"
    ],
    "external_database_ids": {
      "anilist": 21455,
      "myanimelist": 31953,
      "kitsu": 11467
    },
    "i18n": {
      "eng": "New Game!",
      "jpn": "NEW GAME!",
      "kor": "뉴 게임!",
      "qro": "New Game!"
    },
    "modified_at": "2020-03-31T19:04:32.331Z",
    "name": "New Game!",
    "repository": "kara.moe",
    "tid": "47e8a4a9-9376-4dee-8659-6c14b15a4ecd",
    "types": [
      "series",
      "1",
      "franchises",
      "18"
    ]
  }
}