{
  "header": {
    "description": "Karaoke Mugen Tag File",
    "version": 1
  },
  "tag": {
    "i18n": {
      "eng": "Danganronpa V3: Killing Harmony",
      "jpn": "ニューダンガンロンパV3 みんなのコロシアイ新学期",
      "qro": "New Danganronpa V3 Minna no koroshihai shin gakki"
    },
    "name": "New Danganronpa V3 Minna no koroshihai shin gakki",
    "repository": "kara.moe",
    "short": "Danganronpa V3",
    "tid": "4f29e620-ffa6-4168-a1f1-5d7bfe36e10f",
    "types": [
      "series",
      "1"
    ]
  }
}