{
  "header": {
    "description": "Karaoke Mugen Tag File",
    "version": 1
  },
  "tag": {
    "i18n": {
      "eng": "Newborn Pictures"
    },
    "name": "Newborn Pictures",
    "tid": "f2ca161c-25c5-413a-a260-4eb06f3a8a8b",
    "types": [
      "creators",
      "4"
    ],
    "repository": "kara.moe",
    "modified_at": "2020-03-31T19:04:36.667Z"
  }
}