{
  "header": {
    "description": "Karaoke Mugen Tag File",
    "version": 1
  },
  "tag": {
    "i18n": {
      "eng": "Ni-jibakurei"
    },
    "name": "Ni-jibakurei",
    "tid": "57e2d8c3-b3f3-4b82-88a4-2491946b24d9",
    "types": [
      "authors",
      "6"
    ],
    "repository": "kara.moe",
    "modified_at": "2020-03-31T19:04:36.670Z"
  }
}