{
  "header": {
    "description": "Karaoke Mugen Tag File",
    "version": 1
  },
  "tag": {
    "i18n": {
      "eng": "Nick McCarthy"
    },
    "name": "Nick McCarthy",
    "repository": "kara.moe",
    "tid": "cd90dd9f-1007-4025-9d18-f64fa18b6c5d",
    "types": [
      "songwriters",
      "8"
    ]
  }
}