{
  "header": {
    "description": "Karaoke Mugen Tag File",
    "version": 1
  },
  "tag": {
    "i18n": {
      "eng": "Nicolas Dorian"
    },
    "name": "Nicolas Dorian",
    "tid": "ae5190ba-fa31-408b-8935-0700c5dd02ee",
    "types": [
      "singers",
      "2"
    ],
    "repository": "kara.moe",
    "modified_at": "2020-03-31T19:04:36.678Z"
  }
}