{
  "header": {
    "description": "Karaoke Mugen Tag File",
    "version": 1
  },
  "tag": {
    "i18n": {
      "eng": "Nicolas Patra"
    },
    "name": "Nicolas Patra",
    "repository": "kara.moe",
    "tid": "cf7507b8-e8fe-4cd0-bc8d-beb341bf83e6",
    "types": [
      "songwriters",
      "8"
    ]
  }
}