{
  "header": {
    "description": "Karaoke Mugen Tag File",
    "version": 1
  },
  "tag": {
    "i18n": {
      "eng": "Nika Nayuki"
    },
    "name": "Nika Nayuki",
    "repository": "kara.moe",
    "tid": "2fdc225b-95ab-4c96-b571-061dd96be9d5",
    "types": [
      "singers",
      "2",
      "songwriters",
      "8"
    ]
  }
}