{
  "header": {
    "description": "Karaoke Mugen Tag File",
    "version": 1
  },
  "tag": {
    "i18n": {
      "eng": "Niko"
    },
    "name": "Niko",
    "tid": "cba9220d-48df-4348-8100-f33db94b5fd8",
    "types": [
      "singers",
      "2"
    ],
    "repository": "kara.moe",
    "modified_at": "2020-03-31T19:04:36.694Z"
  }
}