{
  "header": {
    "description": "Karaoke Mugen Tag File",
    "version": 1
  },
  "tag": {
    "i18n": {
      "eng": "Nimo"
    },
    "name": "Nimo",
    "repository": "kara.moe",
    "tid": "cedeb2d9-3ee8-4208-a754-0ffd37445f8f",
    "types": [
      "singers",
      "2"
    ]
  }
}