{
  "header": {
    "description": "Karaoke Mugen Tag File",
    "version": 1
  },
  "tag": {
    "i18n": {
      "eng": "Nina Kosaka"
    },
    "name": "Nina Kosaka",
    "repository": "kara.moe",
    "tid": "0dc29a6a-46e1-49e8-8e23-755718b313b7",
    "types": [
      "singers",
      "2"
    ]
  }
}