{
  "header": {
    "description": "Karaoke Mugen Tag File",
    "version": 1
  },
  "tag": {
    "aliases": [
      "sukuu",
      "boukensha",
      "Apparently, Disillusioned"
    ],
    "external_database_ids": {
      "anilist": 137909,
      "kitsu": 44982,
      "myanimelist": 49612
    },
    "i18n": {
      "eng": "Ningen Fushin: Adventurers Who Don't Believe in Humanity Will Save the World",
      "jpn": "人間不信の冒険者たちが世界を救うようです",
      "qro": "Ningen Fushin no Bôkensha-tachi ga Sekai wo Sukû you desu"
    },
    "name": "Ningen Fushin no Bôkensha-tachi ga Sekai wo Sukû you desu",
    "repository": "kara.moe",
    "tid": "bf41eb5a-629e-4964-a42e-026328a5a0bd",
    "types": [
      "series",
      "1"
    ]
  }
}