{
  "header": {
    "description": "Karaoke Mugen Tag File",
    "version": 1
  },
  "tag": {
    "i18n": {
      "eng": "Nino"
    },
    "name": "Nino",
    "tid": "55e759ae-292a-4fc5-8840-21b54a47cfe5",
    "types": [
      "singers",
      "2",
      "songwriters",
      "8"
    ],
    "repository": "kara.moe",
    "modified_at": "2020-03-31T19:04:36.696Z"
  }
}