{
  "header": {
    "description": "Karaoke Mugen Tag File",
    "version": 1
  },
  "tag": {
    "i18n": {
      "eng": "Nishirokugô Shônen Shôjo Gasshôdan"
    },
    "name": "Nishirokugô Shônen Shôjo Gasshôdan",
    "tid": "257caad0-fae9-44bb-b865-8256d60e3bce",
    "types": [
      "singers",
      "2"
    ],
    "repository": "kara.moe",
    "modified_at": "2020-03-31T19:04:36.705Z"
  }
}