{
  "header": {
    "description": "Karaoke Mugen Tag File",
    "version": 1
  },
  "tag": {
    "i18n": {
      "jpn": "Nisshin Yakisoba U.F.O.",
      "qro": "Nisshin Yakisoba U.F.O."
    },
    "modified_at": "2020-03-31T19:04:32.345Z",
    "name": "Nisshin Yakisoba U.F.O.",
    "repository": "kara.moe",
    "tid": "daddde57-ad53-41bb-9a9a-deda9f9af1d1",
    "types": [
      "series",
      "1"
    ]
  }
}