{
  "header": {
    "description": "Karaoke Mugen Tag File",
    "version": 1
  },
  "tag": {
    "i18n": {
      "chi": "牛奶咖啡",
      "eng": "Niúnǎi Kāfēi",
      "qro": "Niúnǎi Kāfēi"
    },
    "name": "Niúnǎi Kāfēi",
    "repository": "kara.moe",
    "tid": "cabe38bd-bf85-484b-87e6-f884a5b41876",
    "types": [
      "singers",
      "2"
    ]
  }
}