{
  "header": {
    "description": "Karaoke Mugen Tag File",
    "version": 1
  },
  "tag": {
    "i18n": {
      "eng": "No.10"
    },
    "modified_at": "2021-07-28T23:21:56.151Z",
    "name": "No.10",
    "repository": "kara.moe",
    "tid": "edef2df0-4b25-402a-8339-029b43c84dfb",
    "types": [
      "creators",
      "4"
    ]
  }
}