{
  "header": {
    "description": "Karaoke Mugen Tag File",
    "version": 1
  },
  "tag": {
    "i18n": {
      "eng": "Noam Kaniel"
    },
    "name": "Noam Kaniel",
    "tid": "7bf660b3-f6f2-4c32-98ee-dc6da85ccc88",
    "types": [
      "songwriters",
      "8",
      "singers",
      "2"
    ],
    "repository": "kara.moe",
    "modified_at": "2020-03-31T19:04:36.713Z"
  }
}