{
  "header": {
    "description": "Karaoke Mugen Tag File",
    "version": 1
  },
  "tag": {
    "aliases": [
      "نوبوناغا الأحمق"
    ],
    "external_database_ids": {
      "anilist": 20509,
      "myanimelist": 21177,
      "kitsu": 8076
    },
    "i18n": {
      "eng": "Nobunaga the Fool",
      "jpn": "ノブナガ・ザ・フール",
      "qro": "Nobunaga The Fool"
    },
    "modified_at": "2020-03-31T19:04:32.351Z",
    "name": "Nobunaga The Fool",
    "repository": "kara.moe",
    "tid": "6f87a2a1-c43c-4bd9-b60d-28c20e837da3",
    "types": [
      "series",
      "1"
    ]
  }
}