{
  "header": {
    "description": "Karaoke Mugen Tag File",
    "version": 1
  },
  "tag": {
    "i18n": {
      "eng": "Nobuhito Ikehata"
    },
    "name": "Nobuhito Ikehata",
    "tid": "231d2136-7d3a-4bd8-beb1-b12643770759",
    "types": [
      "songwriters",
      "8"
    ],
    "repository": "kara.moe",
    "modified_at": "2020-03-31T19:04:36.723Z"
  }
}