{
  "header": {
    "description": "Karaoke Mugen Tag File",
    "version": 1
  },
  "tag": {
    "i18n": {
      "eng": "Nobuyuki Takatsuto"
    },
    "name": "Nobuyuki Takatsuto",
    "tid": "c1fa1179-0eec-43ca-92ff-6ab7732c27e5",
    "types": [
      "songwriters",
      "8"
    ],
    "repository": "kara.moe",
    "modified_at": "2020-03-31T19:04:36.734Z"
  }
}