{
  "header": {
    "description": "Karaoke Mugen Tag File",
    "version": 1
  },
  "tag": {
    "i18n": {
      "eng": "Nokki",
      "jpn": "のっき ",
      "qro": "Nokki"
    },
    "name": "Nokki",
    "repository": "kara.moe",
    "tid": "e440d2dc-d6c3-414f-baa5-b9fb7d0fdf7d",
    "types": [
      "singers",
      "2"
    ]
  }
}