{
  "header": {
    "description": "Karaoke Mugen Tag File",
    "version": 1
  },
  "tag": {
    "aliases": [
      "NNB",
      "nnb",
      "Прекрасные деньки"
    ],
    "external_database_ids": {
      "anilist": 17549,
      "myanimelist": 17549,
      "kitsu": 7711
    },
    "i18n": {
      "chi": "悠哉日常大王",
      "eng": "Non Non Biyori",
      "jpn": "のんのんびより",
      "qro": "Non Non Biyori"
    },
    "modified_at": "2020-03-31T19:04:32.360Z",
    "name": "Non Non Biyori",
    "repository": "kara.moe",
    "tid": "062afb90-c3ab-46e4-8824-27889b9b6746",
    "types": [
      "series",
      "1",
      "franchises",
      "18"
    ]
  }
}