{
  "header": {
    "description": "Karaoke Mugen Tag File",
    "version": 1
  },
  "tag": {
    "i18n": {
      "eng": "NOOK"
    },
    "name": "NOOK",
    "tid": "d9eff7ce-7ab8-47c4-88c1-7d8b917bf1a9",
    "types": [
      "songwriters",
      "8"
    ],
    "repository": "kara.moe",
    "modified_at": "2020-03-31T19:04:36.748Z"
  }
}