{
  "header": {
    "description": "Karaoke Mugen Tag File",
    "version": 1
  },
  "tag": {
    "aliases": [
      "Stray God",
      "Бездомный Бог",
      "Уличен бог"
    ],
    "external_database_ids": {
      "anilist": 20447,
      "myanimelist": 20507,
      "kitsu": 7881
    },
    "i18n": {
      "chi": "野良神",
      "eng": "Noragami",
      "jpn": "ノラガミ",
      "qro": "Noragami"
    },
    "modified_at": "2020-03-31T19:04:32.361Z",
    "name": "Noragami",
    "repository": "kara.moe",
    "tid": "16daf95b-3351-4621-964f-3601988ac4be",
    "types": [
      "series",
      "1",
      "franchises",
      "18"
    ]
  }
}