{
  "header": {
    "description": "Karaoke Mugen Tag File",
    "version": 1
  },
  "tag": {
    "i18n": {
      "eng": "Norihiko Hibino"
    },
    "name": "Norihiko Hibino",
    "tid": "30e8b2fa-5d84-42c8-b1f3-ace0eeea56cd",
    "types": [
      "songwriters",
      "8"
    ],
    "repository": "kara.moe",
    "modified_at": "2020-03-31T19:04:36.754Z"
  }
}