{
  "header": {
    "description": "Karaoke Mugen Tag File",
    "version": 1
  },
  "tag": {
    "i18n": {
      "eng": "Norimetal"
    },
    "modified_at": "2020-08-15T22:29:26.964Z",
    "name": "Norimetal",
    "repository": "kara.moe",
    "tid": "16f8122f-bb3c-4114-be7f-ef30d6c3135d",
    "types": [
      "songwriters",
      "8"
    ]
  }
}