{
  "header": {
    "description": "Karaoke Mugen Tag File",
    "version": 1
  },
  "tag": {
    "external_database_ids": {
      "anilist": 20643,
      "myanimelist": 31452,
      "kitsu": 11337
    },
    "i18n": {
      "eng": "NORN9 Norn+Nornet",
      "jpn": "NORN9 ノルン+ノネット",
      "qro": "NORN9 Norn+Nornet"
    },
    "modified_at": "2020-03-31T19:04:32.362Z",
    "name": "NORN9 Norn+Nornet",
    "repository": "kara.moe",
    "tid": "6b5c728a-3c87-419a-a3d0-6ae2eedcb086",
    "types": [
      "series",
      "1"
    ]
  }
}