{
  "header": {
    "description": "Karaoke Mugen Tag File",
    "version": 1
  },
  "tag": {
    "i18n": {
      "eng": "Not-116"
    },
    "name": "Not-116",
    "repository": "kara.moe",
    "tid": "4089cac9-5a6a-4ddd-9d66-d7e1a3070ad5",
    "types": [
      "creators",
      "4"
    ]
  }
}