{
  "header": {
    "description": "Karaoke Mugen Tag File",
    "version": 1
  },
  "tag": {
    "i18n": {
      "eng": "NOVELS"
    },
    "name": "NOVELS",
    "tid": "76c8920b-40ae-43ae-9fe4-025e49f91b6e",
    "types": [
      "singers",
      "2"
    ],
    "repository": "kara.moe",
    "modified_at": "2020-03-31T19:04:36.772Z"
  }
}