{
  "header": {
    "description": "Karaoke Mugen Tag File",
    "version": 1
  },
  "tag": {
    "i18n": {
      "eng": "Nowlu"
    },
    "name": "Nowlu",
    "repository": "kara.moe",
    "tid": "d9d6b02b-025f-4330-8512-897a70fb5d10",
    "types": [
      "singers",
      "2"
    ]
  }
}