{
  "header": {
    "description": "Karaoke Mugen Tag File",
    "version": 1
  },
  "tag": {
    "aliases": [
      "naruse",
      "なるせ"
    ],
    "i18n": {
      "eng": "nqrse"
    },
    "name": "nqrse",
    "repository": "kara.moe",
    "tid": "bc529860-da92-40b9-9c97-b6c6728a4dc7",
    "types": [
      "singers",
      "2",
      "songwriters",
      "8"
    ]
  }
}