{
  "header": {
    "description": "Karaoke Mugen Tag File",
    "version": 1
  },
  "tag": {
    "i18n": {
      "eng": "Number 201"
    },
    "name": "Number 201",
    "tid": "ae602bc2-ff2a-42b0-89fe-7ba6c86151ed",
    "types": [
      "songwriters",
      "8"
    ],
    "repository": "kara.moe",
    "modified_at": "2020-03-31T19:04:36.784Z"
  }
}