{
  "header": {
    "description": "Karaoke Mugen Tag File",
    "version": 1
  },
  "tag": {
    "external_database_ids": {
      "anilist": 616,
      "kitsu": 571,
      "myanimelist": 616
    },
    "i18n": {
      "eng": "Nurse Angel Ririka SOS",
      "jpn": "ナースエンジェルりりかＳＯＳ"
    },
    "name": "Nurse Angel Ririka SOS",
    "repository": "kara.moe",
    "tid": "632961d4-a0db-4927-8202-0117275fa342",
    "types": [
      "series",
      "1"
    ]
  }
}