{
  "header": {
    "description": "Karaoke Mugen Tag File",
    "version": 1
  },
  "tag": {
    "aliases": [
      "Majikarute",
      "Nurse Witch Komugi-chan Magikarte 1",
      "komugi"
    ],
    "external_database_ids": {
      "anilist": 615,
      "myanimelist": 615,
      "kitsu": 570
    },
    "i18n": {
      "eng": "Nurse Witch Komugi",
      "jpn": "ナースウィッチ小麦ちゃんマジカルて",
      "qro": "Nurse Witch Komugi-chan Magikarte"
    },
    "modified_at": "2020-03-31T19:04:32.364Z",
    "name": "Nurse Witch Komugi-chan Magikarte",
    "repository": "kara.moe",
    "tid": "e1d2cbaf-a572-4019-82cb-e42ee3438e4d",
    "types": [
      "series",
      "1",
      "franchises",
      "18"
    ]
  }
}