{
  "header": {
    "description": "Karaoke Mugen Tag File",
    "version": 1
  },
  "tag": {
    "i18n": {
      "afr": "Chichewa, Chewa, Domain",
      "amh": "Chichewa, Chewa, Nyanja",
      "ara": "الشيشيوا, الشيوا, Nyanja",
      "aze": "Чичев, Чева, Ньянджа",
      "bak": "Сисеү, Сева, Ньянджа",
      "bel": "Чичев, Чева, Nyanja",
      "bul": "Чичев, Чева, Nyanja",
      "ben": "Chichewa, Chewa, Nyanja",
      "bos": "Chichewa, Chewa, Njanja",
      "cat": "Chichewa, Chewa, Nyanja",
      "cze": "Chichewa, Chewa, Nyanja",
      "wel": "Chichewa, Chewa, Nyanja",
      "dan": "Chichewa, Chewa, Nyanja",
      "ger": "Chichewa, Chewa, Nyanja",
      "gre": "Chichewa, Chewa, Nyanja",
      "eng": "Chichewa, Chewa, Nyanja",
      "epo": "Njanĝaname, Chewa, Nyanja",
      "spa": "Chichewa, Chewa, Nyanja",
      "est": "Chichewa, Chewa, Nyanja",
      "baq": "Chichewa, Chewa, Nyanja",
      "per": "Chichewa های شیشیوا های Nyanja",
      "fin": "Chichewa, Chewa, Nyanja",
      "fre": "Le Chichewa, Chewa, Le Nyanga",
      "gle": "Chichewa, Chewa, Nyanja",
      "gla": "Chichewa, Chewa, Nyanja",
      "glg": "Chichewa, Chewa, Nyanja",
      "guj": "Chichewa, Chewa, ન્યાન્જા",
      "heb": "צ ' יצ ' ווהname, Chewa, Nyanja",
      "hin": "Chichewa, Chewa, Nyanja",
      "hrv": "Чичев, Chewa, Nyanja",
      "hat": "Chichewa, Chewa, Nyanja",
      "hun": "Chichewa, Chewa, Nyanja",
      "arm": "Чичев, Чева, Ньянджа",
      "ind": "Chichewa, Chewa, Nyanja",
      "ice": "Chichewa, Chewa, Nyanja",
      "ita": "Chichewa, Chewa, Nyanja",
      "jpn": "Chichewa,務は、Nyanja",
      "jav": "Chichewa, Chewa, Nyanja",
      "geo": "ქსოზა, Chewa, Nyanja",
      "kaz": "Чичев, Чева, Ньянджа",
      "kan": "Chichewa, ಚೇವ, Nyanja",
      "kor": "니안자,.,:",
      "kir": "Чичев, Чева, Ньянджа",
      "lat": "Chichewa, Chewa, Nyanja",
      "lit": "Chichewa, Chewa, Nyanja",
      "lav": "Chichewa, Chewa, Nyanja",
      "mlg": "Chichewa, Chewa, Nyanja",
      "mao": "Chichewa, Chewa, Nyanja",
      "mac": "Chichewa, Chewa, Nyanja",
      "mal": "ചിച്ചാവെname, ച്ചേവ, Nyanja",
      "mon": "Chichewa, Chewa, Nyanja",
      "mar": "ठरते, Chewa, Nyanja",
      "may": "Luo, Chewa, Nyanja",
      "mlt": "Chichewa, Chewa, Nyanja",
      "nep": "चिचेवा, Chewa, Nyanja",
      "dut": "Chichewa (Nyanja), Chewa, Nyanja",
      "nor": "Chichewa, Chewa, Nyanja",
      "pan": "Chichewa, Chewa, Nyanja",
      "pol": "Чичев, Чева, Nyanja",
      "por": "Chichewa, Chewa, Nyanja",
      "rum": "Chichewa, Chewa, Nyanja",
      "rus": "Чичев, Чева, Ньянджа",
      "sin": "Chichewa, Chewa, Nyanja",
      "slo": "Chichewa, Chewa, Nyanja",
      "slv": "Chichewa, Chewa, Nyanja",
      "alb": "Chichewa, Chewa, Nyanja",
      "srp": "Чичев, Чева, Ньянджа",
      "sun": "Chichewa, Chewa, Nyanja",
      "swe": "Chichewa, Chewa, Nyanja",
      "swa": "Chichewa, Chewa, Nyanja",
      "tam": "Chichewa, Chewa, Nyanja",
      "tel": "చిచెవాname, Chewa, Nyanja",
      "tgk": "Чичев, Чева, Ньянджа",
      "tha": "ภาษาชิเชวา Name,Chewa,Nyanja",
      "tgl": "Chichewa, Chewa, Nyanja",
      "tur": "Chichewa, Chewa, Nyanja",
      "tat": "Чичев, Чева, Ньянджа",
      "ukr": "Чичев, Чева, Ньянджа",
      "urd": "Chichewa, Chewa, Nyanja",
      "uzb": "Chichewa, Chewa, Nyanja",
      "vie": "Trung Quốc, Chewa, Nyanja",
      "xho": "Chichewaname, Chewa, Nyanja",
      "yid": "טשיטשעוואַ, טשעוואַ, Nyanja",
      "chi": "奇切瓦文中，Chewa中，Nyanja"
    },
    "name": "nya",
    "tid": "bb76cd4f-662d-45fe-9401-a8f8d9f21ce2",
    "types": [
      "langs",
      "5"
    ],
    "repository": "kara.moe",
    "modified_at": "2020-03-31T19:04:36.786Z"
  }
}