{
  "header": {
    "description": "Karaoke Mugen Tag File",
    "version": 1
  },
  "tag": {
    "external_database_ids": {
      "anilist": 97673,
      "myanimelist": 34148,
      "kitsu": 12687
    },
    "i18n": {
      "chi": "喵咪days",
      "eng": "Nyanko Days",
      "jpn": "にゃんこデイズ",
      "kor": "냥코 데이즈",
      "tur": "Kedi Çocuk Günleri",
      "qro": "Nyanko Days"
    },
    "modified_at": "2020-03-31T19:04:32.367Z",
    "name": "Nyanko Days",
    "repository": "kara.moe",
    "tid": "56bfa5ab-60e9-4a29-99c4-7694f2776b5a",
    "types": [
      "series",
      "1"
    ]
  }
}