{
  "header": {
    "description": "Karaoke Mugen Tag File",
    "version": 1
  },
  "tag": {
    "i18n": {
      "eng": "Nyguita"
    },
    "name": "Nyguita",
    "tid": "a40a0293-9edd-43a7-b9fd-0e32755bdb51",
    "types": [
      "authors",
      "6"
    ],
    "repository": "kara.moe",
    "modified_at": "2020-03-31T19:04:36.787Z"
  }
}