{
  "header": {
    "description": "Karaoke Mugen Tag File",
    "version": 1
  },
  "tag": {
    "i18n": {
      "ara": "أودا سينامون نوبوناغا",
      "eng": "Oda Cinnamon Nobunaga",
      "jpn": "織田シナモン信長",
      "qro": "Oda Cinnamon Nobunaga"
    },
    "modified_at": "2020-03-31T19:04:32.369Z",
    "name": "Oda Cinnamon Nobunaga",
    "repository": "kara.moe",
    "tid": "eb812aa9-3c40-49a3-a4ba-88aef0dd62ee",
    "types": [
      "series",
      "1"
    ]
  }
}