{
  "header": {
    "description": "Karaoke Mugen Tag File",
    "version": 1
  },
  "tag": {
    "i18n": {
      "eng": "Off Course"
    },
    "name": "Off Course",
    "tid": "e525b4ac-a70b-4c18-a29e-87b85a5fedd6",
    "types": [
      "singers",
      "2",
      "songwriters",
      "8"
    ],
    "repository": "kara.moe",
    "modified_at": "2020-03-31T19:04:36.792Z"
  }
}