{
  "header": {
    "description": "Karaoke Mugen Tag File",
    "version": 1
  },
  "tag": {
    "i18n": {
      "eng": "Office Augusta"
    },
    "name": "Office Augusta",
    "repository": "kara.moe",
    "tid": "7b876e60-4823-4759-99c3-177a4e72997c",
    "types": [
      "creators",
      "4"
    ],
    "modified_at": "2020-03-31T19:04:36.794Z"
  }
}