{
  "header": {
    "description": "Karaoke Mugen Tag File",
    "version": 1
  },
  "tag": {
    "i18n": {
      "eng": "Oliv"
    },
    "name": "Oliv",
    "repository": "kara.moe",
    "tid": "b0ccf30a-bab9-496d-994d-4beb6fb2befa",
    "types": [
      "songwriters",
      "8"
    ]
  }
}