{
  "header": {
    "description": "Karaoke Mugen Tag File",
    "version": 1
  },
  "tag": {
    "i18n": {
      "eng": "Omocha Yoneyama"
    },
    "modified_at": "2020-04-18T17:12:33.048Z",
    "name": "Omocha Yoneyama",
    "repository": "kara.moe",
    "tid": "1fe46b02-f80f-4966-80fd-5efd333c92a3",
    "types": [
      "songwriters",
      "8"
    ]
  }
}