{
  "header": {
    "description": "Karaoke Mugen Tag File",
    "version": 1
  },
  "tag": {
    "i18n": {
      "eng": "Original Network Animation"
    },
    "karafile_tag": "ONA",
    "name": "ONA",
    "tid": "8db3e098-06ef-45e5-bba9-cb04a21c1e66",
    "types": [
      "origins",
      "11"
    ],
    "short": "ONA",
    "repository": "kara.moe",
    "modified_at": "2020-03-31T19:04:36.813Z"
  }
}