{
  "header": {
    "description": "Karaoke Mugen Tag File",
    "version": 1
  },
  "tag": {
    "aliases": [
      "OPM S2",
      "OPM2",
      "One Punch Man Saison 2",
      "One Punch Man Season 2",
      "One Punch Man-2",
      "Wanpanman 2",
      "ワンパンマン 2"
    ],
    "external_database_ids": {
      "anilist": 97668,
      "myanimelist": 34134,
      "kitsu": 12566
    },
    "i18n": {
      "eng": "One-Punch Man 2",
      "fre": "One Punch Man 2",
      "jpn": "ワンパンマン2",
      "qro": "One Punch Man 2"
    },
    "modified_at": "2020-03-31T19:04:32.382Z",
    "name": "One Punch Man 2",
    "repository": "kara.moe",
    "tid": "151cfe4a-adae-455c-b723-92b8a0da3662",
    "types": [
      "series",
      "1"
    ]
  }
}