{
  "header": {
    "description": "Karaoke Mugen Tag File",
    "version": 1
  },
  "tag": {
    "external_database_ids": {
      "anilist": 141902,
      "myanimelist": 50410,
      "kitsu": 45513
    },
    "i18n": {
      "eng": "One Piece RED"
    },
    "name": "One Piece RED",
    "repository": "kara.moe",
    "tid": "9871dd49-1493-4f54-938b-4a1fc1e44f03",
    "types": [
      "series",
      "1"
    ]
  }
}