{
  "header": {
    "description": "Karaoke Mugen Tag File",
    "version": 1
  },
  "tag": {
    "aliases": [
      "别当欧尼酱了！"
    ],
    "external_database_ids": {
      "anilist": 147864,
      "kitsu": 46077,
      "myanimelist": 51678
    },
    "i18n": {
      "eng": "Onimai: I'm Now Your Sister!",
      "qro": "Onii-chan wa Oshimai!",
      "jpn": "お兄ちゃんはおしまい!",
      "chi": "别当哥哥了！"
    },
    "name": "Onii-chan wa Oshimai!",
    "repository": "kara.moe",
    "tid": "b84dfd35-3142-4cc7-b057-a49ef80482fe",
    "types": [
      "series",
      "1"
    ]
  }
}