{
  "header": {
    "description": "Karaoke Mugen Tag File",
    "version": 1
  },
  "tag": {
    "aliases": [
      "I Don't Like My Big Brother At All!",
      "Oniichan no Koto Nanka Zenzen Suki Janain Dakara ne",
      "Onisuki",
      "ochinko",
      "腹黑妹妹控兄记"
    ],
    "external_database_ids": {
      "anilist": 9587,
      "myanimelist": 9587,
      "kitsu": 5799
    },
    "i18n": {
      "eng": "I Don’t Like You At All, Big Brother!!",
      "fre": "Onii-chan no Koto Nanka Zenzen Suki ja Naindakara ne!!",
      "jpn": "お兄ちゃんのことなんかぜんぜん好きじゃないんだからねっ!!",
      "qro": "Onii-chan no Koto Nanka Zenzen Suki ja Naindakara ne!!"
    },
    "modified_at": "2020-03-31T19:04:32.389Z",
    "name": "Onii-chan no Koto Nanka Zenzen Suki ja Naindakara ne!!",
    "repository": "kara.moe",
    "tid": "017080b1-c2da-4efe-a84e-ae128d04ae6a",
    "types": [
      "series",
      "1"
    ]
  }
}