{
  "header": {
    "description": "Karaoke Mugen Tag File",
    "version": 1
  },
  "tag": {
    "i18n": {
      "eng": "Onikado Izumi"
    },
    "modified_at": "2020-05-15T11:13:52.686Z",
    "name": "Onikado Izumi",
    "repository": "kara.moe",
    "tid": "e5e566e0-d45a-4c9c-9775-7abb0140300c",
    "types": [
      "songwriters",
      "8"
    ]
  }
}