{
  "header": {
    "description": "Karaoke Mugen Tag File",
    "version": 1
  },
  "tag": {
    "i18n": {
      "eng": "Only this time"
    },
    "name": "Only this time",
    "repository": "kara.moe",
    "tid": "6cdb3fae-4c70-4bca-bc71-4a91ec2178fb",
    "types": [
      "singers",
      "2"
    ]
  }
}