{
  "header": {
    "description": "Karaoke Mugen Tag File",
    "version": 1
  },
  "tag": {
    "i18n": {
      "eng": "Onmyo-Za"
    },
    "name": "Onmyo-Za",
    "tid": "0fd588ca-1710-4cdf-b0bf-abecc2403a97",
    "types": [
      "singers",
      "2"
    ],
    "repository": "kara.moe",
    "modified_at": "2020-03-31T19:04:36.818Z"
  }
}