{
  "header": {
    "description": "Karaoke Mugen Tag File",
    "version": 1
  },
  "tag": {
    "i18n": {
      "eng": "Orangina Suntory France"
    },
    "name": "Orangina Suntory France",
    "tid": "1c8dd445-1905-4d79-9393-84c34be64e06",
    "types": [
      "creators",
      "4"
    ],
    "repository": "kara.moe",
    "modified_at": "2020-03-31T19:04:36.824Z"
  }
}