{
  "header": {
    "description": "Karaoke Mugen Tag File",
    "version": 1
  },
  "tag": {
    "i18n": {
      "eng": "ORANGE RANGE"
    },
    "name": "ORANGE RANGE",
    "tid": "68a6ce5a-bc2c-4ba0-ad71-6655b7e2a49e",
    "types": [
      "singers",
      "2",
      "songwriters",
      "8"
    ],
    "repository": "kara.moe",
    "modified_at": "2020-03-31T19:04:36.822Z"
  }
}