{
  "header": {
    "description": "Karaoke Mugen Tag File",
    "version": 1
  },
  "tag": {
    "aliases": [
      "Ore ga Suki na no wa Imouto Dakedo Imouto ja Nai",
      "imoimo",
      "imouto"
    ],
    "external_database_ids": {
      "anilist": 100382,
      "myanimelist": 36632,
      "kitsu": 41938
    },
    "i18n": {
      "eng": "My Sister, My Writer",
      "jpn": "俺が好きなのは妹だけど妹じゃない",
      "kor": "내가 좋아하는 건 여동생이지만 여동생이 아니야",
      "qro": "Ore ga Suki na no wa Imôto Dakedo Imôto ja Nai"
    },
    "modified_at": "2020-03-31T19:04:32.397Z",
    "name": "Ore ga Suki na no wa Imôto Dakedo Imôto ja Nai",
    "repository": "kara.moe",
    "tid": "ae05fca7-5399-456b-83d7-d6f4d87b17f2",
    "types": [
      "series",
      "1"
    ]
  }
}