{
  "header": {
    "description": "Karaoke Mugen Tag File",
    "version": 1
  },
  "tag": {
    "aliases": [
      "oresuki",
      "俺好き"
    ],
    "external_database_ids": {
      "anilist": 104464,
      "myanimelist": 38483,
      "kitsu": 42047
    },
    "i18n": {
      "eng": "ORESUKI Are you the only one who loves me?",
      "jpn": "俺を好きなのはお前だけかよ",
      "qro": "Ore wo Suki nano wa Omae dake ka yo"
    },
    "modified_at": "2020-03-31T19:04:32.403Z",
    "name": "Ore wo Suki nano wa Omae dake ka yo",
    "repository": "kara.moe",
    "tid": "c57c8b9b-effd-4008-b5fd-375061ceac70",
    "types": [
      "series",
      "1"
    ]
  }
}