{
  "header": {
    "description": "Karaoke Mugen Tag File",
    "version": 1
  },
  "tag": {
    "i18n": {
      "eng": "orebanana"
    },
    "name": "orebanana",
    "repository": "kara.moe",
    "tid": "13b2ac41-ea15-4e8b-a864-c754149c6f68",
    "types": [
      "songwriters",
      "8"
    ]
  }
}