{
  "header": {
    "description": "Karaoke Mugen Tag File",
    "version": 1
  },
  "tag": {
    "i18n": {
      "eng": "Oriko Takanashi"
    },
    "name": "Oriko Takanashi",
    "tid": "54d0bdd4-39b0-4997-8c73-529fd99684f8",
    "types": [
      "singers",
      "2"
    ],
    "repository": "kara.moe",
    "modified_at": "2020-03-31T19:04:36.830Z"
  }
}