{
  "header": {
    "description": "Karaoke Mugen Tag File",
    "version": 1
  },
  "tag": {
    "i18n": {
      "eng": "Osamu Suzuki"
    },
    "modified_at": "2020-05-12T22:58:05.819Z",
    "name": "Osamu Suzuki",
    "repository": "kara.moe",
    "tid": "5c76f3af-9637-4d8e-8c6c-139689409966",
    "types": [
      "songwriters",
      "8"
    ]
  }
}