{
  "header": {
    "description": "Karaoke Mugen Tag File",
    "version": 1
  },
  "tag": {
    "aliases": [
      "Г-н Осомацу"
    ],
    "external_database_ids": {
      "anilist": 21261,
      "myanimelist": 31174,
      "kitsu": 11178
    },
    "i18n": {
      "eng": "Mr. Osomatsu",
      "fre": "Osomatsu-san",
      "jpn": "おそ松さん",
      "qro": "Osomatsu-san"
    },
    "modified_at": "2020-03-31T19:04:32.408Z",
    "name": "Osomatsu-san",
    "repository": "kara.moe",
    "tid": "f2f0f3c0-d942-4316-a4df-99ac0d9b4443",
    "types": [
      "series",
      "1",
      "franchises",
      "18"
    ]
  }
}