{
  "header": {
    "description": "Karaoke Mugen Tag File",
    "version": 1
  },
  "tag": {
    "aliases": [
      "Girl Demon Zakuro",
      "Maiden Spirit Zakuro",
      "Otome Youkai Zakuro",
      "Spirit Girl Zakuro",
      "Гранатовая Демоница Закуро",
      "おとめ妖怪ざくろ",
      "妖怪少女石榴",
      "youkai"
    ],
    "external_database_ids": {
      "anilist": 8476,
      "myanimelist": 8476,
      "kitsu": 5349
    },
    "i18n": {
      "eng": "Zakuro",
      "fre": "Otome Yôkai Zakuro",
      "jpn": "おとめ妖怪 ざくろ",
      "qro": "Otome Yôkai Zakuro"
    },
    "modified_at": "2020-03-31T19:04:32.410Z",
    "name": "Otome Yôkai Zakuro",
    "repository": "kara.moe",
    "tid": "25e7e8a3-dddb-414b-9015-223a4eb24452",
    "types": [
      "series",
      "1"
    ]
  }
}