{
  "header": {
    "description": "Karaoke Mugen Tag File",
    "version": 1
  },
  "tag": {
    "aliases": [
      "Umineko no Naku Koro ni",
      "Ôgon Musô Kyoku"
    ],
    "i18n": {
      "eng": "Ôgon Musôkyoku",
      "jpn": "黄金夢想曲",
      "qro": "Ougon Musou Kyoku"
    },
    "modified_at": "2020-03-31T19:04:32.412Z",
    "name": "Ougon Musou Kyoku",
    "repository": "kara.moe",
    "tid": "2a7cfa99-dde3-4e74-a516-7dfe699659d2",
    "types": [
      "series",
      "1",
      "franchises",
      "18"
    ]
  }
}