{
  "header": {
    "description": "Karaoke Mugen Tag File",
    "version": 1
  },
  "tag": {
    "i18n": {
      "eng": "OVERHEAD CHAMPION"
    },
    "modified_at": "2020-12-28T20:59:25.507Z",
    "name": "OVERHEAD CHAMPION",
    "repository": "kara.moe",
    "tid": "d7ce5400-6e2b-4a8c-b7ff-300b75e54103",
    "types": [
      "songwriters",
      "8"
    ]
  }
}