{
  "header": {
    "description": "Karaoke Mugen Tag File",
    "version": 1
  },
  "tag": {
    "aliases": [
      "オーバーロード II"
    ],
    "external_database_ids": {
      "anilist": 98437,
      "myanimelist": 35073,
      "kitsu": 13237
    },
    "i18n": {
      "eng": "Overlord II",
      "jpn": "オーバーロードⅡ",
      "kor": "오버로드 II"
    },
    "name": "Overlord II",
    "repository": "kara.moe",
    "tid": "88dd0c68-d32c-4575-8577-9243584d7227",
    "types": [
      "series",
      "1"
    ]
  }
}