{
  "header": {
    "description": "Karaoke Mugen Tag File",
    "version": 1
  },
  "tag": {
    "i18n": {
      "eng": "P-VINE RECORDS"
    },
    "name": "P-VINE RECORDS",
    "tid": "db7bfefa-98e1-4a78-97b9-3d7f25cb5f95",
    "types": [
      "creators",
      "4"
    ],
    "repository": "kara.moe",
    "modified_at": "2020-03-31T19:04:36.856Z"
  }
}