{
  "header": {
    "description": "Karaoke Mugen Tag File",
    "version": 1
  },
  "tag": {
    "i18n": {
      "eng": "Pablo the Little Red Fox",
      "fre": "Pablo le petit renard rouge"
    },
    "modified_at": "2021-10-10T13:35:49.643Z",
    "name": "Pablo le petit renard rouge",
    "repository": "kara.moe",
    "tid": "39a616c6-22ec-49d8-9ada-4813611c1ee9",
    "types": [
      "series",
      "1"
    ]
  }
}