{
  "header": {
    "description": "Karaoke Mugen Tag File",
    "version": 1
  },
  "tag": {
    "i18n": {
      "eng": "Pacific Animation Corporation"
    },
    "name": "Pacific Animation Corporation",
    "tid": "a1e4747f-5352-47da-8d23-18bbed16c502",
    "types": [
      "creators",
      "4"
    ],
    "repository": "kara.moe",
    "modified_at": "2020-03-31T19:04:36.859Z"
  }
}