{
  "header": {
    "description": "Karaoke Mugen Tag File",
    "version": 1
  },
  "tag": {
    "i18n": {
      "jpn": "パタポン",
      "qro": "Patapon"
    },
    "modified_at": "2020-03-31T19:04:32.438Z",
    "name": "Patapon",
    "repository": "kara.moe",
    "tid": "6e6d6682-5180-4ada-8e0e-05753ba5b4ce",
    "types": [
      "series",
      "1"
    ]
  }
}