{
  "header": {
    "description": "Karaoke Mugen Tag File",
    "version": 1
  },
  "tag": {
    "i18n": {
      "eng": "Patrick Fiori"
    },
    "name": "Patrick Fiori",
    "tid": "53641baf-6c4d-41e8-b412-fe0d68717cf1",
    "types": [
      "singers",
      "2"
    ],
    "repository": "kara.moe",
    "modified_at": "2020-03-31T19:04:36.883Z"
  }
}