{
  "header": {
    "description": "Karaoke Mugen Tag File",
    "version": 1
  },
  "tag": {
    "i18n": {
      "eng": "Penguins"
    },
    "name": "Penguins",
    "repository": "kara.moe",
    "tid": "7153dcce-7be0-467e-a77a-98676a6489ea",
    "types": [
      "songwriters",
      "8"
    ],
    "modified_at": "2020-03-31T19:04:36.900Z"
  }
}