{
  "header": {
    "description": "Karaoke Mugen Tag File",
    "version": 1
  },
  "tag": {
    "i18n": {
      "eng": "Persona 3 Reload"
    },
    "name": "Persona 3 Reload",
    "repository": "kara.moe",
    "tid": "8107bc2c-63de-451f-a996-1d0f32fbbda4",
    "types": [
      "series",
      "1"
    ]
  }
}