{
  "header": {
    "description": "Karaoke Mugen Tag File",
    "version": 1
  },
  "tag": {
    "aliases": [
      "P4 The Animation",
      "p4a",
      "Персона 4",
      "انیمشن پرسونا چهار",
      "ペルソナ4アニメーション"
    ],
    "external_database_ids": {
      "anilist": 10588,
      "myanimelist": 10588,
      "kitsu": 6255
    },
    "i18n": {
      "eng": "Persona 4: The Animation",
      "jpn": "Persona 4 the ANIMATION",
      "per": "پرسونا فور د انیمیشن",
      "qro": "Persona 4 The Animation"
    },
    "modified_at": "2020-06-21T23:45:31.966Z",
    "name": "Persona 4 The Animation",
    "repository": "kara.moe",
    "tid": "7da59ed5-90aa-4444-a3b8-690cb5495407",
    "types": [
      "series",
      "1"
    ]
  }
}