{
  "header": {
    "description": "Karaoke Mugen Tag File",
    "version": 1
  },
  "tag": {
    "i18n": {
      "eng": "Peter Glenister"
    },
    "modified_at": "2021-05-21T17:46:28.657Z",
    "name": "Peter Glenister",
    "repository": "kara.moe",
    "tid": "4705d7ac-18ae-4114-8736-113d2ddfa3e7",
    "types": [
      "songwriters",
      "8"
    ]
  }
}