{
  "header": {
    "description": "Karaoke Mugen Tag File",
    "version": 1
  },
  "tag": {
    "i18n": {
      "eng": "Peter Erskine"
    },
    "name": "Peter Erskine",
    "repository": "kara.moe",
    "tid": "93299d88-a806-4bc6-8f28-92768fadd380",
    "types": [
      "songwriters",
      "8"
    ]
  }
}