{
  "header": {
    "description": "Karaoke Mugen Tag File",
    "version": 1
  },
  "tag": {
    "i18n": {
      "eng": "Petit Rabbit's"
    },
    "name": "Petit Rabbit's",
    "tid": "3098e3c8-994f-4208-a6ce-78315b2386ca",
    "types": [
      "singers",
      "2"
    ],
    "repository": "kara.moe",
    "modified_at": "2020-03-31T19:04:36.911Z"
  }
}