{
  "header": {
    "description": "Karaoke Mugen Tag File",
    "version": 1
  },
  "tag": {
    "i18n": {
      "eng": "Philippe Clay"
    },
    "name": "Philippe Clay",
    "repository": "kara.moe",
    "tid": "e3c4d994-6164-4ae0-ae82-38716d5ab5f6",
    "types": [
      "singers",
      "2"
    ]
  }
}