{
  "header": {
    "description": "Karaoke Mugen Tag File",
    "version": 1
  },
  "tag": {
    "i18n": {
      "eng": "Philippe Peythieu"
    },
    "modified_at": "2020-12-18T18:48:17.891Z",
    "name": "Philippe Peythieu",
    "repository": "kara.moe",
    "tid": "194738ba-461e-4eef-9103-555f22f4d6f8",
    "types": [
      "singers",
      "2"
    ]
  }
}