{
  "header": {
    "description": "Karaoke Mugen Tag File",
    "version": 1
  },
  "tag": {
    "aliases": [
      "Boku no Pico 2"
    ],
    "external_database_ids": {
      "anilist": 5391,
      "myanimelist": 5391,
      "kitsu": 4080
    },
    "i18n": {
      "eng": "Pico to Chico",
      "jpn": "ぴことちこ",
      "qro": "Pico to Chico"
    },
    "modified_at": "2020-03-31T19:04:32.457Z",
    "name": "Pico to Chico",
    "repository": "kara.moe",
    "tid": "d0648e8d-a1f8-4a72-8855-f4afa6854a95",
    "types": [
      "series",
      "1"
    ]
  }
}