{
  "header": {
    "description": "Karaoke Mugen Tag File",
    "version": 1
  },
  "tag": {
    "i18n": {
      "eng": "Pierre Colin-Thibert"
    },
    "name": "Pierre Colin-Thibert",
    "tid": "1b64368a-c427-4500-8d15-7acf49bf831b",
    "types": [
      "songwriters",
      "8"
    ],
    "repository": "kara.moe",
    "modified_at": "2020-03-31T19:04:36.924Z"
  }
}