{
  "header": {
    "description": "Karaoke Mugen Tag File",
    "version": 1
  },
  "tag": {
    "i18n": {
      "eng": "Pierre Jaconelli"
    },
    "modified_at": "2020-04-11T14:48:57.529Z",
    "name": "Pierre Jaconelli",
    "repository": "kara.moe",
    "tid": "f41ac6fd-5717-4d14-8dc5-4c6654583020",
    "types": [
      "songwriters",
      "8"
    ]
  }
}