{
  "header": {
    "description": "Karaoke Mugen Tag File",
    "version": 1
  },
  "tag": {
    "i18n": {
      "eng": "Pierre Desmont"
    },
    "name": "Pierre Desmont",
    "tid": "8775cf11-a2f7-4b89-a70e-332f72dad3e5",
    "types": [
      "songwriters",
      "8"
    ],
    "repository": "kara.moe",
    "modified_at": "2020-03-31T19:04:36.925Z"
  }
}