{
  "header": {
    "description": "Karaoke Mugen Tag File",
    "version": 1
  },
  "tag": {
    "i18n": {
      "eng": "Pil/Slash"
    },
    "name": "Pil/Slash",
    "tid": "ef504d4c-e3d7-46ab-81d2-415eabd382ac",
    "types": [
      "creators",
      "4"
    ],
    "repository": "kara.moe",
    "modified_at": "2020-03-31T19:04:36.931Z"
  }
}