{
  "header": {
    "description": "Karaoke Mugen Tag File",
    "version": 1
  },
  "tag": {
    "i18n": {
      "eng": "Pili International Multimedia"
    },
    "name": "Pili International Multimedia",
    "tid": "f46fe92b-fe00-4cf1-b9e4-8d2ac93115dc",
    "types": [
      "creators",
      "4"
    ],
    "repository": "kara.moe",
    "modified_at": "2020-03-31T19:04:36.932Z"
  }
}