{
  "header": {
    "description": "Karaoke Mugen Tag File",
    "version": 1
  },
  "tag": {
    "i18n": {
      "eng": "Play M Entertainment"
    },
    "name": "Play M Entertainment",
    "tid": "3029aa15-2b94-435a-8428-576726ce5616",
    "types": [
      "creators",
      "4"
    ],
    "repository": "kara.moe",
    "modified_at": "2020-03-31T19:04:36.945Z"
  }
}