{
  "header": {
    "description": "Karaoke Mugen Tag File",
    "version": 1
  },
  "tag": {
    "i18n": {
      "eng": "PNGN 4"
    },
    "name": "PNGN 4",
    "repository": "kara.moe",
    "tid": "8d9baeaa-90c8-433f-9846-d48bf80c44d7",
    "types": [
      "singergroups",
      "17"
    ]
  }
}