{
  "header": {
    "description": "Karaoke Mugen Tag File",
    "version": 1
  },
  "tag": {
    "aliases": [
      "Pkmn"
    ],
    "external_database_ids": {
      "anilist": 21356,
      "myanimelist": 31592,
      "kitsu": 11367
    },
    "i18n": {
      "eng": "Pokémon the Series: XYZ",
      "fre": "Pokémon, la série : XYZ",
      "jpn": "ポケットモンスターＸＹ＆Ｚ",
      "qro": "Pocket Monsters XY&Z"
    },
    "modified_at": "2020-06-21T23:45:31.966Z",
    "name": "Pocket Monsters XY&Z",
    "repository": "kara.moe",
    "tid": "c988e13b-dd95-4f66-86bb-1d6121f805cc",
    "types": [
      "series",
      "1"
    ]
  }
}