{
  "header": {
    "description": "Karaoke Mugen Tag File",
    "version": 1
  },
  "tag": {
    "aliases": [
      "Noir et Blanc",
      "Pkmn",
      "Pkmn NB",
      "Pokémon NB"
    ],
    "external_database_ids": {
      "anilist": 14093,
      "myanimelist": 14093,
      "kitsu": 7080
    },
    "i18n": {
      "eng": "Pokémon BW: Rival Destinies",
      "fre": "Pokémon : Noir & Blanc ‒ Destinées Rivales",
      "jpn": "ポケットモンスター ベストウイッシュ シーズン２",
      "qro": "Pocket Monsters Best Wishes! Season 2"
    },
    "modified_at": "2020-06-21T23:45:31.966Z",
    "name": "Pocket Monsters Best Wishes! Season 2",
    "repository": "kara.moe",
    "tid": "add1c73a-814c-46b9-a60c-f85488d24561",
    "types": [
      "series",
      "1"
    ]
  }
}