{
  "header": {
    "description": "Karaoke Mugen Tag File",
    "version": 1
  },
  "tag": {
    "aliases": [
      "pmbw2n"
    ],
    "external_database_ids": {
      "anilist": 17115,
      "myanimelist": 17115,
      "kitsu": 7586
    },
    "i18n": {
      "dut": "Pokémon: BW Avonturen in Unova (2013)",
      "eng": "Pokemon: BW Adventures in Unova",
      "fre": "Pokémon : Noir et Blanc - Aventures à Unys et au-delà",
      "jpn": "ポケットモンスター ベストウイッシュ シーズン2 エピソードN",
      "por": "Pokémon Preto e Branco: Aventuras em Unova",
      "qro": "Pocket Monsters Best Wishes! Season 2 - Episode N"
    },
    "modified_at": "2020-03-31T19:04:32.467Z",
    "name": "Pocket Monsters Best Wishes! Season 2 - Episode N",
    "repository": "kara.moe",
    "tid": "42eb321a-4f28-460d-8a69-8fc43d0738a0",
    "types": [
      "series",
      "1"
    ]
  }
}