{
  "header": {
    "description": "Karaoke Mugen Tag File",
    "version": 1
  },
  "tag": {
    "aliases": [
      "Pkmn"
    ],
    "external_database_ids": {
      "anilist": 527,
      "myanimelist": 527,
      "kitsu": 486
    },
    "i18n": {
      "eng": "Pokémon: Indigo League",
      "fre": "Pokémon : La Ligue Indigo",
      "jpn": "ポケットモンスター",
      "qro": "Pocket Monsters"
    },
    "modified_at": "2020-06-21T23:45:31.966Z",
    "name": "Pocket Monsters",
    "repository": "kara.moe",
    "tid": "cc1f8e40-71a2-4097-9bcf-7132b4b19ef7",
    "types": [
      "series",
      "1"
    ]
  }
}