{
  "header": {
    "description": "Karaoke Mugen Tag File",
    "version": 1
  },
  "tag": {
    "i18n": {
      "eng": "Poco"
    },
    "name": "Poco",
    "tid": "80e585ad-7850-4e86-a2d3-bfe3563298ad",
    "types": [
      "creators",
      "4"
    ],
    "repository": "kara.moe",
    "modified_at": "2020-03-31T19:04:36.954Z"
  }
}