{
  "header": {
    "description": "Karaoke Mugen Tag File",
    "version": 1
  },
  "tag": {
    "i18n": {
      "eng": "Poka Poka Ion"
    },
    "name": "Poka Poka Ion",
    "repository": "kara.moe",
    "tid": "0cb6e39e-797b-4f6b-8cd7-29225941fc03",
    "types": [
      "singers",
      "2"
    ]
  }
}