{
  "header": {
    "description": "Karaoke Mugen Tag File",
    "version": 1
  },
  "tag": {
    "aliases": [
      "Pkmn",
      "Pocket Monsters Sun & Moon",
      "Pocket Monsters Sun and Moon",
      "pokemon"
    ],
    "external_database_ids": {
      "anilist": 97634,
      "myanimelist": 34034,
      "kitsu": 12533
    },
    "i18n": {
      "eng": "Pokémon the Series: Sun & Moon",
      "fre": "Pokémon, la série : Soleil et Lune",
      "jpn": "ポケットモンスター　サン＆ムーン",
      "qro": "Pokémon the Series: Sun & Moon"
    },
    "modified_at": "2020-03-31T19:04:32.490Z",
    "name": "Pokémon the Series: Sun & Moon",
    "repository": "kara.moe",
    "tid": "a51202de-7670-4594-a5f2-926b9b9abadd",
    "types": [
      "series",
      "1"
    ]
  }
}