{
  "header": {
    "description": "Karaoke Mugen Tag File",
    "version": 1
  },
  "tag": {
    "aliases": [
      "Pkmn",
      "Pocket Monsters XY"
    ],
    "external_database_ids": {
      "anilist": 19291,
      "myanimelist": 19291,
      "kitsu": 7850
    },
    "i18n": {
      "eng": "Pokémon the Series : XY",
      "fre": "Pokémon, la série : XY",
      "ger": "Pokémon - Die TV-Serie: XY",
      "por": "Pokémon - Série XY"
    },
    "modified_at": "2020-03-31T19:04:32.491Z",
    "name": "Pokémon the Series : XY",
    "repository": "kara.moe",
    "tid": "fc0a4ebc-48f6-4b59-99ef-35f81f4b7872",
    "types": [
      "series",
      "1"
    ]
  }
}