{
  "header": {
    "description": "Karaoke Mugen Tag File",
    "version": 1
  },
  "tag": {
    "i18n": {
      "eng": "Polka Omaru",
      "jpn": "尾丸ポルカ",
      "qro": "Polka Omaru"
    },
    "modified_at": "2021-09-02T20:56:09.242Z",
    "name": "Polka Omaru",
    "repository": "kara.moe",
    "tid": "43db08b2-141d-4500-920e-e630de6bb062",
    "types": [
      "singers",
      "2",
      "songwriters",
      "8"
    ]
  }
}