{
  "header": {
    "description": "Karaoke Mugen Tag File",
    "version": 1
  },
  "tag": {
    "i18n": {
      "eng": "Polyscope"
    },
    "name": "Polyscope",
    "tid": "33e3b4dd-2b02-45d8-8e39-a06eba87238e",
    "types": [
      "creators",
      "4"
    ],
    "repository": "kara.moe",
    "modified_at": "2020-03-31T19:04:36.960Z"
  }
}