{
  "header": {
    "description": "Karaoke Mugen Tag File",
    "version": 1
  },
  "tag": {
    "i18n": {
      "eng": "PONY CANYON",
      "jpn": "ポニーキャニオン",
      "qro": "PONYCANYON"
    },
    "name": "PONY CANYON",
    "repository": "kara.moe",
    "tid": "97e62433-0f2f-4e1b-ba1e-109eec95dc11",
    "types": [
      "creators",
      "4"
    ]
  }
}