{
  "header": {
    "description": "Karaoke Mugen Tag File",
    "version": 1
  },
  "tag": {
    "aliases": [
      "Hoshiiro Girl Drop",
      "Hoshiiro Girldrop",
      "Poputepipikku",
      "PTE",
      "pptp",
      "Poptepipic"
    ],
    "external_database_ids": {
      "anilist": 143086,
      "kitsu": 45651,
      "myanimelist": 50663
    },
    "i18n": {
      "eng": "Pop Team Epic (season 2)",
      "jpn": "ポプテピピック (2022)",
      "qro": "Poputepipikku (2022)"
    },
    "name": "Pop Team Epic (2022)",
    "repository": "kara.moe",
    "tid": "2215663b-776f-4ced-a5d7-a92b49ea201c",
    "types": [
      "series",
      "1"
    ]
  }
}