{
  "header": {
    "description": "Karaoke Mugen Tag File",
    "version": 1
  },
  "tag": {
    "i18n": {
      "eng": "Porno Graffitti"
    },
    "name": "Porno Graffitti",
    "tid": "a51def19-a639-4b1e-aea5-b4beee52c8a1",
    "types": [
      "singers",
      "2",
      "songwriters",
      "8"
    ],
    "repository": "kara.moe",
    "modified_at": "2020-03-31T19:04:36.968Z"
  }
}