{
  "header": {
    "description": "Karaoke Mugen Tag File",
    "version": 1
  },
  "tag": {
    "i18n": {
      "eng": "POSSIBILITY"
    },
    "name": "POSSIBILITY",
    "repository": "kara.moe",
    "tid": "05d3c126-14cf-4bd7-a0e8-fc8b4e705c62",
    "types": [
      "singergroups",
      "17",
      "songwriters",
      "8"
    ]
  }
}