{
  "header": {
    "description": "Karaoke Mugen Tag File",
    "version": 1
  },
  "tag": {
    "i18n": {
      "eng": "Poucet"
    },
    "modified_at": "2021-03-22T14:51:18.019Z",
    "name": "Poucet",
    "repository": "kara.moe",
    "tid": "50ce103e-a678-4134-9109-eb06288e555e",
    "types": [
      "songwriters",
      "8",
      "singers",
      "2"
    ]
  }
}