{
  "header": {
    "description": "Karaoke Mugen Tag File",
    "version": 1
  },
  "tag": {
    "i18n": {
      "eng": "Production IMS"
    },
    "name": "Production IMS",
    "tid": "fc687079-2e13-485f-a3ab-4474872175a8",
    "types": [
      "creators",
      "4"
    ],
    "repository": "kara.moe",
    "modified_at": "2020-03-31T19:04:36.977Z"
  }
}