{
  "header": {
    "description": "Karaoke Mugen Tag File",
    "version": 1
  },
  "tag": {
    "i18n": {
      "eng": "PUFFY"
    },
    "name": "PUFFY",
    "tid": "5718ef83-1094-440f-9f24-b4dd99e70ffb",
    "types": [
      "singers",
      "2",
      "songwriters",
      "8"
    ],
    "repository": "kara.moe",
    "modified_at": "2020-03-31T19:04:36.986Z"
  }
}