{
  "header": {
    "description": "Karaoke Mugen Tag File",
    "version": 1
  },
  "tag": {
    "i18n": {
      "eng": "pvogt"
    },
    "modified_at": "2020-05-23T21:33:53.914Z",
    "name": "pvogt",
    "repository": "kara.moe",
    "tid": "085bffb4-d910-4e03-82e4-0682f17c8b97",
    "types": [
      "authors",
      "6"
    ]
  }
}