{
  "header": {
    "description": "Karaoke Mugen Tag File",
    "version": 1
  },
  "tag": {
    "i18n": {
      "eng": "q*Left"
    },
    "modified_at": "2021-03-15T14:44:03.966Z",
    "name": "q*Left",
    "repository": "kara.moe",
    "tid": "298c0a40-668d-4380-93d9-31e4946cc7de",
    "types": [
      "songwriters",
      "8"
    ]
  }
}