{
  "header": {
    "description": "Karaoke Mugen Tag File",
    "version": 1
  },
  "tag": {
    "i18n": {
      "eng": "Qīng Xiū",
      "chi": "青修"
    },
    "modified_at": "2021-03-13T14:25:10.789Z",
    "name": "Qīng Xiū",
    "repository": "kara.moe",
    "tid": "d2a3aa50-2c41-4e31-891c-c45bf8b64fe4",
    "types": [
      "songwriters",
      "8"
    ]
  }
}