{
  "header": {
    "description": "Karaoke Mugen Tag File",
    "version": 1
  },
  "tag": {
    "i18n": {
      "afr": "Quechua",
      "amh": "Quechua",
      "ara": "الكويتشوا",
      "aze": "Кечуа",
      "bak": "Кечуа теле",
      "bel": "Кечуа",
      "bul": "Кечуа",
      "ben": "কেচুয়া",
      "bos": "Bosanski",
      "cat": "El quítxua",
      "cze": "Quechua",
      "wel": "Quechua",
      "dan": "Quechua",
      "ger": "Quechua",
      "gre": "Quechua",
      "eng": "Quechua",
      "epo": "La keĉua",
      "spa": "Quechua",
      "est": "Ketšua",
      "baq": "Quechua",
      "per": "Quechua",
      "fin": "Quechua",
      "fre": "Quechua",
      "gle": "Ceatsuais",
      "gla": "Quechua",
      "glg": "Quechua",
      "guj": "ક્વેચુઆ",
      "heb": "קצ ' ואה",
      "hin": "क्वेशुआ",
      "hrv": "Kečua",
      "hat": "Quechua",
      "hun": "Kecsua",
      "arm": "Կեչուա",
      "ind": "Quechua",
      "ice": "Quechua",
      "ita": "Quechua",
      "jpn": "ケチュア",
      "jav": "Quechua",
      "geo": "კეჩუა",
      "kaz": "Кечуа",
      "kan": "ಕ್ವೆಚುವಾ",
      "kor": "Quechua",
      "kir": "Кечуа",
      "lat": "Quechua",
      "lit": "Kečujų",
      "lav": "Kečvu",
      "mlg": "Quechua",
      "mao": "Quechua",
      "mac": "Кечуа",
      "mal": "Quechua",
      "mon": "Quechua",
      "mar": "क्वेचुआ",
      "may": "Quechua",
      "mlt": "}",
      "nep": "पेदी",
      "dut": "Quechua",
      "nor": "Quechua",
      "pan": "Quechua",
      "pol": "Keczua",
      "por": "Quechua",
      "rum": "Quechua",
      "rus": "Кечуа",
      "sin": "කෙචුවා",
      "slo": "Quechua",
      "slv": "Quechua",
      "alb": "Quechua",
      "srp": "Кечуа",
      "sun": "Occitan",
      "swe": "Quechua",
      "swa": "Kiquechua",
      "tam": "Quechua",
      "tel": "Quechua",
      "tgk": "Кечуа",
      "tha": "ภาษาเคชัว name",
      "tgl": "Quechua",
      "tur": "Quechua",
      "tat": "Кечуа теле",
      "ukr": "Кечуа",
      "urd": "کویچوآ",
      "uzb": "Quechua",
      "vie": "Quechua",
      "xho": "Quechua",
      "yid": "קוועטשואַ",
      "chi": "克丘亚语"
    },
    "name": "que",
    "tid": "0f07b923-dbfc-4ddb-af65-d4126cdb1f2a",
    "types": [
      "langs",
      "5"
    ],
    "repository": "kara.moe",
    "modified_at": "2020-03-31T19:04:36.999Z"
  }
}