{
  "header": {
    "description": "Karaoke Mugen Tag File",
    "version": 1
  },
  "tag": {
    "i18n": {
      "eng": "Questy"
    },
    "name": "Questy",
    "repository": "kara.moe",
    "tid": "5b70a850-964c-4b96-9232-7768f12067da",
    "types": [
      "singers",
      "2"
    ],
    "modified_at": "2020-03-31T19:04:37.001Z"
  }
}