{
  "header": {
    "description": "Karaoke Mugen Tag File",
    "version": 1
  },
  "tag": {
    "i18n": {
      "eng": "R-shitei"
    },
    "name": "R-shitei",
    "repository": "kara.moe",
    "tid": "5139894b-25e2-4e22-8960-534a1524a277",
    "types": [
      "songwriters",
      "8"
    ],
    "modified_at": "2020-03-31T19:04:37.003Z"
  }
}