{
  "header": {
    "description": "Karaoke Mugen Tag File",
    "version": 1
  },
  "tag": {
    "i18n": {
      "eng": "R3BIRTH"
    },
    "name": "R3BIRTH",
    "repository": "kara.moe",
    "tid": "a51858bd-eb67-4c21-913c-cbcd6027575f",
    "types": [
      "singergroups",
      "17"
    ]
  }
}