{
  "header": {
    "description": "Karaoke Mugen Tag File",
    "version": 1
  },
  "tag": {
    "external_database_ids": {
      "anilist": 108040,
      "myanimelist": 39355,
      "kitsu": 42521
    },
    "i18n": {
      "jpn": "Radiant 2nd Season",
      "qro": "Radiant 2nd Season"
    },
    "modified_at": "2020-03-31T19:04:32.530Z",
    "name": "Radiant 2nd Season",
    "repository": "kara.moe",
    "tid": "8c52ac3e-5719-4fa1-9c86-e664691e7626",
    "types": [
      "series",
      "1"
    ]
  }
}