{
  "header": {
    "description": "Karaoke Mugen Tag File",
    "version": 1
  },
  "tag": {
    "i18n": {
      "eng": "Rainych"
    },
    "modified_at": "2021-06-20T13:04:26.409Z",
    "name": "Rainych",
    "repository": "kara.moe",
    "tid": "30b36d19-05ae-4796-9e3e-e088ae882876",
    "types": [
      "creators",
      "4",
      "singers",
      "2",
      "songwriters",
      "8"
    ]
  }
}