{
  "header": {
    "description": "Karaoke Mugen Tag File",
    "version": 1
  },
  "tag": {
    "i18n": {
      "eng": "Rami Yacoub"
    },
    "name": "Rami Yacoub",
    "repository": "kara.moe",
    "tid": "d13ca84d-80bb-48d0-9d84-c0fae89755d2",
    "types": [
      "songwriters",
      "8"
    ]
  }
}