{
  "header": {
    "description": "Karaoke Mugen Tag File",
    "version": 1
  },
  "tag": {
    "i18n": {
      "eng": "Ran T"
    },
    "name": "Ran T",
    "repository": "kara.moe",
    "tid": "eb6f42b1-cb35-40e4-b583-d8022fc8c7c1",
    "types": [
      "songwriters",
      "8"
    ]
  }
}