{
  "header": {
    "description": "Karaoke Mugen Tag File",
    "version": 1
  },
  "tag": {
    "i18n": {
      "eng": "RANGA"
    },
    "modified_at": "2020-06-01T16:55:45.556Z",
    "name": "RANGA",
    "repository": "kara.moe",
    "tid": "b0e05ee5-5ab0-4d8b-9fda-16d49dedce84",
    "types": [
      "songwriters",
      "8"
    ]
  }
}