{
  "header": {
    "description": "Karaoke Mugen Tag File",
    "version": 1
  },
  "tag": {
    "aliases": [
      "12",
      "1/2",
      "un demi"
    ],
    "external_database_ids": {
      "anilist": 1008,
      "kitsu": 898,
      "myanimelist": 1008
    },
    "i18n": {
      "eng": "Ranma ½ Special: Reawakening Memories",
      "jpn": "らんま½ よみがえる記憶",
      "qro": "Ranma ½ Special : Yomigaeru Kioku"
    },
    "name": "Ranma ½ Special : Yomigaeru Kioku",
    "repository": "kara.moe",
    "tid": "760b7faf-ba95-481d-aba3-e2fd9894ae19",
    "types": [
      "series",
      "1"
    ]
  }
}