{
  "header": {
    "description": "Karaoke Mugen Tag File",
    "version": 1
  },
  "tag": {
    "i18n": {
      "eng": "RE:BERSERK"
    },
    "name": "RE:BERSERK",
    "repository": "kara.moe",
    "tid": "542cceae-19c5-4f08-a170-0175ec25ff84",
    "types": [
      "singers",
      "2"
    ]
  }
}