{
  "header": {
    "description": "Karaoke Mugen Tag File",
    "version": 1
  },
  "tag": {
    "aliases": [
      "Rean's Wing",
      "RnT",
      "WoR"
    ],
    "external_database_ids": {
      "anilist": 574,
      "myanimelist": 574,
      "kitsu": 531
    },
    "i18n": {
      "eng": "The Wings of Rean",
      "jpn": "リーンの翼",
      "qro": "Rean no Tsubasa"
    },
    "modified_at": "2020-03-31T19:04:32.543Z",
    "name": "Rean no Tsubasa",
    "repository": "kara.moe",
    "tid": "e2661d36-f8ee-413a-9c5b-5f987f618b28",
    "types": [
      "series",
      "1"
    ]
  }
}