{
  "header": {
    "description": "Karaoke Mugen Tag File",
    "version": 1
  },
  "tag": {
    "i18n": {
      "eng": "RegaSound"
    },
    "name": "RegaSound",
    "tid": "e28fdddf-908c-463f-bd64-521cf84aa94f",
    "types": [
      "songwriters",
      "8"
    ],
    "repository": "kara.moe",
    "modified_at": "2020-03-31T19:04:37.040Z"
  }
}