{
  "header": {
    "description": "Karaoke Mugen Tag File",
    "version": 1
  },
  "tag": {
    "aliases": [
      "リリース ザ スパイス"
    ],
    "external_database_ids": {
      "anilist": 101014,
      "myanimelist": 37221,
      "kitsu": 41405
    },
    "i18n": {
      "eng": "Release the Spyce",
      "jpn": "RELEASE THE SPYCE",
      "qro": "Release the Spyce"
    },
    "modified_at": "2020-03-31T19:04:32.547Z",
    "name": "Release the Spyce",
    "repository": "kara.moe",
    "tid": "d09ef4b1-5618-4ec9-9c2c-dabdc56567f8",
    "types": [
      "series",
      "1"
    ]
  }
}