{
  "header": {
    "description": "Karaoke Mugen Tag File",
    "version": 1
  },
  "tag": {
    "i18n": {
      "eng": "Remix"
    },
    "karafile_tag": "REMIX",
    "name": "Remix",
    "tid": "ec4360fa-3e3c-4f6f-b0e1-fb8b12b6dd18",
    "types": [
      "misc",
      "7"
    ],
    "short": "RMX",
    "repository": "kara.moe",
    "modified_at": "2020-01-13T19:04:37.059Z"
  }
}