{
  "header": {
    "description": "Karaoke Mugen Tag File",
    "version": 1
  },
  "tag": {
    "i18n": {
      "eng": "Ren Adachi"
    },
    "name": "Ren Adachi",
    "tid": "8a15c6bc-be95-4b38-a2fb-911567188abf",
    "types": [
      "songwriters",
      "8"
    ],
    "repository": "kara.moe",
    "modified_at": "2020-03-31T19:04:37.060Z"
  }
}