{
  "header": {
    "description": "Karaoke Mugen Tag File",
    "version": 1
  },
  "tag": {
    "i18n": {
      "eng": "Ren Morimoto"
    },
    "modified_at": "2021-11-22T21:52:37.810Z",
    "name": "Ren Morimoto",
    "repository": "kara.moe",
    "tid": "16bcbe7c-2a64-4186-a2b9-09af85f12d3e",
    "types": [
      "songwriters",
      "8"
    ]
  }
}