{
  "header": {
    "description": "Karaoke Mugen Tag File",
    "version": 1
  },
  "tag": {
    "i18n": {
      "eng": "Reo Kurachi"
    },
    "name": "Reo Kurachi",
    "repository": "kara.moe",
    "tid": "7a99bdcc-b857-449d-a82f-b4005ae16dda",
    "types": [
      "singers",
      "2"
    ]
  }
}