{
  "header": {
    "description": "Karaoke Mugen Tag File",
    "version": 1
  },
  "tag": {
    "i18n": {
      "eng": "Reven"
    },
    "name": "Reven",
    "repository": "kara.moe",
    "tid": "58ed6cfb-3e39-4cb0-84d3-887924517f03",
    "types": [
      "singers",
      "2"
    ]
  }
}