{
  "header": {
    "description": "Karaoke Mugen Tag File",
    "version": 1
  },
  "tag": {
    "i18n": {
      "eng": "Revo"
    },
    "name": "Revo",
    "tid": "f632783b-a47f-44ce-b8c8-1908873bc83c",
    "types": [
      "songwriters",
      "8",
      "singers",
      "2"
    ],
    "repository": "kara.moe",
    "modified_at": "2020-03-31T19:04:37.073Z"
  }
}