{
  "header": {
    "description": "Karaoke Mugen Tag File",
    "version": 1
  },
  "tag": {
    "i18n": {
      "eng": "RhiobeT"
    },
    "name": "RhiobeT",
    "tid": "6dbda234-2ff7-481d-8d83-c275a9fd7bee",
    "types": [
      "authors",
      "6"
    ],
    "repository": "kara.moe",
    "modified_at": "2020-03-31T19:04:37.075Z"
  }
}