{
  "header": {
    "description": "Karaoke Mugen Tag File",
    "version": 1
  },
  "tag": {
    "i18n": {
      "eng": "Rib"
    },
    "name": "Rib",
    "repository": "kara.moe",
    "tid": "51b33546-15bb-4c54-8878-888437d22531",
    "types": [
      "singers",
      "2"
    ],
    "modified_at": "2020-03-31T19:04:37.078Z"
  }
}