{
  "header": {
    "description": "Karaoke Mugen Tag File",
    "version": 1
  },
  "tag": {
    "i18n": {
      "eng": "ribbon"
    },
    "name": "ribbon",
    "tid": "acfdb748-dd3a-46a1-aa49-965d4e99fbe9",
    "types": [
      "singers",
      "2"
    ],
    "repository": "kara.moe",
    "modified_at": "2020-03-31T19:04:37.078Z"
  }
}