{
  "header": {
    "description": "Karaoke Mugen Tag File",
    "version": 1
  },
  "tag": {
    "aliases": [
      "Richard Rigamonti"
    ],
    "i18n": {
      "eng": "Richard De Bordeaux"
    },
    "name": "Richard De Bordeaux",
    "repository": "kara.moe",
    "tid": "076fb18a-074b-442d-90f2-f5c36afa8d2e",
    "types": [
      "singers",
      "2",
      "songwriters",
      "8"
    ]
  }
}