{
  "header": {
    "description": "Karaoke Mugen Tag File",
    "version": 1
  },
  "tag": {
    "i18n": {
      "eng": "Richard Dewitte"
    },
    "name": "Richard Dewitte",
    "tid": "216a207f-9156-43c2-9ae5-15052daea851",
    "types": [
      "singers",
      "2",
      "songwriters",
      "8"
    ],
    "repository": "kara.moe",
    "modified_at": "2020-03-31T19:04:37.082Z"
  }
}