{
  "header": {
    "description": "Karaoke Mugen Tag File",
    "version": 1
  },
  "tag": {
    "i18n": {
      "eng": "Rico"
    },
    "name": "Rico",
    "repository": "kara.moe",
    "tid": "eb05d553-46d2-46dd-9d77-f74681796e13",
    "types": [
      "songwriters",
      "8"
    ]
  }
}