{
  "header": {
    "description": "Karaoke Mugen Tag File",
    "version": 1
  },
  "tag": {
    "i18n": {
      "eng": "Rie Ootsuka"
    },
    "name": "Rie Ootsuka",
    "tid": "d947167d-1c3e-4fcd-a6c9-bc8b4c3d2dc9",
    "types": [
      "songwriters",
      "8"
    ],
    "repository": "kara.moe",
    "modified_at": "2020-03-31T19:04:37.094Z"
  }
}