{
  "header": {
    "description": "Karaoke Mugen Tag File",
    "version": 1
  },
  "tag": {
    "i18n": {
      "eng": "Rika Abe"
    },
    "name": "Rika Abe",
    "tid": "b8f8a8a2-c9cb-403f-88ab-269798fd3511",
    "types": [
      "singers",
      "2"
    ],
    "repository": "kara.moe",
    "modified_at": "2020-03-31T19:04:37.101Z"
  }
}