{
  "header": {
    "description": "Karaoke Mugen Tag File",
    "version": 1
  },
  "tag": {
    "i18n": {
      "eng": "Rika Himenogi"
    },
    "name": "Rika Himenogi",
    "repository": "kara.moe",
    "tid": "50729685-f68d-4a50-9a9c-428aa5073685",
    "types": [
      "songwriters",
      "8",
      "singers",
      "2"
    ]
  }
}