{
  "header": {
    "description": "Karaoke Mugen Tag File",
    "version": 1
  },
  "tag": {
    "i18n": {
      "eng": "Rikka Koharu",
      "jpn": "小春六花"
    },
    "name": "Rikka Koharu",
    "repository": "kara.moe",
    "tid": "b5e18f98-ffe0-46e3-a1e6-bad16dedd107",
    "types": [
      "singers",
      "2"
    ]
  }
}