{
  "header": {
    "description": "Karaoke Mugen Tag File",
    "version": 1
  },
  "tag": {
    "i18n": {
      "eng": "Riko Hirai"
    },
    "name": "Riko Hirai",
    "tid": "d35ebf1b-7f46-4942-ae3b-e26a734234f1",
    "types": [
      "singers",
      "2",
      "songwriters",
      "8"
    ],
    "repository": "kara.moe",
    "modified_at": "2020-03-31T19:04:37.112Z"
  }
}