{
  "header": {
    "description": "Karaoke Mugen Tag File",
    "version": 1
  },
  "tag": {
    "i18n": {
      "eng": "Riko Fukumoto"
    },
    "name": "Riko Fukumoto",
    "tid": "f9dd8856-ce06-42b8-be9d-ff2548d8c73e",
    "types": [
      "singers",
      "2"
    ],
    "repository": "kara.moe",
    "modified_at": "2020-03-31T19:04:37.111Z"
  }
}