{
  "header": {
    "description": "Karaoke Mugen Tag File",
    "version": 1
  },
  "tag": {
    "i18n": {
      "eng": "Riko Oohashi"
    },
    "name": "Riko Oohashi",
    "tid": "ca834763-7c91-45d8-9b5e-6a2a2bb7de74",
    "types": [
      "songwriters",
      "8"
    ],
    "repository": "kara.moe",
    "modified_at": "2020-03-31T19:04:37.112Z"
  }
}