{
  "header": {
    "description": "Karaoke Mugen Tag File",
    "version": 1
  },
  "tag": {
    "i18n": {
      "eng": "Riri Haruno",
      "qro": "Riri Haruno",
      "jpn": "春野莉々"
    },
    "name": "Riri Haruno",
    "repository": "kara.moe",
    "tid": "cf1fdacf-6d4c-4a3d-a3e4-95ed97e655f5",
    "types": [
      "singers",
      "2"
    ]
  }
}