{
  "header": {
    "description": "Karaoke Mugen Tag File",
    "version": 1
  },
  "tag": {
    "i18n": {
      "eng": "Risa Taneda"
    },
    "name": "Risa Taneda",
    "tid": "f335316b-fad2-44bc-bc41-717f11ed454e",
    "types": [
      "singers",
      "2"
    ],
    "repository": "kara.moe",
    "modified_at": "2020-03-31T19:04:37.138Z"
  }
}