{
  "header": {
    "description": "Karaoke Mugen Tag File",
    "version": 1
  },
  "tag": {
    "i18n": {
      "eng": "RISH"
    },
    "name": "RISH",
    "repository": "kara.moe",
    "tid": "cdddd0e2-f29c-46c1-b8fd-9d1a2a7fb4de",
    "types": [
      "songwriters",
      "8"
    ]
  }
}