{
  "header": {
    "description": "Karaoke Mugen Tag File",
    "version": 1
  },
  "tag": {
    "i18n": {
      "eng": "Ritchie Zito"
    },
    "name": "Ritchie Zito",
    "tid": "8c492be3-d2d7-4ae0-bd5c-ebb0a60a951f",
    "types": [
      "songwriters",
      "8"
    ],
    "repository": "kara.moe",
    "modified_at": "2020-03-31T19:04:37.145Z"
  }
}