{
  "header": {
    "description": "Karaoke Mugen Tag File",
    "version": 1
  },
  "tag": {
    "aliases": [
      "oe_bjs"
    ],
    "i18n": {
      "eng": "Ritsu Takeuchi",
      "jpn": "武内 律"
    },
    "name": "Ritsu Takeuchi",
    "repository": "kara.moe",
    "tid": "0b6b5d20-21d1-4ed7-b804-2292b084a9c2",
    "types": [
      "creators",
      "4"
    ]
  }
}