{
  "header": {
    "description": "Karaoke Mugen Tag File",
    "version": 1
  },
  "tag": {
    "i18n": {
      "eng": "ЯK"
    },
    "name": "ЯK",
    "tid": "ff0b1325-f35b-4261-b688-3acb0cefcef9",
    "types": [
      "songwriters",
      "8"
    ],
    "repository": "kara.moe",
    "modified_at": "2020-03-31T19:04:37.153Z"
  }
}