{
  "header": {
    "description": "Karaoke Mugen Tag File",
    "version": 1
  },
  "tag": {
    "i18n": {
      "eng": "Rob Manzoli"
    },
    "name": "Rob Manzoli",
    "repository": "kara.moe",
    "tid": "b1cddeea-6107-4d08-95b3-1cf7eef7b951",
    "types": [
      "songwriters",
      "8"
    ]
  }
}