{
  "header": {
    "description": "Karaoke Mugen Tag File",
    "version": 1
  },
  "tag": {
    "i18n": {
      "eng": "robertdjangelux"
    },
    "modified_at": "2021-05-21T16:15:04.699Z",
    "name": "robertdjangelux",
    "repository": "kara.moe",
    "tid": "ba24c430-e5db-4e7d-ae81-5f70733ea224",
    "types": [
      "authors",
      "6"
    ]
  }
}