{
  "header": {
    "description": "Karaoke Mugen Tag File",
    "version": 1
  },
  "tag": {
    "i18n": {
      "eng": "Robert Lucas de Pearsall"
    },
    "modified_at": "2020-05-23T21:37:35.269Z",
    "name": "Robert Lucas de Pearsall",
    "repository": "kara.moe",
    "tid": "3ab4ee0c-6357-4bd7-b69c-967c202a28b5",
    "types": [
      "songwriters",
      "8"
    ]
  }
}