{
  "header": {
    "description": "Karaoke Mugen Tag File",
    "version": 1
  },
  "tag": {
    "i18n": {
      "eng": "Robert Schumann"
    },
    "modified_at": "2020-07-21T21:32:11.831Z",
    "name": "Robert Schumann",
    "repository": "kara.moe",
    "tid": "2640772c-9380-4366-b128-c38be306c679",
    "types": [
      "songwriters",
      "8"
    ]
  }
}