{
  "header": {
    "description": "Karaoke Mugen Tag File",
    "version": 1
  },
  "tag": {
    "i18n": {
      "eng": "Robert Westerholt"
    },
    "modified_at": "2021-11-13T12:57:59.240Z",
    "name": "Robert Westerholt",
    "repository": "kara.moe",
    "tid": "884b0f74-08a1-4ed0-9381-a511a09a896e",
    "types": [
      "songwriters",
      "8"
    ]
  }
}