{
  "header": {
    "description": "Karaoke Mugen Tag File",
    "version": 1
  },
  "tag": {
    "aliases": [
      "R;N",
      "Robono",
      "ロボティクス・ノーツ",
      "robotics notes"
    ],
    "external_database_ids": {
      "anilist": 13599,
      "myanimelist": 13599,
      "kitsu": 6999
    },
    "i18n": {
      "eng": "Robotics;Notes",
      "fre": "Robotics;Notes",
      "jpn": "Robotics;Notes",
      "kor": "로보틱스 노츠",
      "qro": "Robotics;Notes"
    },
    "modified_at": "2020-06-21T23:45:31.966Z",
    "name": "Robotics;Notes",
    "repository": "kara.moe",
    "tid": "e7519ade-4a52-4f91-8aec-70c519a25063",
    "types": [
      "series",
      "1",
      "franchises",
      "18"
    ]
  }
}