{
  "header": {
    "description": "Karaoke Mugen Tag File",
    "version": 1
  },
  "tag": {
    "aliases": [
      "MegaMan Zero 2"
    ],
    "i18n": {
      "eng": "Mega Man Zero 2",
      "jpn": "ロックマンゼロ2",
      "qro": "Rockman Zero 2"
    },
    "modified_at": "2021-10-21T08:46:51.991Z",
    "name": "Rockman Zero 2",
    "repository": "kara.moe",
    "tid": "fb395bb9-e5a0-44f0-8c37-450e7b96049f",
    "types": [
      "series",
      "1"
    ]
  }
}