{
  "header": {
    "description": "Karaoke Mugen Tag File",
    "version": 1
  },
  "tag": {
    "aliases": [
      "Rockman 9",
      "MegaMan 9",
      "yabou"
    ],
    "i18n": {
      "eng": "Mega Man 9",
      "jpn": "ロックマン９ 野望の復活！！",
      "qro": "Rockman 9: Yabô no Fukkatsu"
    },
    "modified_at": "2021-05-29T18:31:01.415Z",
    "name": "Rockman 9: Yabô no Fukkatsu",
    "repository": "kara.moe",
    "tid": "dc90d65d-e530-4bbb-bb18-02f41a663c63",
    "types": [
      "series",
      "1"
    ]
  }
}