{
  "header": {
    "description": "Karaoke Mugen Tag File",
    "version": 1
  },
  "tag": {
    "i18n": {
      "eng": "Rod Temperton"
    },
    "modified_at": "2020-07-12T14:49:12.360Z",
    "name": "Rod Temperton",
    "repository": "kara.moe",
    "tid": "2f1dd71f-1543-44ac-ae18-d60ba72b4c48",
    "types": [
      "songwriters",
      "8"
    ]
  }
}