{
  "header": {
    "description": "Karaoke Mugen Tag File",
    "version": 1
  },
  "tag": {
    "i18n": {
      "eng": "ROOT FIVE"
    },
    "name": "ROOT FIVE",
    "tid": "148c63a6-4c88-479f-9340-38564a8deff7",
    "types": [
      "singers",
      "2"
    ],
    "repository": "kara.moe",
    "modified_at": "2020-03-31T19:04:37.177Z"
  }
}