{
  "header": {
    "description": "Karaoke Mugen Tag File",
    "version": 1
  },
  "tag": {
    "i18n": {
      "eng": "Rosa Walton"
    },
    "name": "Rosa Walton",
    "repository": "kara.moe",
    "tid": "ce6249f7-2dfa-45ef-ab37-b954539b92a6",
    "types": [
      "songwriters",
      "8",
      "singers",
      "2"
    ]
  }
}