{
  "header": {
    "description": "Karaoke Mugen Tag File",
    "version": 1
  },
  "tag": {
    "i18n": {
      "eng": "Rowland Lee"
    },
    "modified_at": "2021-10-10T13:35:21.725Z",
    "name": "Rowland Lee",
    "repository": "kara.moe",
    "tid": "65776782-934d-4fae-b740-a5982b36b95f",
    "types": [
      "songwriters",
      "8"
    ]
  }
}