{
  "header": {
    "description": "Karaoke Mugen Tag File",
    "version": 1
  },
  "tag": {
    "i18n": {
      "eng": "Ruka Nemoto"
    },
    "name": "Ruka Nemoto",
    "tid": "db3f622e-11ec-4c6a-b86d-1ff73275baa3",
    "types": [
      "singers",
      "2"
    ],
    "repository": "kara.moe",
    "modified_at": "2020-03-31T19:04:37.192Z"
  }
}