{
  "header": {
    "description": "Karaoke Mugen Tag File",
    "version": 1
  },
  "tag": {
    "i18n": {
      "eng": "Rumiko Kishida"
    },
    "name": "Rumiko Kishida",
    "tid": "cc503925-200d-4180-b5f0-09bd5b604f80",
    "types": [
      "songwriters",
      "8"
    ],
    "repository": "kara.moe",
    "modified_at": "2020-03-31T19:04:37.197Z"
  }
}