{
  "header": {
    "description": "Karaoke Mugen Tag File",
    "version": 1
  },
  "tag": {
    "i18n": {
      "eng": "Ruru Aoi"
    },
    "name": "Ruru Aoi",
    "tid": "0580ad43-5dda-45b9-b775-122b9d54770a",
    "types": [
      "songwriters",
      "8"
    ],
    "repository": "kara.moe",
    "modified_at": "2020-03-31T19:04:37.203Z"
  }
}