{
  "header": {
    "description": "Karaoke Mugen Tag File",
    "version": 1
  },
  "tag": {
    "i18n": {
      "eng": "Russell Velàsquez"
    },
    "modified_at": "2021-10-15T17:36:55.583Z",
    "name": "Russell Velàsquez",
    "repository": "kara.moe",
    "tid": "33432e8a-38fc-4f45-a227-117565a7a70f",
    "types": [
      "singers",
      "2"
    ]
  }
}