{
  "header": {
    "description": "Karaoke Mugen Tag File",
    "version": 1
  },
  "tag": {
    "i18n": {
      "eng": "Ryo (the Underneath)"
    },
    "name": "Ryo (the Underneath)",
    "tid": "705f31d8-8816-4887-b0eb-8b417f8b141c",
    "types": [
      "songwriters",
      "8"
    ],
    "repository": "kara.moe",
    "modified_at": "2020-03-31T19:04:37.207Z"
  }
}