{
  "header": {
    "description": "Karaoke Mugen Tag File",
    "version": 1
  },
  "tag": {
    "i18n": {
      "eng": "Ryoga"
    },
    "name": "Ryoga",
    "tid": "8d32bd6d-5935-4efb-9469-5212c6bc35c3",
    "types": [
      "singers",
      "2"
    ],
    "repository": "kara.moe",
    "modified_at": "2020-03-31T19:04:37.211Z"
  }
}