{
  "header": {
    "description": "Karaoke Mugen Tag File",
    "version": 1
  },
  "tag": {
    "i18n": {
      "eng": "Ryôsuke Shigenaga"
    },
    "name": "Ryôsuke Shigenaga",
    "tid": "cd8a4990-bf8b-4771-9e46-e2680a368211",
    "types": [
      "songwriters",
      "8"
    ],
    "repository": "kara.moe",
    "modified_at": "2020-03-31T19:04:37.235Z"
  }
}