{
  "header": {
    "description": "Karaoke Mugen Tag File",
    "version": 1
  },
  "tag": {
    "i18n": {
      "jpn": "柚木 涼香",
      "qro": "Ryôka Yuzuki"
    },
    "name": "Ryôka Yuzuki",
    "repository": "kara.moe",
    "tid": "0efe23fd-d217-40ad-b373-c726d9705b44",
    "types": [
      "singers",
      "2"
    ]
  }
}