{
  "header": {
    "description": "Karaoke Mugen Tag File",
    "version": 1
  },
  "tag": {
    "aliases": [
      "Ryouta Suzuki"
    ],
    "i18n": {
      "eng": "Ryôta Suzuki",
      "jpn": "崚汰 鈴木",
      "qro": "Ryôta Suzuki"
    },
    "name": "Ryôta Suzuki",
    "repository": "kara.moe",
    "tid": "234427ad-0afe-4027-8d89-c2b45dd79c96",
    "types": [
      "singers",
      "2"
    ]
  }
}