{
  "header": {
    "description": "Karaoke Mugen Tag File",
    "version": 1
  },
  "tag": {
    "i18n": {
      "eng": "Ryôma Kitamura"
    },
    "name": "Ryôma Kitamura",
    "tid": "1c8eab85-ed17-4850-bcfc-eaadf5e70d9f",
    "types": [
      "songwriters",
      "8"
    ],
    "repository": "kara.moe",
    "modified_at": "2020-03-31T19:04:37.233Z"
  }
}