{
  "header": {
    "description": "Karaoke Mugen Tag File",
    "version": 1
  },
  "tag": {
    "i18n": {
      "eng": "Ryôsei Satô"
    },
    "name": "Ryôsei Satô",
    "tid": "7df923b4-4429-4123-950a-50dede56b016",
    "types": [
      "songwriters",
      "8"
    ],
    "repository": "kara.moe",
    "modified_at": "2020-03-31T19:04:37.234Z"
  }
}