{
  "header": {
    "description": "Karaoke Mugen Tag File",
    "version": 1
  },
  "tag": {
    "i18n": {
      "eng": "Ryuichi Miura"
    },
    "name": "Ryuichi Miura",
    "tid": "3a12c35d-7fc2-44d0-844c-7a0e16558dd3",
    "types": [
      "songwriters",
      "8"
    ],
    "repository": "kara.moe",
    "modified_at": "2020-03-31T19:04:37.243Z"
  }
}