{
  "header": {
    "description": "Karaoke Mugen Tag File",
    "version": 1
  },
  "tag": {
    "aliases": [
      "Ryuusee"
    ],
    "i18n": {
      "eng": "Ryûsee"
    },
    "modified_at": "2020-08-08T22:57:06.572Z",
    "name": "Ryûsee",
    "repository": "kara.moe",
    "tid": "97963ece-7c35-4ec3-bd8d-1778bc0a4111",
    "types": [
      "creators",
      "4"
    ]
  }
}