{
  "header": {
    "description": "Karaoke Mugen Tag File",
    "version": 1
  },
  "tag": {
    "aliases": [
      "Ryuu"
    ],
    "external_database_ids": {
      "anilist": 127271,
      "kitsu": 43808,
      "myanimelist": 44807
    },
    "i18n": {
      "eng": "BELLE",
      "fre": "BELLE",
      "heb": "בל",
      "jpn": "竜とそばかすの姫",
      "pol": "Belle: Smok i piegowata księżniczka",
      "qro": "Ryû to Sobakasu no Hime"
    },
    "name": "Ryû to Sobakasu no Hime",
    "repository": "kara.moe",
    "tid": "a030f9fb-d011-4170-a2a0-572462d11ffc",
    "types": [
      "series",
      "1"
    ]
  }
}