{
  "header": {
    "description": "Karaoke Mugen Tag File",
    "version": 1
  },
  "tag": {
    "i18n": {
      "eng": "Ryuu Sawachi"
    },
    "name": "Ryuu Sawachi",
    "tid": "48b8a8ea-80fe-40ee-9ea1-c03da1b52649",
    "types": [
      "songwriters",
      "8"
    ],
    "repository": "kara.moe",
    "modified_at": "2020-03-31T19:04:37.246Z"
  }
}