{
  "header": {
    "description": "Karaoke Mugen Tag File",
    "version": 1
  },
  "tag": {
    "i18n": {
      "eng": "Ryûta Yamamura"
    },
    "name": "Ryûta Yamamura",
    "tid": "5ea8c5fd-06b3-4dfa-9281-3a4f5ad1a3c2",
    "types": [
      "songwriters",
      "8"
    ],
    "repository": "kara.moe",
    "modified_at": "2020-03-31T19:04:37.253Z"
  }
}