{
  "header": {
    "description": "Karaoke Mugen Tag File",
    "version": 1
  },
  "tag": {
    "external_database_ids": {
      "anilist": 162893,
      "kitsu": 47199,
      "myanimelist": 54760
    },
    "i18n": {
      "eng": "Atelier Ryza: Ever Darkness & the Secret Hideout",
      "jpn": "ライザのアトリエ 〜常闇の女王と秘密の隠れ家〜",
      "qro": "Ryza no Atelier: Tokoyami no Joou to Himitsu no Kakurega"
    },
    "name": "Ryza no Atelier: Tokoyami no Joou to Himitsu no Kakurega",
    "repository": "kara.moe",
    "tid": "d0da3bb9-eea9-4102-a216-4344531c546e",
    "types": [
      "series",
      "1"
    ]
  }
}