{
  "header": {
    "description": "Karaoke Mugen Tag File",
    "version": 1
  },
  "tag": {
    "i18n": {
      "eng": "Saetiny"
    },
    "name": "Saetiny",
    "repository": "kara.moe",
    "tid": "25f0d905-da48-4aa1-88a8-3bff827bf92d",
    "types": [
      "authors",
      "6"
    ]
  }
}