{
  "header": {
    "description": "Karaoke Mugen Tag File",
    "version": 1
  },
  "tag": {
    "i18n": {
      "eng": "Monster Siren Records (MSR)",
      "chi": "塞壬唱片-MSR",
      "qro": "Sāi rén chàngpiàn-MSR"
    },
    "name": "Sāi rén chàngpiàn-MSR",
    "repository": "kara.moe",
    "tid": "c8d3cda4-fdd3-4a9f-80ef-4eaa1bacc197",
    "types": [
      "singergroups",
      "17",
      "creators",
      "4"
    ]
  }
}