{
  "header": {
    "description": "Karaoke Mugen Tag File",
    "version": 1
  },
  "tag": {
    "i18n": {
      "eng": "Saint Aqours Snow"
    },
    "name": "Saint Aqours Snow",
    "repository": "kara.moe",
    "tid": "654b5417-7cd9-4984-aa0a-fe48ebb1d752",
    "types": [
      "singergroups",
      "17"
    ]
  }
}