{
  "header": {
    "description": "Karaoke Mugen Tag File",
    "version": 1
  },
  "tag": {
    "i18n": {
      "eng": "Sakagami Sôichi"
    },
    "name": "Sakagami Sôichi",
    "tid": "2a3e80d3-934e-426e-aad5-1d1590c2d956",
    "types": [
      "songwriters",
      "8"
    ],
    "repository": "kara.moe",
    "modified_at": "2020-03-31T19:04:37.278Z"
  }
}