{
  "header": {
    "description": "Karaoke Mugen Tag File",
    "version": 1
  },
  "tag": {
    "i18n": {
      "eng": "Sakiko Tamagawa"
    },
    "name": "Sakiko Tamagawa",
    "tid": "d4e53984-464e-494d-bd03-3017f7c8507d",
    "types": [
      "singers",
      "2"
    ],
    "repository": "kara.moe",
    "modified_at": "2020-03-31T19:04:37.286Z"
  }
}