{
  "header": {
    "description": "Karaoke Mugen Tag File",
    "version": 1
  },
  "tag": {
    "i18n": {
      "eng": "Saki Fujita"
    },
    "name": "Saki Fujita",
    "tid": "54bc6709-ba9e-414b-a017-f9370d47bdc0",
    "types": [
      "singers",
      "2"
    ],
    "repository": "kara.moe",
    "modified_at": "2020-03-31T19:04:37.281Z"
  }
}