{
  "header": {
    "description": "Karaoke Mugen Tag File",
    "version": 1
  },
  "tag": {
    "aliases": [
      "ST",
      "ST 4",
      "SW",
      "SW 4"
    ],
    "i18n": {
      "eng": "Sakura Wars 4: Fall in Love, Maidens",
      "jpn": "サクラ大戦4 ～恋せよ乙女～",
      "qro": "Sakura Taisen 4: Koi Seyo Otome"
    },
    "modified_at": "2020-03-31T19:04:32.609Z",
    "name": "Sakura Taisen 4: Koi Seyo Otome",
    "repository": "kara.moe",
    "tid": "e2e69097-d66d-440c-9125-08f8c6bd8518",
    "types": [
      "series",
      "1"
    ]
  }
}