{
  "header": {
    "description": "Karaoke Mugen Tag File",
    "version": 1
  },
  "tag": {
    "i18n": {
      "eng": "Sam Riegel"
    },
    "name": "Sam Riegel",
    "repository": "kara.moe",
    "tid": "acf5466e-efae-4ca2-88f9-0b2af9abe51f",
    "types": [
      "singers",
      "2",
      "songwriters",
      "8"
    ]
  }
}