{
  "header": {
    "description": "Karaoke Mugen Tag File",
    "version": 1
  },
  "tag": {
    "i18n": {
      "eng": "Sam Smith"
    },
    "name": "Sam Smith",
    "repository": "kara.moe",
    "tid": "9a0be2a3-61c0-4c25-9a4f-66c19967c68e",
    "types": [
      "songwriters",
      "8",
      "singers",
      "2"
    ]
  }
}