{
  "header": {
    "description": "Karaoke Mugen Tag File",
    "version": 1
  },
  "tag": {
    "i18n": {
      "eng": "Sam Totman"
    },
    "modified_at": "2020-07-10T22:29:01.611Z",
    "name": "Sam Totman",
    "repository": "kara.moe",
    "tid": "0cd69db4-08a8-413c-8a14-d45ccb589718",
    "types": [
      "songwriters",
      "8"
    ]
  }
}