{
  "header": {
    "description": "Karaoke Mugen Tag File",
    "version": 1
  },
  "tag": {
    "i18n": {
      "eng": "Samer Radwan"
    },
    "name": "Samer Radwan",
    "tid": "23c7274f-a30f-47e1-94ce-32849044e1a8",
    "types": [
      "songwriters",
      "8"
    ],
    "repository": "kara.moe",
    "modified_at": "2020-03-31T19:04:37.301Z"
  }
}