{
  "header": {
    "description": "Karaoke Mugen Tag File",
    "version": 1
  },
  "tag": {
    "i18n": {
      "eng": "Sammy Fain"
    },
    "name": "Sammy Fain",
    "repository": "kara.moe",
    "tid": "7b84eee6-640f-45a9-87c2-91f68df87660",
    "types": [
      "songwriters",
      "8"
    ]
  }
}