{
  "header": {
    "description": "Karaoke Mugen Tag File",
    "version": 1
  },
  "tag": {
    "aliases": [
      "Samumenco"
    ],
    "external_database_ids": {
      "anilist": 19365,
      "myanimelist": 19365,
      "kitsu": 7835
    },
    "i18n": {
      "bul": "Самурай Фламенко",
      "chi": "武士弗拉明戈",
      "eng": "Samurai Flamenco",
      "fre": "Samurai Flamenco",
      "ger": "Samurai Flamenco",
      "jpn": "サムライフラメンコ",
      "qro": "Samurai Flamenco"
    },
    "modified_at": "2020-03-31T19:04:32.617Z",
    "name": "Samurai Flamenco",
    "repository": "kara.moe",
    "tid": "7417675d-16a7-4c09-8abe-c57220fbc9a8",
    "types": [
      "series",
      "1"
    ]
  }
}