{
  "header": {
    "description": "Karaoke Mugen Tag File",
    "version": 1
  },
  "tag": {
    "aliases": [
      "Akira Kurosawa's Samurai 7",
      "S7",
      "Samurai Seven",
      "Самурай 7",
      "サムライ7"
    ],
    "external_database_ids": {
      "anilist": 166,
      "myanimelist": 166,
      "kitsu": 144
    },
    "i18n": {
      "ara": "7 ساموراي",
      "cze": "Sedm Samurajů",
      "eng": "Samurai 7",
      "fre": "Samurai 7",
      "ger": "Samurai 7",
      "hun": "7 szamuráj",
      "ita": "Samurai 7",
      "jpn": "SAMURAI7",
      "pol": "Siedmiu samurajów",
      "por": "Samurai 7",
      "rus": "7 самураев",
      "spa": "Samurai 7",
      "tha": "7 เซียนซามูไร",
      "vie": "Samurai 7",
      "qro": "Samurai 7"
    },
    "modified_at": "2020-03-31T19:04:32.616Z",
    "name": "Samurai 7",
    "repository": "kara.moe",
    "tid": "36c63459-74e4-493f-b00e-6a80fe78e186",
    "types": [
      "series",
      "1"
    ]
  }
}