{
  "header": {
    "description": "Karaoke Mugen Tag File",
    "version": 1
  },
  "tag": {
    "i18n": {
      "eng": "Samyu Shiki"
    },
    "name": "Samyu Shiki",
    "repository": "kara.moe",
    "tid": "a64aeb92-dd9c-4af4-aef5-ee95a025cb87",
    "types": [
      "songwriters",
      "8"
    ]
  }
}