{
  "header": {
    "description": "Karaoke Mugen Tag File",
    "version": 1
  },
  "tag": {
    "i18n": {
      "eng": "SandalDash"
    },
    "name": "SandalDash",
    "tid": "5d50d88a-e914-4e29-8223-699378d66efe",
    "types": [
      "creators",
      "4"
    ],
    "repository": "kara.moe",
    "modified_at": "2020-03-31T19:04:37.308Z"
  }
}