{
  "header": {
    "description": "Karaoke Mugen Tag File",
    "version": 1
  },
  "tag": {
    "i18n": {
      "eng": "sanicsip"
    },
    "name": "sanicsip",
    "repository": "kara.moe",
    "tid": "46ffd5ef-0a7d-4312-8295-374e7d8aefdf",
    "types": [
      "authors",
      "6"
    ]
  }
}