{
  "header": {
    "description": "Karaoke Mugen Tag File",
    "version": 1
  },
  "tag": {
    "aliases": [
      "onetrap"
    ],
    "i18n": {
      "eng": "Sarari Matsubara"
    },
    "modified_at": "2020-12-01T20:46:55.822Z",
    "name": "Sarari Matsubara",
    "repository": "kara.moe",
    "tid": "3b592965-4b7d-4c24-bb37-8d94f3e11148",
    "types": [
      "songwriters",
      "8"
    ]
  }
}