{
  "header": {
    "description": "Karaoke Mugen Tag File",
    "version": 1
  },
  "tag": {
    "aliases": [
      "Sasami-san Ganbaranai",
      "Sasami@Unmotivated",
      "ganbaranai",
      "sasami-san",
      "ささみさんがんばらない"
    ],
    "external_database_ids": {
      "anilist": 14515,
      "myanimelist": 14515,
      "kitsu": 7130
    },
    "i18n": {
      "eng": "Sasami-san@Ganbaranai",
      "jpn": "ささみさん@がんばらない",
      "kor": "사사미양 노력하지 않아",
      "qro": "Sasami-san@Ganbaranai"
    },
    "modified_at": "2020-03-31T19:04:32.626Z",
    "name": "Sasami-san@Ganbaranai",
    "repository": "kara.moe",
    "tid": "e1c955ce-c49d-4c02-a6af-3b22c583e9e6",
    "types": [
      "series",
      "1"
    ]
  }
}