{
  "header": {
    "description": "Karaoke Mugen Tag File",
    "version": 1
  },
  "tag": {
    "i18n": {
      "eng": "sasaji"
    },
    "name": "sasaji",
    "tid": "69313468-725b-4ff2-81b9-4c3abb141735",
    "types": [
      "songwriters",
      "8"
    ],
    "repository": "kara.moe",
    "modified_at": "2020-03-31T19:04:37.329Z"
  }
}