{
  "header": {
    "description": "Karaoke Mugen Tag File",
    "version": 1
  },
  "tag": {
    "i18n": {
      "eng": "Sasha Sirota"
    },
    "name": "Sasha Sirota",
    "repository": "kara.moe",
    "tid": "91a7fc59-effb-497c-b073-39c5fd17c3dd",
    "types": [
      "songwriters",
      "8"
    ]
  }
}