{
  "header": {
    "description": "Karaoke Mugen Tag File",
    "version": 1
  },
  "tag": {
    "i18n": {
      "eng": "Satomi Fukunaga"
    },
    "name": "Satomi Fukunaga",
    "tid": "7ee5ce0b-151c-4b50-abf6-f2484b40c951",
    "types": [
      "singers",
      "2"
    ],
    "repository": "kara.moe",
    "modified_at": "2020-03-31T19:04:37.338Z"
  }
}