{
  "header": {
    "description": "Karaoke Mugen Tag File",
    "version": 1
  },
  "tag": {
    "i18n": {
      "eng": "Satoshi Ohno"
    },
    "name": "Satoshi Ohno",
    "tid": "5494f181-98b8-42c0-aab8-4619fc6a6814",
    "types": [
      "songwriters",
      "8"
    ],
    "repository": "kara.moe",
    "modified_at": "2020-03-31T19:04:37.350Z"
  }
}