{
  "header": {
    "description": "Karaoke Mugen Tag File",
    "version": 1
  },
  "tag": {
    "i18n": {
      "eng": "Sauveur Pichot"
    },
    "name": "Sauveur Pichot",
    "repository": "kara.moe",
    "tid": "387fd782-d1c4-4beb-9ecf-3c71964a3c52",
    "types": [
      "songwriters",
      "8"
    ]
  }
}