{
  "header": {
    "description": "Karaoke Mugen Tag File",
    "version": 1
  },
  "tag": {
    "i18n": {
      "eng": "Sayaka Yamamoto"
    },
    "name": "Sayaka Yamamoto",
    "tid": "d72d8e42-c99e-4100-8449-2cf88f9f03e6",
    "types": [
      "songwriters",
      "8"
    ],
    "repository": "kara.moe",
    "modified_at": "2020-03-31T19:04:37.367Z"
  }
}