{
  "header": {
    "description": "Karaoke Mugen Tag File",
    "version": 1
  },
  "tag": {
    "i18n": {
      "eng": "Sayris"
    },
    "modified_at": "2020-10-20T17:16:14.292Z",
    "name": "Sayris",
    "repository": "kara.moe",
    "tid": "6497d977-c21d-45eb-be42-783d6b40b59c",
    "types": [
      "authors",
      "6"
    ]
  }
}