{
  "header": {
    "description": "Karaoke Mugen Tag File",
    "version": 1
  },
  "tag": {
    "i18n": {
      "eng": "Scenario Art"
    },
    "name": "Scenario Art",
    "tid": "7914468a-6f0e-4795-b93c-4a42c6ef6a08",
    "types": [
      "singers",
      "2",
      "songwriters",
      "8"
    ],
    "repository": "kara.moe",
    "modified_at": "2020-03-31T19:04:37.375Z"
  }
}