{
  "header": {
    "description": "Karaoke Mugen Tag File",
    "version": 1
  },
  "tag": {
    "external_database_ids": {
      "anilist": 1508,
      "myanimelist": 1508,
      "kitsu": 1353
    },
    "i18n": {
      "eng": "Sci-Fi Harry"
    },
    "name": "Sci-Fi Harry",
    "repository": "kara.moe",
    "tid": "ad878145-3757-4d90-82c3-b7324796b607",
    "types": [
      "series",
      "1"
    ]
  }
}