{
  "header": {
    "description": "Karaoke Mugen Tag File",
    "version": 1
  },
  "tag": {
    "i18n": {
      "eng": "Seanzy Man"
    },
    "name": "Seanzy Man",
    "repository": "kara.moe",
    "tid": "7ab156e5-a8dd-4a71-9e5f-a3d2860a84ae",
    "types": [
      "creators",
      "4"
    ]
  }
}