{
  "header": {
    "description": "Karaoke Mugen Tag File",
    "version": 1
  },
  "tag": {
    "i18n": {
      "eng": "Seiichirô Uno"
    },
    "name": "Seiichirô Uno",
    "tid": "a9394536-cc27-4883-b962-faefabe1f433",
    "types": [
      "songwriters",
      "8"
    ],
    "repository": "kara.moe",
    "modified_at": "2020-03-31T19:04:37.392Z"
  }
}