{
  "header": {
    "description": "Karaoke Mugen Tag File",
    "version": 1
  },
  "tag": {
    "i18n": {
      "eng": "Seiji Miura"
    },
    "name": "Seiji Miura",
    "tid": "12904bc2-602e-4ec7-9077-760191f04cf6",
    "types": [
      "songwriters",
      "8"
    ],
    "repository": "kara.moe",
    "modified_at": "2020-03-31T19:04:37.395Z"
  }
}