{
  "header": {
    "description": "Karaoke Mugen Tag File",
    "version": 1
  },
  "tag": {
    "aliases": [
      "Sekai-ichi Hatsukoi",
      "sekakoi",
      "Лучшая в мире первая любовь 2"
    ],
    "external_database_ids": {
      "anilist": 11123,
      "myanimelist": 11123,
      "kitsu": 6464
    },
    "i18n": {
      "eng": "Sekai Ichi Hatsukoi: The World's Greatest First Love 2",
      "jpn": "世界一初恋2",
      "qro": "Sekaiichi Hatsukoi 2"
    },
    "modified_at": "2020-03-31T19:04:32.654Z",
    "name": "Sekaiichi Hatsukoi 2",
    "repository": "kara.moe",
    "tid": "112557b6-1220-4995-ae95-caf202614080",
    "types": [
      "series",
      "1"
    ]
  }
}