{
  "header": {
    "description": "Karaoke Mugen Tag File",
    "version": 1
  },
  "tag": {
    "aliases": [
      "Senki Zesshou Symphogear XD Unlimited",
      "zesshou"
    ],
    "i18n": {
      "eng": "Symphogear XD Unlimited",
      "jpn": "戦姫絶唱シンフォギアXD Unlimited",
      "qro": "Senki Zesshô Symphogear XD Unlimited"
    },
    "modified_at": "2020-05-01T19:19:17.446Z",
    "name": "Senki Zesshô Symphogear XD Unlimited",
    "repository": "kara.moe",
    "tid": "99a6a137-2984-4db4-a59c-66014ffae310",
    "types": [
      "series",
      "1"
    ]
  }
}