{
  "header": {
    "description": "Karaoke Mugen Tag File",
    "version": 1
  },
  "tag": {
    "aliases": [
      "SKSV"
    ],
    "i18n": {
      "eng": "Senran Kagura Shinovi Versus: -Proof of Life-",
      "jpn": "閃乱カグラ：SHINOVI VERSUS -少女達の証明-",
      "qro": "Senran Kagura: Shinovi Versus -Shoujotachi no Shoumei-"
    },
    "modified_at": "2020-03-31T19:04:32.674Z",
    "name": "Senran Kagura: Shinovi Versus -Shoujotachi no Shoumei-",
    "repository": "kara.moe",
    "tid": "b7059b00-6e47-4864-86c9-f724e5daf0ba",
    "types": [
      "series",
      "1"
    ]
  }
}