{
  "header": {
    "description": "Karaoke Mugen Tag File",
    "version": 1
  },
  "tag": {
    "i18n": {
      "eng": "Serge Gainsbourg"
    },
    "name": "Serge Gainsbourg",
    "repository": "kara.moe",
    "tid": "af0e1e4d-c7a2-40b0-b031-19889fc292a2",
    "types": [
      "singers",
      "2",
      "songwriters",
      "8"
    ]
  }
}