{
  "header": {
    "description": "Karaoke Mugen Tag File",
    "version": 1
  },
  "tag": {
    "i18n": {
      "eng": "Serj Tankian"
    },
    "name": "Serj Tankian",
    "repository": "kara.moe",
    "tid": "d3835d7e-9ead-413f-b0dc-553502b687aa",
    "types": [
      "songwriters",
      "8",
      "singers",
      "2"
    ]
  }
}