{
  "header": {
    "description": "Karaoke Mugen Tag File",
    "version": 1
  },
  "tag": {
    "i18n": {
      "eng": "Shachô",
      "jpn": "しゃちょう"
    },
    "name": "Shachô",
    "repository": "kara.moe",
    "tid": "1be92ff9-340d-4da8-98a2-425ad5a7ab55",
    "types": [
      "singers",
      "2"
    ]
  }
}