{
  "header": {
    "description": "Karaoke Mugen Tag File",
    "version": 1
  },
  "tag": {
    "i18n": {
      "eng": "Shady Records"
    },
    "name": "Shady Records",
    "repository": "kara.moe",
    "tid": "1107452d-8673-42ba-a8a6-a90551a96648",
    "types": [
      "creators",
      "4"
    ]
  }
}