{
  "header": {
    "description": "Karaoke Mugen Tag File",
    "version": 1
  },
  "tag": {
    "i18n": {
      "eng": "ShibayanRecords"
    },
    "name": "ShibayanRecords",
    "repository": "kara.moe",
    "tid": "4c72d538-b1c8-4471-8982-6efecbeecdf1",
    "types": [
      "singergroups",
      "17"
    ]
  }
}