{
  "header": {
    "description": "Karaoke Mugen Tag File",
    "version": 1
  },
  "tag": {
    "i18n": {
      "eng": "Shigure Ui"
    },
    "name": "Shigure Ui",
    "repository": "kara.moe",
    "tid": "071057be-471b-4ec4-8cc5-8de7bf38da07",
    "types": [
      "creators",
      "4"
    ]
  }
}