{
  "header": {
    "description": "Karaoke Mugen Tag File",
    "version": 1
  },
  "tag": {
    "i18n": {
      "eng": "Shigesato Itoi"
    },
    "name": "Shigesato Itoi",
    "tid": "e6981ae2-9554-4282-8dff-6222c9baede1",
    "types": [
      "songwriters",
      "8"
    ],
    "repository": "kara.moe",
    "modified_at": "2020-03-31T19:04:37.442Z"
  }
}