{
  "header": {
    "description": "Karaoke Mugen Tag File",
    "version": 1
  },
  "tag": {
    "i18n": {
      "eng": "shilo"
    },
    "name": "shilo",
    "tid": "78234eac-ff48-4e15-9929-e207780a520e",
    "types": [
      "songwriters",
      "8"
    ],
    "repository": "kara.moe",
    "modified_at": "2020-03-31T19:04:37.451Z"
  }
}