{
  "header": {
    "description": "Karaoke Mugen Tag File",
    "version": 1
  },
  "tag": {
    "i18n": {
      "eng": "Shimai Tsukamoto"
    },
    "name": "Shimai Tsukamoto",
    "tid": "3bca55a4-51a3-4888-b320-02ac82ef99f2",
    "types": [
      "singers",
      "2"
    ],
    "repository": "kara.moe",
    "modified_at": "2020-03-31T19:04:37.452Z"
  }
}