{
  "header": {
    "description": "Karaoke Mugen Tag File",
    "version": 1
  },
  "tag": {
    "i18n": {
      "eng": "Shin'ichirô Miki"
    },
    "name": "Shin'ichirô Miki",
    "tid": "0b0d0254-49f4-48d3-8a78-9c2793fd8820",
    "types": [
      "singers",
      "2"
    ],
    "repository": "kara.moe",
    "modified_at": "2020-03-31T19:04:37.472Z"
  }
}