{
  "header": {
    "description": "Karaoke Mugen Tag File",
    "version": 1
  },
  "tag": {
    "i18n": {
      "eng": "shinnosuke"
    },
    "modified_at": "2020-11-03T18:42:06.566Z",
    "name": "shinnosuke",
    "repository": "kara.moe",
    "tid": "ae49a6ea-2d5d-43b3-951c-528072769b48",
    "types": [
      "creators",
      "4"
    ]
  }
}