{
  "header": {
    "description": "Karaoke Mugen Tag File",
    "version": 1
  },
  "tag": {
    "i18n": {
      "eng": "Shinkô Ogura"
    },
    "modified_at": "2020-05-04T21:34:30.921Z",
    "name": "Shinkô Ogura",
    "repository": "kara.moe",
    "tid": "eb2bffbd-38b1-4668-82f2-702ca6d5d25e",
    "types": [
      "songwriters",
      "8"
    ]
  }
}