{
  "header": {
    "description": "Karaoke Mugen Tag File",
    "version": 1
  },
  "tag": {
    "i18n": {
      "eng": "Shining Blade",
      "jpn": "シャイニング・ブレイド",
      "qro": "Shining Blade"
    },
    "modified_at": "2020-03-31T19:04:32.717Z",
    "name": "Shining Blade",
    "repository": "kara.moe",
    "tid": "0f27db87-bd64-4c1d-9718-d3da02abf839",
    "types": [
      "series",
      "1"
    ]
  }
}