{
  "header": {
    "description": "Karaoke Mugen Tag File",
    "version": 1
  },
  "tag": {
    "i18n": {
      "eng": "shino8820",
      "jpn": "篠原瑞希"
    },
    "name": "shino8820",
    "repository": "kara.moe",
    "short": "shino",
    "tid": "ae4ced6e-05a2-4092-9d9f-d0c7afe152c8",
    "types": [
      "songwriters",
      "8"
    ]
  }
}