{
  "header": {
    "description": "Karaoke Mugen Tag File",
    "version": 1
  },
  "tag": {
    "i18n": {
      "eng": "Shintaro Yasuda"
    },
    "name": "Shintaro Yasuda",
    "repository": "kara.moe",
    "tid": "7560b788-fa2a-438d-842c-86e99c6c14eb",
    "types": [
      "songwriters",
      "8"
    ]
  }
}