{
  "header": {
    "description": "Karaoke Mugen Tag File",
    "version": 1
  },
  "tag": {
    "i18n": {
      "eng": "Shinichi Yamashita"
    },
    "name": "Shinichi Yamashita",
    "tid": "458ee687-9bac-4f17-bf2b-156c5b9d637c",
    "types": [
      "songwriters",
      "8"
    ],
    "repository": "kara.moe",
    "modified_at": "2020-03-31T19:04:37.486Z"
  }
}