{
  "header": {
    "description": "Karaoke Mugen Tag File",
    "version": 1
  },
  "tag": {
    "i18n": {
      "eng": "Shinji Kuno"
    },
    "name": "Shinji Kuno",
    "tid": "ebd2feee-7ce9-4c82-8554-5baf2378ff8c",
    "types": [
      "singers",
      "2",
      "songwriters",
      "8"
    ],
    "repository": "kara.moe",
    "modified_at": "2020-03-31T19:04:37.491Z"
  }
}