{
  "header": {
    "description": "Karaoke Mugen Tag File",
    "version": 1
  },
  "tag": {
    "aliases": [
      "Shinya"
    ],
    "i18n": {
      "eng": "Shin'ya Sumida"
    },
    "name": "Shin'ya Sumida",
    "repository": "kara.moe",
    "tid": "617283fd-b842-498c-b1fe-212cb9f24d4a",
    "types": [
      "songwriters",
      "8"
    ]
  }
}