{
  "header": {
    "description": "Karaoke Mugen Tag File",
    "version": 1
  },
  "tag": {
    "i18n": {
      "eng": "Shion Wakayama"
    },
    "modified_at": "2021-01-20T21:54:52.832Z",
    "name": "Shion Wakayama",
    "repository": "kara.moe",
    "tid": "c42b3de7-8563-4c8c-92d9-217a8a2d141b",
    "types": [
      "singers",
      "2"
    ]
  }
}