{
  "header": {
    "description": "Karaoke Mugen Tag File",
    "version": 1
  },
  "tag": {
    "i18n": {
      "eng": "Shirane Kazunari"
    },
    "name": "Shirane Kazunari",
    "repository": "kara.moe",
    "tid": "f10852f2-2585-42ec-b39a-8b3942d46175",
    "types": [
      "songwriters",
      "8"
    ]
  }
}