{
  "header": {
    "description": "Karaoke Mugen Tag File",
    "version": 1
  },
  "tag": {
    "i18n": {
      "eng": "Shiratamachû Soft Tennis Bu"
    },
    "name": "Shiratamachû Soft Tennis Bu",
    "tid": "c23f2b73-cde7-4062-9f48-23ed84671828",
    "types": [
      "singers",
      "2"
    ],
    "repository": "kara.moe",
    "modified_at": "2020-03-31T19:04:37.518Z"
  }
}