{
  "header": {
    "description": "Karaoke Mugen Tag File",
    "version": 1
  },
  "tag": {
    "aliases": [
      "siskon",
      "siscon"
    ],
    "i18n": {
      "jpn": "しすこん～妹魂～",
      "qro": "Shisukon"
    },
    "name": "Shisukon",
    "repository": "kara.moe",
    "tid": "ee9e9c0f-8bc7-4b1f-969c-8960646ba9f4",
    "types": [
      "series",
      "1"
    ]
  }
}