{
  "header": {
    "description": "Karaoke Mugen Tag File",
    "version": 1
  },
  "tag": {
    "i18n": {
      "eng": "Shoji Kawamori"
    },
    "name": "Shoji Kawamori",
    "tid": "1655f62b-ac16-42ad-b79e-8298b163575d",
    "types": [
      "songwriters",
      "8"
    ],
    "repository": "kara.moe",
    "modified_at": "2020-03-31T19:04:37.529Z"
  }
}