{
  "header": {
    "description": "Karaoke Mugen Tag File",
    "version": 1
  },
  "tag": {
    "aliases": [
      "Shoujo☆Kageki Revue Starlight",
      "少女☆歌劇 レヴュー・スタァライト",
      "shoujo kageki"
    ],
    "external_database_ids": {
      "anilist": 98658,
      "myanimelist": 35503,
      "kitsu": 14174
    },
    "i18n": {
      "eng": "Revue Starlight",
      "fre": "Shôjo☆Kageki Revue Starlight",
      "jpn": "少女☆歌劇 レヴュースタァライト",
      "kor": "소녀☆가극 레뷰 스타라이트",
      "qro": "Shôjo☆Kageki Revue Starlight"
    },
    "modified_at": "2020-03-31T19:04:32.745Z",
    "name": "Shôjo☆Kageki Revue Starlight",
    "repository": "kara.moe",
    "tid": "197ecb28-b423-4c66-bbdb-49b89b5ed153",
    "types": [
      "series",
      "1",
      "franchises",
      "18"
    ]
  }
}