{
  "header": {
    "description": "Karaoke Mugen Tag File",
    "version": 1
  },
  "tag": {
    "aliases": [
      "Shouwa Genroku Rakugo Shinjuu",
      "shouwa",
      "shinjuu"
    ],
    "external_database_ids": {
      "anilist": 20972,
      "myanimelist": 28735,
      "kitsu": 10051
    },
    "i18n": {
      "eng": "Showa Genroku Rakugo Shinju",
      "fre": "Le Rakugo ou la Vie",
      "jpn": "昭和元禄落語心中",
      "qro": "Shôwa Genroku Rakugo Shinjû"
    },
    "modified_at": "2020-03-31T19:04:32.756Z",
    "name": "Shôwa Genroku Rakugo Shinjû",
    "repository": "kara.moe",
    "tid": "cf1d8d40-aec2-4072-ad3b-e5d0c1abc642",
    "types": [
      "series",
      "1",
      "franchises",
      "18"
    ]
  }
}