{
  "header": {
    "description": "Karaoke Mugen Tag File",
    "version": 1
  },
  "tag": {
    "i18n": {
      "eng": "Shôko Sawada"
    },
    "name": "Shôko Sawada",
    "tid": "570f095a-8c97-4878-a5e1-b9723e82214f",
    "types": [
      "songwriters",
      "8"
    ],
    "repository": "kara.moe",
    "modified_at": "2020-03-31T19:04:37.548Z"
  }
}