{
  "header": {
    "description": "Karaoke Mugen Tag File",
    "version": 1
  },
  "tag": {
    "i18n": {
      "eng": "Shôtarô Morikubo"
    },
    "name": "Shôtarô Morikubo",
    "repository": "kara.moe",
    "tid": "bacc79e6-1f5b-4aec-8bf0-d76a966240ba",
    "types": [
      "singers",
      "2",
      "songwriters",
      "8"
    ],
    "modified_at": "2020-03-31T19:04:37.559Z"
  }
}