{
  "header": {
    "description": "Karaoke Mugen Tag File",
    "version": 1
  },
  "tag": {
    "i18n": {
      "eng": "Shrek"
    },
    "modified_at": "2021-04-08T13:21:46.964Z",
    "name": "Shrek",
    "repository": "kara.moe",
    "tid": "0f936376-993b-4864-97d0-8a653a29105c",
    "types": [
      "series",
      "1"
    ]
  }
}