{
  "header": {
    "description": "Karaoke Mugen Tag File",
    "version": 1
  },
  "tag": {
    "i18n": {
      "eng": "Shuffle! Really? Really!",
      "jpn": "SHUFFLE! リアリー? リアリー!",
      "qro": "SHUFFLE! Really Really"
    },
    "modified_at": "2020-03-31T19:04:32.760Z",
    "name": "SHUFFLE! Really Really",
    "repository": "kara.moe",
    "tid": "5aa837e5-073a-44ac-93a8-71640dbc702e",
    "types": [
      "series",
      "1"
    ]
  }
}