{
  "header": {
    "description": "Karaoke Mugen Tag File",
    "version": 1
  },
  "tag": {
    "i18n": {
      "eng": "Shunsuke Shiina"
    },
    "name": "Shunsuke Shiina",
    "tid": "e7e30156-0e70-4406-90e4-be57e893d5e1",
    "types": [
      "songwriters",
      "8"
    ],
    "repository": "kara.moe",
    "modified_at": "2020-03-31T19:04:37.581Z"
  }
}