{
  "header": {
    "description": "Karaoke Mugen Tag File",
    "version": 1
  },
  "tag": {
    "i18n": {
      "eng": "Shuriken Sentai Ninninger",
      "jpn": "手裏剣戦隊ニンニンジャ",
      "qro": "Shuriken Sentai Nininger"
    },
    "modified_at": "2020-03-31T19:04:32.764Z",
    "name": "Shuriken Sentai Nininger",
    "repository": "kara.moe",
    "tid": "ce7612eb-f715-4943-8f93-8b0df41b4b3e",
    "types": [
      "series",
      "1"
    ]
  }
}