{
  "header": {
    "description": "Karaoke Mugen Tag File",
    "version": 1
  },
  "tag": {
    "i18n": {
      "eng": "Silvia Orlandi"
    },
    "name": "Silvia Orlandi",
    "repository": "kara.moe",
    "tid": "ac68cc54-ba7e-44e2-96bd-023e867b4544",
    "types": [
      "songwriters",
      "8",
      "singers",
      "2"
    ]
  }
}