{
  "header": {
    "description": "Karaoke Mugen Tag File",
    "version": 1
  },
  "tag": {
    "i18n": {
      "eng": "Singo Kubota"
    },
    "name": "Singo Kubota",
    "repository": "kara.moe",
    "tid": "a07f0181-b18b-4ab5-a22a-f96c5aea9bfe",
    "types": [
      "songwriters",
      "8"
    ]
  }
}