{
  "header": {
    "description": "Karaoke Mugen Tag File",
    "version": 1
  },
  "tag": {
    "i18n": {
      "eng": "Skread"
    },
    "name": "Skread",
    "repository": "kara.moe",
    "tid": "70a584e9-21f6-4195-8c0c-b501efb697eb",
    "types": [
      "songwriters",
      "8"
    ]
  }
}