{
  "header": {
    "description": "Karaoke Mugen Tag File",
    "version": 1
  },
  "tag": {
    "i18n": {
      "eng": "SKY-HI"
    },
    "name": "SKY-HI",
    "tid": "f1651221-8654-44ca-a5cc-0c8866f9be1c",
    "types": [
      "singers",
      "2",
      "songwriters",
      "8"
    ],
    "repository": "kara.moe",
    "modified_at": "2020-03-31T19:04:37.630Z"
  }
}