{
  "header": {
    "description": "Karaoke Mugen Tag File",
    "version": 1
  },
  "tag": {
    "aliases": [
      "precure9",
      "Pretty Cure",
      "Glitter Force"
    ],
    "external_database_ids": {
      "anilist": 12191,
      "myanimelist": 12191,
      "kitsu": 6687
    },
    "i18n": {
      "eng": "Smile PreCure!",
      "jpn": "スマイルプリキュア!",
      "qro": "Smile Precure!"
    },
    "modified_at": "2020-03-31T19:04:32.779Z",
    "name": "Smile Precure!",
    "repository": "kara.moe",
    "tid": "053a31ec-7884-4331-a65c-c649f7e2f6d9",
    "types": [
      "series",
      "1"
    ]
  }
}