{
  "header": {
    "description": "Karaoke Mugen Tag File",
    "version": 1
  },
  "tag": {
    "i18n": {
      "eng": "SNCF"
    },
    "name": "SNCF",
    "repository": "kara.moe",
    "tid": "8b8f526f-2bc2-4c04-b1ac-4394a48d6cd1",
    "types": [
      "creators",
      "4",
      "series",
      "1"
    ]
  }
}