{
  "header": {
    "description": "Karaoke Mugen Tag File",
    "version": 1
  },
  "tag": {
    "i18n": {
      "eng": "Snoozy Kazoo"
    },
    "name": "Snoozy Kazoo",
    "repository": "kara.moe",
    "tid": "16a224e3-1ba5-4892-acbb-77f7c0512de1",
    "types": [
      "creators",
      "4"
    ]
  }
}