{
  "header": {
    "description": "Karaoke Mugen Tag File",
    "version": 1
  },
  "tag": {
    "i18n": {
      "eng": "SoCrazy293"
    },
    "name": "SoCrazy293",
    "repository": "kara.moe",
    "tid": "536e945d-e20d-4c2b-a807-411185463382",
    "types": [
      "authors",
      "6"
    ]
  }
}