{
  "header": {
    "description": "Karaoke Mugen Tag File",
    "version": 1
  },
  "tag": {
    "i18n": {
      "eng": "Sol Bontempi"
    },
    "name": "Sol Bontempi",
    "tid": "69ef7812-eb83-42f7-8f4f-bae2c0d1a61d",
    "types": [
      "singers",
      "2"
    ],
    "repository": "kara.moe",
    "modified_at": "2020-03-31T19:04:37.654Z"
  }
}