{
  "header": {
    "description": "Karaoke Mugen Tag File",
    "version": 1
  },
  "tag": {
    "i18n": {
      "eng": "Sol Marcus"
    },
    "name": "Sol Marcus",
    "tid": "ba8d4f2b-c731-4ea8-900a-87dcb60da23b",
    "types": [
      "songwriters",
      "8"
    ],
    "repository": "kara.moe",
    "modified_at": "2020-03-31T19:04:37.654Z"
  }
}