{
  "header": {
    "description": "Karaoke Mugen Tag File",
    "version": 1
  },
  "tag": {
    "i18n": {
      "eng": "Sonic Team"
    },
    "name": "Sonic Team",
    "tid": "60f3094c-2932-442b-b1bb-cd32fdf49c32",
    "types": [
      "creators",
      "4"
    ],
    "repository": "kara.moe",
    "modified_at": "2020-03-31T19:04:37.661Z"
  }
}