{
  "header": {
    "description": "Karaoke Mugen Tag File",
    "version": 1
  },
  "tag": {
    "aliases": [
      "Space Fish: Between the Sky and Sea"
    ],
    "external_database_ids": {
      "anilist": 99639,
      "myanimelist": 36000,
      "kitsu": 40856
    },
    "i18n": {
      "eng": "Between the Sky and Sea",
      "jpn": "ソラとウミのアイダ",
      "kor": "하늘과 바다 사이",
      "qro": "Sora to Umi no Aida"
    },
    "modified_at": "2020-03-31T19:04:32.791Z",
    "name": "Sora to Umi no Aida",
    "repository": "kara.moe",
    "tid": "71743b7c-26a2-4f05-a3ee-7841a0d89f8d",
    "types": [
      "series",
      "1"
    ]
  }
}