{
  "header": {
    "description": "Karaoke Mugen Tag File",
    "version": 1
  },
  "tag": {
    "aliases": [
      "Sora Iro Utility"
    ],
    "external_database_ids": {
      "anilist": 140700,
      "myanimelist": 50209,
      "kitsu": 45365
    },
    "i18n": {
      "eng": "Sorairo Utility",
      "jpn": "空色ユーティリティ"
    },
    "name": "Sorairo Utility",
    "repository": "kara.moe",
    "tid": "f378a8d2-258d-445d-ae2c-c12617b322e2",
    "types": [
      "series",
      "1"
    ]
  }
}