{
  "header": {
    "description": "Karaoke Mugen Tag File",
    "version": 1
  },
  "tag": {
    "external_database_ids": {
      "anilist": 124028,
      "myanimelist": 42883,
      "kitsu": 43549
    },
    "i18n": {
      "eng": "That is the Bottleneck",
      "jpn": "それだけがネック",
      "qro": "Sore dake ga Neck"
    },
    "modified_at": "2021-01-09T20:47:20.033Z",
    "name": "Sore dake ga Neck",
    "repository": "kara.moe",
    "tid": "dab514a7-cea7-4c21-8d26-f73a911173f5",
    "types": [
      "series",
      "1"
    ]
  }
}