{
  "header": {
    "description": "Karaoke Mugen Tag File",
    "version": 1
  },
  "tag": {
    "i18n": {
      "eng": "SOTARO"
    },
    "name": "SOTARO",
    "tid": "c3a80947-43a4-43fe-b177-5e131100b8c0",
    "types": [
      "songwriters",
      "8"
    ],
    "repository": "kara.moe",
    "modified_at": "2020-03-31T19:04:37.673Z"
  }
}