{
  "header": {
    "description": "Karaoke Mugen Tag File",
    "version": 1
  },
  "tag": {
    "aliases": [
      "Souhei"
    ],
    "i18n": {
      "eng": "Sôhei Oyamada"
    },
    "name": "Sôhei Oyamada",
    "repository": "kara.moe",
    "tid": "3229d4fb-8360-45ad-a280-eeecb473b2e5",
    "types": [
      "songwriters",
      "8"
    ]
  }
}