{
  "header": {
    "description": "Karaoke Mugen Tag File",
    "version": 1
  },
  "tag": {
    "aliases": [
      "Soukyuu no Fafner",
      "soukyuu"
    ],
    "external_database_ids": {
      "anilist": 75,
      "myanimelist": 75,
      "kitsu": 55
    },
    "i18n": {
      "eng": "Fafner of the Blue Sky",
      "jpn": "蒼穹のファフナーDead Aggressor",
      "qro": "Sôkyû no Fafner: Dead Aggressor"
    },
    "modified_at": "2020-03-31T19:04:32.799Z",
    "name": "Sôkyû no Fafner: Dead Aggressor",
    "repository": "kara.moe",
    "tid": "9f12b43c-04d5-4f45-a0b0-a35453f51b0c",
    "types": [
      "series",
      "1",
      "franchises",
      "18"
    ]
  }
}