{
  "header": {
    "description": "Karaoke Mugen Tag File",
    "version": 1
  },
  "tag": {
    "aliases": [
      "Most Dangerous Geist",
      "Soukihei MD Geist",
      "soukihei"
    ],
    "external_database_ids": {
      "anilist": 1285,
      "myanimelist": 1285,
      "kitsu": 1159
    },
    "i18n": {
      "eng": "M.D. Geist",
      "ger": "M.D. Geist",
      "jpn": "装鬼兵MDガイスト",
      "por": "M.D. Geist",
      "qro": "Sôkihei MD Geist"
    },
    "modified_at": "2020-06-21T23:45:31.966Z",
    "name": "Sôkihei MD Geist",
    "repository": "kara.moe",
    "tid": "923d2731-c83b-4f0c-901c-97e54c678b0a",
    "types": [
      "series",
      "1"
    ]
  }
}