{
  "header": {
    "description": "Karaoke Mugen Tag File",
    "version": 1
  },
  "tag": {
    "aliases": [
      "Il dort dans le grand bleu",
      "Sousei Kitan Aerial",
      "sousei"
    ],
    "i18n": {
      "eng": "Sosei Kitan Aerial",
      "fre": "Sôsei Kitan Aerial",
      "jpn": "創世奇譚アエリアル",
      "qro": "Sôsei Kitan Aerial"
    },
    "modified_at": "2020-03-31T19:04:32.804Z",
    "name": "Sôsei Kitan Aerial",
    "repository": "kara.moe",
    "tid": "0bdf1537-4fa1-4049-84f1-e0413c520346",
    "types": [
      "series",
      "1"
    ]
  }
}