{
  "header": {
    "description": "Karaoke Mugen Tag File",
    "version": 1
  },
  "tag": {
    "i18n": {
      "eng": "Soviet Comrade"
    },
    "name": "Soviet Comrade",
    "repository": "kara.moe",
    "tid": "e927d01c-120f-4d8e-bdd1-a60a420e61d3",
    "types": [
      "creators",
      "4"
    ]
  }
}