{
  "header": {
    "description": "Karaoke Mugen Tag File",
    "version": 1
  },
  "tag": {
    "i18n": {
      "eng": "Sphere"
    },
    "name": "Sphere",
    "tid": "256792ea-599e-41d8-98cd-9023a4e6c422",
    "types": [
      "singers",
      "2"
    ],
    "repository": "kara.moe",
    "modified_at": "2020-03-31T19:04:37.690Z"
  }
}