{
  "header": {
    "description": "Karaoke Mugen Tag File",
    "version": 1
  },
  "tag": {
    "aliases": [
      "Spider-Man: Dans le spider-verse",
      "spiderman"
    ],
    "i18n": {
      "ara": " سبايدرمان: إنتو ذا سبايدر-فيرس",
      "chi": "蜘蛛人：新宇宙",
      "eng": "Spider-Man: Into the Spider-Verse",
      "fre": "Spider-Man: New Generation",
      "ger": "Spider-Man: A New Universe",
      "ita": "Spider-Man - Un nuovo universo",
      "jpn": "スパイダーマン: スパイダーバース",
      "kor": "스파이더맨: 뉴 유니버스",
      "rus": "Человек-паук: Через вселенные",
      "spa": "Spider-Man: Un nuevo universo",
      "vie": "Người Nhện: Vũ trụ mới",
      "qro": "Spider-Man: Into the Spider-Verse"
    },
    "modified_at": "2020-05-01T19:14:13.382Z",
    "name": "Spider-Man: Into the Spider-Verse",
    "repository": "kara.moe",
    "tid": "49ca1cb4-1b59-4ec7-9178-ac29b7301f4a",
    "types": [
      "series",
      "1"
    ]
  }
}