{
  "header": {
    "description": "Karaoke Mugen Tag File",
    "version": 1
  },
  "tag": {
    "i18n": {
      "eng": "Spike Chunsoft"
    },
    "name": "Spike Chunsoft",
    "tid": "930330fc-79d4-464b-86d7-72cf60716fc6",
    "types": [
      "creators",
      "4"
    ],
    "repository": "kara.moe",
    "modified_at": "2020-03-31T19:04:37.691Z"
  }
}