{
  "header": {
    "description": "Karaoke Mugen Tag File",
    "version": 1
  },
  "tag": {
    "aliases": [
      "Kyoushitsu"
    ],
    "external_database_ids": {
      "anilist": 146323,
      "kitsu": 45966,
      "myanimelist": 51252
    },
    "i18n": {
      "chi": "间谍教室",
      "eng": "Spy Classroom",
      "jpn": "スパイ教室",
      "qro": "Spy Kyôshitsu",
      "ukr": "Шпигунський клас"
    },
    "name": "Spy Kyôshitsu",
    "repository": "kara.moe",
    "tid": "ca1a92f2-a3f1-4c20-a75d-bc710ad4bf09",
    "types": [
      "series",
      "1"
    ]
  }
}