{
  "header": {
    "description": "Karaoke Mugen Tag File",
    "version": 1
  },
  "tag": {
    "i18n": {
      "eng": "SSGWNBTD"
    },
    "name": "SSGWNBTD",
    "tid": "9edb9e4f-2cb3-48f1-801c-3ad21d71b818",
    "types": [
      "creators",
      "4"
    ],
    "repository": "kara.moe",
    "modified_at": "2020-03-31T19:04:37.700Z"
  }
}