{
  "header": {
    "description": "Karaoke Mugen Tag File",
    "version": 1
  },
  "tag": {
    "i18n": {
      "eng": "Stal"
    },
    "name": "Stal",
    "tid": "ed052207-5a5c-4ccc-af26-08b50ef2e5b3",
    "types": [
      "authors",
      "6"
    ],
    "repository": "kara.moe",
    "modified_at": "2020-03-31T19:04:37.704Z"
  }
}