{
  "header": {
    "description": "Karaoke Mugen Tag File",
    "version": 1
  },
  "tag": {
    "i18n": {
      "jpn": "Starry☆Sky ～Spring Stories～",
      "qro": "Starry☆Sky ～Spring Stories～"
    },
    "modified_at": "2020-03-31T19:04:32.829Z",
    "name": "Starry☆Sky ～Spring Stories～",
    "repository": "kara.moe",
    "tid": "5493e6ad-fb76-4eab-a529-34371b1c0b4b",
    "types": [
      "series",
      "1"
    ]
  }
}