{
  "header": {
    "description": "Karaoke Mugen Tag File",
    "version": 1
  },
  "tag": {
    "i18n": {
      "eng": "STARCHILD"
    },
    "name": "STARCHILD",
    "repository": "kara.moe",
    "tid": "61cc9c5d-9e95-4a55-b6ab-2529fb6153b5",
    "types": [
      "creators",
      "4"
    ]
  }
}