{
  "header": {
    "description": "Karaoke Mugen Tag File",
    "version": 1
  },
  "tag": {
    "i18n": {
      "jpn": "Starry☆Sky ～After Summer～",
      "qro": "Starry☆Sky ～After Summer～"
    },
    "modified_at": "2020-03-31T19:04:32.825Z",
    "name": "Starry☆Sky ～After Summer～",
    "repository": "kara.moe",
    "tid": "bd4b3b3d-83fe-4d3c-a6e9-8eea8a6b6135",
    "types": [
      "series",
      "1"
    ]
  }
}