{
  "header": {
    "description": "Karaoke Mugen Tag File",
    "version": 1
  },
  "tag": {
    "aliases": [
      "Steins Gate 0",
      "Steins;Gate Zero",
      "s;g0",
      "sg0",
      "シュタインズ・ゲート ゼロ",
      "シュタインズ・ゲート0",
      "命運石之門 0",
      "steins gate"
    ],
    "external_database_ids": {
      "anilist": 21127,
      "myanimelist": 30484,
      "kitsu": 10788
    },
    "i18n": {
      "ara": "بوابة;شتاينز 0",
      "eng": "Steins;Gate 0",
      "jpn": "シュタインズ・ゲート ゼ",
      "kor": "슈타인즈;게이트 0",
      "qro": "Steins;Gate 0"
    },
    "modified_at": "2020-06-21T23:45:31.966Z",
    "name": "Steins;Gate 0",
    "repository": "kara.moe",
    "tid": "36793c07-e976-4aa8-b614-34eb6211c8c4",
    "types": [
      "series",
      "1"
    ]
  }
}