{
  "header": {
    "description": "Karaoke Mugen Tag File",
    "version": 1
  },
  "tag": {
    "i18n": {
      "eng": "STEREO DIVE FOUNDATION"
    },
    "name": "STEREO DIVE FOUNDATION",
    "tid": "541dfaab-a9d7-4bc3-b138-48128c089890",
    "types": [
      "singers",
      "2",
      "songwriters",
      "8"
    ],
    "repository": "kara.moe",
    "modified_at": "2020-03-31T19:04:37.719Z"
  }
}