{
  "header": {
    "description": "Karaoke Mugen Tag File",
    "version": 1
  },
  "tag": {
    "i18n": {
      "eng": "Steven Berstein"
    },
    "name": "Steven Berstein",
    "tid": "3b117aa3-c6fd-4aff-9ca3-21893bb895c6",
    "types": [
      "songwriters",
      "8"
    ],
    "repository": "kara.moe",
    "modified_at": "2020-03-31T19:04:37.723Z"
  }
}