{
  "header": {
    "description": "Karaoke Mugen Tag File",
    "version": 1
  },
  "tag": {
    "aliases": [
      "s4",
      "stratos4",
      "Стратос 4",
      "สตราโตส 4 ภาค ทีวี"
    ],
    "external_database_ids": {
      "anilist": 421,
      "myanimelist": 421,
      "kitsu": 385
    },
    "i18n": {
      "fre": "Stratos 4",
      "jpn": "ストラトス・フォー",
      "por": "Stratos 4",
      "qro": "Stratos 4"
    },
    "modified_at": "2020-03-31T19:04:32.838Z",
    "name": "Stratos 4",
    "repository": "kara.moe",
    "tid": "328fb65e-1eb5-49ee-8a90-8340f8b35392",
    "types": [
      "series",
      "1"
    ]
  }
}