{
  "header": {
    "description": "Karaoke Mugen Tag File",
    "version": 1
  },
  "tag": {
    "i18n": {
      "eng": "Strawberry Flower"
    },
    "modified_at": "2020-07-17T13:27:17.305Z",
    "name": "Strawberry Flower",
    "repository": "kara.moe",
    "tid": "8b49f713-9b96-464a-b742-bb48392e0e12",
    "types": [
      "songwriters",
      "8",
      "singers",
      "2"
    ]
  }
}