{
  "header": {
    "description": "Karaoke Mugen Tag File",
    "version": 1
  },
  "tag": {
    "i18n": {
      "eng": "Streaming"
    },
    "karafile_tag": "STREAM",
    "name": "STREAM",
    "priority": 20,
    "repository": "kara.moe",
    "tid": "55ce3d79-dcc2-453c-b00a-60ce0c1eba1c",
    "types": [
      "songtypes",
      "3"
    ]
  }
}