{
  "header": {
    "description": "Karaoke Mugen Tag File",
    "version": 1
  },
  "tag": {
    "aliases": [
      "SF3",
      "SFIII",
      "Third strike"
    ],
    "i18n": {
      "eng": "Street Fighter III: 3rd Strike - Fight for the Future",
      "jpn": "ストリートファイターIII 3rd STRIKE -Fight for the Future"
    },
    "name": "Street Fighter III: 3rd Strike - Fight for the Future",
    "repository": "kara.moe",
    "tid": "da092eac-d6eb-4f8d-975f-57d761cc1eff",
    "types": [
      "series",
      "1"
    ]
  }
}