{
  "header": {
    "description": "Karaoke Mugen Tag File",
    "version": 1
  },
  "tag": {
    "i18n": {
      "eng": "Studio LAN"
    },
    "modified_at": "2021-10-22T17:15:00.811Z",
    "name": "Studio LAN",
    "repository": "kara.moe",
    "tid": "99f50476-605b-481f-83c5-d9208f0ac224",
    "types": [
      "creators",
      "4"
    ]
  }
}