{
  "header": {
    "description": "Karaoke Mugen Tag File",
    "version": 1
  },
  "tag": {
    "i18n": {
      "eng": "Studio Yotta"
    },
    "modified_at": "2020-12-13T12:36:39.737Z",
    "name": "Studio Yotta",
    "repository": "kara.moe",
    "tid": "eb81db2e-ebb7-4c2c-9819-17ca640092c0",
    "types": [
      "creators",
      "4"
    ]
  }
}