{
  "header": {
    "description": "Karaoke Mugen Tag File",
    "version": 1
  },
  "tag": {
    "i18n": {
      "eng": "Studio Pastoral"
    },
    "name": "Studio Pastoral",
    "tid": "89d0fd8a-f6ad-47ae-8d97-fe4570155ca5",
    "types": [
      "creators",
      "4"
    ],
    "repository": "kara.moe",
    "modified_at": "2020-03-31T19:04:37.745Z"
  }
}