{
  "header": {
    "description": "Karaoke Mugen Tag File",
    "version": 1
  },
  "tag": {
    "i18n": {
      "eng": "Subaru Oozora",
      "jpn": "大空スバル",
      "qro": "Subaru Oozora"
    },
    "name": "Subaru Oozora",
    "repository": "kara.moe",
    "tid": "5b4a57ae-61ca-489e-bdf6-c172150dd4b8",
    "types": [
      "songwriters",
      "8",
      "singers",
      "2"
    ]
  }
}