{
  "header": {
    "description": "Karaoke Mugen Tag File",
    "version": 1
  },
  "tag": {
    "aliases": [
      "Everything Becomes F",
      "F: The Perfect Insider",
      "Всичко се свежда до буквата F: Идеалният вътрешен човек",
      "Всё сведётся к F: Идеальный инсайдер",
      "Ключът към всичко е буквата F",
      "全部成为F"
    ],
    "external_database_ids": {
      "anilist": 21190,
      "myanimelist": 28621,
      "kitsu": 10037
    },
    "i18n": {
      "eng": "The Perfect Insider",
      "fre": "The Perfect Insider",
      "jpn": "すべてがFになる",
      "kor": "모든 것이 F가 된다",
      "qro": "Subete ga F ni Naru"
    },
    "modified_at": "2020-03-31T19:04:32.843Z",
    "name": "Subete ga F ni Naru",
    "repository": "kara.moe",
    "tid": "d69be0a8-ef14-4824-97c4-09e91a9e2271",
    "types": [
      "series",
      "1"
    ]
  }
}