{
  "header": {
    "description": "Karaoke Mugen Tag File",
    "version": 1
  },
  "tag": {
    "i18n": {
      "eng": "Subway Daydream"
    },
    "name": "Subway Daydream",
    "repository": "kara.moe",
    "tid": "df9a4f45-d796-4d23-b15c-72a2420cc018",
    "types": [
      "songwriters",
      "8",
      "singergroups",
      "17"
    ]
  }
}