{
  "header": {
    "description": "Karaoke Mugen Tag File",
    "version": 1
  },
  "tag": {
    "i18n": {
      "eng": "SUGISO"
    },
    "modified_at": "2021-05-18T16:25:03.341Z",
    "name": "SUGISO",
    "repository": "kara.moe",
    "tid": "d1ed46a9-463d-4079-9ae0-d57b90cb8a53",
    "types": [
      "songwriters",
      "8",
      "singers",
      "2"
    ]
  }
}