{
  "header": {
    "description": "Karaoke Mugen Tag File",
    "version": 1
  },
  "tag": {
    "i18n": {
      "eng": "Sui Ishida"
    },
    "name": "Sui Ishida",
    "repository": "kara.moe",
    "tid": "7ffec420-af1b-49a3-848f-48e59e29aae1",
    "types": [
      "songwriters",
      "8"
    ]
  }
}