{
  "header": {
    "description": "Karaoke Mugen Tag File",
    "version": 1
  },
  "tag": {
    "i18n": {
      "eng": "Sukeban Deka The Movie",
      "jpn": "スケバン刑事",
      "qro": "Sukeban Deka"
    },
    "modified_at": "2020-03-31T19:04:32.846Z",
    "name": "Sukeban Deka",
    "repository": "kara.moe",
    "tid": "210516c2-1655-4fc7-b0e4-5505aa2186a3",
    "types": [
      "series",
      "1"
    ]
  }
}