{
  "header": {
    "description": "Karaoke Mugen Tag File",
    "version": 1
  },
  "tag": {
    "aliases": [
      "STAR☆ANIS",
      "STAR ANIS"
    ],
    "i18n": {
      "eng": "Sunao Yoshikawa"
    },
    "modified_at": "2020-11-22T17:57:55.439Z",
    "name": "Sunao Yoshikawa",
    "repository": "kara.moe",
    "tid": "90a576c5-001a-4f61-b531-a138a2ff1440",
    "types": [
      "singers",
      "2"
    ]
  }
}