{
  "header": {
    "description": "Karaoke Mugen Tag File",
    "version": 1
  },
  "tag": {
    "i18n": {
      "eng": "Super Mario Bros."
    },
    "modified_at": "2020-11-28T22:09:24.871Z",
    "name": "Super Mario Bros.",
    "repository": "kara.moe",
    "tid": "63c6ed9c-4403-424f-bcf0-985be638f6e3",
    "types": [
      "series",
      "1"
    ]
  }
}