{
  "header": {
    "description": "Karaoke Mugen Tag File",
    "version": 1
  },
  "tag": {
    "i18n": {
      "eng": "SUPER BEAVER"
    },
    "modified_at": "2020-10-21T17:34:31.033Z",
    "name": "SUPER BEAVER",
    "repository": "kara.moe",
    "tid": "4f94235c-01e9-4cbb-b9d0-8666fda712f3",
    "types": [
      "singers",
      "2",
      "songwriters",
      "8"
    ]
  }
}