{
  "header": {
    "description": "Karaoke Mugen Tag File",
    "version": 1
  },
  "tag": {
    "aliases": [
      "SRWOG",
      "Super Robot Wars OG: Divine Wars",
      "Super Robot Wars: Original Generation - Divine Wars",
      "超级机器人大战OG"
    ],
    "external_database_ids": {
      "anilist": 1603,
      "myanimelist": 1603,
      "kitsu": 1443
    },
    "i18n": {
      "eng": "Super Robot Wars: OG Divine Wars",
      "jpn": "スーパーロボット大戦OG ディバイン・ウォーズ",
      "tha": "ซุปเปอร์โรบ็อตวอร์ส ออริจินั่ล เจเนอเรชั่น - ดีไวน์วอร์ส -",
      "qro": "Super Robot Taisen OG Divine Wars"
    },
    "modified_at": "2020-06-21T23:45:31.966Z",
    "name": "Super Robot Taisen OG Divine Wars",
    "repository": "kara.moe",
    "tid": "f5cb7262-0a5b-4ff6-a8ef-52f29c6c16de",
    "types": [
      "series",
      "1"
    ]
  }
}