{
  "header": {
    "description": "Karaoke Mugen Tag File",
    "version": 1
  },
  "tag": {
    "i18n": {
      "eng": "Susumu Kaga"
    },
    "name": "Susumu Kaga",
    "tid": "2cce864e-0962-4bb3-83ac-8db2b88334f5",
    "types": [
      "songwriters",
      "8"
    ],
    "repository": "kara.moe",
    "modified_at": "2020-03-31T19:04:37.791Z"
  }
}