{
  "header": {
    "description": "Karaoke Mugen Tag File",
    "version": 1
  },
  "tag": {
    "i18n": {
      "eng": "Susumu Mameda"
    },
    "name": "Susumu Mameda",
    "tid": "b90a2484-421f-4570-baba-8411b420d560",
    "types": [
      "songwriters",
      "8"
    ],
    "repository": "kara.moe",
    "modified_at": "2020-03-31T19:04:37.792Z"
  }
}