{
  "header": {
    "description": "Karaoke Mugen Tag File",
    "version": 1
  },
  "tag": {
    "i18n": {
      "eng": "Suzunosuke"
    },
    "name": "Suzunosuke",
    "tid": "be31538b-0a5e-49d7-a919-4dea0dac62cf",
    "types": [
      "creators",
      "4"
    ],
    "repository": "kara.moe",
    "modified_at": "2020-03-31T19:04:37.801Z"
  }
}