{
  "header": {
    "description": "Karaoke Mugen Tag File",
    "version": 1
  },
  "tag": {
    "i18n": {
      "eng": "Sword Art Online: Unleash Blading"
    },
    "name": "Sword Art Online: Unleash Blading",
    "repository": "kara.moe",
    "tid": "08e5ab51-faaf-4ae5-9702-a95eb96ae24c",
    "types": [
      "series",
      "1"
    ]
  }
}