{
  "header": {
    "description": "Karaoke Mugen Tag File",
    "version": 1
  },
  "tag": {
    "i18n": {
      "eng": "SymaG"
    },
    "name": "SymaG",
    "repository": "kara.moe",
    "tid": "80890086-8de5-4086-a3b6-c5596826dcee",
    "types": [
      "singers",
      "2"
    ]
  }
}