{
  "header": {
    "description": "Karaoke Mugen Tag File",
    "version": 1
  },
  "tag": {
    "i18n": {
      "eng": "Tackey & Tsubasa"
    },
    "name": "Tackey & Tsubasa",
    "tid": "71bcc088-3eab-4ada-a633-2495a92d36d6",
    "types": [
      "singers",
      "2"
    ],
    "repository": "kara.moe",
    "modified_at": "2020-03-31T19:04:37.821Z"
  }
}