{
  "header": {
    "description": "Karaoke Mugen Tag File",
    "version": 1
  },
  "tag": {
    "aliases": [
      "Taihou Shichau zo",
      "Taihou Shichauzo",
      "YUA TV2",
      "You're Under Arrest 2nd Season",
      "You're Under Arrest! 2nd Season",
      "You're Under Arrest! Second Season",
      "You're Under Arrest: Season 2",
      "yua2",
      "taihou"
    ],
    "external_database_ids": {
      "anilist": 2014,
      "myanimelist": 2014,
      "kitsu": 1813
    },
    "i18n": {
      "eng": "You're Under Arrest! TV: Fast & Furious",
      "fre": "Équipières de choc (saison 2)",
      "jpn": "逮捕しちゃうぞ Second Season",
      "qro": "Taihô Shichau zo: Second Season"
    },
    "modified_at": "2020-03-31T19:04:32.876Z",
    "name": "Taihô Shichau zo: Second Season",
    "repository": "kara.moe",
    "tid": "ad50e74e-e834-4a9e-9213-2f138fc01f36",
    "types": [
      "series",
      "1"
    ]
  }
}