{
  "header": {
    "description": "Karaoke Mugen Tag File",
    "version": 1
  },
  "tag": {
    "i18n": {
      "eng": "Taijirô Matsuki"
    },
    "name": "Taijirô Matsuki",
    "tid": "9b1d8767-0c92-4665-a78f-95b61fe98ec4",
    "types": [
      "songwriters",
      "8"
    ],
    "repository": "kara.moe",
    "modified_at": "2020-03-31T19:04:37.836Z"
  }
}