{
  "header": {
    "description": "Karaoke Mugen Tag File",
    "version": 1
  },
  "tag": {
    "i18n": {
      "eng": "Taiji Sato"
    },
    "name": "Taiji Sato",
    "tid": "72b2127a-daf1-4310-a7e0-9e8c437e3004",
    "types": [
      "songwriters",
      "8"
    ],
    "repository": "kara.moe",
    "modified_at": "2020-03-31T19:04:37.835Z"
  }
}