{
  "header": {
    "description": "Karaoke Mugen Tag File",
    "version": 1
  },
  "tag": {
    "aliases": [
      "Brave hero of the Sun Firebird",
      "Burning brave hero Firebird",
      "Taiyou no Yuusha FIGHBIRD",
      "taiyou",
      "yuusha"
    ],
    "external_database_ids": {
      "anilist": 4532,
      "myanimelist": 4532,
      "kitsu": 3665
    },
    "i18n": {
      "eng": "Brave of the Sun Fighbird",
      "jpn": "太陽の勇者ファイバード",
      "qro": "Taiyô no Yûsha FIGHBIRD"
    },
    "modified_at": "2020-03-31T19:04:32.880Z",
    "name": "Taiyô no Yûsha FIGHBIRD",
    "repository": "kara.moe",
    "tid": "ce511076-6a7b-4ebd-8eea-a2e9acdd468c",
    "types": [
      "series",
      "1"
    ]
  }
}