{
  "header": {
    "description": "Karaoke Mugen Tag File",
    "version": 1
  },
  "tag": {
    "i18n": {
      "eng": "Takashi Kudô"
    },
    "name": "Takashi Kudô",
    "tid": "40258b21-0322-4bdd-b3d3-5b79acaff174",
    "types": [
      "songwriters",
      "8"
    ],
    "repository": "kara.moe",
    "modified_at": "2020-03-31T19:04:37.890Z"
  }
}