{
  "header": {
    "description": "Karaoke Mugen Tag File",
    "version": 1
  },
  "tag": {
    "i18n": {
      "eng": "Takahashi Taku"
    },
    "name": "Takahashi Taku",
    "repository": "kara.moe",
    "tid": "acc56764-5110-45d9-97bf-f2bba5205242",
    "types": [
      "songwriters",
      "8"
    ],
    "modified_at": "2020-03-31T19:04:37.851Z"
  }
}