{
  "header": {
    "description": "Karaoke Mugen Tag File",
    "version": 1
  },
  "tag": {
    "i18n": {
      "eng": "Takayuki Tonegawa"
    },
    "name": "Takayuki Tonegawa",
    "tid": "53a91239-95d0-4136-aa7d-ba8af3077fcc",
    "types": [
      "songwriters",
      "8"
    ],
    "repository": "kara.moe",
    "modified_at": "2020-03-31T19:04:37.909Z"
  }
}