{
  "header": {
    "description": "Karaoke Mugen Tag File",
    "version": 1
  },
  "tag": {
    "i18n": {
      "eng": "Takako Honda"
    },
    "name": "Takako Honda",
    "tid": "a52c4071-494d-4714-8848-2a6d3442c8ed",
    "types": [
      "singers",
      "2"
    ],
    "repository": "kara.moe",
    "modified_at": "2020-03-31T19:04:37.865Z"
  }
}