{
  "header": {
    "description": "Karaoke Mugen Tag File",
    "version": 1
  },
  "tag": {
    "i18n": {
      "jpn": "タカハシヒビキ",
      "qro": "Takahashi Hibiki"
    },
    "name": "Takahashi Hibiki",
    "repository": "kara.moe",
    "tid": "a6891c29-31e0-4819-980b-f9999e20d8d5",
    "types": [
      "songwriters",
      "8"
    ]
  }
}