{
  "header": {
    "description": "Karaoke Mugen Tag File",
    "version": 1
  },
  "tag": {
    "i18n": {
      "eng": "Takashi Baba"
    },
    "name": "Takashi Baba",
    "repository": "kara.moe",
    "tid": "dca8b5c5-c618-4816-ab95-38cbeeddd2fc",
    "types": [
      "singers",
      "2"
    ]
  }
}