{
  "header": {
    "description": "Karaoke Mugen Tag File",
    "version": 1
  },
  "tag": {
    "description": {
      "jpn": "佐久間貴生"
    },
    "i18n": {
      "eng": "Takao Sakuma"
    },
    "name": "Takao Sakuma",
    "repository": "kara.moe",
    "tid": "70a42fca-144b-48b6-8b4e-114d3f4596f3",
    "types": [
      "singers",
      "2"
    ]
  }
}