{
  "header": {
    "description": "Karaoke Mugen Tag File",
    "version": 1
  },
  "tag": {
    "i18n": {
      "eng": "Takaaki Suzuki"
    },
    "name": "Takaaki Suzuki",
    "tid": "a66d2091-333f-4595-b444-c69e2930b57b",
    "types": [
      "songwriters",
      "8"
    ],
    "repository": "kara.moe",
    "modified_at": "2020-03-31T19:04:37.846Z"
  }
}