{
  "header": {
    "description": "Karaoke Mugen Tag File",
    "version": 1
  },
  "tag": {
    "i18n": {
      "eng": "Takamitsu Ono"
    },
    "name": "Takamitsu Ono",
    "tid": "732c6ea7-d746-4ae5-abe8-387085eac132",
    "types": [
      "songwriters",
      "8"
    ],
    "repository": "kara.moe",
    "modified_at": "2020-03-31T19:04:37.871Z"
  }
}