{
  "header": {
    "description": "Karaoke Mugen Tag File",
    "version": 1
  },
  "tag": {
    "i18n": {
      "jpn": "たかやん",
      "qro": "Takayan"
    },
    "name": "Takayan",
    "repository": "kara.moe",
    "tid": "1beebd7b-105e-40fb-af50-9f779b1876b2",
    "types": [
      "songwriters",
      "8",
      "singers",
      "2"
    ]
  }
}