{
  "header": {
    "description": "Karaoke Mugen Tag File",
    "version": 1
  },
  "tag": {
    "i18n": {
      "eng": "Takashi Asano"
    },
    "name": "Takashi Asano",
    "tid": "e524bd30-8a63-457f-9b6f-0f05af5a785d",
    "types": [
      "songwriters",
      "8"
    ],
    "repository": "kara.moe",
    "modified_at": "2020-03-31T19:04:37.885Z"
  }
}