{
  "header": {
    "description": "Karaoke Mugen Tag File",
    "version": 1
  },
  "tag": {
    "i18n": {
      "eng": "Takefumi Haketa"
    },
    "name": "Takefumi Haketa",
    "tid": "c131a900-3e7a-4bb8-838a-00d851abc9d0",
    "types": [
      "songwriters",
      "8"
    ],
    "repository": "kara.moe",
    "modified_at": "2020-03-31T19:04:37.913Z"
  }
}