{
  "header": {
    "description": "Karaoke Mugen Tag File",
    "version": 1
  },
  "tag": {
    "i18n": {
      "eng": "Takeshi Kaji"
    },
    "modified_at": "2020-08-17T21:26:41.650Z",
    "name": "Takeshi Kaji",
    "repository": "kara.moe",
    "tid": "64fae8f3-25b5-4ddc-abbf-a6b6fce26872",
    "types": [
      "songwriters",
      "8"
    ]
  }
}