{
  "header": {
    "description": "Karaoke Mugen Tag File",
    "version": 1
  },
  "tag": {
    "i18n": {
      "eng": "Takeshi Isozaki"
    },
    "name": "Takeshi Isozaki",
    "tid": "1498e794-7325-4902-aa0f-aec73bf4af07",
    "types": [
      "songwriters",
      "8"
    ],
    "repository": "kara.moe",
    "modified_at": "2020-03-31T19:04:37.928Z"
  }
}