{
  "header": {
    "description": "Karaoke Mugen Tag File",
    "version": 1
  },
  "tag": {
    "i18n": {
      "eng": "Takeshi Nakatsuka"
    },
    "name": "Takeshi Nakatsuka",
    "tid": "d7f98c5b-c75e-4d41-9440-e48cec09e41f",
    "types": [
      "songwriters",
      "8"
    ],
    "repository": "kara.moe",
    "modified_at": "2020-03-31T19:04:37.931Z"
  }
}