{
  "header": {
    "description": "Karaoke Mugen Tag File",
    "version": 1
  },
  "tag": {
    "i18n": {
      "eng": "Takeshi Yokemura"
    },
    "name": "Takeshi Yokemura",
    "tid": "b7d43a27-bf7d-406d-9d79-c4b0695fb4e6",
    "types": [
      "songwriters",
      "8"
    ],
    "repository": "kara.moe",
    "modified_at": "2020-03-31T19:04:37.943Z"
  }
}