{
  "header": {
    "description": "Karaoke Mugen Tag File",
    "version": 1
  },
  "tag": {
    "i18n": {
      "eng": "Takehito Nakazawa"
    },
    "name": "Takehito Nakazawa",
    "tid": "74f4990f-c267-4121-9e4b-892d600f2968",
    "types": [
      "songwriters",
      "8"
    ],
    "repository": "kara.moe",
    "modified_at": "2020-03-31T19:04:37.917Z"
  }
}