{
  "header": {
    "description": "Karaoke Mugen Tag File",
    "version": 1
  },
  "tag": {
    "i18n": {
      "eng": "Takt-W"
    },
    "name": "Takt-W",
    "tid": "999f3556-a989-4962-87d2-e9d0ad6345fa",
    "types": [
      "songwriters",
      "8"
    ],
    "repository": "kara.moe",
    "modified_at": "2020-03-31T19:04:37.948Z"
  }
}