{
  "header": {
    "description": "Karaoke Mugen Tag File",
    "version": 1
  },
  "tag": {
    "i18n": {
      "eng": "Takuma Takasaki"
    },
    "name": "Takuma Takasaki",
    "tid": "427867c3-5938-4b5e-8235-b74b12681171",
    "types": [
      "songwriters",
      "8"
    ],
    "repository": "kara.moe",
    "modified_at": "2020-03-31T19:04:37.955Z"
  }
}