{
  "header": {
    "description": "Karaoke Mugen Tag File",
    "version": 1
  },
  "tag": {
    "i18n": {
      "eng": "Takuma"
    },
    "name": "Takuma",
    "repository": "kara.moe",
    "tid": "5bdcfbae-dd1f-490a-9ad3-496577162742",
    "types": [
      "songwriters",
      "8"
    ]
  }
}