{
  "header": {
    "description": "Karaoke Mugen Tag File",
    "version": 1
  },
  "tag": {
    "i18n": {
      "eng": "Takumi Watanabe"
    },
    "name": "Takumi Watanabe",
    "repository": "kara.moe",
    "tid": "3911cdd1-585c-41e1-bbc7-4990cd6bf60d",
    "types": [
      "singers",
      "2"
    ]
  }
}