{
  "header": {
    "description": "Karaoke Mugen Tag File",
    "version": 1
  },
  "tag": {
    "i18n": {
      "eng": "Takumi"
    },
    "name": "Takumi",
    "tid": "cbe95337-550f-481c-8ec2-c5f0f000a065",
    "types": [
      "creators",
      "4"
    ],
    "repository": "kara.moe",
    "modified_at": "2020-03-31T19:04:37.961Z"
  }
}