{
  "header": {
    "description": "Karaoke Mugen Tag File",
    "version": 1
  },
  "tag": {
    "i18n": {
      "eng": "Takurô Iga"
    },
    "name": "Takurô Iga",
    "tid": "0a345ac9-d692-4f57-aba0-0e5f671486b3",
    "types": [
      "songwriters",
      "8"
    ],
    "repository": "kara.moe",
    "modified_at": "2020-03-31T19:04:37.962Z"
  }
}