{
  "header": {
    "description": "Karaoke Mugen Tag File",
    "version": 1
  },
  "tag": {
    "i18n": {
      "eng": "Takumi Yoshida"
    },
    "name": "Takumi Yoshida",
    "tid": "9198b777-ec49-421e-bea8-18f8455b050e",
    "types": [
      "songwriters",
      "8"
    ],
    "repository": "kara.moe",
    "modified_at": "2020-03-31T19:04:37.960Z"
  }
}