{
  "header": {
    "description": "Karaoke Mugen Tag File",
    "version": 1
  },
  "tag": {
    "i18n": {
      "eng": "Takumi Ishida"
    },
    "name": "Takumi Ishida",
    "repository": "kara.moe",
    "tid": "3238822d-1530-4477-b16e-70145138449f",
    "types": [
      "songwriters",
      "8",
      "singers",
      "2"
    ]
  }
}