{
  "header": {
    "description": "Karaoke Mugen Tag File",
    "version": 1
  },
  "tag": {
    "aliases": [
      "ToD"
    ],
    "i18n": {
      "eng": "Tales of Destiny",
      "jpn": "テイルズ オブ デスティニ",
      "qro": "Tales of Destiny"
    },
    "modified_at": "2020-03-31T19:04:32.886Z",
    "name": "Tales of Destiny",
    "repository": "kara.moe",
    "tid": "6bd351eb-a0e2-4c00-8dbf-78e7a2509aa8",
    "types": [
      "series",
      "1"
    ]
  }
}