{
  "header": {
    "description": "Karaoke Mugen Tag File",
    "version": 1
  },
  "tag": {
    "aliases": [
      "ToD 2"
    ],
    "i18n": {
      "eng": "Tales of Destiny 2",
      "jpn": "テイルズ オブ デスティニー 2",
      "qro": "Tales of Destiny 2"
    },
    "modified_at": "2020-03-31T19:04:32.885Z",
    "name": "Tales of Destiny 2",
    "repository": "kara.moe",
    "tid": "ae21f42b-6359-43aa-a66f-a09610465a5c",
    "types": [
      "series",
      "1"
    ]
  }
}