{
  "header": {
    "description": "Karaoke Mugen Tag File",
    "version": 1
  },
  "tag": {
    "aliases": [
      "ToX"
    ],
    "i18n": {
      "eng": "Tales of Xillia",
      "jpn": "テイルズ オブ エクシリア",
      "qro": "Tales of Xillia"
    },
    "modified_at": "2020-03-31T19:04:32.899Z",
    "name": "Tales of Xillia",
    "repository": "kara.moe",
    "tid": "89f822c7-4680-4c5e-9969-5ebda11c077a",
    "types": [
      "series",
      "1"
    ]
  }
}