{
  "header": {
    "description": "Karaoke Mugen Tag File",
    "version": 1
  },
  "tag": {
    "i18n": {
      "jpn": "たまみ",
      "qro": "Tamami"
    },
    "name": "Tamami (Subway Daydream)",
    "repository": "kara.moe",
    "tid": "c540f36b-a2ba-4e9d-a4c9-0a6d5d769867",
    "types": [
      "singers",
      "2"
    ]
  }
}