{
  "header": {
    "description": "Karaoke Mugen Tag File",
    "version": 1
  },
  "tag": {
    "i18n": {
      "eng": "Tamio Okuda"
    },
    "name": "Tamio Okuda",
    "tid": "c734e0b4-eba5-4b2b-9a0f-b1d36d300ec5",
    "types": [
      "songwriters",
      "8",
      "singers",
      "2"
    ],
    "repository": "kara.moe",
    "modified_at": "2020-03-31T19:04:37.985Z"
  }
}