{
  "header": {
    "description": "Karaoke Mugen Tag File",
    "version": 1
  },
  "tag": {
    "i18n": {
      "eng": "Taniya Raku"
    },
    "name": "Taniya Raku",
    "repository": "kara.moe",
    "tid": "5902bc4a-30b0-413e-9f23-e5866a2d709c",
    "types": [
      "singers",
      "2"
    ]
  }
}