{
  "header": {
    "description": "Karaoke Mugen Tag File",
    "version": 1
  },
  "tag": {
    "aliases": [
      "Delightful Moomin Family",
      "The Tales from Moominvalley"
    ],
    "external_database_ids": {
      "anilist": 2150,
      "myanimelist": 2150,
      "kitsu": 1946
    },
    "i18n": {
      "eng": "Moomin",
      "jpn": "楽しいムーミン一家",
      "swe": "I Mumindalen",
      "fre": "Les Moomins",
      "fin": "Muumilaakson tarinoita",
      "est": "Muumioru lood",
      "lit": "Troliai Mumiai",
      "heb": "המומינים",
      "ara": "وادي الأمان",
      "spa": "Los Moomin",
      "dut": "Moomin (1990)",
      "pol": "Muminki",
      "ger": "Mumins",
      "dan": "Mumitroldene",
      "nor": "Mummitrollet",
      "cze": "Mumínci",
      "ice": "Múmínálfarnir",
      "gre": "Οι Μούμιν",
      "chi": "小肥肥一族",
      "kor": "무민 잉글리쉬",
      "qro": "Tanoshii Muumin Ikka"
    },
    "modified_at": "2020-08-23T15:43:44.231Z",
    "name": "Tanoshii Muumin Ikka",
    "repository": "kara.moe",
    "tid": "4d82f95d-9487-4f9c-8876-9ae8b5b9541e",
    "types": [
      "series",
      "1"
    ]
  }
}