{
  "header": {
    "description": "Karaoke Mugen Tag File",
    "version": 1
  },
  "tag": {
    "i18n": {
      "eng": "Tarkan"
    },
    "name": "Tarkan",
    "repository": "kara.moe",
    "tid": "1bd2b744-702f-4656-902c-68694b57d140",
    "types": [
      "singers",
      "2",
      "songwriters",
      "8"
    ]
  }
}