{
  "header": {
    "description": "Karaoke Mugen Tag File",
    "version": 1
  },
  "tag": {
    "i18n": {
      "eng": "Taro Kobayashi"
    },
    "name": "Taro Kobayashi",
    "repository": "kara.moe",
    "tid": "038c7e8d-0b85-4b07-87d7-4c7e21d32a55",
    "types": [
      "singers",
      "2"
    ]
  }
}