{
  "header": {
    "description": "Karaoke Mugen Tag File",
    "version": 1
  },
  "tag": {
    "i18n": {
      "eng": "Tarou"
    },
    "name": "Tarou",
    "tid": "160db367-e27c-418b-b249-f11752710e14",
    "types": [
      "creators",
      "4"
    ],
    "repository": "kara.moe",
    "modified_at": "2020-03-31T19:04:37.995Z"
  }
}