{
  "header": {
    "description": "Karaoke Mugen Tag File",
    "version": 1
  },
  "tag": {
    "i18n": {
      "eng": "Tatsuya Hayashi"
    },
    "name": "Tatsuya Hayashi",
    "tid": "bf1b223d-9db4-4d2c-ac02-2e9b45fce518",
    "types": [
      "songwriters",
      "8"
    ],
    "repository": "kara.moe",
    "modified_at": "2020-03-31T19:04:38.012Z"
  }
}