{
  "header": {
    "description": "Karaoke Mugen Tag File",
    "version": 1
  },
  "tag": {
    "i18n": {
      "eng": "Tatsuhiko Yoshida"
    },
    "name": "Tatsuhiko Yoshida",
    "tid": "f014477e-41c8-4fc8-90db-a7681ea94688",
    "types": [
      "singers",
      "2"
    ],
    "repository": "kara.moe",
    "modified_at": "2020-03-31T19:04:38.000Z"
  }
}