{
  "header": {
    "description": "Karaoke Mugen Tag File",
    "version": 1
  },
  "tag": {
    "i18n": {
      "eng": "Tatsuhiko Fuyuno"
    },
    "name": "Tatsuhiko Fuyuno",
    "tid": "6665a65a-c107-46a4-a3f5-8251d03ec8d4",
    "types": [
      "songwriters",
      "8"
    ],
    "repository": "kara.moe",
    "modified_at": "2020-03-31T19:04:37.999Z"
  }
}