{
  "header": {
    "description": "Karaoke Mugen Tag File",
    "version": 1
  },
  "tag": {
    "i18n": {
      "eng": "Tatsuyuki Kobayashi"
    },
    "name": "Tatsuyuki Kobayashi",
    "tid": "49b2b435-7ae4-42c3-8f0c-56f477d1f39d",
    "types": [
      "singers",
      "2"
    ],
    "repository": "kara.moe",
    "modified_at": "2020-03-31T19:04:38.019Z"
  }
}