{
  "header": {
    "description": "Karaoke Mugen Tag File",
    "version": 1
  },
  "tag": {
    "i18n": {
      "eng": "Tatsuo Hasegawa"
    },
    "name": "Tatsuo Hasegawa",
    "tid": "bbfb856d-b5d0-44d4-acfa-1e00dd4b2192",
    "types": [
      "songwriters",
      "8"
    ],
    "repository": "kara.moe",
    "modified_at": "2020-03-31T19:04:38.006Z"
  }
}