{
  "header": {
    "description": "Karaoke Mugen Tag File",
    "version": 1
  },
  "tag": {
    "i18n": {
      "eng": "Taylor Hawkins"
    },
    "name": "Taylor Hawkins",
    "tid": "23a3c022-7eb4-4a6f-bf0b-af160b2b1f00",
    "types": [
      "songwriters",
      "8"
    ],
    "repository": "kara.moe",
    "modified_at": "2020-03-31T19:04:38.022Z"
  }
}