{
  "header": {
    "description": "Karaoke Mugen Tag File",
    "version": 1
  },
  "tag": {
    "aliases": [
      "Telescreen"
    ],
    "i18n": {
      "eng": "Telecable Benelux B.V."
    },
    "name": "Telecable Benelux B.V.",
    "tid": "0f181067-9e34-4323-8736-8120c0f85ccf",
    "types": [
      "creators",
      "4"
    ],
    "repository": "kara.moe",
    "modified_at": "2020-03-31T19:04:38.042Z"
  }
}