{
  "header": {
    "description": "Karaoke Mugen Tag File",
    "version": 1
  },
  "tag": {
    "aliases": [
      "AS",
      "Melek Tapınağı",
      "Tenshi Kinryouku",
      "tenkin",
      "Убежище ангела",
      "天禁",
      "kinryouku"
    ],
    "external_database_ids": {
      "anilist": 51,
      "myanimelist": 51,
      "kitsu": 32
    },
    "i18n": {
      "eng": "Angel Sanctuary",
      "fre": "Angel Sanctuary",
      "ger": "Angel Sanctuary",
      "ita": "Angel Sanctuary - Riserva di caccia agli Angeli",
      "jpn": "天使禁猟区",
      "pol": "Angel Sanctuary",
      "rus": "Прибежище ангела",
      "spa": "Angel Sanctuary",
      "qro": "Tenshi Kinryôku"
    },
    "modified_at": "2020-03-31T19:04:32.936Z",
    "name": "Tenshi Kinryôku",
    "repository": "kara.moe",
    "tid": "c296b012-15c0-4c80-af6d-7e6974673cd4",
    "types": [
      "series",
      "1"
    ]
  }
}