{
  "header": {
    "description": "Karaoke Mugen Tag File",
    "version": 1
  },
  "tag": {
    "i18n": {
      "eng": "TEPPAN"
    },
    "name": "TEPPAN",
    "tid": "73afdc73-db3b-4bb4-98b1-390526829749",
    "types": [
      "singers",
      "2",
      "songwriters",
      "8"
    ],
    "repository": "kara.moe",
    "modified_at": "2020-03-31T19:04:38.052Z"
  }
}