{
  "header": {
    "description": "Karaoke Mugen Tag File",
    "version": 1
  },
  "tag": {
    "i18n": {
      "eng": "Teru Ikuta"
    },
    "name": "Teru Ikuta",
    "tid": "d450e6ee-57dc-41ea-b60e-396135d6a2e8",
    "types": [
      "singers",
      "2"
    ],
    "repository": "kara.moe",
    "modified_at": "2020-03-31T19:04:38.057Z"
  }
}