{
  "header": {
    "description": "Karaoke Mugen Tag File",
    "version": 1
  },
  "tag": {
    "aliases": [
      "28-gou"
    ],
    "external_database_ids": {
      "anilist": 2337,
      "myanimelist": 2337,
      "kitsu": 2117
    },
    "i18n": {
      "eng": "Tetsujin 28 (2004)",
      "fre": "Tetsujin 28-gô (2004)",
      "jpn": "鉄人28号 (2004)",
      "qro": "Tetsujin 28-gô (2004)"
    },
    "modified_at": "2020-03-31T19:04:32.944Z",
    "name": "Tetsujin 28-gô (2004)",
    "repository": "kara.moe",
    "tid": "5339e6a7-5e2c-4f4c-8620-d923d8968a4c",
    "types": [
      "series",
      "1"
    ]
  }
}