{
  "header": {
    "description": "Karaoke Mugen Tag File",
    "version": 1
  },
  "tag": {
    "i18n": {
      "eng": "Thanh Bui"
    },
    "name": "Thanh Bui",
    "repository": "kara.moe",
    "tid": "1d6428c8-fd6a-42ff-869f-18da2b36bcd0",
    "types": [
      "songwriters",
      "8"
    ]
  }
}