{
  "header": {
    "description": "Karaoke Mugen Tag File",
    "version": 1
  },
  "tag": {
    "i18n": {
      "eng": "The Sketchbook"
    },
    "modified_at": "2021-03-07T16:01:42.213Z",
    "name": "The Sketchbook",
    "repository": "kara.moe",
    "tid": "00db0116-ed02-4d3e-a42b-7b278acff1a5",
    "types": [
      "singers",
      "2",
      "songwriters",
      "8"
    ]
  }
}