{
  "header": {
    "description": "Karaoke Mugen Tag File",
    "version": 1
  },
  "tag": {
    "i18n": {
      "eng": "The Seatbelts"
    },
    "name": "The Seatbelts",
    "tid": "81e656ed-45bb-4d3f-9289-b1ce81d2ec3a",
    "types": [
      "singers",
      "2"
    ],
    "repository": "kara.moe",
    "modified_at": "2020-03-31T19:04:38.121Z"
  }
}