{
  "header": {
    "description": "Karaoke Mugen Tag File",
    "version": 1
  },
  "tag": {
    "i18n": {
      "eng": "THE BAND HAS NO NAME"
    },
    "name": "THE BAND HAS NO NAME",
    "tid": "89f811fa-3067-48b9-9979-47172f3c8f4f",
    "types": [
      "singers",
      "2"
    ],
    "repository": "kara.moe",
    "modified_at": "2020-03-31T19:04:38.089Z"
  }
}