{
  "header": {
    "description": "Karaoke Mugen Tag File",
    "version": 1
  },
  "tag": {
    "i18n": {
      "eng": "The Fratellis"
    },
    "modified_at": "2020-08-29T18:21:19.379Z",
    "name": "The Fratellis",
    "repository": "kara.moe",
    "tid": "799506d1-cc29-4419-a741-5f3471207456",
    "types": [
      "singers",
      "2",
      "songwriters",
      "8"
    ]
  }
}