{
  "header": {
    "description": "Karaoke Mugen Tag File",
    "version": 1
  },
  "tag": {
    "i18n": {
      "eng": "The Filthy Frank Show"
    },
    "modified_at": "2020-03-31T19:04:32.950Z",
    "name": "The Filthy Frank Show",
    "repository": "kara.moe",
    "tid": "3342b96c-41d6-41ad-ac06-2de273cf26e5",
    "types": [
      "series",
      "1"
    ]
  }
}