{
  "header": {
    "description": "Karaoke Mugen Tag File",
    "version": 1
  },
  "tag": {
    "i18n": {
      "eng": "The Vampire Dies in No Time"
    },
    "name": "The Vampire Dies in No Time",
    "repository": "kara.moe",
    "tid": "b4b8561e-b08a-4ffa-b5cd-a96b29e4dc8a",
    "types": [
      "franchises",
      "18"
    ]
  }
}