{
  "header": {
    "description": "Karaoke Mugen Tag File",
    "version": 1
  },
  "tag": {
    "i18n": {
      "eng": "The 50kaitenz"
    },
    "name": "The 50kaitenz",
    "tid": "e7f1e0fc-b6bc-4c88-98e1-b5f78594b569",
    "types": [
      "songwriters",
      "8",
      "singers",
      "2"
    ],
    "repository": "kara.moe",
    "modified_at": "2020-03-31T19:04:38.085Z"
  }
}