{
  "header": {
    "description": "Karaoke Mugen Tag File",
    "version": 1
  },
  "tag": {
    "i18n": {
      "eng": "The Longest Johns"
    },
    "modified_at": "2021-10-21T18:42:35.621Z",
    "name": "The Longest Johns",
    "repository": "kara.moe",
    "tid": "4edf2bd7-7181-4712-bc29-1cf6adb71b8d",
    "types": [
      "singers",
      "2"
    ]
  }
}