{
  "header": {
    "description": "Karaoke Mugen Tag File",
    "version": 1
  },
  "tag": {
    "aliases": [
      "ALBW",
      "Zelda 3DS"
    ],
    "i18n": {
      "jpn": "ゼルダの伝説 神々のトライフォース2",
      "qro": "The Legend of Zelda: A Link Between Worlds"
    },
    "modified_at": "2020-03-31T19:04:32.960Z",
    "name": "The Legend of Zelda: A Link Between Worlds",
    "repository": "kara.moe",
    "tid": "c41efbbb-90f2-4c65-b539-88efc2e5aedb",
    "types": [
      "series",
      "1"
    ]
  }
}