{
  "header": {
    "description": "Karaoke Mugen Tag File",
    "version": 1
  },
  "tag": {
    "i18n": {
      "eng": "The Warsaw Philharmonic Orchestra & Chorus"
    },
    "modified_at": "2020-11-27T22:33:51.957Z",
    "name": "The Warsaw Philharmonic Orchestra & Chorus",
    "repository": "kara.moe",
    "tid": "ad1ede7a-09ff-4ef1-a547-5c201e78fe43",
    "types": [
      "singers",
      "2"
    ]
  }
}