{
  "header": {
    "description": "Karaoke Mugen Tag File",
    "version": 1
  },
  "tag": {
    "i18n": {
      "eng": "The Nagano Tapes"
    },
    "modified_at": "2021-05-27T22:56:49.359Z",
    "name": "The Nagano Tapes",
    "repository": "kara.moe",
    "tid": "882f9824-4c2b-45bc-adc7-1675b45eb81d",
    "types": [
      "series",
      "1"
    ]
  }
}