{
  "header": {
    "description": "Karaoke Mugen Tag File",
    "version": 1
  },
  "tag": {
    "i18n": {
      "eng": "The Yellow Monkey"
    },
    "name": "The Yellow Monkey",
    "tid": "f358698e-9299-458c-b1f3-aa957c03dc1a",
    "types": [
      "singers",
      "2"
    ],
    "repository": "kara.moe",
    "modified_at": "2020-03-31T19:04:38.127Z"
  }
}