{
  "header": {
    "description": "Karaoke Mugen Tag File",
    "version": 1
  },
  "tag": {
    "aliases": [
      "THERMÆ ROMÆ"
    ],
    "external_database_ids": {
      "anilist": 12321,
      "myanimelist": 12321,
      "kitsu": 6705
    },
    "i18n": {
      "eng": "Thermae Romae",
      "jpn": "テルマエ・ロマエ",
      "qro": "Thermae Romae"
    },
    "modified_at": "2020-03-31T19:04:32.974Z",
    "name": "Thermae Romae",
    "repository": "kara.moe",
    "tid": "e3221da6-9d3f-47d6-a0e6-30e5a5af03ff",
    "types": [
      "series",
      "1"
    ]
  }
}