{
  "header": {
    "description": "Karaoke Mugen Tag File",
    "version": 1
  },
  "tag": {
    "i18n": {
      "eng": "Three Graces"
    },
    "name": "Three Graces",
    "tid": "e7b84dd6-8b2c-405a-a7ff-e32400a211a4",
    "types": [
      "singers",
      "2"
    ],
    "repository": "kara.moe",
    "modified_at": "2020-03-31T19:04:38.132Z"
  }
}