{
  "header": {
    "description": "Karaoke Mugen Tag File",
    "version": 1
  },
  "tag": {
    "i18n": {
      "eng": "Thundray"
    },
    "modified_at": "2020-10-14T21:53:34.987Z",
    "name": "Thundray",
    "repository": "kara.moe",
    "tid": "3533386f-edf8-440d-82a4-e6a972ad56ac",
    "types": [
      "creators",
      "4"
    ]
  }
}