{
  "header": {
    "description": "Karaoke Mugen Tag File",
    "version": 1
  },
  "tag": {
    "i18n": {
      "eng": "ticat"
    },
    "name": "ticat",
    "repository": "kara.moe",
    "tid": "8326602c-48a0-41e8-b7ca-5a9cd9a27010",
    "types": [
      "songwriters",
      "8"
    ]
  }
}