{
  "header": {
    "description": "Karaoke Mugen Tag File",
    "version": 1
  },
  "tag": {
    "i18n": {
      "eng": "Timbaland"
    },
    "name": "Timbaland",
    "repository": "kara.moe",
    "tid": "f504fe26-41b9-4d05-9f94-fa7d32e6568c",
    "types": [
      "songwriters",
      "8",
      "singers",
      "2"
    ]
  }
}