{
  "header": {
    "description": "Karaoke Mugen Tag File",
    "version": 1
  },
  "tag": {
    "aliases": [
      "Toaru Kagaku no Choudenjihou S",
      "toaru s",
      "とある科学の超電磁砲S",
      "某科学的超电磁炮 S"
    ],
    "external_database_ids": {
      "anilist": 16049,
      "myanimelist": 16049,
      "kitsu": 7366
    },
    "i18n": {
      "eng": "A Certain Scientific Railgun S",
      "jpn": "とある科学の超電磁砲[レールガン]S",
      "kor": "어떤 과학의 초전자포 S",
      "per": "یک ریلگان علمی خاص اس",
      "qro": "To Aru Kagaku no Railgun S"
    },
    "modified_at": "2020-06-21T23:45:31.966Z",
    "name": "To Aru Kagaku no Railgun S",
    "repository": "kara.moe",
    "tid": "0f664169-7c63-4818-9406-6cf358239f62",
    "types": [
      "series",
      "1"
    ]
  }
}