{
  "header": {
    "description": "Karaoke Mugen Tag File",
    "version": 1
  },
  "tag": {
    "i18n": {
      "eng": "TO DESTINATION"
    },
    "name": "TO DESTINATION",
    "tid": "1a9e5011-43cf-4cd9-b286-b41d467624d9",
    "types": [
      "singers",
      "2"
    ],
    "repository": "kara.moe",
    "modified_at": "2020-03-31T19:04:38.151Z"
  }
}