{
  "header": {
    "description": "Karaoke Mugen Tag File",
    "version": 1
  },
  "tag": {
    "aliases": [
      "tlrd"
    ],
    "external_database_ids": {
      "anilist": 13663,
      "myanimelist": 13663,
      "kitsu": 7007
    },
    "i18n": {
      "eng": "To LOVE-Ru: Darkness",
      "fre": "To LOVE Darkness",
      "jpn": "To LOVEる -とらぶる- ダークネス",
      "qro": "To Love-Ru Darkness"
    },
    "modified_at": "2020-03-31T19:04:32.987Z",
    "name": "To Love-Ru Darkness",
    "repository": "kara.moe",
    "tid": "71b69a2f-60e5-4ab6-870b-f336df1d5f62",
    "types": [
      "series",
      "1"
    ]
  }
}