{
  "header": {
    "description": "Karaoke Mugen Tag File",
    "version": 1
  },
  "tag": {
    "aliases": [
      "Blood of the Reprimanded Hound",
      "Togainu no Chi: Bloody Curs"
    ],
    "external_database_ids": {
      "anilist": 8449,
      "myanimelist": 8449,
      "kitsu": 5339
    },
    "i18n": {
      "eng": "Togainu no Chi",
      "jpn": "咎狗の血",
      "qro": "Togainu no Chi"
    },
    "modified_at": "2020-03-31T19:04:32.989Z",
    "name": "Togainu no Chi",
    "repository": "kara.moe",
    "tid": "d2725732-d0b0-43d2-80e3-f040fa13aa45",
    "types": [
      "series",
      "1"
    ]
  }
}