{
  "header": {
    "description": "Karaoke Mugen Tag File",
    "version": 1
  },
  "tag": {
    "i18n": {
      "eng": "Toho"
    },
    "name": "Toho",
    "tid": "e924236c-76ce-4437-bdd8-2639d543c61a",
    "types": [
      "creators",
      "4"
    ],
    "repository": "kara.moe",
    "modified_at": "2020-03-31T19:04:38.156Z"
  }
}