{
  "header": {
    "description": "Karaoke Mugen Tag File",
    "version": 1
  },
  "tag": {
    "i18n": {
      "eng": "Tokiko Iwata"
    },
    "name": "Tokiko Iwata",
    "tid": "73c0c5e7-38e7-4f8d-87f0-b3115b172d0b",
    "types": [
      "songwriters",
      "8"
    ],
    "repository": "kara.moe",
    "modified_at": "2020-03-31T19:04:38.159Z"
  }
}