{
  "header": {
    "description": "Karaoke Mugen Tag File",
    "version": 1
  },
  "tag": {
    "i18n": {
      "eng": "Tokumei Sentai Yuzu Ranger"
    },
    "modified_at": "2021-04-09T12:11:26.096Z",
    "name": "Tokumei Sentai Yuzu Ranger",
    "repository": "kara.moe",
    "tid": "3175302b-8e1f-4f06-b270-435e408f4ce8",
    "types": [
      "series",
      "1"
    ]
  }
}