{
  "header": {
    "description": "Karaoke Mugen Tag File",
    "version": 1
  },
  "tag": {
    "i18n": {
      "eng": "Tokyo Kakurenbo"
    },
    "name": "Tokyo Kakurenbo",
    "tid": "e2d96536-f029-4de5-94f1-d372cd5cd07c",
    "types": [
      "songwriters",
      "8"
    ],
    "repository": "kara.moe",
    "modified_at": "2020-03-31T19:04:38.168Z"
  }
}