{
  "header": {
    "description": "Karaoke Mugen Tag File",
    "version": 1
  },
  "tag": {
    "external_database_ids": {
      "anilist": 117196,
      "myanimelist": 41589,
      "kitsu": 43098
    },
    "i18n": {
      "eng": "Tokyo Mew Mew New ♡",
      "jpn": "東京ミュウミュウ にゅ~♡"
    },
    "name": "Tokyo Mew Mew New ♡",
    "repository": "kara.moe",
    "tid": "98a618f2-c799-49e4-8726-719037ca595e",
    "types": [
      "series",
      "1"
    ]
  }
}