{
  "header": {
    "description": "Karaoke Mugen Tag File",
    "version": 1
  },
  "tag": {
    "aliases": [
      "Tokyo Kushu:re",
      "ghoul re"
    ],
    "external_database_ids": {
      "anilist": 100240,
      "myanimelist": 36511,
      "kitsu": 13929
    },
    "i18n": {
      "eng": "Tokyo Ghoul:Re",
      "jpn": "東京喰種[トーキョーグール]:re",
      "kor": "도쿄 구울: RE",
      "rus": "Токийский гуль:re",
      "qro": "Tokyo Ghoul:re"
    },
    "modified_at": "2020-03-31T19:04:33.000Z",
    "name": "Tokyo Ghoul:re",
    "repository": "kara.moe",
    "tid": "57427875-dd6b-4fa6-a463-f59b6a745a61",
    "types": [
      "series",
      "1"
    ]
  }
}