{
  "header": {
    "description": "Karaoke Mugen Tag File",
    "version": 1
  },
  "tag": {
    "i18n": {
      "eng": "Tom Mills"
    },
    "name": "Tom Mills",
    "repository": "kara.moe",
    "tid": "c962dd5e-76f7-4661-b63b-9733824e446e",
    "types": [
      "songwriters",
      "8"
    ]
  }
}