{
  "header": {
    "description": "Karaoke Mugen Tag File",
    "version": 1
  },
  "tag": {
    "i18n": {
      "eng": "TOM"
    },
    "name": "TOM",
    "tid": "7ea02a55-c999-4b25-8080-8b2828611fd8",
    "types": [
      "songwriters",
      "8"
    ],
    "repository": "kara.moe",
    "modified_at": "2020-03-31T19:04:38.176Z"
  }
}