{
  "header": {
    "description": "Karaoke Mugen Tag File",
    "version": 1
  },
  "tag": {
    "i18n": {
      "eng": "Tomato n Pine"
    },
    "name": "Tomato n Pine",
    "tid": "19dfb974-57f7-4542-8ddc-05cff6b32426",
    "types": [
      "singers",
      "2"
    ],
    "repository": "kara.moe",
    "modified_at": "2020-03-31T19:04:38.178Z"
  }
}