{
  "header": {
    "description": "Karaoke Mugen Tag File",
    "version": 1
  },
  "tag": {
    "i18n": {
      "eng": "Tomihiro Harada"
    },
    "modified_at": "2020-04-17T23:06:14.682Z",
    "name": "Tomihiro Harada",
    "repository": "kara.moe",
    "tid": "4c643a2a-1e23-4456-b938-63fe548529d6",
    "types": [
      "songwriters",
      "8"
    ]
  }
}