{
  "header": {
    "description": "Karaoke Mugen Tag File",
    "version": 1
  },
  "tag": {
    "i18n": {
      "eng": "Tommy Boy Records"
    },
    "modified_at": "2021-07-23T21:38:47.448Z",
    "name": "Tommy Boy Records",
    "repository": "kara.moe",
    "tid": "56ac0b1e-0cc6-4083-9456-9c12df4658ce",
    "types": [
      "creators",
      "4"
    ]
  }
}