{
  "header": {
    "description": "Karaoke Mugen Tag File",
    "version": 1
  },
  "tag": {
    "i18n": {
      "eng": "Tomokazu Yamada"
    },
    "name": "Tomokazu Yamada",
    "tid": "c6f679b1-a1e8-4ab2-80fa-5edf792440ce",
    "types": [
      "songwriters",
      "8"
    ],
    "repository": "kara.moe",
    "modified_at": "2020-03-31T19:04:38.202Z"
  }
}