{
  "header": {
    "description": "Karaoke Mugen Tag File",
    "version": 1
  },
  "tag": {
    "i18n": {
      "eng": "Tomoeda Gakkô Chorus Bu"
    },
    "name": "Tomoeda Gakkô Chorus Bu",
    "tid": "ad90e0c8-518d-4ae5-aecf-95c002c8082f",
    "types": [
      "singers",
      "2"
    ],
    "repository": "kara.moe",
    "modified_at": "2020-03-31T19:04:38.191Z"
  }
}