{
  "header": {
    "description": "Karaoke Mugen Tag File",
    "version": 1
  },
  "tag": {
    "i18n": {
      "jpn": "篠田 朋子",
      "qro": "Tomoko Shinoda"
    },
    "name": "Tomoko Shinoda",
    "repository": "kara.moe",
    "tid": "d37611ea-db81-4876-baf1-533c28387b77",
    "types": [
      "songwriters",
      "8"
    ]
  }
}