{
  "header": {
    "description": "Karaoke Mugen Tag File",
    "version": 1
  },
  "tag": {
    "i18n": {
      "eng": "Tomu Miyazaki"
    },
    "modified_at": "2020-05-10T13:27:39.818Z",
    "name": "Tomu Miyazaki",
    "repository": "kara.moe",
    "tid": "9b734d22-c039-4f2c-aede-c8a84136d242",
    "types": [
      "singers",
      "2"
    ]
  }
}