{
  "header": {
    "description": "Karaoke Mugen Tag File",
    "version": 1
  },
  "tag": {
    "aliases": [
      "Ichidou"
    ],
    "i18n": {
      "eng": "Ton Tokoton Staff Ichidô",
      "jpn": "とんとことんスタッフ一同",
      "qro": "Ton Tokoton Staff Ichidô"
    },
    "name": "Ton Tokoton Staff Ichidô",
    "repository": "kara.moe",
    "tid": "92e72910-286a-4f78-a936-a7d9a27d67bd",
    "types": [
      "singergroups",
      "17"
    ]
  }
}