{
  "header": {
    "description": "Karaoke Mugen Tag File",
    "version": 1
  },
  "tag": {
    "i18n": {
      "eng": "Tony Waddington"
    },
    "name": "Tony Waddington",
    "tid": "87391e23-45d1-4eac-8306-38207bda45e6",
    "types": [
      "songwriters",
      "8"
    ],
    "repository": "kara.moe",
    "modified_at": "2020-03-31T19:04:38.233Z"
  }
}