{
  "header": {
    "description": "Karaoke Mugen Tag File",
    "version": 1
  },
  "tag": {
    "i18n": {
      "eng": "Tooru Fuyuki"
    },
    "name": "Tooru Fuyuki",
    "tid": "b5a334cf-6f8d-499d-aaed-294d69f933bc",
    "types": [
      "songwriters",
      "8"
    ],
    "repository": "kara.moe",
    "modified_at": "2020-03-31T19:04:38.235Z"
  }
}