{
  "header": {
    "description": "Karaoke Mugen Tag File",
    "version": 1
  },
  "tag": {
    "i18n": {
      "eng": "Tooru Yamazaki"
    },
    "name": "Tooru Yamazaki",
    "tid": "fb42506e-9b6d-4807-9d8c-28caec4baed8",
    "types": [
      "songwriters",
      "8"
    ],
    "repository": "kara.moe",
    "modified_at": "2020-03-31T19:04:38.238Z"
  }
}