{
  "header": {
    "description": "Karaoke Mugen Tag File",
    "version": 1
  },
  "tag": {
    "aliases": [
      "Toriko: Jump Festa 2009 Special",
      "トリコ"
    ],
    "external_database_ids": {
      "anilist": 10033,
      "myanimelist": 10033,
      "kitsu": 6002
    },
    "i18n": {
      "bul": "Торико",
      "eng": "Toriko",
      "jpn": "トリコ (2011)",
      "qro": "Toriko"
    },
    "modified_at": "2020-03-31T19:04:33.011Z",
    "name": "Toriko",
    "repository": "kara.moe",
    "tid": "ea9416c1-2ae7-462a-973f-61e3f99654e2",
    "types": [
      "series",
      "1",
      "franchises",
      "18"
    ]
  }
}