{
  "header": {
    "description": "Karaoke Mugen Tag File",
    "version": 1
  },
  "tag": {
    "i18n": {
      "eng": "Toru Adachi"
    },
    "name": "Toru Adachi",
    "repository": "kara.moe",
    "tid": "cb6fd5d6-17dd-4773-818b-afe4d5c3b0d3",
    "types": [
      "singers",
      "2"
    ]
  }
}