{
  "header": {
    "description": "Karaoke Mugen Tag File",
    "version": 1
  },
  "tag": {
    "i18n": {
      "eng": "Tosao"
    },
    "name": "Tosao",
    "repository": "kara.moe",
    "tid": "480a2ea8-3206-4f32-a110-562d7c0c40a6",
    "types": [
      "creators",
      "4"
    ]
  }
}