{
  "header": {
    "description": "Karaoke Mugen Tag File",
    "version": 1
  },
  "tag": {
    "i18n": {
      "eng": "TOSE"
    },
    "name": "TOSE",
    "tid": "0c61dd80-693c-4e5e-8722-904354af5435",
    "types": [
      "creators",
      "4"
    ],
    "repository": "kara.moe",
    "modified_at": "2020-03-31T19:04:38.244Z"
  }
}