{
  "header": {
    "description": "Karaoke Mugen Tag File",
    "version": 1
  },
  "tag": {
    "i18n": {
      "eng": "Toshiyuki Kimori"
    },
    "name": "Toshiyuki Kimori",
    "tid": "a55eccc3-b1c5-4635-99df-d4955a494baf",
    "types": [
      "songwriters",
      "8"
    ],
    "repository": "kara.moe",
    "modified_at": "2020-03-31T19:04:38.266Z"
  }
}