{
  "header": {
    "description": "Karaoke Mugen Tag File",
    "version": 1
  },
  "tag": {
    "i18n": {
      "eng": "Toshiharu Umesaki"
    },
    "name": "Toshiharu Umesaki",
    "tid": "307a233f-606e-4971-9e90-8b1cd7077361",
    "types": [
      "songwriters",
      "8"
    ],
    "repository": "kara.moe",
    "modified_at": "2020-03-31T19:04:38.248Z"
  }
}