{
  "header": {
    "description": "Karaoke Mugen Tag File",
    "version": 1
  },
  "tag": {
    "aliases": [
      "Tottoko Hamtarou",
      "Tottoko Hamutaro",
      "Tottoko Hamutaro Dechu",
      "hamtarou"
    ],
    "external_database_ids": {
      "anilist": 508,
      "myanimelist": 508,
      "kitsu": 467
    },
    "i18n": {
      "ara": "هامتارو",
      "dan": "Hamtaro",
      "eng": "Hamtaro",
      "fre": "Hamtaro",
      "ger": "Hamtaro",
      "gre": "Χαμτάρο: Μικρά Χάμστερ, Μεγάλες Περιπέτειες",
      "heb": "המטארו",
      "jpn": "とっとこハム太郎",
      "pol": "Hamtaro - wielkie przygody małych chomików",
      "por": "Hamtaro - Pequenos Hamsters, Grandes Aventuras",
      "spa": "Hamtaro",
      "tha": "แฮมทาโร่ แก๊งจิ๋วผจญภัย",
      "qro": "Tottoko Hamtarô"
    },
    "modified_at": "2020-03-31T19:04:33.014Z",
    "name": "Tottoko Hamtarô",
    "repository": "kara.moe",
    "tid": "b856c1a7-ff98-452a-87b9-5c9691bbc704",
    "types": [
      "series",
      "1"
    ]
  }
}