{
  "header": {
    "description": "Karaoke Mugen Tag File",
    "version": 1
  },
  "tag": {
    "i18n": {
      "eng": "Touchstone Pictures"
    },
    "name": "Touchstone Pictures",
    "tid": "c37d85c4-c0b0-448a-b42c-5747e23de247",
    "types": [
      "creators",
      "4"
    ],
    "repository": "kara.moe",
    "modified_at": "2020-03-31T19:04:38.271Z"
  }
}