{
  "header": {
    "description": "Karaoke Mugen Tag File",
    "version": 1
  },
  "tag": {
    "i18n": {
      "eng": "Tôru Yamazaki"
    },
    "name": "Tôru Yamazaki",
    "tid": "c81a3592-d534-48b9-a1b4-f86750dd7bd0",
    "types": [
      "songwriters",
      "8"
    ],
    "repository": "kara.moe",
    "modified_at": "2020-03-31T19:04:38.279Z"
  }
}