{
  "header": {
    "description": "Karaoke Mugen Tag File",
    "version": 1
  },
  "tag": {
    "i18n": {
      "eng": "Tourbillon"
    },
    "name": "Tourbillon",
    "tid": "03356169-501f-477b-8ef7-232b71e5a4b0",
    "types": [
      "singers",
      "2"
    ],
    "repository": "kara.moe",
    "modified_at": "2020-03-31T19:04:38.276Z"
  }
}