{
  "header": {
    "description": "Karaoke Mugen Tag File",
    "version": 1
  },
  "tag": {
    "i18n": {
      "eng": "touwa"
    },
    "modified_at": "2021-08-16T22:57:42.774Z",
    "name": "touwa",
    "repository": "kara.moe",
    "tid": "43c44218-8b83-4c3f-98c1-59a773f1c0f7",
    "types": [
      "creators",
      "4"
    ]
  }
}