{
  "header": {
    "description": "Karaoke Mugen Tag File",
    "version": 1
  },
  "tag": {
    "i18n": {
      "eng": "Toyco"
    },
    "name": "Toyco",
    "repository": "kara.moe",
    "tid": "c108f4c0-aa53-4242-8377-aece81779bde",
    "types": [
      "songwriters",
      "8"
    ]
  }
}