{
  "header": {
    "description": "Karaoke Mugen Tag File",
    "version": 1
  },
  "tag": {
    "i18n": {
      "eng": "Trad."
    },
    "name": "Trad.",
    "repository": "kara.moe",
    "tid": "b12ca1f2-86c1-4db2-97b7-03246b273743",
    "types": [
      "songwriters",
      "8"
    ],
    "modified_at": "2020-03-31T19:04:38.281Z"
  }
}