{
  "header": {
    "description": "Karaoke Mugen Tag File",
    "version": 1
  },
  "tag": {
    "i18n": {
      "eng": "TRAX"
    },
    "name": "TRAX",
    "tid": "995d3319-a7d9-418f-aec7-1014a0b494a6",
    "types": [
      "singers",
      "2"
    ],
    "repository": "kara.moe",
    "modified_at": "2020-03-31T19:04:38.283Z"
  }
}