{
  "header": {
    "description": "Karaoke Mugen Tag File",
    "version": 1
  },
  "tag": {
    "i18n": {
      "eng": "Tri Yann"
    },
    "modified_at": "2020-08-16T15:41:24.514Z",
    "name": "Tri Yann",
    "repository": "kara.moe",
    "tid": "baee5502-eb90-44e6-9133-f402283bec96",
    "types": [
      "songwriters",
      "8",
      "singers",
      "2"
    ]
  }
}