{
  "header": {
    "description": "Karaoke Mugen Tag File",
    "version": 1
  },
  "tag": {
    "i18n": {
      "eng": "tri-Crescendo"
    },
    "name": "tri-Crescendo",
    "tid": "3e33454b-6a81-43a0-8cad-a85287c9b81b",
    "types": [
      "creators",
      "4"
    ],
    "repository": "kara.moe",
    "modified_at": "2020-03-31T19:04:38.286Z"
  }
}