{
  "header": {
    "description": "Karaoke Mugen Tag File",
    "version": 1
  },
  "tag": {
    "i18n": {
      "eng": "Trickstar"
    },
    "name": "Trickstar",
    "repository": "kara.moe",
    "tid": "4ed62be0-1894-46df-865f-d3b7a88bf2e9",
    "types": [
      "singergroups",
      "17"
    ]
  }
}