{
  "header": {
    "description": "Karaoke Mugen Tag File",
    "version": 1
  },
  "tag": {
    "i18n": {
      "eng": "TRIPLANE"
    },
    "name": "TRIPLANE",
    "tid": "09bbde2d-92ed-4ab8-a078-8324666dbaa2",
    "types": [
      "singers",
      "2",
      "songwriters",
      "8"
    ],
    "repository": "kara.moe",
    "modified_at": "2020-03-31T19:04:38.292Z"
  }
}