{
  "header": {
    "description": "Karaoke Mugen Tag File",
    "version": 1
  },
  "tag": {
    "i18n": {
      "eng": "Troye Sivan"
    },
    "name": "Troye Sivan",
    "repository": "kara.moe",
    "tid": "a183a857-47f0-4045-814d-734dbd002f81",
    "types": [
      "songwriters",
      "8"
    ]
  }
}