{
  "header": {
    "description": "Karaoke Mugen Tag File",
    "version": 1
  },
  "tag": {
    "i18n": {
      "eng": "TRY FORCE"
    },
    "name": "TRY FORCE",
    "tid": "db02cfe9-3ec6-425f-b5f0-cbce53dd04ea",
    "types": [
      "singers",
      "2",
      "songwriters",
      "8"
    ],
    "repository": "kara.moe",
    "modified_at": "2020-03-31T19:04:38.299Z"
  }
}