{
  "header": {
    "description": "Karaoke Mugen Tag File",
    "version": 1
  },
  "tag": {
    "aliases": [
      "Tsukimichi: Moonlit Fantasy"
    ],
    "external_database_ids": {
      "anilist": 125206,
      "myanimelist": 43523,
      "kitsu": 44297
    },
    "i18n": {
      "eng": "Tsukimichi -Moonlit Fantasy-",
      "jpn": "月が導く異世界道中",
      "qro": "Tsuki ga Michibiku Isekai Douchuu"
    },
    "modified_at": "2021-07-07T23:02:44.910Z",
    "name": "Tsuki ga Michibiku Isekai Douchuu",
    "repository": "kara.moe",
    "tid": "205e26fd-cb00-40fb-b0c1-369583f86312",
    "types": [
      "series",
      "1"
    ]
  }
}