{
  "header": {
    "description": "Karaoke Mugen Tag File",
    "version": 1
  },
  "tag": {
    "i18n": {
      "qro": "Tsukine Kona",
      "jpn": "月音 こな"
    },
    "name": "Tsukine Kona",
    "repository": "kara.moe",
    "tid": "e3d01809-fae7-4e97-bff3-73e4fc204ef3",
    "types": [
      "singers",
      "2"
    ]
  }
}