{
  "header": {
    "description": "Karaoke Mugen Tag File",
    "version": 1
  },
  "tag": {
    "i18n": {
      "eng": "Tsukasa Hamaguchi"
    },
    "name": "Tsukasa Hamaguchi",
    "tid": "5e1535aa-4a4c-4d72-8ada-629a6b648dd6",
    "types": [
      "songwriters",
      "8"
    ],
    "repository": "kara.moe",
    "modified_at": "2020-03-31T19:04:38.310Z"
  }
}