{
  "header": {
    "description": "Karaoke Mugen Tag File",
    "version": 1
  },
  "tag": {
    "i18n": {
      "jpn": "月詠み",
      "qro": "Tsukuyomi"
    },
    "name": "Tsukuyomi",
    "repository": "kara.moe",
    "tid": "bb7669b4-c791-46be-8e98-e7ff9709d73a",
    "types": [
      "singergroups",
      "17"
    ]
  }
}