{
  "header": {
    "description": "Karaoke Mugen Tag File",
    "version": 1
  },
  "tag": {
    "i18n": {
      "eng": "Tsutomu Kôno"
    },
    "name": "Tsutomu Kôno",
    "tid": "b4050646-0946-44e9-8a25-5c4de5ecba24",
    "types": [
      "songwriters",
      "8"
    ],
    "repository": "kara.moe",
    "modified_at": "2020-03-31T19:04:38.319Z"
  }
}