{
  "header": {
    "description": "Karaoke Mugen Tag File",
    "version": 1
  },
  "tag": {
    "i18n": {
      "eng": "U-ka"
    },
    "name": "U-ka",
    "tid": "bb7d887e-d04d-47bb-aff0-fbcdfa3e27eb",
    "types": [
      "songwriters",
      "8"
    ],
    "repository": "kara.moe",
    "modified_at": "2020-03-31T19:04:38.342Z"
  }
}