{
  "header": {
    "description": "Karaoke Mugen Tag File",
    "version": 1
  },
  "tag": {
    "i18n": {
      "eng": "U-ma"
    },
    "name": "U-ma",
    "tid": "480e8686-d397-4d20-9eef-ae5d29604704",
    "types": [
      "songwriters",
      "8"
    ],
    "repository": "kara.moe",
    "modified_at": "2020-03-31T19:04:38.343Z"
  }
}