{
  "header": {
    "description": "Karaoke Mugen Tag File",
    "version": 1
  },
  "tag": {
    "i18n": {
      "eng": "U-re:x"
    },
    "name": "U-re:x",
    "tid": "8ff9d82c-56e4-4262-be72-eaf48b8cb78f",
    "types": [
      "songwriters",
      "8"
    ],
    "repository": "kara.moe",
    "modified_at": "2020-03-31T19:04:38.344Z"
  }
}