{
  "header": {
    "description": "Karaoke Mugen Tag File",
    "version": 1
  },
  "tag": {
    "aliases": [
      "Space Battleship Yamato 2",
      "Space Battleship Yamato II",
      "Star Blazers 2",
      "Uchuu Senkan Yamato 2",
      "Uchuu Senkan Yamato II",
      "yamato2",
      "uchuu"
    ],
    "external_database_ids": {
      "anilist": 1651,
      "myanimelist": 1651,
      "kitsu": 1484
    },
    "i18n": {
      "ara": "نسور الفضاء: الجزء الثاني",
      "eng": "Star Blazers 2: The Comet Empire",
      "fre": "Space Battleship Yamato II",
      "ita": "Star Blazers 2 - The Comet Empire",
      "jpn": "宇宙戦艦ヤマト2",
      "qro": "Uchû Senkan Yamato II"
    },
    "modified_at": "2020-03-31T19:04:33.052Z",
    "name": "Uchû Senkan Yamato II",
    "repository": "kara.moe",
    "tid": "6734800a-cb68-477e-b09f-2fe1c357501b",
    "types": [
      "series",
      "1"
    ]
  }
}