{
  "header": {
    "description": "Karaoke Mugen Tag File",
    "version": 1
  },
  "tag": {
    "aliases": [
      "Cosmic Stellvia",
      "SotU",
      "Stellvia in Space",
      "Stellvia of the Universe",
      "UNS",
      "Uchuu no Stellvia",
      "su",
      "Космическая Стеллвия",
      "Стелвіа всесвіту",
      "宇宙的星路",
      "uchuu"
    ],
    "external_database_ids": {
      "anilist": 113,
      "myanimelist": 113,
      "kitsu": 92
    },
    "i18n": {
      "eng": "Stellvia",
      "fre": "Stellvia dans l'espace",
      "jpn": "宇宙のステルヴィア",
      "qro": "Uchû no Stellvia"
    },
    "modified_at": "2020-03-31T19:04:33.048Z",
    "name": "Uchû no Stellvia",
    "repository": "kara.moe",
    "tid": "2fbe9cd8-525b-4bc2-ad07-6cdcc20c00c3",
    "types": [
      "series",
      "1"
    ]
  }
}