{
  "header": {
    "description": "Karaoke Mugen Tag File",
    "version": 1
  },
  "tag": {
    "i18n": {
      "eng": "uchuu;"
    },
    "name": "uchuu;",
    "tid": "35253e2a-a01d-450d-b93b-c553371650ed",
    "types": [
      "singers",
      "2"
    ],
    "repository": "kara.moe",
    "modified_at": "2020-03-31T19:04:38.350Z"
  }
}