{
  "header": {
    "description": "Karaoke Mugen Tag File",
    "version": 1
  },
  "tag": {
    "aliases": [
      "Star Blazers",
      "Uchuu Senkan Yamato",
      "SBY",
      "USY"
    ],
    "i18n": {
      "eng": "Space Battleship Yamato",
      "jpn": "宇宙戦艦ヤマト",
      "qro": "Uchû Senkan Yamato"
    },
    "name": "Uchû Senkan Yamato",
    "repository": "kara.moe",
    "tid": "6589bb27-390b-4475-9dee-0a4817c57f98",
    "types": [
      "franchises",
      "18"
    ]
  }
}