{
  "header": {
    "description": "Karaoke Mugen Tag File",
    "version": 1
  },
  "tag": {
    "aliases": [
      "Uchuu Taitei God Sigma",
      "l'imperatore dello spazio",
      "uchuu"
    ],
    "external_database_ids": {
      "anilist": 4183,
      "myanimelist": 4183,
      "kitsu": 3507
    },
    "i18n": {
      "eng": "Space Emperor God Sigma",
      "jpn": "宇宙大帝 ゴッドシグマ",
      "qro": "Uchû Taitei God Sigma"
    },
    "modified_at": "2020-06-21T23:45:31.966Z",
    "name": "Uchû Taitei God Sigma",
    "repository": "kara.moe",
    "tid": "ed15ff45-4831-49f9-b69b-17397607644a",
    "types": [
      "series",
      "1"
    ]
  }
}