{
  "header": {
    "description": "Karaoke Mugen Tag File",
    "version": 1
  },
  "tag": {
    "i18n": {
      "eng": "UCO"
    },
    "name": "UCO",
    "tid": "ab8cfc4c-a4e2-4315-9e32-f48a03fb7869",
    "types": [
      "songwriters",
      "8"
    ],
    "repository": "kara.moe",
    "modified_at": "2020-03-31T19:04:38.351Z"
  }
}