{
  "header": {
    "description": "Karaoke Mugen Tag File",
    "version": 1
  },
  "tag": {
    "aliases": [
      "Umamusume"
    ],
    "i18n": {
      "eng": "Uma Musume: Pretty Derby - Road to the Top"
    },
    "name": "Uma Musume: Pretty Derby - Road to the Top",
    "repository": "kara.moe",
    "tid": "6092bf1e-d345-4690-ad09-5c067e6ea1c5",
    "types": [
      "series",
      "1"
    ]
  }
}