{
  "header": {
    "description": "Karaoke Mugen Tag File",
    "version": 1
  },
  "tag": {
    "i18n": {
      "eng": "Umi Sera"
    },
    "modified_at": "2020-05-14T00:25:26.883Z",
    "name": "Umi Sera",
    "repository": "kara.moe",
    "tid": "e98d3753-d5da-46f2-adac-b1ccbdc47c9a",
    "types": [
      "songwriters",
      "8"
    ]
  }
}