{
  "header": {
    "description": "Karaoke Mugen Tag File",
    "version": 1
  },
  "tag": {
    "external_database_ids": {
      "anilist": 2718,
      "myanimelist": 2718,
      "kitsu": 2479
    },
    "i18n": {
      "eng": "Triton of the Sea",
      "fre": "Triton",
      "gre": "Τρίτων, ο Βασιλιάς της Θάλασσας",
      "hun": "A csodálatos Triton",
      "ita": "Toriton",
      "jpn": "海のトリトン",
      "pol": "Tryton z Morza",
      "qro": "Umi no Triton"
    },
    "modified_at": "2020-03-31T19:04:33.070Z",
    "name": "Umi no Triton",
    "repository": "kara.moe",
    "tid": "92e1e651-4af3-4dea-8c1d-9401d01dfce1",
    "types": [
      "series",
      "1"
    ]
  }
}