{
  "header": {
    "description": "Karaoke Mugen Tag File",
    "version": 1
  },
  "tag": {
    "aliases": [
      "ungo",
      "因果日記",
      "安吾捕物帖"
    ],
    "external_database_ids": {
      "anilist": 10798,
      "myanimelist": 10798,
      "kitsu": 6353
    },
    "i18n": {
      "eng": "UN-GO",
      "fre": "Un-Go",
      "jpn": "UN-GO",
      "qro": "Un-Go"
    },
    "modified_at": "2020-03-31T19:04:33.074Z",
    "name": "Un-Go",
    "repository": "kara.moe",
    "tid": "95e8a295-14b4-4065-b466-4d395fe4a486",
    "types": [
      "series",
      "1"
    ]
  }
}