{
  "header": {
    "description": "Karaoke Mugen Tag File",
    "version": 1
  },
  "tag": {
    "i18n": {
      "eng": "Una Otomachi"
    },
    "name": "Una Otomachi",
    "repository": "kara.moe",
    "tid": "be2841ee-f113-40a3-afdf-e0c2b660b700",
    "types": [
      "singers",
      "2"
    ]
  }
}