{
  "header": {
    "description": "Karaoke Mugen Tag File",
    "version": 1
  },
  "tag": {
    "i18n": {
      "eng": "Una"
    },
    "name": "Una",
    "tid": "e3a96096-f69a-4716-8763-373dafa18a54",
    "types": [
      "singers",
      "2"
    ],
    "repository": "kara.moe",
    "modified_at": "2020-03-31T19:04:38.363Z"
  }
}