{
  "header": {
    "description": "Karaoke Mugen Tag File",
    "version": 1
  },
  "tag": {
    "i18n": {
      "eng": "UndreamedPanic"
    },
    "name": "UndreamedPanic",
    "repository": "kara.moe",
    "tid": "0f9ff3a8-53e0-41d5-9c55-9b95d9cff61b",
    "types": [
      "songwriters",
      "8"
    ]
  }
}