{
  "header": {
    "description": "Karaoke Mugen Tag File",
    "version": 1
  },
  "tag": {
    "i18n": {
      "eng": "Universal Pictures France"
    },
    "name": "Universal Pictures France",
    "repository": "kara.moe",
    "tid": "ee53c32e-f47c-4b1a-8619-f56f023f5547",
    "types": [
      "creators",
      "4"
    ]
  }
}