{
  "header": {
    "description": "Karaoke Mugen Tag File",
    "version": 1
  },
  "tag": {
    "i18n": {
      "eng": "Unshou Ishizuka"
    },
    "name": "Unshou Ishizuka",
    "tid": "571dd8c7-b9d8-4b00-8325-98570f4fad83",
    "types": [
      "singers",
      "2"
    ],
    "repository": "kara.moe",
    "modified_at": "2020-03-31T19:04:38.375Z"
  }
}