{
  "header": {
    "description": "Karaoke Mugen Tag File",
    "version": 1
  },
  "tag": {
    "i18n": {
      "eng": "Uru"
    },
    "name": "Uru",
    "tid": "cac81ee1-90e6-44c3-91bb-4bc5e976c85e",
    "types": [
      "songwriters",
      "8"
    ],
    "repository": "kara.moe",
    "modified_at": "2020-03-31T19:04:38.381Z"
  }
}