{
  "header": {
    "description": "Karaoke Mugen Tag File",
    "version": 1
  },
  "tag": {
    "aliases": [
      "Zagubiony Króliczek",
      "usadoro",
      "usadro",
      "Брошенная Зайка",
      "Брошенный кролик",
      "Изоставеното зайче",
      "Покинуте кроленя",
      "باران خرگوش",
      "قطرة الأرنب",
      "うさドロ"
    ],
    "external_database_ids": {
      "anilist": 10162,
      "myanimelist": 10162,
      "kitsu": 6060
    },
    "i18n": {
      "chi": "白兔糖",
      "eng": "Bunny Drop",
      "fre": "Un drôle de père",
      "jpn": "うさぎドロップ",
      "qro": "Usagi Drop"
    },
    "modified_at": "2020-03-31T19:04:33.080Z",
    "name": "Usagi Drop",
    "repository": "kara.moe",
    "tid": "d530e365-2b09-4e7e-ae1c-d8cd2b6af1a5",
    "types": [
      "series",
      "1"
    ]
  }
}