{
  "header": {
    "description": "Karaoke Mugen Tag File",
    "version": 1
  },
  "tag": {
    "i18n": {
      "eng": "V.W.P."
    },
    "name": "V.W.P.",
    "repository": "kara.moe",
    "tid": "21d3a7bd-6b38-45ba-a941-32306c34bac8",
    "types": [
      "singers",
      "2"
    ]
  }
}