{
  "header": {
    "description": "Karaoke Mugen Tag File",
    "version": 1
  },
  "tag": {
    "i18n": {
      "eng": "VALIS"
    },
    "name": "VALIS",
    "repository": "kara.moe",
    "tid": "d2fadd66-f0df-4272-b480-1bc9a1a696b3",
    "types": [
      "singergroups",
      "17"
    ]
  }
}