{
  "header": {
    "description": "Karaoke Mugen Tag File",
    "version": 1
  },
  "tag": {
    "i18n": {
      "eng": "Vanessa Hudgens"
    },
    "modified_at": "2020-07-05T20:42:48.721Z",
    "name": "Vanessa Hudgens",
    "repository": "kara.moe",
    "tid": "152cc20a-ff2b-4c67-b3ec-8e1d26867368",
    "types": [
      "singers",
      "2"
    ]
  }
}