{
  "header": {
    "description": "Karaoke Mugen Tag File",
    "version": 1
  },
  "tag": {
    "i18n": {
      "eng": "Vaykte"
    },
    "name": "Vaykte",
    "repository": "kara.moe",
    "tid": "5b7a2e7c-6d18-4330-897a-590dc0afd5d1",
    "types": [
      "authors",
      "6"
    ]
  }
}