{
  "header": {
    "description": "Karaoke Mugen Tag File",
    "version": 1
  },
  "tag": {
    "i18n": {
      "eng": "Village People"
    },
    "modified_at": "2020-07-11T23:25:21.350Z",
    "name": "Village People",
    "repository": "kara.moe",
    "tid": "48aef073-a051-4ab7-ac9c-25107473d382",
    "types": [
      "singers",
      "2"
    ]
  }
}