{
  "header": {
    "description": "Karaoke Mugen Tag File",
    "version": 1
  },
  "tag": {
    "i18n": {
      "eng": "Vince Nantes"
    },
    "name": "Vince Nantes",
    "repository": "kara.moe",
    "tid": "49cef8b8-1447-4ab9-83cd-d511414954d5",
    "types": [
      "songwriters",
      "8"
    ]
  }
}