{
  "header": {
    "description": "Karaoke Mugen Tag File",
    "version": 1
  },
  "tag": {
    "i18n": {
      "eng": "Vincent Heden"
    },
    "name": "Vincent Heden",
    "repository": "kara.moe",
    "tid": "5c9cb117-3de9-48e4-b1ae-4b9eb8cfe35c",
    "types": [
      "singers",
      "2"
    ]
  }
}