{
  "header": {
    "description": "Karaoke Mugen Tag File",
    "version": 1
  },
  "tag": {
    "i18n": {
      "eng": "Vini Poncia"
    },
    "name": "Vini Poncia",
    "repository": "kara.moe",
    "tid": "edcef23f-340c-44ae-ada0-c88c25e222a7",
    "types": [
      "songwriters",
      "8"
    ]
  }
}