{
  "header": {
    "description": "Karaoke Mugen Tag File",
    "version": 1
  },
  "tag": {
    "external_database_ids": {
      "anilist": 136430,
      "kitsu": 44875,
      "myanimelist": 49387
    },
    "i18n": {
      "eng": "Vinland Saga Season 2",
      "jpn": "ヴィンランド・サガ SEASON2"
    },
    "name": "Vinland Saga Season 2",
    "repository": "kara.moe",
    "tid": "d4e084d2-c61e-474f-b13e-e97c089a896a",
    "types": [
      "series",
      "1"
    ]
  }
}