{
  "header": {
    "description": "Karaoke Mugen Tag File",
    "version": 1
  },
  "tag": {
    "external_database_ids": {},
    "i18n": {
      "eng": "Vivid BAD SQUAD"
    },
    "name": "Vivid BAD SQUAD",
    "repository": "kara.moe",
    "tid": "e1de7634-8683-4738-9dfb-a66121ec36c5",
    "types": [
      "singergroups",
      "17"
    ]
  }
}