{
  "header": {
    "description": "Karaoke Mugen Tag File",
    "version": 1
  },
  "tag": {
    "i18n": {
      "eng": "VIVINOS"
    },
    "name": "VIVINOS",
    "repository": "kara.moe",
    "tid": "59c7f586-ffa8-4460-86e6-51abd5668d93",
    "types": [
      "creators",
      "4"
    ]
  }
}