{
  "header": {
    "description": "Karaoke Mugen Tag File",
    "version": 1
  },
  "tag": {
    "i18n": {
      "eng": "Vocal Shop"
    },
    "name": "Vocal Shop",
    "tid": "79a5f91f-be2b-44da-a9f8-8d50d77252c5",
    "types": [
      "singers",
      "2"
    ],
    "repository": "kara.moe",
    "modified_at": "2020-03-31T19:04:38.423Z"
  }
}