{
  "header": {
    "description": "Karaoke Mugen Tag File",
    "version": 1
  },
  "tag": {
    "i18n": {
      "eng": "Volodia"
    },
    "name": "Volodia",
    "repository": "kara.moe",
    "tid": "9f5f3ff9-e254-41af-9e98-36ee29840b47",
    "types": [
      "authors",
      "6"
    ]
  }
}