{
  "header": {
    "description": "Karaoke Mugen Tag File",
    "version": 1
  },
  "tag": {
    "i18n": {
      "eng": "vvvf319001"
    },
    "name": "vvvf319001",
    "repository": "kara.moe",
    "tid": "ff04eb1a-88de-4feb-aea3-9748fd98ca3f",
    "types": [
      "creators",
      "4"
    ]
  }
}