{
  "header": {
    "description": "Karaoke Mugen Tag File",
    "version": 1
  },
  "tag": {
    "i18n": {
      "eng": "w-inds."
    },
    "name": "w-inds.",
    "tid": "6547e448-7336-4731-9233-293f5efb3a65",
    "types": [
      "singers",
      "2"
    ],
    "repository": "kara.moe",
    "modified_at": "2020-03-31T19:04:38.431Z"
  }
}