{
  "header": {
    "description": "Karaoke Mugen Tag File",
    "version": 1
  },
  "tag": {
    "external_database_ids": {
      "anilist": 136119,
      "myanimelist": 49285,
      "kitsu": 44814
    },
    "i18n": {
      "eng": "Waccha PriMagi!",
      "jpn": "ワッチャプリマジ！ ",
      "qro": "Waccha PriMagi!"
    },
    "modified_at": "2021-10-20T16:32:13.394Z",
    "name": "Waccha PriMagi!",
    "repository": "kara.moe",
    "tid": "17d6a2c1-aff7-4674-8ab2-84579f621ff2",
    "types": [
      "series",
      "1"
    ]
  }
}