{
  "header": {
    "description": "Karaoke Mugen Tag File",
    "version": 1
  },
  "tag": {
    "i18n": {
      "eng": "WaiHon"
    },
    "name": "WaiHon",
    "repository": "kara.moe",
    "tid": "2a0b1cb8-1c7e-4af9-848b-66273b5458d0",
    "types": [
      "authors",
      "6"
    ]
  }
}