{
  "header": {
    "description": "Karaoke Mugen Tag File",
    "version": 1
  },
  "tag": {
    "aliases": [
      "Planet Robo Danguard Ace",
      "Planetary Robot Danguard Ace"
    ],
    "external_database_ids": {
      "anilist": 1986,
      "myanimelist": 1986,
      "kitsu": 1788
    },
    "i18n": {
      "eng": "Force Five: Dangard Ace",
      "fre": "Danguard : La Conquête des Planètes",
      "ita": "Danguard",
      "jpn": "惑星ロボ ダンガードA[エース]",
      "qro": "Wakusei Robo Danguard Ace"
    },
    "modified_at": "2020-03-31T19:04:33.111Z",
    "name": "Wakusei Robo Danguard Ace",
    "repository": "kara.moe",
    "tid": "76d24f6a-7c35-4ce3-8c3d-db1a15c29d64",
    "types": [
      "series",
      "1"
    ]
  }
}