{
  "header": {
    "description": "Karaoke Mugen Tag File",
    "version": 1
  },
  "tag": {
    "i18n": {
      "eng": "Walter Afanasieff"
    },
    "name": "Walter Afanasieff",
    "tid": "926183b4-3088-46cd-afb6-ff1f36fbc841",
    "types": [
      "songwriters",
      "8"
    ],
    "repository": "kara.moe",
    "modified_at": "2020-03-31T19:04:38.441Z"
  }
}