{
  "header": {
    "description": "Karaoke Mugen Tag File",
    "version": 1
  },
  "tag": {
    "i18n": {
      "eng": "Walt Disney Records"
    },
    "name": "Walt Disney Records",
    "tid": "68aadcb2-d66b-458f-bc95-d6ffb82b6729",
    "types": [
      "creators",
      "4"
    ],
    "repository": "kara.moe",
    "modified_at": "2020-03-31T19:04:38.440Z"
  }
}