{
  "header": {
    "description": "Karaoke Mugen Tag File",
    "version": 1
  },
  "tag": {
    "aliases": [
      "Wand of Fortune ~Prologue to the Future~",
      "WoF"
    ],
    "i18n": {
      "eng": "Wand of Fortune ~Mirai e no Prologue~",
      "jpn": "ワンド オブ フォーチュン ～未来へのプロローグ～",
      "qro": "Wand of Fortune ~Mirai e no Prologue~"
    },
    "modified_at": "2020-03-31T19:04:33.115Z",
    "name": "Wand of Fortune ~Mirai e no Prologue~",
    "repository": "kara.moe",
    "tid": "f89e0bdb-d882-44c1-b31b-e02bfd08f265",
    "types": [
      "series",
      "1"
    ]
  }
}