{
  "header": {
    "description": "Karaoke Mugen Tag File",
    "version": 1
  },
  "tag": {
    "i18n": {
      "eng": "Wang Xiaoqian"
    },
    "modified_at": "2021-06-19T21:19:47.937Z",
    "name": "Wang Xiaoqian",
    "repository": "kara.moe",
    "tid": "6b4479f9-2931-4015-a196-6a09ec6a1a02",
    "types": [
      "songwriters",
      "8"
    ]
  }
}