{
  "header": {
    "description": "Karaoke Mugen Tag File",
    "version": 1
  },
  "tag": {
    "i18n": {
      "eng": "Wanwan, Moomoo, Usausa, Koon!",
      "jpn": "わんわん、もーもー、うさうさ、こーん！",
      "qro": "Wanwan Moomoo Usausa Koon!"
    },
    "modified_at": "2020-03-31T19:04:33.117Z",
    "name": "Wanwan Moomoo Usausa Koon!",
    "repository": "kara.moe",
    "tid": "589cb222-bc07-4cf1-9275-1fe842acff97",
    "types": [
      "series",
      "1"
    ]
  }
}