{
  "header": {
    "description": "Karaoke Mugen Tag File",
    "version": 1
  },
  "tag": {
    "aliases": [
      "Bagaimanapun Juga Aku Tidak Populer Karena Salah Kalian Semua!",
      "It's Not My Fault That I'm Not Popular!",
      "Popüler Olmamam Nasıl Düşünürsem Düşüneyim Sizin Suçunuz!",
      "Watamote",
      "Watashi ga Motenai no wa Dou Kangaetemo Omaera ga Warui!",
      "Ваша е вината че не съм популярна!",
      "هر جور نگاه کنی، طرفدار نداشتن من تقصیر شماها است!",
      "dou"
    ],
    "external_database_ids": {
      "anilist": 16742,
      "myanimelist": 16742,
      "kitsu": 7504
    },
    "i18n": {
      "chi": "我不受欢迎, 怎么想都是你们的错!",
      "eng": "Watamote: No Matter How I Look at It, It's You Guys' Fault I'm Not Popular!",
      "jpn": "私がモテないのはどう考えてもお前らが悪い!",
      "qro": "Watashi ga Motenai no wa Dô Kangaete mo Omaera ga Warui!"
    },
    "modified_at": "2020-03-31T19:04:33.119Z",
    "name": "Watashi ga Motenai no wa Dô Kangaete mo Omaera ga Warui!",
    "repository": "kara.moe",
    "tid": "7aec77d9-dc4e-4fac-bd36-aeb9ad9587ed",
    "types": [
      "series",
      "1"
    ]
  }
}