{
  "header": {
    "description": "Karaoke Mugen Tag File",
    "version": 1
  },
  "tag": {
    "i18n": {
      "eng": "Wataru Komada"
    },
    "name": "Wataru Komada",
    "tid": "67a15f6e-419f-4dae-a239-76648fa39fe5",
    "types": [
      "singers",
      "2"
    ],
    "repository": "kara.moe",
    "modified_at": "2020-03-31T19:04:38.451Z"
  }
}