{
  "header": {
    "description": "Karaoke Mugen Tag File",
    "version": 1
  },
  "tag": {
    "i18n": {
      "eng": "Wataru Maeguchi"
    },
    "name": "Wataru Maeguchi",
    "tid": "8b81caa3-a4fb-4621-b8a1-5887a8311e93",
    "types": [
      "songwriters",
      "8"
    ],
    "repository": "kara.moe",
    "modified_at": "2020-03-31T19:04:38.452Z"
  }
}