{
  "header": {
    "description": "Karaoke Mugen Tag File",
    "version": 1
  },
  "tag": {
    "i18n": {
      "eng": "Wataru Urata"
    },
    "name": "Wataru Urata",
    "tid": "7c40ca67-7f67-4beb-ae74-de290715e985",
    "types": [
      "singers",
      "2"
    ],
    "repository": "kara.moe",
    "modified_at": "2020-03-31T19:04:38.456Z"
  }
}