{
  "header": {
    "description": "Karaoke Mugen Tag File",
    "version": 1
  },
  "tag": {
    "i18n": {
      "eng": "WEAVER"
    },
    "name": "WEAVER",
    "tid": "cb910a76-97dd-4793-942f-8ac2f8dc8aff",
    "types": [
      "singers",
      "2"
    ],
    "repository": "kara.moe",
    "modified_at": "2020-03-31T19:04:38.459Z"
  }
}