{
  "header": {
    "description": "Karaoke Mugen Tag File",
    "version": 1
  },
  "tag": {
    "i18n": {
      "eng": "WHITE FOX"
    },
    "name": "WHITE FOX",
    "tid": "01b5630b-d291-4ad5-a781-2cb717804d18",
    "types": [
      "creators",
      "4"
    ],
    "repository": "kara.moe",
    "modified_at": "2020-03-31T19:04:38.464Z"
  }
}