{
  "header": {
    "description": "Karaoke Mugen Tag File",
    "version": 1
  },
  "tag": {
    "i18n": {
      "eng": "William Geslin"
    },
    "modified_at": "2020-07-03T22:05:25.579Z",
    "name": "William Geslin",
    "repository": "kara.moe",
    "tid": "7a6bf717-4b76-48a2-9e9c-8a9bf382da31",
    "types": [
      "songwriters",
      "8"
    ]
  }
}