{
  "header": {
    "description": "Karaoke Mugen Tag File",
    "version": 1
  },
  "tag": {
    "i18n": {
      "eng": "Will Stetson"
    },
    "name": "Will Stetson",
    "repository": "kara.moe",
    "tid": "88356aee-1a9a-4b1b-bd47-fdafb1c3bdf0",
    "types": [
      "creators",
      "4",
      "singers",
      "2"
    ]
  }
}