{
  "header": {
    "description": "Karaoke Mugen Tag File",
    "version": 1
  },
  "tag": {
    "i18n": {
      "eng": "WIXOSS"
    },
    "name": "WIXOSS",
    "repository": "kara.moe",
    "tid": "c2813a88-51f8-4e42-8957-e33d8455809b",
    "types": [
      "franchises",
      "18"
    ]
  }
}