{
  "header": {
    "description": "Karaoke Mugen Tag File",
    "version": 1
  },
  "tag": {
    "aliases": [
      "My Holy Weapon"
    ],
    "external_database_ids": {
      "anilist": 101919,
      "myanimelist": 37564,
      "kitsu": 41095
    },
    "i18n": {
      "eng": "Wǒ De Nì Tiān Shénqì",
      "chi": "我的逆天神器"
    },
    "modified_at": "2021-03-13T17:47:44.517Z",
    "name": "Wǒ De Nì Tiān Shénqì",
    "repository": "kara.moe",
    "tid": "55595344-df2f-4231-9fc2-393c6c8d55f0",
    "types": [
      "series",
      "1"
    ]
  }
}