{
  "header": {
    "description": "Karaoke Mugen Tag File",
    "version": 1
  },
  "tag": {
    "i18n": {
      "eng": "Wolfsbane"
    },
    "modified_at": "2021-10-15T22:05:25.503Z",
    "name": "Wolfsbane",
    "repository": "kara.moe",
    "tid": "a4946de0-e996-4b56-bf04-3b6737d15e47",
    "types": [
      "creators",
      "4"
    ]
  }
}