{
  "header": {
    "description": "Karaoke Mugen Tag File",
    "version": 1
  },
  "tag": {
    "aliases": [
      "Kater"
    ],
    "i18n": {
      "eng": "Wolpis Carter",
      "qro": "Wolpis Carter",
      "jpn": "ウォルピスカーター"
    },
    "name": "Wolpis Carter",
    "repository": "kara.moe",
    "tid": "d43adf80-9e0c-4c9e-8f89-a40a6c2b6ede",
    "types": [
      "singers",
      "2"
    ]
  }
}