{
  "header": {
    "description": "Karaoke Mugen Tag File",
    "version": 1
  },
  "tag": {
    "aliases": [
      "WEP"
    ],
    "external_database_ids": {
      "anilist": 124845,
      "myanimelist": 43299,
      "kitsu": 43620
    },
    "i18n": {
      "eng": "Wonder Egg Priority",
      "jpn": "ワンダーエッグ・プライオリティ",
      "qro": "Wonder Egg Priority"
    },
    "modified_at": "2021-02-12T19:52:07.523Z",
    "name": "Wonder Egg Priority",
    "repository": "kara.moe",
    "tid": "82223725-e35e-4b2d-b4d4-98ddb14ac798",
    "types": [
      "series",
      "1"
    ]
  }
}