{
  "header": {
    "description": "Karaoke Mugen Tag File",
    "version": 1
  },
  "tag": {
    "external_database_ids": {
      "anilist": 127400,
      "myanimelist": 44940,
      "kitsu": 44396
    },
    "i18n": {
      "eng": "World Trigger 3rd Season",
      "jpn": "ワールドトリガー 3rdシーズン"
    },
    "name": "World Trigger 3rd Season",
    "repository": "kara.moe",
    "tid": "2fc9cec6-c7f8-4e5f-b91c-e690ec5f924d",
    "types": [
      "series",
      "1"
    ]
  }
}