{
  "header": {
    "description": "Karaoke Mugen Tag File",
    "version": 1
  },
  "tag": {
    "i18n": {
      "eng": "Wotamin"
    },
    "modified_at": "2020-04-30T22:53:17.124Z",
    "name": "Wotamin",
    "repository": "kara.moe",
    "tid": "d7249fb1-cc5e-4fcd-87b8-d8bd8add9a4c",
    "types": [
      "singers",
      "2"
    ]
  }
}