{
  "header": {
    "description": "Karaoke Mugen Tag File",
    "version": 1
  },
  "tag": {
    "i18n": {
      "eng": "Wozis"
    },
    "name": "Wozis",
    "repository": "kara.moe",
    "tid": "03cd67c1-4c1e-47f6-a64d-71df51ad32c9",
    "types": [
      "authors",
      "6"
    ]
  }
}