{
  "header": {
    "description": "Karaoke Mugen Tag File",
    "version": 1
  },
  "tag": {
    "i18n": {
      "eng": "ωstar"
    },
    "name": "wstar",
    "repository": "kara.moe",
    "tid": "834c4d43-1dc4-4617-a470-70a3367f45ac",
    "types": [
      "creators",
      "4"
    ]
  }
}