{
  "header": {
    "description": "Karaoke Mugen Tag File",
    "version": 1
  },
  "tag": {
    "i18n": {
      "eng": "WWE Superstars"
    },
    "modified_at": "2020-07-16T16:29:38.146Z",
    "name": "WWE Superstars",
    "repository": "kara.moe",
    "tid": "d2f34f37-e9e4-4d86-9bf2-5f212aab4726",
    "types": [
      "singers",
      "2"
    ]
  }
}