{
  "header": {
    "description": "Karaoke Mugen Tag File",
    "version": 1
  },
  "tag": {
    "i18n": {
      "eng": "XIIX"
    },
    "modified_at": "2021-04-13T17:59:45.812Z",
    "name": "XIIX",
    "repository": "kara.moe",
    "tid": "a0d88b82-6c40-43de-9bdf-5acc730e08cf",
    "types": [
      "singers",
      "2"
    ]
  }
}