{
  "header": {
    "description": "Karaoke Mugen Tag File",
    "version": 1
  },
  "tag": {
    "i18n": {
      "eng": "Xinglian Film and Television"
    },
    "name": "Xinglian Film and Television",
    "repository": "kara.moe",
    "tid": "69affcfb-d736-4fb0-82d0-a9c8cd1d9410",
    "types": [
      "creators",
      "4"
    ]
  }
}