{
  "header": {
    "description": "Karaoke Mugen Tag File",
    "version": 1
  },
  "tag": {
    "i18n": {
      "eng": "y@suo ohtani"
    },
    "name": "y@suo ohtani",
    "tid": "bbf4aec1-b49d-49b7-81a0-fc70605fabeb",
    "types": [
      "songwriters",
      "8"
    ],
    "repository": "kara.moe",
    "modified_at": "2020-03-31T19:04:38.496Z"
  }
}