{
  "header": {
    "description": "Karaoke Mugen Tag File",
    "version": 1
  },
  "tag": {
    "i18n": {
      "jpn": "ヤマドリ",
      "qro": "Yamadori"
    },
    "modified_at": "2020-05-24T14:45:34.884Z",
    "name": "Yamadori",
    "repository": "kara.moe",
    "tid": "860df963-981a-4844-8daa-ac63947b4ea7",
    "types": [
      "creators",
      "4"
    ]
  }
}