{
  "header": {
    "description": "Karaoke Mugen Tag File",
    "version": 1
  },
  "tag": {
    "i18n": {
      "eng": "Yan Ning"
    },
    "name": "Yan Ning",
    "repository": "kara.moe",
    "tid": "5cbdbf78-534a-4b7e-95d4-052a77255a4d",
    "types": [
      "singers",
      "2"
    ]
  }
}