{
  "header": {
    "description": "Karaoke Mugen Tag File",
    "version": 1
  },
  "tag": {
    "i18n": {
      "eng": "Yann Ligner"
    },
    "name": "Yann Ligner",
    "repository": "kara.moe",
    "tid": "87ac27cf-80d2-4826-a998-6d5160c2b687",
    "types": [
      "singers",
      "2"
    ]
  }
}