{
  "header": {
    "description": "Karaoke Mugen Tag File",
    "version": 1
  },
  "tag": {
    "i18n": {
      "eng": "Yassie"
    },
    "name": "Yassie",
    "tid": "193e40b1-2a60-420b-ab8e-41a2eef9bf9c",
    "types": [
      "songwriters",
      "8"
    ],
    "repository": "kara.moe",
    "modified_at": "2020-03-31T19:04:38.514Z"
  }
}