{
  "header": {
    "description": "Karaoke Mugen Tag File",
    "version": 1
  },
  "tag": {
    "i18n": {
      "eng": "Yasuo-P",
      "jpn": "ヤスオP"
    },
    "name": "Yasuo-P",
    "repository": "kara.moe",
    "tid": "4f29843c-abe4-48d5-b160-8bcc19668db6",
    "types": [
      "songwriters",
      "8"
    ]
  }
}