{
  "header": {
    "description": "Karaoke Mugen Tag File",
    "version": 1
  },
  "tag": {
    "i18n": {
      "eng": "Yasuha",
      "jpn": "泰葉",
      "qro": "Yasuha"
    },
    "name": "Yasuha",
    "repository": "kara.moe",
    "tid": "844104cf-c8b5-4483-a377-4e6fc96b0971",
    "types": [
      "singers",
      "2",
      "songwriters",
      "8"
    ]
  }
}