{
  "header": {
    "description": "Karaoke Mugen Tag File",
    "version": 1
  },
  "tag": {
    "i18n": {
      "eng": "Yasushi Nakamura"
    },
    "name": "Yasushi Nakamura",
    "tid": "2128b628-bf8a-4721-b623-799d19ca05d7",
    "types": [
      "songwriters",
      "8"
    ],
    "repository": "kara.moe",
    "modified_at": "2020-03-31T19:04:38.534Z"
  }
}