{
  "header": {
    "description": "Karaoke Mugen Tag File",
    "version": 1
  },
  "tag": {
    "i18n": {
      "eng": "Yasutaka Nakata"
    },
    "name": "Yasutaka Nakata",
    "tid": "7cb65c58-557f-44f1-8e19-1d78b85e064a",
    "types": [
      "songwriters",
      "8"
    ],
    "repository": "kara.moe",
    "modified_at": "2020-03-31T19:04:38.537Z"
  }
}