{
  "header": {
    "description": "Karaoke Mugen Tag File",
    "version": 1
  },
  "tag": {
    "i18n": {
      "eng": "Ying"
    },
    "name": "Ying",
    "repository": "kara.moe",
    "tid": "e265e004-54d5-4cdc-9f2c-b91e4663150a",
    "types": [
      "singers",
      "2"
    ]
  }
}