{
  "header": {
    "description": "Karaoke Mugen Tag File",
    "version": 1
  },
  "tag": {
    "i18n": {
      "eng": "YMCK"
    },
    "name": "YMCK",
    "tid": "5f77b765-8810-4fd7-b4ed-e554327aed91",
    "types": [
      "singers",
      "2"
    ],
    "repository": "kara.moe",
    "modified_at": "2020-03-31T19:04:38.547Z"
  }
}