{
  "header": {
    "description": "Karaoke Mugen Tag File",
    "version": 1
  },
  "tag": {
    "i18n": {
      "eng": "Yomi Kurone"
    },
    "modified_at": "2021-01-29T01:02:28.833Z",
    "name": "Yomi Kurone",
    "repository": "kara.moe",
    "tid": "a5af7ae4-c155-4bcb-913b-b37523cb7299",
    "types": [
      "singers",
      "2"
    ]
  }
}