{
  "header": {
    "description": "Karaoke Mugen Tag File",
    "version": 1
  },
  "tag": {
    "i18n": {
      "eng": "Yorico"
    },
    "name": "Yorico",
    "tid": "797bb5d8-80be-4aee-a2cb-d2c262c7627d",
    "types": [
      "singers",
      "2",
      "songwriters",
      "8"
    ],
    "repository": "kara.moe",
    "modified_at": "2020-03-31T19:04:38.565Z"
  }
}