{
  "header": {
    "description": "Karaoke Mugen Tag File",
    "version": 1
  },
  "tag": {
    "i18n": {
      "eng": "Yoshiyuki Tamiya"
    },
    "modified_at": "2021-03-31T21:50:05.438Z",
    "name": "Yoshiyuki Tamiya",
    "repository": "kara.moe",
    "tid": "451e1ae1-bdb0-4720-a90e-a364d264b997",
    "types": [
      "songwriters",
      "8"
    ]
  }
}