{
  "header": {
    "description": "Karaoke Mugen Tag File",
    "version": 1
  },
  "tag": {
    "i18n": {
      "eng": "Yoshihiko and the Seven Chosen Ones",
      "qro": "Yūsha Yoshihiko to Michibikareshi Shichinin",
      "jpn": "勇者ヨシヒコと導かれし七人"
    },
    "modified_at": "2021-12-04T23:59:14.232Z",
    "name": "Yoshihiko and the Seven Chosen Ones",
    "repository": "kara.moe",
    "tid": "d4dbcab7-6ec7-4465-a5c5-80ecde9ba523",
    "types": [
      "series",
      "1"
    ]
  }
}