{
  "header": {
    "description": "Karaoke Mugen Tag File",
    "version": 1
  },
  "tag": {
    "aliases": [
      "Youno"
    ],
    "i18n": {
      "eng": "Yoshimi Yôno",
      "jpn": "夕野 ヨシミ"
    },
    "name": "Yoshimi Yôno",
    "repository": "kara.moe",
    "tid": "1dae52a9-d1e0-447b-8dd3-cfd10119a3a8",
    "types": [
      "songwriters",
      "8"
    ]
  }
}