{
  "header": {
    "description": "Karaoke Mugen Tag File",
    "version": 1
  },
  "tag": {
    "i18n": {
      "eng": "Yoshinori Sunahara"
    },
    "name": "Yoshinori Sunahara",
    "tid": "a8c5c088-315e-41f8-b400-5f5e9ba166dd",
    "types": [
      "singers",
      "2",
      "songwriters",
      "8"
    ],
    "repository": "kara.moe",
    "modified_at": "2020-03-31T19:04:38.607Z"
  }
}