{
  "header": {
    "description": "Karaoke Mugen Tag File",
    "version": 1
  },
  "tag": {
    "i18n": {
      "eng": "Yoshimi Satô"
    },
    "name": "Yoshimi Satô",
    "tid": "b45d56e1-33c1-4bc0-a130-af18ce67ccfd",
    "types": [
      "songwriters",
      "8"
    ],
    "repository": "kara.moe",
    "modified_at": "2020-03-31T19:04:38.601Z"
  }
}