{
  "header": {
    "description": "Karaoke Mugen Tag File",
    "version": 1
  },
  "tag": {
    "i18n": {
      "eng": "Yoshikuni Dôchin"
    },
    "name": "Yoshikuni Dôchin",
    "tid": "d0814ae6-54df-440a-8227-7a1390e65e71",
    "types": [
      "songwriters",
      "8"
    ],
    "repository": "kara.moe",
    "modified_at": "2020-03-31T19:04:38.597Z"
  }
}