{
  "header": {
    "description": "Karaoke Mugen Tag File",
    "version": 1
  },
  "tag": {
    "i18n": {
      "eng": "Yoshiaki Furuta"
    },
    "name": "Yoshiaki Furuta",
    "tid": "eab196a2-2bab-4879-83f3-802077f07c9e",
    "types": [
      "songwriters",
      "8"
    ],
    "repository": "kara.moe",
    "modified_at": "2020-03-31T19:04:38.569Z"
  }
}