{
  "header": {
    "description": "Karaoke Mugen Tag File",
    "version": 1
  },
  "tag": {
    "i18n": {
      "eng": "Yosuke Kurokawa"
    },
    "modified_at": "2020-09-25T22:40:44.864Z",
    "name": "Yosuke Kurokawa",
    "repository": "kara.moe",
    "tid": "ecfe2847-68b3-4313-a83b-89032e94a8a5",
    "types": [
      "songwriters",
      "8"
    ]
  }
}