{
  "header": {
    "description": "Karaoke Mugen Tag File",
    "version": 1
  },
  "tag": {
    "external_database_ids": {
      "anilist": 8861,
      "myanimelist": 8861,
      "kitsu": 5513
    },
    "i18n": {
      "eng": "Yosuga no Sora",
      "jpn": "ヨスガノソラ In solitude, where we are least alone.",
      "qro": "Yosuga no Sora"
    },
    "modified_at": "2020-03-31T19:04:33.173Z",
    "name": "Yosuga no Sora",
    "repository": "kara.moe",
    "tid": "e684da31-6849-4505-9b2f-3e34220bb012",
    "types": [
      "series",
      "1"
    ]
  }
}