{
  "header": {
    "description": "Karaoke Mugen Tag File",
    "version": 1
  },
  "tag": {
    "i18n": {
      "eng": "Yōu māo UNEKO",
      "chi": "呦猫 UNEKO"
    },
    "modified_at": "2021-03-13T15:33:33.833Z",
    "name": "Yōu māo UNEKO",
    "repository": "kara.moe",
    "tid": "bc7ba537-f129-4dca-a908-a2aecd693f49",
    "types": [
      "singers",
      "2"
    ]
  }
}