{
  "header": {
    "description": "Karaoke Mugen Tag File",
    "version": 1
  },
  "tag": {
    "i18n": {
      "eng": "Yô Taichi"
    },
    "name": "Yô Taichi",
    "tid": "81a7fe79-c505-4113-aa6b-27a2af199da1",
    "types": [
      "singers",
      "2"
    ],
    "repository": "kara.moe",
    "modified_at": "2020-03-31T19:04:38.622Z"
  }
}