{
  "header": {
    "description": "Karaoke Mugen Tag File",
    "version": 1
  },
  "tag": {
    "aliases": [
      "Youhei Matsui"
    ],
    "i18n": {
      "eng": "Yôhei Matsui"
    },
    "name": "Yôhei Matsui",
    "repository": "kara.moe",
    "tid": "2171ee13-d4af-4a9c-8d59-dc098b4d3669",
    "types": [
      "songwriters",
      "8"
    ]
  }
}