{
  "header": {
    "description": "Karaoke Mugen Tag File",
    "version": 1
  },
  "tag": {
    "aliases": [
      "Youka"
    ],
    "i18n": {
      "eng": "Yôka",
      "jpn": "陽花",
      "qro": "Yôka"
    },
    "name": "Yôka",
    "repository": "kara.moe",
    "tid": "91787797-1203-4cf2-9a1f-d433f16cdd97",
    "types": [
      "singers",
      "2"
    ]
  }
}