{
  "header": {
    "description": "Karaoke Mugen Tag File",
    "version": 1
  },
  "tag": {
    "i18n": {
      "eng": "Yôko Maekawa"
    },
    "name": "Yôko Maekawa",
    "tid": "943cd1a6-87fd-437a-bf3f-8b37848481ed",
    "types": [
      "singers",
      "2"
    ],
    "repository": "kara.moe",
    "modified_at": "2020-03-31T19:04:38.645Z"
  }
}