{
  "header": {
    "description": "Karaoke Mugen Tag File",
    "version": 1
  },
  "tag": {
    "i18n": {
      "eng": "Yôko Obata"
    },
    "name": "Yôko Obata",
    "tid": "24066d36-4495-4970-bdd8-058916ffc8d9",
    "types": [
      "singers",
      "2"
    ],
    "repository": "kara.moe",
    "modified_at": "2020-03-31T19:04:38.648Z"
  }
}