{
  "header": {
    "description": "Karaoke Mugen Tag File",
    "version": 1
  },
  "tag": {
    "i18n": {
      "eng": "Youngstars"
    },
    "name": "Youngstars",
    "tid": "bd831786-acb7-4a14-9797-9bacb3047dc6",
    "types": [
      "singers",
      "2"
    ],
    "repository": "kara.moe",
    "modified_at": "2020-03-31T19:04:38.654Z"
  }
}