{
  "header": {
    "description": "Karaoke Mugen Tag File",
    "version": 1
  },
  "tag": {
    "i18n": {
      "eng": "Your Favorite Enemies"
    },
    "modified_at": "2020-04-13T18:38:40.126Z",
    "name": "Your Favorite Enemies",
    "repository": "kara.moe",
    "tid": "9bce08ea-df0b-4167-8b5f-2067bb634ef4",
    "types": [
      "singers",
      "2"
    ]
  }
}