{
  "header": {
    "description": "Karaoke Mugen Tag File",
    "version": 1
  },
  "tag": {
    "i18n": {
      "eng": "Yu Namba"
    },
    "name": "Yu Namba",
    "tid": "d4099cd7-a549-415f-b9bb-d4355677b63f",
    "types": [
      "songwriters",
      "8"
    ],
    "repository": "kara.moe",
    "modified_at": "2020-03-31T19:04:38.662Z"
  }
}