{
  "header": {
    "description": "Karaoke Mugen Tag File",
    "version": 1
  },
  "tag": {
    "i18n": {
      "eng": "YU+KI"
    },
    "name": "YU+KI",
    "tid": "1824e95e-8894-4b88-94ef-1940a459172d",
    "types": [
      "singers",
      "2",
      "songwriters",
      "8"
    ],
    "repository": "kara.moe",
    "modified_at": "2020-03-31T19:04:38.662Z"
  }
}