{
  "header": {
    "description": "Karaoke Mugen Tag File",
    "version": 1
  },
  "tag": {
    "aliases": [
      "Yu-Gi-Oh! Bonds Beyond Time Abridged"
    ],
    "i18n": {
      "eng": "Yu-Gi-Oh! The Abridged Movie"
    },
    "name": "Yu-Gi-Oh! The Abridged Movie",
    "repository": "kara.moe",
    "tid": "5d59585f-527f-4822-b408-e4749bd76509",
    "types": [
      "series",
      "1"
    ]
  }
}