{
  "header": {
    "description": "Karaoke Mugen Tag File",
    "version": 1
  },
  "tag": {
    "aliases": [
      "YGO",
      "yugiou",
      "yugioh",
      "Duel Monsters"
    ],
    "i18n": {
      "jpn": "遊☆戯☆王",
      "qro": "Yu-Gi-Oh!"
    },
    "name": "Yu-Gi-Oh!",
    "repository": "kara.moe",
    "tid": "e6b60e16-dac4-4bc2-8c7d-b80a4422fc3a",
    "types": [
      "franchises",
      "18"
    ]
  }
}