{
  "header": {
    "description": "Karaoke Mugen Tag File",
    "version": 1
  },
  "tag": {
    "i18n": {
      "eng": "Yu"
    },
    "name": "Yu",
    "tid": "7b1d86f4-4210-4cc8-a0ee-bb5af8b563c2",
    "types": [
      "songwriters",
      "8"
    ],
    "repository": "kara.moe",
    "modified_at": "2020-03-31T19:04:38.665Z"
  }
}