{
  "header": {
    "description": "Karaoke Mugen Tag File",
    "version": 1
  },
  "tag": {
    "i18n": {
      "eng": "Yue Mochizuki"
    },
    "name": "Yue Mochizuki",
    "tid": "e950172d-14c8-43df-8204-afb566dc69ee",
    "types": [
      "songwriters",
      "8"
    ],
    "repository": "kara.moe",
    "modified_at": "2020-03-31T19:04:38.668Z"
  }
}