{
  "header": {
    "description": "Karaoke Mugen Tag File",
    "version": 1
  },
  "tag": {
    "i18n": {
      "eng": "Yuichi Murata "
    },
    "name": "Yuichi Murata ",
    "repository": "kara.moe",
    "tid": "dca3e2a3-34ed-4ee5-b6f3-6d208f9d90c1",
    "types": [
      "songwriters",
      "8"
    ]
  }
}