{
  "header": {
    "description": "Karaoke Mugen Tag File",
    "version": 1
  },
  "tag": {
    "i18n": {
      "eng": "Yukari Aono"
    },
    "name": "Yukari Aono",
    "tid": "54ff9c3a-fb8c-4a59-ad40-f44ef74394f6",
    "types": [
      "songwriters",
      "8"
    ],
    "repository": "kara.moe",
    "modified_at": "2020-03-31T19:04:38.697Z"
  }
}