{
  "header": {
    "description": "Karaoke Mugen Tag File",
    "version": 1
  },
  "tag": {
    "i18n": {
      "eng": "Yuka Terasaki"
    },
    "modified_at": "2020-08-19T15:39:26.389Z",
    "name": "Yuka Terasaki",
    "repository": "kara.moe",
    "tid": "f9741708-1c24-41d4-846c-430b7cf0b6ca",
    "types": [
      "singers",
      "2"
    ]
  }
}