{
  "header": {
    "description": "Karaoke Mugen Tag File",
    "version": 1
  },
  "tag": {
    "i18n": {
      "qro": "Yuka Nishio",
      "jpn": "西尾 夕香"
    },
    "name": "Yuka Nishio",
    "repository": "kara.moe",
    "tid": "dea0c2ef-1a43-44eb-9249-c098e1ccc4cf",
    "types": [
      "singers",
      "2"
    ]
  }
}