{
  "header": {
    "description": "Karaoke Mugen Tag File",
    "version": 1
  },
  "tag": {
    "i18n": {
      "eng": "Yuka Otsubo"
    },
    "modified_at": "2021-08-22T11:44:39.770Z",
    "name": "Yuka Otsubo",
    "repository": "kara.moe",
    "tid": "9393c972-742e-4745-ae3f-49e5279e2092",
    "types": [
      "singers",
      "2"
    ]
  }
}