{
  "header": {
    "description": "Karaoke Mugen Tag File",
    "version": 1
  },
  "tag": {
    "i18n": {
      "eng": "Yuka Takeuchi"
    },
    "name": "Yuka Takeuchi",
    "tid": "7e25652f-1807-490e-bb42-cf3ef77826a3",
    "types": [
      "singers",
      "2"
    ],
    "repository": "kara.moe",
    "modified_at": "2020-03-31T19:04:38.693Z"
  }
}