{
  "header": {
    "description": "Karaoke Mugen Tag File",
    "version": 1
  },
  "tag": {
    "i18n": {
      "eng": "Yuke's"
    },
    "name": "Yuke's",
    "tid": "60c72451-4bf9-4137-9d20-6d01361c02bc",
    "types": [
      "creators",
      "4"
    ],
    "repository": "kara.moe",
    "modified_at": "2020-03-31T19:04:38.702Z"
  }
}