{
  "header": {
    "description": "Karaoke Mugen Tag File",
    "version": 1
  },
  "tag": {
    "i18n": {
      "eng": "Yukihiro Takahashi"
    },
    "name": "Yukihiro Takahashi",
    "tid": "e7caa0bc-9cee-4820-84fe-2a220d1c4670",
    "types": [
      "songwriters",
      "8"
    ],
    "repository": "kara.moe",
    "modified_at": "2020-03-31T19:04:38.720Z"
  }
}