{
  "header": {
    "description": "Karaoke Mugen Tag File",
    "version": 1
  },
  "tag": {
    "i18n": {
      "eng": "Yuki Isoya"
    },
    "name": "Yuki Isoya",
    "tid": "af27609e-2c3e-48d3-a8bd-9c7862243c81",
    "types": [
      "songwriters",
      "8"
    ],
    "repository": "kara.moe",
    "modified_at": "2020-03-31T19:04:38.706Z"
  }
}