{
  "header": {
    "description": "Karaoke Mugen Tag File",
    "version": 1
  },
  "tag": {
    "i18n": {
      "eng": "Yuki Kajiura"
    },
    "name": "Yuki Kajiura",
    "tid": "1f324dc7-f858-415b-bbc1-41fcce3d6ac7",
    "types": [
      "songwriters",
      "8"
    ],
    "repository": "kara.moe",
    "modified_at": "2020-03-31T19:04:38.707Z"
  }
}