{
  "header": {
    "description": "Karaoke Mugen Tag File",
    "version": 1
  },
  "tag": {
    "i18n": {
      "eng": "Yuki Nara"
    },
    "name": "Yuki Nara",
    "tid": "ae4e45b4-3e5b-416f-baf2-734f053affd6",
    "types": [
      "songwriters",
      "8"
    ],
    "repository": "kara.moe",
    "modified_at": "2020-03-31T19:04:38.713Z"
  }
}