{
  "header": {
    "description": "Karaoke Mugen Tag File",
    "version": 1
  },
  "tag": {
    "i18n": {
      "eng": "Yuko Komiyama"
    },
    "name": "Yuko Komiyama",
    "tid": "acaa4336-3ef9-46f6-ad84-2e1b4459e318",
    "types": [
      "songwriters",
      "8"
    ],
    "repository": "kara.moe",
    "modified_at": "2020-03-31T19:04:38.730Z"
  }
}