{
  "header": {
    "description": "Karaoke Mugen Tag File",
    "version": 1
  },
  "tag": {
    "i18n": {
      "eng": "yuma saito"
    },
    "name": "yuma saito",
    "tid": "4bd89beb-17d4-4771-90ba-25c0bad873db",
    "types": [
      "creators",
      "4"
    ],
    "repository": "kara.moe",
    "modified_at": "2020-03-31T19:04:38.732Z"
  }
}