{
  "header": {
    "description": "Karaoke Mugen Tag File",
    "version": 1
  },
  "tag": {
    "aliases": [
      "Dream Warrior Wingman",
      "Wing Man"
    ],
    "external_database_ids": {
      "anilist": 3021,
      "myanimelist": 3021,
      "kitsu": 2729
    },
    "i18n": {
      "eng": "Dream Soldier Wing-Man",
      "fre": "Wingman",
      "ita": "Wingman il guerriero dei sogni",
      "jpn": "夢戦士ウイングマン",
      "qro": "Yume Senshi Wingman"
    },
    "modified_at": "2020-03-31T19:04:33.185Z",
    "name": "Yume Senshi Wingman",
    "repository": "kara.moe",
    "tid": "f54a8f0a-6f4c-490c-ac99-edeab3438b7b",
    "types": [
      "series",
      "1"
    ]
  }
}