{
  "header": {
    "description": "Karaoke Mugen Tag File",
    "version": 1
  },
  "tag": {
    "i18n": {
      "eng": "Yumemi Kujira"
    },
    "name": "Yumemi Kujira",
    "repository": "kara.moe",
    "tid": "d78dcc07-3a53-4869-b26d-2ecb0d14ea42",
    "types": [
      "songwriters",
      "8"
    ]
  }
}