{
  "header": {
    "description": "Karaoke Mugen Tag File",
    "version": 1
  },
  "tag": {
    "i18n": {
      "eng": "Yumi Kojima"
    },
    "name": "Yumi Kojima",
    "tid": "31129004-1b6c-4b58-b92d-726529b8db10",
    "types": [
      "songwriters",
      "8"
    ],
    "repository": "kara.moe",
    "modified_at": "2020-03-31T19:04:38.742Z"
  }
}