{
  "header": {
    "description": "Karaoke Mugen Tag File",
    "version": 1
  },
  "tag": {
    "i18n": {
      "eng": "Yumi Ito"
    },
    "modified_at": "2020-09-22T18:55:14.475Z",
    "name": "Yumi Ito",
    "repository": "kara.moe",
    "tid": "14d7119a-6b1d-44ae-95f2-2c36d6eb000e",
    "types": [
      "singers",
      "2"
    ]
  }
}