{
  "header": {
    "description": "Karaoke Mugen Tag File",
    "version": 1
  },
  "tag": {
    "i18n": {
      "eng": "Yuriko Fuchizaki"
    },
    "name": "Yuriko Fuchizaki",
    "tid": "a9d47736-e7e7-4895-9f04-0d599c65287c",
    "types": [
      "singers",
      "2"
    ],
    "repository": "kara.moe",
    "modified_at": "2020-03-31T19:04:38.768Z"
  }
}