{
  "header": {
    "description": "Karaoke Mugen Tag File",
    "version": 1
  },
  "tag": {
    "i18n": {
      "eng": "yurisa"
    },
    "modified_at": "2020-10-15T17:41:49.905Z",
    "name": "yurisa",
    "repository": "kara.moe",
    "tid": "18502921-a42e-4d6e-bba7-a0deab6b1161",
    "types": [
      "singers",
      "2"
    ]
  }
}