{
  "header": {
    "description": "Karaoke Mugen Tag File",
    "version": 1
  },
  "tag": {
    "external_database_ids": {
      "anilist": 21709,
      "myanimelist": 32995,
      "kitsu": 11999
    },
    "i18n": {
      "eng": "Yuri!!! on ICE",
      "jpn": "ユーリ!!! on ICE",
      "qro": "Yuri!!! On Ice"
    },
    "modified_at": "2020-03-31T19:04:33.188Z",
    "name": "Yuri!!! On Ice",
    "repository": "kara.moe",
    "tid": "ad6d7a65-626d-4ee8-b0ac-4558a2fc3b60",
    "types": [
      "series",
      "1"
    ]
  }
}