{
  "header": {
    "description": "Karaoke Mugen Tag File",
    "version": 1
  },
  "tag": {
    "i18n": {
      "eng": "Yuriko Yamamoto"
    },
    "name": "Yuriko Yamamoto",
    "tid": "d4df66c6-ae3e-41e3-b560-8cc39686f194",
    "types": [
      "singers",
      "2"
    ],
    "repository": "kara.moe",
    "modified_at": "2020-03-31T19:04:38.770Z"
  }
}