{
  "header": {
    "description": "Karaoke Mugen Tag File",
    "version": 1
  },
  "tag": {
    "i18n": {
      "eng": "Yuri Shiratori"
    },
    "modified_at": "2021-06-06T21:06:10.681Z",
    "name": "Yuri Shiratori",
    "repository": "kara.moe",
    "tid": "f0016d29-2631-4f30-9261-063e9012bdd7",
    "types": [
      "singers",
      "2"
    ]
  }
}