{
  "header": {
    "description": "Karaoke Mugen Tag File",
    "version": 1
  },
  "tag": {
    "i18n": {
      "eng": "Yuta Hashimoto"
    },
    "name": "Yuta Hashimoto",
    "tid": "fb271412-c967-46a8-9024-baf7d429bb1d",
    "types": [
      "songwriters",
      "8"
    ],
    "repository": "kara.moe",
    "modified_at": "2020-03-31T19:04:38.774Z"
  }
}