{
  "header": {
    "description": "Karaoke Mugen Tag File",
    "version": 1
  },
  "tag": {
    "aliases": [
      "yuu"
    ],
    "i18n": {
      "qro": "Yû Serizawa",
      "jpn": "芹澤 優"
    },
    "name": "Yû Serizawa",
    "repository": "kara.moe",
    "tid": "5d3e8ad0-0315-423b-a6cf-4ebed7ad5093",
    "types": [
      "singers",
      "2"
    ]
  }
}