{
  "header": {
    "description": "Karaoke Mugen Tag File",
    "version": 1
  },
  "tag": {
    "i18n": {
      "eng": "Yûgo Sasakura"
    },
    "name": "Yûgo Sasakura",
    "tid": "6dd7d29f-acf1-4635-a95e-b3b5fead7686",
    "types": [
      "songwriters",
      "8"
    ],
    "repository": "kara.moe",
    "modified_at": "2020-03-31T19:04:38.788Z"
  }
}