{
  "header": {
    "description": "Karaoke Mugen Tag File",
    "version": 1
  },
  "tag": {
    "i18n": {
      "eng": "Yûji Koseki"
    },
    "name": "Yûji Koseki",
    "tid": "d474c2d3-186e-4262-aa46-b2a2dcf527b4",
    "types": [
      "songwriters",
      "8"
    ],
    "repository": "kara.moe",
    "modified_at": "2020-03-31T19:04:38.796Z"
  }
}