{
  "header": {
    "description": "Karaoke Mugen Tag File",
    "version": 1
  },
  "tag": {
    "aliases": [
      "Yuuko Satou"
    ],
    "i18n": {
      "eng": "Yûko Satô"
    },
    "modified_at": "2021-03-08T20:17:07.600Z",
    "name": "Yûko Satô",
    "repository": "kara.moe",
    "tid": "9d4c2dd2-239a-499e-9452-7cf838198fa7",
    "types": [
      "singers",
      "2"
    ]
  }
}