{
  "header": {
    "description": "Karaoke Mugen Tag File",
    "version": 1
  },
  "tag": {
    "i18n": {
      "eng": "Yûki Tedokon"
    },
    "name": "Yûki Tedokon",
    "tid": "e81170fb-fdbf-4442-934c-6f2319c7dd89",
    "types": [
      "singers",
      "2"
    ],
    "repository": "kara.moe",
    "modified_at": "2020-03-31T19:04:38.817Z"
  }
}