{
  "header": {
    "description": "Karaoke Mugen Tag File",
    "version": 1
  },
  "tag": {
    "aliases": [
      "GGGF GGG",
      "Gaogaigar Final TV",
      "Yuusha-Oh GaoGaiGar Final Grand Glorious Gathering",
      "yuusha"
    ],
    "external_database_ids": {
      "anilist": 4416,
      "myanimelist": 4416,
      "kitsu": 3600
    },
    "i18n": {
      "eng": "GaoGaiGar Final Grand Glorious Gathering",
      "jpn": "勇者王ガオガイガーFINAL Grand Glorious Gathering",
      "qro": "Yûsha Ou GaoGaiGar FINAL Grand Glorious Gathering"
    },
    "modified_at": "2021-05-17T21:00:44.398Z",
    "name": "Yûsha Ou GaoGaiGar FINAL Grand Glorious Gathering",
    "repository": "kara.moe",
    "tid": "db3805f5-b9b6-4d39-91eb-db8bc3b057dd",
    "types": [
      "series",
      "1"
    ]
  }
}