{
  "header": {
    "description": "Karaoke Mugen Tag File",
    "version": 1
  },
  "tag": {
    "i18n": {
      "eng": "Yûsuke Yoshida"
    },
    "name": "Yûsuke Yoshida",
    "tid": "a935d4af-fb06-4c2a-8f41-36a089608d3b",
    "types": [
      "songwriters",
      "8"
    ],
    "repository": "kara.moe",
    "modified_at": "2020-03-31T19:04:38.842Z"
  }
}