{
  "header": {
    "description": "Karaoke Mugen Tag File",
    "version": 1
  },
  "tag": {
    "aliases": [
      "Youzo Ootsuka"
    ],
    "i18n": {
      "eng": "Yûzo Ootsuka"
    },
    "modified_at": "2020-07-17T15:39:35.070Z",
    "name": "Yûzo Ootsuka",
    "repository": "kara.moe",
    "tid": "00a69447-14ab-4809-81df-09b475314ac8",
    "types": [
      "songwriters",
      "8"
    ]
  }
}