{
  "header": {
    "description": "Karaoke Mugen Tag File",
    "version": 1
  },
  "tag": {
    "i18n": {
      "eng": "yuxuki waga"
    },
    "name": "yuxuki waga",
    "tid": "20e1a1f2-a3f9-44b9-85e6-a0e3370e84ef",
    "types": [
      "songwriters",
      "8"
    ],
    "repository": "kara.moe",
    "modified_at": "2020-03-31T19:04:38.854Z"
  }
}