{
  "header": {
    "description": "Karaoke Mugen Tag File",
    "version": 1
  },
  "tag": {
    "aliases": [
      "Yuyushiki OVA"
    ],
    "external_database_ids": {
      "anilist": 98344,
      "myanimelist": 33035,
      "kitsu": 12141
    },
    "i18n": {
      "eng": "Yuyushiki: Komarasetari, Komarasaretari",
      "jpn": "ゆゆ式 OVA『困らせたり、困らされたり』 ",
      "qro": "Yuyushiki: Komarasetari Komarasaretari"
    },
    "modified_at": "2020-06-21T23:45:31.966Z",
    "name": "Yuyushiki: Komarasetari Komarasaretari",
    "repository": "kara.moe",
    "tid": "97196e04-3d34-45bb-b500-59e93081790e",
    "types": [
      "series",
      "1"
    ]
  }
}