{
  "header": {
    "description": "Karaoke Mugen Tag File",
    "version": 1
  },
  "tag": {
    "i18n": {
      "qro": "Yuzuki Yukari",
      "jpn": "結月ゆかり"
    },
    "name": "Yuzuki Yukari",
    "repository": "kara.moe",
    "tid": "5b741b20-ce61-4c9d-bc56-4c726cb64e68",
    "types": [
      "singers",
      "2"
    ]
  }
}