{
  "header": {
    "description": "Karaoke Mugen Tag File",
    "version": 1
  },
  "tag": {
    "i18n": {
      "eng": "ZackStrife"
    },
    "modified_at": "2020-08-12T15:53:42.508Z",
    "name": "ZackStrife",
    "repository": "kara.moe",
    "tid": "52ef4c0e-1be9-4d45-b24d-ea9d760ddd0e",
    "types": [
      "creators",
      "4"
    ]
  }
}