{
  "header": {
    "description": "Karaoke Mugen Tag File",
    "version": 1
  },
  "tag": {
    "i18n": {
      "eng": "Zagora"
    },
    "name": "Zagora",
    "repository": "kara.moe",
    "tid": "b43357de-7dde-4c33-a89e-2fe9b31bd7af",
    "types": [
      "creators",
      "4"
    ]
  }
}