{
  "header": {
    "description": "Karaoke Mugen Tag File",
    "version": 1
  },
  "tag": {
    "i18n": {
      "eng": "Zaken Kim"
    },
    "name": "Zaken Kim",
    "repository": "kara.moe",
    "tid": "9ecdd3ce-be89-44a5-ad60-a39da8fb2798",
    "types": [
      "creators",
      "4"
    ]
  }
}