{
  "header": {
    "description": "Karaoke Mugen Tag File",
    "version": 1
  },
  "tag": {
    "i18n": {
      "eng": "Zakuro Motoki"
    },
    "name": "Zakuro Motoki",
    "tid": "82b453d7-f342-4ec2-9e72-f42773730e78",
    "types": [
      "songwriters",
      "8",
      "singers",
      "2"
    ],
    "repository": "kara.moe",
    "modified_at": "2020-03-31T19:04:38.863Z"
  }
}