{
  "header": {
    "description": "Karaoke Mugen Tag File",
    "version": 1
  },
  "tag": {
    "aliases": [
      "SZS S3",
      "Sayonara Zetsubou Sensei 3",
      "Zan Sayonara Zetsubou Sensei",
      "szs4",
      "忏·再见!绝望老师",
      "懺·再見絕望先生",
      "zetsubou-sensei"
    ],
    "external_database_ids": {
      "anilist": 7044,
      "myanimelist": 7044,
      "kitsu": 4847
    },
    "i18n": {
      "eng": "Goodbye Mr. Despair ‒ 3rd Season (OVA)",
      "fre": "Sayonara Monsieur Désespoir (saison 3 OVA)",
      "jpn": "懺さよなら絶望先生番外地",
      "qro": "Zan Sayonara Zetsubô-Sensei Bangaichi"
    },
    "name": "Zan Sayonara Zetsubô-Sensei Bangaichi",
    "repository": "kara.moe",
    "tid": "55c60e75-f699-475a-8065-b997ad3cacba",
    "types": [
      "series",
      "1"
    ]
  }
}