{
  "header": {
    "description": "Karaoke Mugen Tag File",
    "version": 1
  },
  "tag": {
    "i18n": {
      "eng": "Zane Medina Sosa"
    },
    "modified_at": "2020-08-19T15:39:26.448Z",
    "name": "Zane Medina Sosa",
    "repository": "kara.moe",
    "tid": "c7546c5e-b4d6-4854-be11-4c46c7372c9b",
    "types": [
      "authors",
      "6"
    ]
  }
}