{
  "header": {
    "description": "Karaoke Mugen Tag File",
    "version": 1
  },
  "tag": {
    "aliases": [
      "Zekkenya",
      "Sekken'ya"
    ],
    "i18n": {
      "eng": "Zekken'ya",
      "jpn": "ゼッケン屋",
      "qro": "Zekken'ya"
    },
    "name": "Zekken'ya",
    "repository": "kara.moe",
    "tid": "dc775738-b422-46a1-baf3-76f11d2080f7",
    "types": [
      "singers",
      "2",
      "songwriters",
      "8",
      "creators",
      "4"
    ]
  }
}