{
  "header": {
    "description": "Karaoke Mugen Tag File",
    "version": 1
  },
  "tag": {
    "i18n": {
      "eng": "Zephyrianna"
    },
    "name": "Zephyrianna",
    "repository": "kara.moe",
    "tid": "90cc6597-171e-4bd8-b05d-ceb04783a561",
    "types": [
      "singers",
      "2"
    ]
  }
}