{
  "header": {
    "description": "Karaoke Mugen Tag File",
    "version": 1
  },
  "tag": {
    "i18n": {
      "eng": "Zetton"
    },
    "name": "Zetton",
    "tid": "ee3056ec-20a1-4479-9b56-4521a2dcaae0",
    "types": [
      "songwriters",
      "8"
    ],
    "repository": "kara.moe",
    "modified_at": "2020-03-31T19:04:38.874Z"
  }
}