{
  "header": {
    "description": "Karaoke Mugen Tag File",
    "version": 1
  },
  "tag": {
    "i18n": {
      "eng": "ZIYANG YIP FILMS"
    },
    "name": "ZIYANG YIP FILMS",
    "tid": "6aab0247-df45-4eb2-9ab3-27375c8b4dab",
    "types": [
      "creators",
      "4"
    ],
    "repository": "kara.moe",
    "modified_at": "2020-03-31T19:04:38.880Z"
  }
}