{
  "header": {
    "description": "Karaoke Mugen Tag File",
    "version": 1
  },
  "tag": {
    "i18n": {
      "eng": "Zizz Studio"
    },
    "name": "Zizz Studio",
    "tid": "4fb8570c-c6f0-4248-94f8-37517604b2c4",
    "types": [
      "songwriters",
      "8"
    ],
    "repository": "kara.moe",
    "modified_at": "2020-03-31T19:04:38.882Z"
  }
}