{
  "header": {
    "description": "Karaoke Mugen Tag File",
    "version": 1
  },
  "tag": {
    "aliases": [
      "Zombie Land Saga Revenge",
      "Zombieland Saga Second Season",
      "Zombie Land Saga Second Season ",
      "Zombieland Saga 2",
      "Zombie Land Saga 2",
      "ゾンビランドサガ リベンジ"
    ],
    "external_database_ids": {
      "anilist": 110733,
      "myanimelist": 40174,
      "kitsu": 42467
    },
    "i18n": {
      "eng": "Zombieland Saga: Revenge",
      "jpn": "ゾンビランドサガ リベンジ",
      "qro": "Zombieland Saga: Revenge"
    },
    "modified_at": "2021-06-13T16:08:34.825Z",
    "name": "Zombieland Saga: Revenge",
    "repository": "kara.moe",
    "tid": "7710df0b-8906-4282-9f59-3ef39c7accd5",
    "types": [
      "series",
      "1"
    ]
  }
}