{
  "header": {
    "description": "Karaoke Mugen Tag File",
    "version": 1
  },
  "tag": {
    "aliases": [
      "ZOE"
    ],
    "i18n": {
      "eng": "Zone of the Enders ‒ HD Collection",
      "jpn": "Zone of the Enders ‒ HD Collection",
      "qro": "Zone of the Enders HD Collection"
    },
    "modified_at": "2020-03-31T19:04:33.217Z",
    "name": "Zone of the Enders HD Collection",
    "repository": "kara.moe",
    "tid": "08c54b4b-5f67-434f-b845-050d975f4e55",
    "types": [
      "series",
      "1"
    ]
  }
}