{
  "header": {
    "description": "Karaoke Mugen Tag File",
    "version": 1
  },
  "tag": {
    "i18n": {
      "eng": "Zuo Er Cong Dong"
    },
    "name": "Zuo Er Cong Dong",
    "repository": "kara.moe",
    "tid": "6f32ca2e-5f0f-4840-b5d3-efc3dcb31bf0",
    "types": [
      "songwriters",
      "8"
    ]
  }
}