{
  "header": {
    "description": "Karaoke Mugen Tag File",
    "version": 1
  },
  "tag": {
    "i18n": {
      "fre": "Pas de contenu linguistique",
      "eng": "No linguistic content"
    },
    "name": "zxx",
    "tid": "51e68bf8-01ab-4210-8e1f-26cbf2bd68be",
    "types": [
      "langs",
      "5"
    ],
    "repository": "kara.moe",
    "modified_at": "2020-03-31T19:04:38.888Z"
  }
}